0.02291594 0.01520242
0.02268816 0.01453334
0.02246013 0.01384365
0.02223240 0.01380342
0.02200486 0.01424364
0.02177737 0.01546305
0.02154981 0.01658527
0.02132203 0.01790749
0.02109392 0.01922408
0.02086539 0.02014985
0.02063644 0.02041663
0.02040724 0.02005564
0.02017793 0.01936988
0.01994866 0.01880715
0.01971955 0.01879073
0.01949053 0.01944060
0.01926146 0.02133345
0.01903221 0.02268445
0.01880265 0.02378837
0.01857280 0.02432115
0.01834275 0.02426291
0.01811258 0.02371288
0.01788236 0.02276982
0.01765214 0.02153213
0.01742197 0.01936706
0.01719192 0.01790930
0.01696207 0.01716371
0.01673274 0.01845489
0.01650345 0.01992784
0.01627392 0.02135698
0.01604417 0.02252267
0.01581422 0.02350707
0.01558411 0.02540304
0.01535385 0.02611847
0.01512347 0.02675606
0.01489299 0.02733147
0.01466243 0.02785128
0.01443182 0.02832544
0.01420116 0.02876055
0.01397049 0.02916711
0.01373981 0.02955301
0.01350915 0.02991766
0.01327851 0.03026284
0.01304792 0.03223261
0.01281738 0.03251610
0.01258691 0.03278500
0.01235651 0.03303865
0.01212620 0.03328300
0.01189598 0.03351996
0.01166586 0.03375117
0.01143584 0.03398821
0.01120593 0.03422708
0.01097613 0.03446961
0.01074645 0.03471611
0.01051688 0.03496846
0.01028742 0.03522436
0.01005808 0.03826858
0.00982884 0.03853496
0.00959972 0.03880858
0.00937070 0.03909685
0.00914178 0.03942495
0.00891296 0.03980180
0.00868424 0.04023514
0.00845562 0.04070494
0.00822713 0.04121193
0.00799878 0.04177435
0.00777058 0.04238567
0.00754255 0.04788554
0.00731472 0.04855385
0.00708709 0.04933242
0.00685970 0.05002368
0.00663257 0.05142143
0.00640572 0.04569770
0.00617920 0.00015867
0.00595310 0.04858406
0.00565985 0.05410287
0.00536651 0.05571922
0.00507465 0.05687940
0.00478460 0.05770894
0.00449657 0.05844018
0.00421049 0.05931105
0.00392625 0.06052590
0.00364368 0.06215332
0.00336262 0.07173364
0.00308287 0.07567572
0.00280805 0.07644635
0.00254093 0.07458260
0.00228066 0.07366109
0.00202641 0.07412947
0.00177713 0.07618790
0.00153225 0.07962125
0.00129326 0.08424026
0.00106121 0.08914951
0.00084475 0.08877265
0.00064997 0.08512020
0.00047331 0.08577004
0.00031177 0.09298779
0.00018008 0.08966443
0.00007682 0.08768915
-0.00000677 0.08790115
-0.00004433 0.07924339
-0.00006737 0.07486197
-0.00005200 0.07012637
-0.00000980 0.06165886
0.00004906 0.05899784
0.00013594 0.04840017
0.00024690 0.03775450
0.00036164 0.03303281
0.00050395 0.02155339
0.00066121 0.00854638
0.00081698 0.00637467
0.00097573 0.00925996
0.00114458 0.00982918
0.00133022 0.00540253
0.00152880 -0.00026996
0.00173042 -0.00266157
0.00193653 -0.00319252
0.00214693 -0.00351083
0.00236140 -0.00352783
0.00257975 -0.00343654
0.00280177 -0.00332003
0.00302725 -0.00316238
0.00325601 -0.00303519
0.00348686 -0.00296185
0.00366790 -0.00292132
0.00385058 -0.00288948
0.00403483 -0.00286652
0.00422056 -0.00283359
0.00440770 -0.00283625
0.00459616 -0.00290291
0.00478589 -0.00302998
0.00497681 -0.00314529
0.00516885 -0.00314191
0.00536194 -0.00309474
0.00555602 -0.00357742
0.00575104 -0.00523063
0.00594692 -0.00807744
0.00614362 -0.01104663
0.00634107 -0.01309996
0.00653922 -0.01458626
0.00673803 -0.01579078
0.00693742 -0.01638029
0.00713738 -0.01617114
0.00733788 -0.01525356
0.00753893 -0.01392000
0.00774052 -0.01243409
0.00794264 -0.01092553
0.00814530 -0.00944505
0.00834848 -0.00799676
0.00855219 -0.00654555
0.00875642 -0.00506119
0.00896117 -0.00354046
0.00916643 -0.00198826
0.00937219 -0.00041580
0.00957846 0.00115111
0.00978523 0.00268414
0.00999250 0.00415932
0.01020026 0.00555674
0.01040850 0.00686582
0.01061723 0.00807863
0.01082644 0.00919414
0.01103613 0.01020914
0.01124628 0.01112372
0.01145690 0.01193704
0.01166798 0.01265302
0.01187952 0.01327527
0.01209151 0.01381082
0.01230395 0.01415594
0.01251684 0.01451106
0.01273017 0.01479641
0.01294393 0.01501589
0.01315812 0.01517596
0.01337274 0.01528225
0.01358778 0.01534064
0.01380324 0.01535669
0.01401911 0.01533464
0.01423540 0.01527786
0.01445208 0.01519008
0.01466917 0.01507619
0.01488665 0.01493777
0.01510452 0.01478086
0.01532277 0.01460003
0.01554141 0.01439946
0.01576042 0.01418062
0.01597981 0.01393935
0.01619956 0.01368270
0.01641967 0.01330095
0.01664014 0.01298096
0.01686096 0.01264625
0.01708213 0.01229468
0.01730365 0.01193008
0.01752550 0.01155215
0.01774768 0.01116241
0.01797020 0.01076246
0.01819303 0.01035713
0.01841619 0.00994446
0.01863966 0.00955076
0.01886084 0.00892641
