0.02291594 0.00556675
0.02269311 0.00536695
0.02246500 0.00518803
0.02223720 0.00519944
0.02200959 0.00534079
0.02178204 0.00559259
0.02155441 0.00592599
0.02132657 0.00630479
0.02109840 0.00680494
0.02086980 0.00704888
0.02064079 0.00710584
0.02041152 0.00700017
0.02018215 0.00682210
0.01995281 0.00669063
0.01972363 0.00670974
0.01949454 0.00690186
0.01926541 0.00722607
0.01903609 0.00759143
0.01880647 0.00787799
0.01857655 0.00801221
0.01834644 0.00799699
0.01811621 0.00786933
0.01788592 0.00764806
0.01765563 0.00424354
0.01742539 0.00397103
0.01719527 0.00370095
0.01696534 0.00354486
0.01673594 0.00366262
0.01650659 0.00716814
0.01627699 0.00755564
0.01604717 0.00808985
0.01581716 0.00833738
0.01558698 0.00855646
0.01535666 0.00875057
0.01512621 0.00892364
0.01489566 0.00907976
0.01466503 0.00922210
0.01443435 0.00935345
0.01420363 0.00947539
0.01397288 0.00958946
0.01374214 0.00969696
0.01351141 0.00979888
0.01328070 0.00989586
0.01305004 0.01040583
0.01281943 0.01048848
0.01258889 0.01056850
0.01235843 0.00386926
0.01212804 0.00375496
0.01189776 0.00363306
0.01166757 0.00340100
0.01143748 0.00328707
0.01120750 0.00316496
0.01097764 0.00301480
0.01074788 0.00287540
0.01051824 0.00270892
0.01028871 0.00248680
0.01005930 0.00230772
0.00983000 0.00210680
0.00960081 0.00191148
0.00937172 0.00170631
0.00914273 0.00149151
0.00891384 0.00126610
0.00868505 0.00102790
0.00845637 0.00077494
0.00822781 0.00051649
0.00799939 0.00019259
0.00777112 -0.00009742
0.00754303 -0.00045954
0.00731512 -0.00084729
0.00708743 -0.00123554
0.00685997 -0.00169469
0.00663277 -0.00223313
0.00640586 -0.00277162
0.00617927 -0.00333703
0.00595310 -0.00410277
0.00573307 -0.00475108
0.00546985 -0.00585134
0.00517285 -0.00708710
0.00487761 -0.00872079
0.00458443 -0.01044954
0.00429329 0.01758493
0.00400408 -0.01451696
0.00371665 0.01794468
0.00343082 0.01862970
0.00314639 0.02015458
0.00286554 0.02221928
0.00259274 0.02172024
0.00232713 0.02120843
0.00206792 0.02101998
0.00181402 0.02124952
0.00156461 0.02189340
0.00132102 0.02290862
0.00108465 0.02422177
0.00086252 0.02448518
0.00066309 0.02350278
0.00048260 0.02322950
0.00031775 0.02347117
0.00018270 0.02299463
0.00007761 0.02264203
-0.00000720 0.02243722
-0.00004504 0.02177959
-0.00006763 0.02114792
-0.00005016 0.01921907
-0.00000621 0.01732564
0.00005514 0.01587206
0.00014672 0.01204832
0.00025995 0.00780605
0.00037883 0.00477120
0.00052704 0.00163547
0.00068696 -0.00023703
0.00084517 -0.00077252
0.00100780 -0.00097650
0.00118226 -0.00115978
0.00137536 -0.00114052
0.00157739 -0.00085207
0.00178333 -0.00052778
0.00199386 -0.00027011
0.00220874 -0.00008021
0.00242777 0.00001919
0.00265073 0.00001598
0.00287740 -0.00002654
0.00310759 -0.00006665
0.00331344 -0.00010262
0.00348686 -0.00012851
0.00366795 -0.00017557
0.00385069 -0.00027128
0.00403499 -0.00041325
0.00422078 -0.00059754
0.00440797 -0.00081848
0.00459650 -0.00107038
0.00478628 -0.00134977
0.00497726 -0.00165187
0.00516936 -0.00196595
0.00536251 -0.00227735
0.00555665 -0.00255989
0.00575173 -0.00281448
0.00594767 -0.00303818
0.00614443 -0.00323040
0.00634194 -0.00339046
0.00654016 -0.00351873
0.00673902 -0.00361378
0.00693848 -0.00367323
0.00713850 -0.00369561
0.00733906 -0.00367992
0.00754017 -0.00362491
0.00774182 -0.00353065
0.00794401 -0.00337370
0.00814673 -0.00319815
0.00834998 -0.00299290
0.00855375 -0.00275942
0.00875805 -0.00250037
0.00896286 -0.00221935
0.00916818 -0.00191971
0.00937401 -0.00160493
0.00958035 -0.00127788
0.00978718 -0.00094092
0.00999452 -0.00059734
0.01020234 -0.00024919
0.01041065 0.00009536
0.01061945 0.00043489
0.01082872 0.00076722
0.01103847 0.00109080
0.01124869 0.00140334
0.01145938 0.00170288
0.01167053 0.00198839
0.01188214 0.00225992
0.01209420 0.00251662
0.01230671 0.00275703
0.01251966 0.00298099
0.01273306 0.00318914
0.01294689 0.00338129
0.01316115 0.00355667
0.01337584 0.00371562
0.01359095 0.00385910
0.01380648 0.00394991
0.01402242 0.00405953
0.01423877 0.00415609
0.01445553 0.00424011
0.01467268 0.00431147
0.01489023 0.00437054
0.01510818 0.00441792
0.01532650 0.00445638
0.01554521 0.00448517
0.01576429 0.00450458
0.01598375 0.00451571
0.01620357 0.00451832
0.01642376 0.00451379
0.01664430 0.00450324
0.01686519 0.00448612
0.01708644 0.00446193
0.01730802 0.00443074
0.01752994 0.00435265
0.01775220 0.00430587
0.01797478 0.00425410
0.01819769 0.00419688
0.01842092 0.00413781
0.01864446 0.00407742
0.01886084 0.00397071
