0.99532950 0.15249787
0.99541616 0.15253949
0.99550277 0.15258590
0.99558932 0.15263357
0.99567574 0.15268368
0.99576199 0.15273503
0.99584806 0.15278762
0.99593389 0.15284264
0.99601936 0.15290012
0.99610454 0.15295767
0.99618924 0.15301762
0.99627340 0.15307758
0.99635702 0.15313882
0.99643999 0.15319882
0.99652243 0.15325879
0.99660444 0.15331752
0.99668616 0.15337622
0.99676770 0.15343368
0.99684924 0.15348991
0.99693084 0.15354729
0.99701273 0.15360707
0.99709487 0.15366932
0.99717700 0.15373772
0.99725837 0.15381234
0.99733829 0.15389080
0.99741620 0.15396941
0.99749213 0.15404549
0.99756652 0.15411784
0.99763966 0.15418769
0.99771202 0.15425257
0.99778414 0.15431734
0.99785632 0.15438093
0.99792832 0.15444570
0.99799997 0.15451413
0.99807101 0.15458393
0.99814105 0.15465612
0.99820983 0.15473080
0.99827701 0.15480555
0.99834239 0.15488033
0.99840611 0.15495388
0.99846834 0.15502616
0.99852931 0.15509716
0.99858934 0.15516572
0.99864858 0.15523420
0.99870735 0.15530149
0.99876553 0.15537120
0.99882293 0.15544093
0.99887937 0.15551191
0.99893463 0.15558536
0.99898851 0.15566006
0.99904078 0.15573599
0.99909139 0.15581072
0.99914050 0.15588663
0.99918818 0.15596132
0.99923480 0.15603476
0.99928033 0.15610938
0.99932516 0.15618400
0.99936926 0.15625984
0.99941254 0.15633934
0.99945474 0.15642132
0.99949574 0.15650700
0.99953538 0.15659513
0.99957335 0.15668692
0.99960965 0.15678244
0.99964428 0.15687797
0.99967736 0.15697346
0.99970907 0.15707136
0.99973959 0.15716926
0.99976903 0.15726959
0.99979752 0.15737112
0.99982512 0.15747878
0.99985152 0.15759012
0.99987668 0.15770761
0.99990034 0.15782999
0.99992251 0.15795731
0.99994296 0.15808833
0.99996161 0.15822300
0.99997872 0.15835889
0.99999434 0.15849722
1.00000846 0.15863675
1.00002134 0.15877992
1.00003314 0.15892554
1.00004363 0.15907727
1.00005305 0.15923391
1.00006104 0.15939545
1.00006771 0.15956435
1.00007284 0.15973941
1.00007641 0.15991693
1.00007832 0.16009935
1.00007868 0.16028422
1.00007737 0.16046909
1.00007463 0.16065515
1.00007045 0.16084365
1.00006485 0.16103460
1.00005805 0.16122797
1.00004995 0.16142503
1.00004053 0.16162575
1.00002968 0.16182895
1.00001740 0.16203584
1.00000370 0.16224392
0.99998838 0.16245208
0.99997163 0.16266142
0.99995345 0.16286951
0.99993378 0.16307641
0.99991274 0.16328326
0.99989033 0.16348889
0.99986649 0.16369211
0.99984127 0.16389410
0.99981469 0.16409239
0.99978673 0.16428822
0.99975747 0.16448038
0.99972677 0.16466891
0.99969482 0.16485249
0.99966156 0.16503240
0.99962705 0.16520864
0.99959123 0.16538002
0.99955416 0.16554647
0.99951577 0.16570803
0.99947602 0.16586347
0.99943495 0.16601156
0.99939251 0.16615108
0.99934870 0.16628080
0.99930358 0.16640072
0.99925727 0.16651206
0.99920976 0.16661362
0.99916112 0.16670782
0.99911153 0.16679468
0.99906093 0.16687665
0.99900925 0.16695251
0.99895644 0.16702225
0.99890244 0.16708461
0.99884725 0.16713840
0.99879068 0.16718120
0.99873281 0.16721419
0.99867374 0.16723615
0.99861366 0.16724832
0.99855256 0.16725072
0.99849057 0.16724700
0.99842781 0.16723717
0.99836433 0.16722123
0.99830002 0.16720162
0.99823481 0.16717711
0.99816865 0.16714892
0.99810141 0.16711459
0.99803305 0.16707538
0.99796355 0.16703246
0.99789304 0.16698471
0.99782157 0.16693575
0.99774927 0.16688555
0.99767625 0.16683540
0.99760258 0.16678647
0.99752837 0.16674123
0.99745363 0.16669845
0.99737829 0.16666179
0.99730223 0.16663125
0.99722540 0.16660686
0.99714768 0.16659228
0.99706906 0.16658997
0.99698955 0.16660118
0.99690914 0.16662952
0.99682802 0.16667261
0.99674624 0.16673276
0.99666387 0.16680631
0.99658102 0.16688840
0.99649769 0.16697782
0.99641395 0.16707460
0.99632978 0.16717876
0.99624509 0.16729291
0.99615997 0.16742545
0.99607444 0.16758248
0.99598843 0.16777160
0.99590200 0.16800376
0.99581522 0.16829007
0.99572796 0.16864533
0.99564034 0.16908800
0.99555230 0.16963655
0.99546391 0.17030885
0.99537516 0.17112089
0.99528617 0.17207933
0.99519700 0.17318935
0.99510777 0.17445322
0.99501848 0.17587463
0.99492913 0.17746040
0.99483973 0.17922535
0.99475038 0.18118886
0.99466103 0.18337453
0.99457169 0.18579269
0.99448234 0.18840962
0.99439293 0.19113144
0.99430346 0.19376304
0.99421400 0.19601845
0.99412453 0.19763794
0.99403512 0.19847553
0.99394584 0.19848825
0.99385661 0.19779290
0.99376744 0.19659863
0.99367839 0.19507012
0.99358934 0.19339860
0.99350035 0.19163234
0.99341136 0.18975481
