0.01886084 0.00100485 0.00052896
0.01907823 0.00101631 0.00053462
0.01930648 0.00102854 0.00054053
0.01954613 0.00104067 0.00054663
0.01979774 0.00105262 0.00055288
0.02006191 0.00106434 0.00055919
0.02033927 0.00107575 0.00056552
0.02063048 0.00108681 0.00057181
0.02093622 0.00115215 0.00060264
0.02125722 0.00116821 0.00061196
0.02159425 0.00118411 0.00062125
0.02194810 0.00119977 0.00063049
0.02231961 0.00121515 0.00063964
0.02270967 0.00123017 0.00064868
0.02311919 0.00124478 0.00065759
0.02354916 0.00125890 0.00066633
0.02400060 0.00127247 0.00067488
0.02447456 0.00128543 0.00068320
0.02497219 0.00134761 0.00071488
0.02549467 0.00136591 0.00072634
0.02604323 0.00138380 0.00073764
0.02661919 0.00140118 0.00074876
0.02722391 0.00141772 0.00075952
0.02782694 0.00143294 0.00076962
0.02842994 0.00144672 0.00077903
0.02903293 0.00145913 0.00078783
0.02963592 0.00147023 0.00079606
0.03023890 0.00152425 0.00082467
0.03084189 0.00153850 0.00083475
0.03144488 0.00155177 0.00084431
0.03204790 0.00156410 0.00085341
0.03265094 0.00157552 0.00086204
0.03325402 0.00158606 0.00087021
0.03385712 0.00159573 0.00087794
0.03446027 0.00160459 0.00088524
0.03506348 0.00161268 0.00089215
0.03566673 0.00162005 0.00089867
0.03627005 0.00162673 0.00090480
0.03687343 0.00167365 0.00092983
0.03747689 0.00168302 0.00093744
0.03808044 0.00169187 0.00094483
0.03868406 0.00170025 0.00095198
0.03928778 0.00170818 0.00095886
0.03989160 0.00171571 0.00096547
0.04049553 0.00172285 0.00097180
0.04109957 0.00172960 0.00097787
0.04170375 0.00173603 0.00098377
0.04230806 0.00174216 0.00098947
0.04291251 0.00174806 0.00099494
0.04351712 0.00175375 0.00100019
0.04412188 0.00175925 0.00100523
0.04472681 0.00180480 0.00102911
0.04533190 0.00181319 0.00103557
0.04593713 0.00182144 0.00104189
0.04654250 0.00182952 0.00104807
0.04714802 0.00183744 0.00105412
0.04775367 0.00184515 0.00106002
0.04835944 0.00185264 0.00106578
0.04896533 0.00185991 0.00107141
0.04957134 0.00186694 0.00107694
0.05017746 0.00187372 0.00108237
0.05078368 0.00188025 0.00108768
0.05139000 0.00188656 0.00109286
0.05199641 0.00189263 0.00109788
0.05260291 0.00193648 0.00112086
0.05320949 0.00194485 0.00112711
0.05381615 0.00195302 0.00113320
0.05442288 0.00196096 0.00113912
0.05502968 0.00196867 0.00114490
0.05563653 0.00197612 0.00115053
0.05624343 0.00198329 0.00115602
0.05685038 0.00199015 0.00116135
0.05745738 0.00199668 0.00116652
0.05806440 0.00200289 0.00117154
0.05867145 0.00200874 0.00117639
0.05927853 0.00201424 0.00118107
0.05988562 0.00201938 0.00118557
0.06049273 0.00205842 0.00120622
0.06109986 0.00206505 0.00121160
0.06170701 0.00207140 0.00121681
0.06231418 0.00207748 0.00122185
0.06292137 0.00208328 0.00122671
0.06352858 0.00208884 0.00123140
0.06413580 0.00209414 0.00123594
0.06474306 0.00209919 0.00124033
0.06535033 0.00210398 0.00124457
0.06595762 0.00210851 0.00124869
0.06656494 0.00211276 0.00125275
0.06717227 0.00211674 0.00125670
0.06777963 0.00212047 0.00126054
0.06838702 0.00212395 0.00126424
0.06899442 0.00212720 0.00126780
0.06960184 0.00216471 0.00128819
0.07020929 0.00216916 0.00129243
0.07081676 0.00217341 0.00129655
0.07142426 0.00217748 0.00130054
0.07203177 0.00218135 0.00130443
0.07263932 0.00218505 0.00130819
0.07324689 0.00218857 0.00131185
0.07385448 0.00219191 0.00131541
0.07446209 0.00219508 0.00131888
0.07506973 0.00219810 0.00132222
0.07567740 0.00220096 0.00132544
0.07628509 0.00220367 0.00132852
0.07689281 0.00220620 0.00133149
0.07750054 0.00220856 0.00133439
0.07810832 0.00221073 0.00133727
0.07871611 0.00221272 0.00134012
0.07932393 0.00221455 0.00134291
0.07993177 0.00221626 0.00134562
0.08053965 0.00221782 0.00134823
0.08114755 0.00225620 0.00136962
0.08175547 0.00225890 0.00137288
0.08236343 0.00226149 0.00137607
0.08297141 0.00226397 0.00137918
0.08357941 0.00226634 0.00138220
0.08418744 0.00226860 0.00138513
0.08479550 0.00227074 0.00138798
0.08540358 0.00227280 0.00139076
0.08601169 0.00227479 0.00139349
0.08661982 0.00227672 0.00139617
0.08722799 0.00227860 0.00139880
0.08783618 0.00228043 0.00140138
0.08844439 0.00228220 0.00140390
0.08905263 0.00228390 0.00140637
0.08966089 0.00228552 0.00140879
0.09026918 0.00228705 0.00141114
0.09087750 0.00228848 0.00141342
0.09148584 0.00228978 0.00141564
0.09209421 0.00229093 0.00141779
0.09270259 0.00229192 0.00141987
0.09331101 0.00229276 0.00142186
0.09391946 0.00229343 0.00142375
0.09452792 0.00229395 0.00142554
0.09513641 0.00233061 0.00144574
0.09574493 0.00233203 0.00144805
0.09635348 0.00233334 0.00145029
0.09696204 0.00233452 0.00145246
0.09757064 0.00233560 0.00145455
0.09817925 0.00233656 0.00145658
0.09878790 0.00233742 0.00145853
0.09939656 0.00233817 0.00146043
0.10000525 0.00233880 0.00146225
0.10061397 0.00233935 0.00146402
0.10122272 0.00233979 0.00146573
0.10183149 0.00234015 0.00146738
0.10244028 0.00234043 0.00146898
0.10304911 0.00234064 0.00147054
0.10365795 0.00234078 0.00147205
0.10426683 0.00234084 0.00147352
0.10487574 0.00234084 0.00147494
0.10548467 0.00234078 0.00147633
0.10609363 0.00234065 0.00147767
0.10670262 0.00234045 0.00147896
0.10731164 0.00234020 0.00148020
0.10792068 0.00233989 0.00148139
0.10852976 0.00233951 0.00148252
0.10913887 0.00233907 0.00148359
0.10974801 0.00233858 0.00148460
0.11035718 0.00237192 0.00150281
0.11096638 0.00237226 0.00150428
0.11157561 0.00237257 0.00150570
0.11218487 0.00237282 0.00150707
0.11279418 0.00237300 0.00150841
0.11340350 0.00237310 0.00150975
0.11401287 0.00237313 0.00151108
0.11462226 0.00237310 0.00151239
0.11523169 0.00237300 0.00151369
0.11584115 0.00237284 0.00151494
0.11645065 0.00237264 0.00151616
0.11706018 0.00237238 0.00151734
0.11766975 0.00237208 0.00151847
0.11827935 0.00237173 0.00151957
0.11888898 0.00237135 0.00152062
0.11949866 0.00237092 0.00152163
0.12010837 0.00237046 0.00152261
0.12071811 0.00236995 0.00152353
0.12132789 0.00236941 0.00152442
0.12193771 0.00236883 0.00152528
0.12254757 0.00236822 0.00152609
0.12315746 0.00236757 0.00152687
0.12376740 0.00236689 0.00152762
0.12437737 0.00236618 0.00152833
0.12498738 0.00236542 0.00152901
0.12559743 0.00236463 0.00152967
0.12620752 0.00236382 0.00153031
0.12681764 0.00236297 0.00153093
0.12742780 0.00239524 0.00154873
0.12803800 0.00239503 0.00154974
0.12864825 0.00239480 0.00155073
0.12925854 0.00239455 0.00155170
0.12986887 0.00239429 0.00155266
0.13047923 0.00239400 0.00155359
0.13108964 0.00239369 0.00155450
0.13170008 0.00239337 0.00155537
0.13231058 0.00239304 0.00155621
0.13292111 0.00239267 0.00155701
0.13353169 0.00239230 0.00155776
0.13414231 0.00239192 0.00155849
0.13475296 0.00239152 0.00155919
0.13536367 0.00239112 0.00155985
0.13597441 0.00239073 0.00156047
0.13658521 0.00239033 0.00156104
0.13719603 0.00238991 0.00156160
0.13780691 0.00238944 0.00156217
0.13841783 0.00238890 0.00156279
0.13902879 0.00238831 0.00156343
0.13963979 0.00238771 0.00156406
0.14025086 0.00238710 0.00156467
0.14086196 0.00238647 0.00156526
0.14147310 0.00238582 0.00156583
0.14208429 0.00238515 0.00156639
0.14269553 0.00238448 0.00156693
0.14330681 0.00238380 0.00156746
0.14391814 0.00238311 0.00156796
0.14452951 0.00238241 0.00156845
0.14514093 0.00238171 0.00156893
0.14575240 0.00241541 0.00158785
0.14636391 0.00241524 0.00158865
0.14697549 0.00241507 0.00158944
0.14758709 0.00241490 0.00159022
0.14819875 0.00241472 0.00159097
0.14881046 0.00241453 0.00159172
0.14942221 0.00241435 0.00159244
0.15003403 0.00241417 0.00159316
0.15064588 0.00241398 0.00159387
0.15125778 0.00241380 0.00159456
0.15186974 0.00241362 0.00159525
0.15248173 0.00241344 0.00159593
0.15309380 0.00241328 0.00159660
0.15370589 0.00241312 0.00159727
0.15431805 0.00241297 0.00159794
0.15493025 0.00241284 0.00159861
0.15554251 0.00241273 0.00159929
0.15615481 0.00241264 0.00159998
0.15676717 0.00241257 0.00160066
0.15737958 0.00241252 0.00160137
0.15799205 0.00241251 0.00160207
0.15860456 0.00241252 0.00160278
0.15921712 0.00241255 0.00160350
0.15982974 0.00241260 0.00160422
0.16044241 0.00241268 0.00160496
0.16105513 0.00241280 0.00160571
0.16166790 0.00241293 0.00160646
0.16228072 0.00241308 0.00160722
0.16289358 0.00241324 0.00160799
0.16350649 0.00241341 0.00160876
0.16411944 0.00241357 0.00160953
0.16473243 0.00241372 0.00161030
0.16534545 0.00241388 0.00161108
0.16595851 0.00241404 0.00161186
0.16657160 0.00241422 0.00161266
0.16718473 0.00241442 0.00161347
0.16779789 0.00241464 0.00161429
0.16841111 0.00245083 0.00163498
0.16902435 0.00245144 0.00163605
0.16963762 0.00245204 0.00163710
0.17025095 0.00245262 0.00163815
0.17086431 0.00245317 0.00163920
0.17147772 0.00245371 0.00164025
0.17209117 0.00245421 0.00164127
0.17270467 0.00245468 0.00164228
0.17331821 0.00245515 0.00164327
0.17393179 0.00245562 0.00164425
0.17454542 0.00245609 0.00164521
0.17515910 0.00245658 0.00164614
0.17577282 0.00245708 0.00164706
0.17638659 0.00245760 0.00164795
0.17700040 0.00245814 0.00164884
0.17761427 0.00245871 0.00164970
0.17822817 0.00245930 0.00165055
0.17884213 0.00245990 0.00165137
0.17945611 0.00246051 0.00165217
0.18007015 0.00246111 0.00165296
0.18068422 0.00246169 0.00165374
0.18129833 0.00246222 0.00165451
0.18191248 0.00246269 0.00165527
0.18252668 0.00246310 0.00165600
0.18314090 0.00246344 0.00165669
0.18375516 0.00246371 0.00165736
0.18436947 0.00246393 0.00165801
0.18498382 0.00246410 0.00165863
0.18559819 0.00246421 0.00165923
0.18621261 0.00246429 0.00165981
0.18682708 0.00246433 0.00166037
0.18744157 0.00246435 0.00166091
0.18805611 0.00246435 0.00166144
0.18867068 0.00246436 0.00166197
0.18928529 0.00246441 0.00166252
0.18989994 0.00246449 0.00166308
0.19051461 0.00246461 0.00166366
0.19112933 0.00246479 0.00166426
0.19174409 0.00246499 0.00166487
0.19235888 0.00246521 0.00166550
0.19297372 0.00246543 0.00166612
0.19358858 0.00250111 0.00168649
0.19420348 0.00250169 0.00168740
0.19481842 0.00250227 0.00168833
0.19543339 0.00250285 0.00168928
0.19604841 0.00250343 0.00169023
0.19666345 0.00250401 0.00169119
0.19727853 0.00250457 0.00169212
0.19789365 0.00250509 0.00169303
0.19850881 0.00250558 0.00169390
0.19912399 0.00250601 0.00169472
0.19973923 0.00250639 0.00169550
0.20035449 0.00250671 0.00169625
0.20096979 0.00250700 0.00169695
0.20158511 0.00250724 0.00169763
0.20220049 0.00250745 0.00169827
0.20281589 0.00250764 0.00169888
0.20343132 0.00250779 0.00169947
0.20404680 0.00250792 0.00170004
0.20466231 0.00250804 0.00170059
0.20527785 0.00250814 0.00170112
0.20589343 0.00250823 0.00170164
0.20650904 0.00250832 0.00170215
0.20712468 0.00250839 0.00170264
0.20774035 0.00250845 0.00170312
0.20835607 0.00250850 0.00170360
0.20897181 0.00250853 0.00170406
0.20958760 0.00250854 0.00170452
0.21020342 0.00250853 0.00170496
0.21081927 0.00250851 0.00170540
0.21143515 0.00250848 0.00170583
0.21205106 0.00250844 0.00170626
0.21266702 0.00250837 0.00170667
0.21328300 0.00250828 0.00170706
0.21389902 0.00250816 0.00170744
0.21451508 0.00250803 0.00170780
0.21513115 0.00250790 0.00170816
0.21574725 0.00250777 0.00170851
0.21636340 0.00250765 0.00170885
0.21697956 0.00250754 0.00170920
0.21759577 0.00250744 0.00170955
0.21821199 0.00250735 0.00170990
0.21882826 0.00254155 0.00172981
0.21944454 0.00254176 0.00173036
0.22006086 0.00254196 0.00173090
0.22067721 0.00254215 0.00173144
0.22129358 0.00254233 0.00173197
0.22190997 0.00254249 0.00173249
0.22252640 0.00254265 0.00173300
0.22314286 0.00254279 0.00173350
0.22375934 0.00254292 0.00173399
0.22437584 0.00254304 0.00173446
0.22499239 0.00254313 0.00173493
0.22560896 0.00254321 0.00173538
0.22622555 0.00254327 0.00173581
0.22684218 0.00254330 0.00173623
0.22745882 0.00254332 0.00173664
0.22807550 0.00254332 0.00173702
0.22869222 0.00254332 0.00173739
0.22930896 0.00254332 0.00173775
0.22992572 0.00254332 0.00173809
0.23054253 0.00254332 0.00173842
0.23115934 0.00254331 0.00173874
0.23177621 0.00254331 0.00173905
0.23239309 0.00254329 0.00173935
0.23301001 0.00254325 0.00173964
0.23362695 0.00254317 0.00173990
0.23424393 0.00254306 0.00174014
0.23486093 0.00254291 0.00174037
0.23547797 0.00254272 0.00174058
0.23609503 0.00254251 0.00174079
0.23671213 0.00254228 0.00174100
0.23732926 0.00254205 0.00174121
0.23794642 0.00254180 0.00174143
0.23856360 0.00254155 0.00174165
0.23918082 0.00254130 0.00174188
0.23979807 0.00254104 0.00174211
0.24041535 0.00254078 0.00174234
0.24103266 0.00254053 0.00174257
0.24165002 0.00254027 0.00174280
0.24226739 0.00254001 0.00174302
0.24288478 0.00253976 0.00174325
0.24350223 0.00253951 0.00174347
0.24411970 0.00253927 0.00174369
0.24473719 0.00253902 0.00174390
0.24535473 0.00253878 0.00174411
0.24597229 0.00253855 0.00174432
0.24658990 0.00253833 0.00174454
0.24720752 0.00253812 0.00174476
0.24782518 0.00253794 0.00174499
0.24844287 0.00253778 0.00174523
0.24906060 0.00253765 0.00174549
0.24967836 0.00253753 0.00174577
0.25029615 0.00253744 0.00174606
0.25091398 0.00253735 0.00174636
0.25153184 0.00253729 0.00174666
0.25214970 0.00253724 0.00174698
0.25276762 0.00253720 0.00174730
0.25338560 0.00253718 0.00174763
0.25400358 0.00253718 0.00174797
0.25462160 0.00253719 0.00174831
0.25523964 0.00253721 0.00174866
0.25585774 0.00253725 0.00174901
0.25647587 0.00253730 0.00174936
0.25709400 0.00253737 0.00174971
0.25771219 0.00253746 0.00175006
0.25833040 0.00253756 0.00175040
0.25894865 0.00253768 0.00175073
0.25956696 0.00253781 0.00175105
0.26018527 0.00253796 0.00175134
0.26080361 0.00253810 0.00175162
0.26142201 0.00253825 0.00175188
0.26204044 0.00253839 0.00175212
0.26265889 0.00253852 0.00175235
0.26327738 0.00257297 0.00177193
0.26389590 0.00257325 0.00177228
0.26451445 0.00257349 0.00177261
0.26513305 0.00257372 0.00177295
0.26575169 0.00257392 0.00177327
0.26637036 0.00257410 0.00177360
0.26698905 0.00257427 0.00177391
0.26760781 0.00257444 0.00177423
0.26822659 0.00257461 0.00177454
0.26884541 0.00257475 0.00177484
0.26946425 0.00257489 0.00177514
0.27008313 0.00257503 0.00177542
0.27070206 0.00257515 0.00177570
0.27132103 0.00257528 0.00177598
0.27194002 0.00257539 0.00177626
0.27255905 0.00257551 0.00177653
0.27317813 0.00257564 0.00177681
0.27379721 0.00257578 0.00177709
0.27441636 0.00257594 0.00177739
0.27503553 0.00257612 0.00177770
0.27565473 0.00257631 0.00177802
0.27627397 0.00257652 0.00177835
0.27689323 0.00257675 0.00177869
0.27751252 0.00257699 0.00177904
0.27813187 0.00257724 0.00177939
0.27875122 0.00257751 0.00177975
0.27937061 0.00257779 0.00178012
0.27999005 0.00257807 0.00178050
0.28060949 0.00257837 0.00178090
0.28122899 0.00257867 0.00178129
0.28184852 0.00257899 0.00178171
0.28246808 0.00257931 0.00178213
0.28308764 0.00257964 0.00178255
0.28370726 0.00257999 0.00178299
0.28432691 0.00258036 0.00178343
0.28494659 0.00258073 0.00178388
0.28556633 0.00258112 0.00178434
0.28618607 0.00258151 0.00178481
0.28680584 0.00258191 0.00178528
0.28742564 0.00258232 0.00178574
0.28804547 0.00258275 0.00178618
0.28866532 0.00258317 0.00178659
0.28928524 0.00258360 0.00178699
0.28990516 0.00258402 0.00178739
0.29052511 0.00258443 0.00178779
0.29114509 0.00258480 0.00178823
0.29176512 0.00258516 0.00178871
0.29238516 0.00258550 0.00178924
0.29300523 0.00258582 0.00178980
0.29362532 0.00258614 0.00179038
0.29424545 0.00258645 0.00179098
0.29486561 0.00258676 0.00179157
0.29548579 0.00258709 0.00179214
0.29610601 0.00258741 0.00179271
0.29672626 0.00258773 0.00179325
0.29734653 0.00258807 0.00179377
0.29796684 0.00258842 0.00179427
0.29858714 0.00258877 0.00179474
0.29920751 0.00258914 0.00179517
0.29982787 0.00258950 0.00179558
0.30044830 0.00262246 0.00181449
0.30106872 0.00262301 0.00181496
0.30168918 0.00262354 0.00181541
0.30230969 0.00262406 0.00181582
0.30293021 0.00262454 0.00181622
0.30355075 0.00262500 0.00181661
0.30417129 0.00262543 0.00181698
0.30479190 0.00262584 0.00181734
0.30541253 0.00262624 0.00181769
0.30603316 0.00262661 0.00181804
0.30665386 0.00262697 0.00181838
0.30727455 0.00262731 0.00181872
0.30789527 0.00262763 0.00181905
0.30851603 0.00262795 0.00181939
0.30913681 0.00262825 0.00181974
0.30975762 0.00262854 0.00182009
0.31037846 0.00262881 0.00182044
0.31099930 0.00262907 0.00182079
0.31162021 0.00262931 0.00182113
0.31224111 0.00262953 0.00182148
0.31286204 0.00262974 0.00182182
0.31348300 0.00262994 0.00182217
0.31410399 0.00263011 0.00182250
0.31472501 0.00263028 0.00182282
0.31534606 0.00263042 0.00182313
0.31596714 0.00263055 0.00182343
0.31658822 0.00263067 0.00182372
0.31720936 0.00263079 0.00182400
0.31783050 0.00263091 0.00182428
0.31845167 0.00263104 0.00182456
0.31907287 0.00263118 0.00182484
0.31969410 0.00263134 0.00182510
0.32031536 0.00263150 0.00182532
0.32093665 0.00263167 0.00182550
0.32155794 0.00263183 0.00182567
0.32217929 0.00263200 0.00182582
0.32280064 0.00263217 0.00182597
0.32342201 0.00263233 0.00182613
0.32404342 0.00263246 0.00182631
0.32466486 0.00263254 0.00182655
0.32528633 0.00263260 0.00182686
0.32590783 0.00263263 0.00182721
0.32652935 0.00263266 0.00182761
0.32715091 0.00263269 0.00182802
0.32777247 0.00263273 0.00182845
0.32839409 0.00263279 0.00182887
0.32901570 0.00263286 0.00182928
0.32963735 0.00263294 0.00182966
0.33025903 0.00263306 0.00183002
0.33088073 0.00263318 0.00183035
0.33150247 0.00263333 0.00183065
0.33212423 0.00263349 0.00183091
0.33274603 0.00263367 0.00183115
0.33336782 0.00263386 0.00183137
0.33398968 0.00263407 0.00183157
0.33461154 0.00263429 0.00183176
0.33523342 0.00263452 0.00183195
0.33585536 0.00263475 0.00183214
0.33647731 0.00266651 0.00185030
0.33709928 0.00266695 0.00185066
0.33772126 0.00266739 0.00185104
0.33834329 0.00266784 0.00185143
0.33896536 0.00266831 0.00185185
0.33958742 0.00266878 0.00185229
0.34020951 0.00266926 0.00185274
0.34083167 0.00266976 0.00185321
0.34145382 0.00267026 0.00185369
0.34207600 0.00267077 0.00185417
0.34269819 0.00267127 0.00185467
0.34332043 0.00267179 0.00185518
0.34394270 0.00267233 0.00185569
0.34456497 0.00267287 0.00185621
0.34518728 0.00267344 0.00185674
0.34580961 0.00267402 0.00185728
0.34643197 0.00267462 0.00185782
0.34705436 0.00267524 0.00185837
0.34767678 0.00267589 0.00185893
0.34829924 0.00267655 0.00185950
0.34892169 0.00267723 0.00186007
0.34954417 0.00267794 0.00186065
0.35016671 0.00267867 0.00186125
0.35078925 0.00267941 0.00186185
0.35141179 0.00268018 0.00186246
0.35203439 0.00268097 0.00186309
0.35265702 0.00268178 0.00186372
0.35327965 0.00268261 0.00186437
0.35390231 0.00268345 0.00186502
0.35452500 0.00268431 0.00186568
0.35514772 0.00268519 0.00186636
0.35577047 0.00268609 0.00186703
0.35639325 0.00268701 0.00186771
0.35701603 0.00268793 0.00186839
0.35763887 0.00268888 0.00186908
0.35826170 0.00268983 0.00186976
0.35888457 0.00269079 0.00187045
0.35950744 0.00269176 0.00187115
0.36013037 0.00269274 0.00187184
0.36075330 0.00269374 0.00187254
0.36137629 0.00269474 0.00187324
0.36199927 0.00269573 0.00187395
0.36262226 0.00269674 0.00187468
0.36324531 0.00269773 0.00187541
0.36386836 0.00269873 0.00187616
0.36449143 0.00269973 0.00187692
0.36511454 0.00270073 0.00187770
0.36573768 0.00270173 0.00187848
0.36636081 0.00270274 0.00187926
0.36698398 0.00270376 0.00188005
0.36760718 0.00270480 0.00188084
0.36823040 0.00270584 0.00188163
0.36885363 0.00270690 0.00188242
0.36947691 0.00270799 0.00188322
0.37010017 0.00270908 0.00188402
0.37072349 0.00271020 0.00188483
0.37134680 0.00271133 0.00188565
0.37197018 0.00271250 0.00188649
0.37259352 0.00274386 0.00190456
0.37321693 0.00274528 0.00190557
0.37384033 0.00274673 0.00190659
0.37446377 0.00274822 0.00190763
0.37508723 0.00274973 0.00190868
0.37571070 0.00275128 0.00190974
0.37633419 0.00275286 0.00191082
0.37695771 0.00275449 0.00191191
0.37758124 0.00275614 0.00191301
0.37820479 0.00275784 0.00191414
0.37882838 0.00275957 0.00191528
0.37945196 0.00276133 0.00191645
0.38007557 0.00276314 0.00191764
0.38069922 0.00276498 0.00191884
0.38132286 0.00276686 0.00192005
0.38194653 0.00276877 0.00192127
0.38257024 0.00277071 0.00192250
0.38319394 0.00277267 0.00192374
0.38381767 0.00277464 0.00192500
0.38444141 0.00277662 0.00192626
0.38506517 0.00277860 0.00192753
0.38568896 0.00278058 0.00192881
0.38631275 0.00278256 0.00193010
0.38693658 0.00278454 0.00193140
0.38756043 0.00278652 0.00193269
0.38818428 0.00278850 0.00193399
0.38880813 0.00279047 0.00193528
0.38943204 0.00279245 0.00193658
0.39005592 0.00279441 0.00193788
0.39067987 0.00279637 0.00193918
0.39130381 0.00279833 0.00194048
0.39192775 0.00280028 0.00194177
0.39255172 0.00280222 0.00194307
0.39317572 0.00280415 0.00194436
0.39379972 0.00280607 0.00194564
0.39442372 0.00280798 0.00194692
0.39504775 0.00280987 0.00194819
0.39567181 0.00281175 0.00194946
0.39629588 0.00281362 0.00195072
0.39691997 0.00281547 0.00195196
0.39754406 0.00281730 0.00195320
0.39816818 0.00281911 0.00195441
0.39879230 0.00282089 0.00195561
0.39941645 0.00282266 0.00195680
0.40004060 0.00282441 0.00195796
0.40066478 0.00282614 0.00195912
0.40128896 0.00282785 0.00196024
0.40191317 0.00282955 0.00196134
0.40253738 0.00283124 0.00196241
0.40316162 0.00283292 0.00196345
0.40378585 0.00283460 0.00196446
0.40441012 0.00283629 0.00196544
0.40503439 0.00283797 0.00196641
0.40565869 0.00283964 0.00196735
0.40628299 0.00284131 0.00196828
0.40690729 0.00284297 0.00196920
0.40753162 0.00284460 0.00197012
0.40815595 0.00287377 0.00198663
0.40878031 0.00287554 0.00198771
0.40940467 0.00287726 0.00198883
0.41002905 0.00287896 0.00198999
0.41065344 0.00288062 0.00199119
0.41127783 0.00288225 0.00199245
0.41190225 0.00288386 0.00199376
0.41252670 0.00288545 0.00199513
0.41315112 0.00288704 0.00199654
0.41377556 0.00288865 0.00199796
0.41440004 0.00289027 0.00199939
0.41502452 0.00289192 0.00200080
0.41564900 0.00289358 0.00200220
0.41627350 0.00289527 0.00200359
0.41689801 0.00289698 0.00200497
0.41752252 0.00289871 0.00200634
0.41814706 0.00290046 0.00200772
0.41877159 0.00290224 0.00200910
0.41939613 0.00290404 0.00201049
0.42002070 0.00290588 0.00201189
0.42064530 0.00290776 0.00201330
0.42126986 0.00290967 0.00201471
0.42189446 0.00291161 0.00201611
0.42251906 0.00291358 0.00201752
0.42314368 0.00291560 0.00201893
0.42376831 0.00291766 0.00202036
0.42439294 0.00291976 0.00202180
0.42501760 0.00292189 0.00202325
0.42564225 0.00292403 0.00202471
0.42626691 0.00292620 0.00202617
0.42689160 0.00292837 0.00202762
0.42751628 0.00293055 0.00202906
0.42814097 0.00293274 0.00203048
0.42876565 0.00293495 0.00203189
0.42939037 0.00293718 0.00203326
0.43001509 0.00293941 0.00203462
0.43063983 0.00294162 0.00203599
0.43126458 0.00294376 0.00203742
0.43188933 0.00294583 0.00203890
0.43251407 0.00294784 0.00204043
0.43313882 0.00294980 0.00204199
0.43376359 0.00295175 0.00204353
0.43438837 0.00295368 0.00204506
0.43501318 0.00295558 0.00204655
0.43563795 0.00295744 0.00204801
0.43626276 0.00295926 0.00204943
0.43688759 0.00296106 0.00205082
0.43751240 0.00296282 0.00205217
0.43813723 0.00296454 0.00205349
0.43876207 0.00296623 0.00205478
0.43938690 0.00296790 0.00205605
0.44001174 0.00296954 0.00205729
0.44063661 0.00297115 0.00205850
0.44126147 0.00297275 0.00205970
0.44188634 0.00300011 0.00207538
0.44251120 0.00300191 0.00207669
0.44313610 0.00300368 0.00207799
0.44376099 0.00300544 0.00207926
0.44438589 0.00300719 0.00208052
0.44501078 0.00300894 0.00208176
0.44563571 0.00301068 0.00208300
0.44626060 0.00301241 0.00208422
0.44688553 0.00301414 0.00208543
0.44751045 0.00301587 0.00208664
0.44813538 0.00301762 0.00208783
0.44876033 0.00301936 0.00208902
0.44938529 0.00302112 0.00209020
0.45001021 0.00302288 0.00209138
0.45063519 0.00302466 0.00209255
0.45126015 0.00302646 0.00209372
0.45188510 0.00302827 0.00209490
0.45251009 0.00303012 0.00209608
0.45313507 0.00303200 0.00209727
0.45376003 0.00303390 0.00209847
0.45438504 0.00303583 0.00209968
0.45501003 0.00303781 0.00210091
0.45563501 0.00303982 0.00210214
0.45626003 0.00304186 0.00210339
0.45688501 0.00304394 0.00210465
0.45751002 0.00304604 0.00210592
0.45813504 0.00304817 0.00210720
0.45876005 0.00305034 0.00210850
0.45938510 0.00305254 0.00210980
0.46001011 0.00305477 0.00211112
0.46063516 0.00305704 0.00211245
0.46126017 0.00305936 0.00211380
0.46188521 0.00306170 0.00211515
0.46251026 0.00306408 0.00211651
0.46313530 0.00306650 0.00211788
0.46376035 0.00306894 0.00211925
0.46438542 0.00307142 0.00212063
0.46501046 0.00307392 0.00212201
0.46563554 0.00307644 0.00212339
0.46626058 0.00307898 0.00212478
0.46688566 0.00308150 0.00212618
0.46751073 0.00308403 0.00212757
0.46813580 0.00308653 0.00212898
0.46876088 0.00308901 0.00213038
0.46938595 0.00309146 0.00213180
0.47001103 0.00309387 0.00213321
0.47063610 0.00309626 0.00213462
0.47126117 0.00309860 0.00213603
0.47188628 0.00312759 0.00215231
0.47251135 0.00313000 0.00215376
0.47313645 0.00313237 0.00215521
0.47376153 0.00313473 0.00215664
0.47438663 0.00313704 0.00215807
0.47501174 0.00313935 0.00215948
0.47563684 0.00314162 0.00216088
0.47626191 0.00314387 0.00216227
0.47688702 0.00314611 0.00216364
0.47751212 0.00314833 0.00216501
0.47813722 0.00315052 0.00216638
0.47876233 0.00315269 0.00216775
0.47938743 0.00315483 0.00216913
0.48001254 0.00315696 0.00217052
0.48063764 0.00315908 0.00217191
0.48126274 0.00316120 0.00217331
0.48188788 0.00316330 0.00217470
0.48251298 0.00316540 0.00217609
0.48313808 0.00316750 0.00217747
0.48376319 0.00316959 0.00217884
0.48438829 0.00317168 0.00218020
0.48501340 0.00317374 0.00218156
0.48563853 0.00317580 0.00218291
0.48626363 0.00317786 0.00218427
0.48688874 0.00317991 0.00218563
0.48751384 0.00318196 0.00218701
0.48813894 0.00318401 0.00218840
0.48876408 0.00318607 0.00218982
0.48938918 0.00318814 0.00219125
0.49001428 0.00319022 0.00219269
0.49063939 0.00319233 0.00219415
0.49126449 0.00319445 0.00219562
0.49188960 0.00319659 0.00219709
0.49251470 0.00319876 0.00219856
0.49313980 0.00320094 0.00220002
0.49376491 0.00320314 0.00220149
0.49439001 0.00320536 0.00220295
0.49501511 0.00320760 0.00220442
0.49564022 0.00320986 0.00220589
0.49626532 0.00321214 0.00220737
0.49689040 0.00321446 0.00220886
0.49751550 0.00321679 0.00221036
0.49814057 0.00321914 0.00221187
0.49876568 0.00322151 0.00221339
0.49939075 0.00322390 0.00221491
0.50001585 0.00322630 0.00221645
0.50064093 0.00322872 0.00221800
0.50126600 0.00323115 0.00221956
0.50189108 0.00323360 0.00222111
0.50251615 0.00323604 0.00222266
0.50314122 0.00323850 0.00222421
0.50376630 0.00324096 0.00222575
0.50439137 0.00324341 0.00222729
0.50501645 0.00327633 0.00224578
0.50564146 0.00327896 0.00224744
0.50626653 0.00328158 0.00224909
0.50689161 0.00328422 0.00225075
0.50751662 0.00328686 0.00225241
0.50814170 0.00328950 0.00225407
0.50876671 0.00329215 0.00225574
0.50939178 0.00329480 0.00225742
0.51001680 0.00329745 0.00225911
0.51064181 0.00330011 0.00226080
0.51126683 0.00330278 0.00226248
0.51189184 0.00330544 0.00226413
0.51251686 0.00330813 0.00226573
0.51314187 0.00331083 0.00226732
0.51376688 0.00331353 0.00226893
0.51439190 0.00331625 0.00227055
0.51501691 0.00331899 0.00227218
0.51564187 0.00332174 0.00227381
0.51626688 0.00332451 0.00227543
0.51689184 0.00332731 0.00227706
0.51751679 0.00333014 0.00227868
0.51814181 0.00333298 0.00228033
0.51876676 0.00333585 0.00228198
0.51939172 0.00333875 0.00228365
0.52001661 0.00334167 0.00228534
0.52064157 0.00334462 0.00228705
0.52126652 0.00334756 0.00228877
0.52189142 0.00335053 0.00229050
0.52251637 0.00335348 0.00229224
0.52314126 0.00335643 0.00229398
0.52376616 0.00335939 0.00229574
0.52439106 0.00336235 0.00229751
0.52501595 0.00336533 0.00229929
0.52564085 0.00336832 0.00230109
0.52626574 0.00337134 0.00230290
0.52689058 0.00337439 0.00230474
0.52751547 0.00337746 0.00230660
0.52814031 0.00338058 0.00230848
0.52876514 0.00338374 0.00231039
0.52938998 0.00338694 0.00231233
0.53001481 0.00339017 0.00231429
0.53063965 0.00339344 0.00231627
0.53126442 0.00339675 0.00231828
0.53188926 0.00340009 0.00232031
0.53251404 0.00340347 0.00232235
0.53313881 0.00340687 0.00232440
0.53376359 0.00341030 0.00232647
0.53438836 0.00341376 0.00232855
0.53501308 0.00341726 0.00233065
0.53563786 0.00342078 0.00233276
0.53626257 0.00342434 0.00233489
0.53688729 0.00342792 0.00233704
0.53751200 0.00346462 0.00235753
0.53813666 0.00346837 0.00235977
0.53876138 0.00347214 0.00236202
0.53938603 0.00347592 0.00236428
0.54001075 0.00347974 0.00236656
0.54063541 0.00348359 0.00236887
0.54126000 0.00348747 0.00237119
0.54188466 0.00349138 0.00237355
0.54250926 0.00349531 0.00237591
0.54313385 0.00349924 0.00237827
0.54375845 0.00350318 0.00238061
0.54438305 0.00350713 0.00238294
0.54500765 0.00351106 0.00238524
0.54563218 0.00351498 0.00238751
0.54625672 0.00351890 0.00238974
0.54688126 0.00352280 0.00239195
0.54750580 0.00352669 0.00239413
0.54813033 0.00353057 0.00239630
0.54875481 0.00353442 0.00239846
0.54937929 0.00353827 0.00240060
0.55000377 0.00354209 0.00240275
0.55062819 0.00354591 0.00240490
0.55125266 0.00354972 0.00240707
0.55187708 0.00355354 0.00240925
0.55250150 0.00355736 0.00241144
0.55312586 0.00356121 0.00241366
0.55375028 0.00356507 0.00241590
0.55437464 0.00356896 0.00241816
0.55499899 0.00357287 0.00242044
0.55562335 0.00357680 0.00242274
0.55624765 0.00358077 0.00242507
0.55687195 0.00358477 0.00242742
0.55749625 0.00358880 0.00242980
0.55812055 0.00359288 0.00243220
0.55874479 0.00359699 0.00243463
0.55936903 0.00360114 0.00243709
0.55999327 0.00360535 0.00243958
0.56061751 0.00360962 0.00244210
0.56124169 0.00361395 0.00244467
0.56186587 0.00361833 0.00244727
0.56249005 0.00362278 0.00244991
0.56311423 0.00362729 0.00245258
0.56373835 0.00363184 0.00245528
0.56436247 0.00363644 0.00245801
0.56498659 0.00364108 0.00246077
0.56561071 0.00364576 0.00246356
0.56623477 0.00365048 0.00246636
0.56685883 0.00365524 0.00246918
0.56748289 0.00366001 0.00247203
0.56810689 0.00369761 0.00249270
0.56873089 0.00370265 0.00249572
0.56935489 0.00370773 0.00249876
0.56997889 0.00371283 0.00250181
0.57060283 0.00371796 0.00250488
0.57122678 0.00372311 0.00250795
0.57185072 0.00372829 0.00251101
0.57247460 0.00373348 0.00251406
0.57309848 0.00373869 0.00251710
0.57372236 0.00374393 0.00252013
0.57434624 0.00374917 0.00252314
0.57497007 0.00375444 0.00252614
0.57559389 0.00375973 0.00252911
0.57621765 0.00376502 0.00253200
0.57684147 0.00377031 0.00253484
0.57746524 0.00377557 0.00253765
0.57808900 0.00378081 0.00254045
0.57871270 0.00378602 0.00254324
0.57933640 0.00379122 0.00254604
0.57996011 0.00379636 0.00254890
0.58058375 0.00380142 0.00255185
0.58120745 0.00380638 0.00255490
0.58183104 0.00381127 0.00255805
0.58245468 0.00381612 0.00256128
0.58307827 0.00382096 0.00256454
0.58370185 0.00382580 0.00256782
0.58432543 0.00383064 0.00257109
0.58494896 0.00383551 0.00257434
0.58557248 0.00384039 0.00257756
0.58619595 0.00384529 0.00258074
0.58681947 0.00385020 0.00258387
0.58744293 0.00385513 0.00258698
0.58806634 0.00386007 0.00259004
0.58868974 0.00386503 0.00259308
0.58931315 0.00387000 0.00259609
0.58993655 0.00387499 0.00259907
0.59055990 0.00387999 0.00260203
0.59118325 0.00391841 0.00262330
0.59180659 0.00392380 0.00262646
0.59242988 0.00392921 0.00262962
0.59305316 0.00393464 0.00263277
0.59367645 0.00394009 0.00263593
0.59429967 0.00394557 0.00263910
0.59492290 0.00395108 0.00264229
0.59554607 0.00395663 0.00264551
0.59616929 0.00396222 0.00264875
0.59679240 0.00396784 0.00265202
0.59741557 0.00397349 0.00265533
0.59803867 0.00397918 0.00265867
0.59866178 0.00398490 0.00266204
0.59928483 0.00399067 0.00266545
0.59990788 0.00399645 0.00266887
0.60053092 0.00400227 0.00267233
0.60115391 0.00400811 0.00267580
0.60177690 0.00401399 0.00267930
0.60239989 0.00401988 0.00268281
0.60302281 0.00402581 0.00268632
0.60364574 0.00403175 0.00268985
0.60426867 0.00403773 0.00269338
0.60489154 0.00404373 0.00269691
0.60551441 0.00404975 0.00270043
0.60613722 0.00405579 0.00270395
0.60676003 0.00406186 0.00270747
0.60738283 0.00406795 0.00271097
0.60800564 0.00407405 0.00271447
0.60862839 0.00408017 0.00271795
0.60925108 0.00408631 0.00272143
0.60987377 0.00409246 0.00272490
0.61049646 0.00409863 0.00272837
0.61111915 0.00410479 0.00273182
0.61174178 0.00411097 0.00273527
0.61236435 0.00411715 0.00273872
0.61298698 0.00412334 0.00274215
0.61360955 0.00412952 0.00274558
0.61423206 0.00413571 0.00274900
0.61485457 0.00417420 0.00276988
0.61547709 0.00418071 0.00277350
0.61609960 0.00418721 0.00277712
0.61672205 0.00419371 0.00278074
0.61734444 0.00420022 0.00278436
0.61796689 0.00420674 0.00278796
0.61858922 0.00421327 0.00279157
0.61921161 0.00421980 0.00279517
0.61983395 0.00422634 0.00279876
0.62045628 0.00423287 0.00280236
0.62107855 0.00423942 0.00280597
0.62170082 0.00424596 0.00280957
0.62232304 0.00425252 0.00281318
0.62294525 0.00425908 0.00281679
0.62356746 0.00426564 0.00282040
0.62418962 0.00427222 0.00282401
0.62481177 0.00427880 0.00282763
0.62543392 0.00428540 0.00283127
0.62605602 0.00429202 0.00283493
0.62667805 0.00429865 0.00283860
0.62730014 0.00430527 0.00284231
0.62792212 0.00431191 0.00284604
0.62854415 0.00431856 0.00284979
0.62916613 0.00432524 0.00285357
0.62978804 0.00433195 0.00285739
0.63041002 0.00433867 0.00286122
0.63103187 0.00434542 0.00286506
0.63165379 0.00435220 0.00286889
0.63227564 0.00435899 0.00287271
0.63289744 0.00436580 0.00287651
0.63351929 0.00437262 0.00288029
0.63414103 0.00437948 0.00288407
0.63476282 0.00438635 0.00288786
0.63538450 0.00442570 0.00290905
0.63600624 0.00443299 0.00291308
0.63662791 0.00444031 0.00291713
0.63724959 0.00444766 0.00292121
0.63787121 0.00445504 0.00292532
0.63849282 0.00446245 0.00292945
0.63911438 0.00446990 0.00293361
0.63973594 0.00447738 0.00293780
0.64035743 0.00448491 0.00294200
0.64097893 0.00449246 0.00294623
0.64160043 0.00450006 0.00295047
0.64222187 0.00450769 0.00295474
0.64284331 0.00451535 0.00295903
0.64346474 0.00452304 0.00296334
0.64408606 0.00453076 0.00296767
0.64470744 0.00453851 0.00297200
0.64532876 0.00454630 0.00297635
0.64595008 0.00455411 0.00298071
0.64657134 0.00456195 0.00298508
0.64719260 0.00456982 0.00298946
0.64781380 0.00457772 0.00299386
0.64843500 0.00458564 0.00299826
0.64905614 0.00459358 0.00300268
0.64967728 0.00460155 0.00300711
0.65029842 0.00460954 0.00301155
0.65091950 0.00461755 0.00301599
0.65154058 0.00462558 0.00302044
0.65216160 0.00463362 0.00302489
0.65278262 0.00464169 0.00302933
0.65340358 0.00464977 0.00303376
0.65402454 0.00465786 0.00303818
0.65464544 0.00466597 0.00304259
0.65526640 0.00467409 0.00304699
0.65588725 0.00468222 0.00305137
0.65650809 0.00469036 0.00305575
0.65712893 0.00469850 0.00306011
0.65774971 0.00470667 0.00306446
0.65837049 0.00471483 0.00306880
0.65899122 0.00472302 0.00307314
0.65961194 0.00476224 0.00309372
0.66023266 0.00477089 0.00309832
0.66085333 0.00477957 0.00310292
0.66147393 0.00478827 0.00310751
0.66209453 0.00479699 0.00311211
0.66271514 0.00480574 0.00311671
0.66333568 0.00481450 0.00312130
0.66395622 0.00482328 0.00312589
0.66457671 0.00483210 0.00313048
0.66519719 0.00484093 0.00313507
0.66581762 0.00484979 0.00313967
0.66643804 0.00485868 0.00314428
0.66705841 0.00486758 0.00314890
0.66767877 0.00487651 0.00315355
0.66829914 0.00488546 0.00315820
0.66891944 0.00489446 0.00316288
0.66953969 0.00490348 0.00316757
0.67015994 0.00491255 0.00317228
0.67078018 0.00492163 0.00317700
0.67140037 0.00493077 0.00318174
0.67202055 0.00493994 0.00318650
0.67264068 0.00494915 0.00319129
0.67326081 0.00495838 0.00319609
0.67388088 0.00496765 0.00320090
0.67450094 0.00497708 0.00320589
0.67512113 0.00498557 0.00321065
0.67574131 0.00499364 0.00321530
0.67636144 0.00500177 0.00321993
0.67698157 0.00500999 0.00322454
0.67760164 0.00504994 0.00324581
0.67822170 0.00505870 0.00325067
0.67884171 0.00506756 0.00325552
0.67946166 0.00507649 0.00326038
0.68008161 0.00508551 0.00326525
0.68070155 0.00509460 0.00327012
0.68132144 0.00510377 0.00327500
0.68194127 0.00511302 0.00327989
0.68256110 0.00512235 0.00328479
0.68318093 0.00513176 0.00328969
0.68380070 0.00514124 0.00329459
0.68442041 0.00515082 0.00329949
0.68504012 0.00516045 0.00330440
0.68565977 0.00517015 0.00330932
0.68627942 0.00517992 0.00331425
0.68689901 0.00518976 0.00331920
0.68751854 0.00519968 0.00332417
0.68813807 0.00520966 0.00332915
0.68875760 0.00521970 0.00333415
0.68937707 0.00522980 0.00333917
0.68999648 0.00523997 0.00334422
0.69061589 0.00525020 0.00334927
0.69123530 0.00526049 0.00335431
0.69185460 0.00527084 0.00335936
0.69247395 0.00528121 0.00336441
0.69309318 0.00529164 0.00336945
0.69371241 0.00530207 0.00337450
0.69433165 0.00531252 0.00337956
0.69495082 0.00532298 0.00338464
0.69556993 0.00533346 0.00338975
0.69618905 0.00534395 0.00339490
0.69680816 0.00535444 0.00340007
0.69742721 0.00536494 0.00340526
0.69804621 0.00540663 0.00342649
0.69866520 0.00541763 0.00343199
0.69928414 0.00542865 0.00343749
0.69990301 0.00543969 0.00344299
0.70052189 0.00545074 0.00344849
0.70114076 0.00546179 0.00345399
0.70175958 0.00547287 0.00345949
0.70237833 0.00548395 0.00346499
0.70299709 0.00549504 0.00347048
0.70361578 0.00550616 0.00347597
0.70423448 0.00551729 0.00348146
0.70485312 0.00552843 0.00348696
0.70547175 0.00553958 0.00349247
0.70609033 0.00555075 0.00349799
0.70670885 0.00556194 0.00350353
0.70732737 0.00557316 0.00350910
0.70794588 0.00558441 0.00351469
0.70856434 0.00559568 0.00352031
0.70918274 0.00560700 0.00352595
0.70980114 0.00561835 0.00353162
0.71041948 0.00562975 0.00353730
0.71103776 0.00564121 0.00354301
0.71165609 0.00565270 0.00354873
0.71227431 0.00566425 0.00355448
0.71289253 0.00567586 0.00356025
0.71351069 0.00571868 0.00358196
0.71412885 0.00573077 0.00358798
0.71474701 0.00574289 0.00359401
0.71536505 0.00575507 0.00360004
0.71598309 0.00576730 0.00360609
0.71660113 0.00577958 0.00361214
0.71721911 0.00579192 0.00361820
0.71783710 0.00580431 0.00362427
0.71845502 0.00581676 0.00363037
0.71907288 0.00582927 0.00363647
0.71969074 0.00584184 0.00364260
0.72030854 0.00585447 0.00364874
0.72092634 0.00586716 0.00365489
0.72154409 0.00587991 0.00366106
0.72216183 0.00589271 0.00366724
0.72277951 0.00590557 0.00367342
0.72339714 0.00591847 0.00367961
0.72401476 0.00593142 0.00368581
0.72463232 0.00594441 0.00369201
0.72524989 0.00595742 0.00369821
0.72586739 0.00597048 0.00370442
0.72648489 0.00598357 0.00371064
0.72710234 0.00599670 0.00371689
0.72771978 0.00600988 0.00372317
0.72833717 0.00602311 0.00372947
0.72895449 0.00603642 0.00373578
0.72957182 0.00604978 0.00374208
0.73018909 0.00606319 0.00374838
0.73080635 0.00607665 0.00375467
0.73142356 0.00609013 0.00376099
0.73204076 0.00610363 0.00376736
0.73265791 0.00611715 0.00377378
0.73327500 0.00616033 0.00379494
0.73389208 0.00617441 0.00380179
0.73450917 0.00618850 0.00380870
0.73512614 0.00620262 0.00381567
0.73574317 0.00621675 0.00382269
0.73636007 0.00623091 0.00382975
0.73697698 0.00624510 0.00383683
0.73759389 0.00625932 0.00384394
0.73821074 0.00627357 0.00385105
0.73882753 0.00628788 0.00385815
0.73944432 0.00630222 0.00386525
0.74006110 0.00631661 0.00387233
0.74067777 0.00633104 0.00387939
0.74129450 0.00634551 0.00388643
0.74191111 0.00636004 0.00389345
0.74252772 0.00637461 0.00390044
0.74314433 0.00638920 0.00390742
0.74376088 0.00640385 0.00391438
0.74437743 0.00641852 0.00392133
0.74499393 0.00643324 0.00392826
0.74561036 0.00644799 0.00393518
0.74622679 0.00646278 0.00394208
0.74684322 0.00647761 0.00394896
0.74745959 0.00652181 0.00397026
0.74807590 0.00653737 0.00397748
0.74869221 0.00655299 0.00398468
0.74930847 0.00656868 0.00399186
0.74992472 0.00658443 0.00399903
0.75054091 0.00660027 0.00400618
0.75115705 0.00661618 0.00401331
0.75177318 0.00663216 0.00402044
0.75238931 0.00664820 0.00402757
0.75300533 0.00666432 0.00403470
0.75362140 0.00668049 0.00404184
0.75423735 0.00669673 0.00404901
0.75485331 0.00671302 0.00405619
0.75546926 0.00672937 0.00406340
0.75608510 0.00674579 0.00407062
0.75670099 0.00676225 0.00407787
0.75731677 0.00677879 0.00408514
0.75793254 0.00679540 0.00409243
0.75854832 0.00681205 0.00409974
0.75916404 0.00682876 0.00410707
0.75977969 0.00684553 0.00411441
0.76039535 0.00686233 0.00412179
0.76101094 0.00690828 0.00414346
0.76162654 0.00692578 0.00415123
0.76224208 0.00694333 0.00415900
0.76285762 0.00696090 0.00416678
0.76347315 0.00697849 0.00417456
0.76408863 0.00699612 0.00418236
0.76470405 0.00701377 0.00419015
0.76531947 0.00703145 0.00419796
0.76593488 0.00704914 0.00420577
0.76655024 0.00706686 0.00421358
0.76716560 0.00708461 0.00422140
0.76778090 0.00710239 0.00422922
0.76839620 0.00712023 0.00423706
0.76901144 0.00713811 0.00424491
0.76962668 0.00715604 0.00425278
0.77024186 0.00717404 0.00426068
0.77085704 0.00719210 0.00426860
0.77147216 0.00721024 0.00427657
0.77208722 0.00722846 0.00428457
0.77270228 0.00724675 0.00429261
0.77331728 0.00726515 0.00430067
0.77393228 0.00728363 0.00430876
0.77454716 0.00730223 0.00431687
0.77516204 0.00734894 0.00433862
0.77577692 0.00736829 0.00434708
0.77639169 0.00738779 0.00435556
0.77700645 0.00740741 0.00436407
0.77762115 0.00742714 0.00437261
0.77823579 0.00744699 0.00438117
0.77885044 0.00746692 0.00438975
0.77946508 0.00748692 0.00439835
0.78007960 0.00750702 0.00440697
0.78069413 0.00752716 0.00441559
0.78130865 0.00754736 0.00442422
0.78192312 0.00756758 0.00443284
0.78253758 0.00758784 0.00444147
0.78315204 0.00760810 0.00445010
0.78376645 0.00762837 0.00445871
0.78438079 0.00764864 0.00446731
0.78499520 0.00766888 0.00447586
0.78560954 0.00768910 0.00448436
0.78622389 0.00770927 0.00449281
0.78683823 0.00772937 0.00450120
0.78745252 0.00774944 0.00450954
0.78806680 0.00779647 0.00453083
0.78868109 0.00781716 0.00453952
0.78929538 0.00783786 0.00454819
0.78990960 0.00785859 0.00455685
0.79052377 0.00787934 0.00456551
0.79113799 0.00790009 0.00457419
0.79175210 0.00792085 0.00458289
0.79236627 0.00794159 0.00459162
0.79298031 0.00796235 0.00460039
0.79359442 0.00798311 0.00460920
0.79420841 0.00800394 0.00461805
0.79482239 0.00802485 0.00462694
0.79543632 0.00804586 0.00463586
0.79605025 0.00806700 0.00464482
0.79666412 0.00808830 0.00465381
0.79727799 0.00810975 0.00466283
0.79789174 0.00815664 0.00468394
0.79850549 0.00817891 0.00469328
0.79911923 0.00820132 0.00470263
0.79973292 0.00822390 0.00471199
0.80034655 0.00824665 0.00472137
0.80096012 0.00826958 0.00473076
0.80157369 0.00829268 0.00474018
0.80218726 0.00831596 0.00474963
0.80280077 0.00833944 0.00475912
0.80341423 0.00836311 0.00476864
0.80402768 0.00838695 0.00477819
0.80464107 0.00841098 0.00478778
0.80525440 0.00843518 0.00479741
0.80586773 0.00845956 0.00480706
0.80648106 0.00848409 0.00481672
0.80709434 0.00850879 0.00482640
0.80770755 0.00853366 0.00483608
0.80832082 0.00855867 0.00484578
0.80893397 0.00858383 0.00485548
0.80954713 0.00860914 0.00486518
0.81016028 0.00863457 0.00487488
0.81077337 0.00866014 0.00488456
0.81138641 0.00868584 0.00489422
0.81199950 0.00871164 0.00490386
0.81261247 0.00873756 0.00491346
0.81322551 0.00876357 0.00492303
0.81383848 0.00878969 0.00493254
0.81445140 0.00881588 0.00494197
0.81506431 0.00884216 0.00495131
0.81567723 0.00889151 0.00497085
0.81629008 0.00891833 0.00498016
0.81690294 0.00894522 0.00498935
0.81751579 0.00897222 0.00499846
0.81812859 0.00899929 0.00500748
0.81874138 0.00902643 0.00501643
0.81935418 0.00905364 0.00502533
0.81996691 0.00908090 0.00503422
0.82057965 0.00910819 0.00504314
0.82119232 0.00913551 0.00505211
0.82180506 0.00916283 0.00506117
0.82241774 0.00919015 0.00507034
0.82303041 0.00921745 0.00507963
0.82364303 0.00924471 0.00508903
0.82425565 0.00927196 0.00509854
0.82486826 0.00929918 0.00510815
0.82548088 0.00932639 0.00511785
0.82609349 0.00935358 0.00512761
0.82670605 0.00938075 0.00513739
0.82731861 0.00940791 0.00514721
0.82793117 0.00945626 0.00516639
0.82854372 0.00948392 0.00517655
0.82915622 0.00951161 0.00518670
0.82976878 0.00953928 0.00519680
0.83038127 0.00956696 0.00520684
0.83099377 0.00959460 0.00521688
0.83160627 0.00962220 0.00522694
0.83221877 0.00964974 0.00523699
0.83283126 0.00967727 0.00524702
0.83344370 0.00970479 0.00525703
0.83405620 0.00973225 0.00526701
0.83466864 0.00975973 0.00527694
0.83528107 0.00978717 0.00528680
0.83589357 0.00981454 0.00529662
0.83650601 0.00984185 0.00530640
0.83711845 0.00986910 0.00531613
0.83773088 0.00989631 0.00532581
0.83834332 0.00994344 0.00534406
0.83895576 0.00997103 0.00535395
0.83956820 0.00999857 0.00536384
0.84018058 0.01002610 0.00537370
0.84079301 0.01005359 0.00538350
0.84140539 0.01008106 0.00539322
0.84201783 0.01010849 0.00540288
0.84263021 0.01013592 0.00541245
0.84324259 0.01016334 0.00542191
0.84385496 0.01019077 0.00543125
0.84446728 0.01021824 0.00544051
0.84507966 0.01024572 0.00544973
0.84569198 0.01027324 0.00545893
0.84630430 0.01032026 0.00547670
0.84691662 0.01034828 0.00548614
0.84752893 0.01037634 0.00549561
0.84814125 0.01040443 0.00550513
0.84875351 0.01043258 0.00551468
0.84936577 0.01046078 0.00552428
0.84997803 0.01048902 0.00553393
0.85059029 0.01051732 0.00554362
0.85120249 0.01054569 0.00555335
0.85181475 0.01057411 0.00556311
0.85242695 0.01062166 0.00558185
0.85303909 0.01065057 0.00559186
0.85365129 0.01067954 0.00560192
0.85426342 0.01070859 0.00561200
0.85487556 0.01073772 0.00562212
0.85548764 0.01076694 0.00563226
0.85609978 0.01079624 0.00564243
0.85671186 0.01082563 0.00565265
0.85732388 0.01085513 0.00566289
0.85793597 0.01088471 0.00567316
0.85854799 0.01091439 0.00568344
0.85915995 0.01096271 0.00570283
0.85977197 0.01099291 0.00571326
0.86038393 0.01102322 0.00572370
0.86099589 0.01105365 0.00573414
0.86160779 0.01108420 0.00574458
0.86221969 0.01111487 0.00575502
0.86283153 0.01114566 0.00576547
0.86344337 0.01117657 0.00577592
0.86405522 0.01120760 0.00578638
0.86466706 0.01123876 0.00579685
0.86527884 0.01127006 0.00580731
0.86589056 0.01130151 0.00581776
0.86650229 0.01133309 0.00582816
0.86711401 0.01136480 0.00583852
0.86772567 0.01141491 0.00585805
0.86833733 0.01144723 0.00586846
0.86894894 0.01147970 0.00587883
0.86956054 0.01151231 0.00588918
0.87017214 0.01154510 0.00589951
0.87078369 0.01157805 0.00590984
0.87139517 0.01161117 0.00592014
0.87200665 0.01164446 0.00593043
0.87261814 0.01167791 0.00594069
0.87322950 0.01171155 0.00595090
0.87384093 0.01174532 0.00596107
0.87445229 0.01177926 0.00597120
0.87506360 0.01181334 0.00598127
0.87567490 0.01184759 0.00599130
0.87628615 0.01188202 0.00600133
0.87689739 0.01191661 0.00601137
0.87750858 0.01196837 0.00603003
0.87811977 0.01200361 0.00604030
0.87873089 0.01203903 0.00605061
0.87934202 0.01207463 0.00606097
0.87995303 0.01211040 0.00607136
0.88056409 0.01214634 0.00608179
0.88117510 0.01218246 0.00609223
0.88178605 0.01221876 0.00610269
0.88239700 0.01225523 0.00611320
0.88300788 0.01229187 0.00612377
0.88361877 0.01232867 0.00613439
0.88422960 0.01236567 0.00614505
0.88484043 0.01240283 0.00615572
0.88545120 0.01244020 0.00616641
0.88606191 0.01249352 0.00618514
0.88667262 0.01253161 0.00619609
0.88728327 0.01256989 0.00620708
0.88789392 0.01260836 0.00621809
0.88850451 0.01264702 0.00622914
0.88911510 0.01268588 0.00624022
0.88972563 0.01272493 0.00625134
0.89033616 0.01276416 0.00626249
0.89094663 0.01280359 0.00627369
0.89155704 0.01284322 0.00628493
0.89216745 0.01288304 0.00629622
0.89277786 0.01292304 0.00630756
0.89338815 0.01296328 0.00631891
0.89399850 0.01301842 0.00633779
0.89460874 0.01305944 0.00634931
0.89521897 0.01310064 0.00636076
0.89582920 0.01314203 0.00637217
0.89643937 0.01318361 0.00638351
0.89704949 0.01322536 0.00639478
0.89765960 0.01326727 0.00640599
0.89826971 0.01330934 0.00641713
0.89887977 0.01335155 0.00642823
0.89948976 0.01339392 0.00643926
0.90009981 0.01343642 0.00645026
0.90070975 0.01347911 0.00646121
0.90131974 0.01352191 0.00647213
0.90192968 0.01356489 0.00648302
0.90253955 0.01362173 0.00650086
0.90314949 0.01366536 0.00651187
0.90375936 0.01370913 0.00652285
0.90436918 0.01375302 0.00653377
0.90497905 0.01379702 0.00654460
0.90558887 0.01384112 0.00655536
0.90619868 0.01388531 0.00656604
0.90680850 0.01392960 0.00657663
0.90741831 0.01397398 0.00658717
0.90802807 0.01401845 0.00659763
0.90863782 0.01406303 0.00660805
0.90924764 0.01410766 0.00661841
0.90985739 0.01415240 0.00662872
0.91046715 0.01417912 0.00663004
0.91107690 0.01422373 0.00664014
0.91168666 0.01426842 0.00665018
0.91229641 0.01431319 0.00666018
0.91290617 0.01435804 0.00667010
0.91351593 0.01440298 0.00667995
0.91412568 0.01444802 0.00668968
0.91473550 0.01449310 0.00669926
0.91534525 0.01453821 0.00670870
0.91595501 0.01461762 0.00673459
0.91656482 0.01466303 0.00674378
0.91717464 0.01469328 0.00674540
0.91778439 0.01473850 0.00675422
0.91839421 0.01478367 0.00676306
0.91900408 0.01482886 0.00677197
0.91961390 0.01487414 0.00678084
0.92022377 0.01491944 0.00678967
0.92083359 0.01496474 0.00679855
0.92144346 0.01500999 0.00680756
0.92205340 0.01505518 0.00681678
0.92266327 0.01510030 0.00682633
0.92327321 0.01514529 0.00683621
0.92388314 0.01519017 0.00684648
0.92449307 0.01523489 0.00685717
0.92510301 0.01527945 0.00686827
0.92571300 0.01532387 0.00687972
0.92632300 0.01538580 0.00689964
0.92693299 0.01543023 0.00691164
0.92754304 0.01547461 0.00692381
0.92815304 0.01551900 0.00693604
0.92876315 0.01556336 0.00694831
0.92937320 0.01560775 0.00696056
0.92998332 0.01565212 0.00697277
0.93059343 0.01569647 0.00698490
0.93120360 0.01575648 0.00700440
0.93181372 0.01580100 0.00701643
0.93242395 0.01584547 0.00702838
0.93303412 0.01588992 0.00704023
0.93364435 0.01593428 0.00705198
0.93425465 0.01597861 0.00706367
0.93486488 0.01602285 0.00707530
0.93547517 0.01606703 0.00708685
0.93608552 0.01611110 0.00709836
0.93669587 0.01615512 0.00710979
0.93730623 0.01619905 0.00712114
0.93791664 0.01624288 0.00713240
0.93852711 0.01628664 0.00714358
0.93913752 0.01633029 0.00715466
0.93974805 0.01638959 0.00717322
0.94035852 0.01643333 0.00718423
0.94096911 0.01647696 0.00719514
0.94157964 0.01652051 0.00720595
0.94219029 0.01656394 0.00721668
0.94280088 0.01660727 0.00722731
0.94341159 0.01665048 0.00723785
0.94402224 0.01669360 0.00724829
0.94463301 0.01673658 0.00725865
0.94524372 0.01677947 0.00726891
0.94585454 0.01682222 0.00727908
0.94646537 0.01686486 0.00728917
0.94707620 0.01690737 0.00729918
0.94768709 0.01694975 0.00730908
0.94829804 0.01699200 0.00731891
0.94890898 0.01705015 0.00733650
0.94951999 0.01709244 0.00734629
0.95013100 0.01713460 0.00735601
0.95074207 0.01717660 0.00736568
0.95135319 0.01721845 0.00737528
0.95196432 0.01726015 0.00738482
0.95257550 0.01730169 0.00739433
0.95318675 0.01734306 0.00740381
0.95379800 0.01738450 0.00741325
0.95440930 0.01742559 0.00742264
0.95502067 0.01746621 0.00743198
0.95563203 0.01750678 0.00744128
0.95624346 0.01754726 0.00745049
0.95685488 0.01760296 0.00746727
0.95746636 0.01764350 0.00747648
0.95807791 0.01768398 0.00748563
0.95868939 0.01772441 0.00749466
0.95930099 0.01776476 0.00750355
0.95991254 0.01780506 0.00751223
0.96052414 0.01784532 0.00752068
0.96113575 0.01788558 0.00752887
0.96174735 0.01792589 0.00753678
0.96235895 0.01797985 0.00755134
0.96297055 0.01802056 0.00755902
0.96358210 0.01806138 0.00756664
0.96419370 0.01810225 0.00757429
0.96480531 0.01814325 0.00758204
0.96541685 0.01818432 0.00758994
0.96602839 0.01823696 0.00760398
0.96663988 0.01827837 0.00761256
0.96725136 0.01831987 0.00762151
0.96786284 0.01836147 0.00763088
0.96847421 0.01840319 0.00764067
0.96908563 0.01844505 0.00765087
0.96969694 0.01852558 0.00768330
0.97030824 0.01856824 0.00769436
0.97091943 0.01861110 0.00770568
0.97153062 0.01865755 0.00771921
0.97214174 0.01870122 0.00773099
0.97275281 0.01870132 0.00771824
0.97336382 0.01874526 0.00772992
0.97397470 0.01880074 0.00774725
0.97458559 0.01888016 0.00777856
0.97519636 0.01892611 0.00779048
0.97580701 0.01897257 0.00780238
0.97641760 0.01901940 0.00781420
0.97702813 0.01906666 0.00782596
0.97763854 0.01911435 0.00783770
0.97824883 0.01916634 0.00785180
0.97885907 0.01921506 0.00786357
0.97946918 0.01926434 0.00787541
0.98007917 0.01931382 0.00788706
0.98068905 0.01936411 0.00789894
0.98129880 0.01941822 0.00791294
0.98190838 0.01947087 0.00792578
0.98251790 0.01952374 0.00793847
0.98312730 0.01957713 0.00795121
0.98373652 0.01963115 0.00796408
0.98434561 0.01968574 0.00797706
0.98495454 0.01974094 0.00799018
0.98556334 0.01979667 0.00800341
0.98617196 0.01985340 0.00801708
0.98678041 0.01991023 0.00803060
0.98738873 0.01997069 0.00804618
0.98799682 0.02003141 0.00806164
0.98860478 0.02009225 0.00807693
0.98921257 0.02015762 0.00809493
0.98982012 0.02022008 0.00811069
0.99042755 0.02028332 0.00812665
0.99103475 0.02034742 0.00814279
0.99164170 0.02041230 0.00815910
0.99224854 0.02047786 0.00817575
0.99284983 0.02054396 0.00819256
0.99334258 0.02059898 0.00820659
0.99374640 0.02064459 0.00821826
0.99407727 0.02067742 0.00822472
0.99434841 0.02070876 0.00823264
0.99457067 0.02073460 0.00823917
0.99475282 0.02075607 0.00824458
0.99490207 0.02077367 0.00824902
0.99502444 0.02078805 0.00825268
0.99512470 0.02079984 0.00825569
0.99520689 0.02080949 0.00825815
0.99527425 0.02081733 0.00826010
0.99532950 0.02082361 0.00826162
