0.02291594 2.40213880
0.02268816 2.42870378
0.02246013 2.45145320
0.02223240 2.44844994
0.02200486 2.42764180
0.02177737 2.48385444
0.02154981 2.43808358
0.02132203 2.39120321
0.02109392 2.35091568
0.02086539 2.32658774
0.02063644 2.32258052
0.02040724 2.33572373
0.02017793 2.35667427
0.01994866 2.37185417
0.01971955 2.36890561
0.01949053 2.34638150
0.01926146 2.40363499
0.01903221 2.36353923
0.01880265 2.33426641
0.01857280 2.32209353
0.01834275 2.32626839
0.01811258 2.34452954
0.01788236 2.37545316
0.01765214 2.41739915
0.01742197 2.37374063
0.01719192 2.42052948
0.01696207 2.44196091
0.01673274 2.51614541
0.01650345 2.46548732
0.01627392 2.42180358
0.01604417 2.38932021
0.01581422 2.36396625
0.01558411 2.44425051
0.01535385 2.42506265
0.01512347 2.40871970
0.01489299 2.39459376
0.01466243 2.38227488
0.01443182 2.37143020
0.01420116 2.36178894
0.01397049 2.35315376
0.01373981 2.34533871
0.01350915 2.33825590
0.01327851 2.33183473
0.01304792 2.43407793
0.01281738 2.42816166
0.01258691 2.42271449
0.01235651 2.41768982
0.01212620 2.41300572
0.01189598 2.40861824
0.01166586 2.40450102
0.01143584 2.40051405
0.01120593 2.39670160
0.01097613 2.39310250
0.01074645 2.38974674
0.01051688 2.38668046
0.01028742 2.38390189
0.01005808 2.50237683
0.00982884 2.50015943
0.00959972 2.49822588
0.00937070 2.49630864
0.00914178 2.49405044
0.00891296 2.49122672
0.00868424 2.48776444
0.00845562 2.48398221
0.00822713 2.47980598
0.00799878 2.47481962
0.00777058 2.46935361
0.00754255 2.59656693
0.00731472 2.59103923
0.00708709 2.58376273
0.00685970 2.57821752
0.00663257 2.56043469
0.00640572 2.44600279
0.00617920 2.18847340
0.00595310 2.41373199
0.00565985 2.53902756
0.00536651 2.51713586
0.00507465 2.50130790
0.00478460 2.48922230
0.00449657 2.47872092
0.00421049 2.46842110
0.00392625 2.45589967
0.00364368 2.44073149
0.00336262 2.57787669
0.00308287 2.54117838
0.00280805 2.52268011
0.00254093 2.52362188
0.00228066 2.52201490
0.00202641 2.51029012
0.00177713 2.48709137
0.00153225 2.45530440
0.00129326 2.41607286
0.00106121 2.38142267
0.00084475 2.37382589
0.00064997 2.38236423
0.00047331 2.36964529
0.00031177 2.56030314
0.00018008 2.57191225
0.00007682 2.58059134
-0.00000677 2.57500624
-0.00004433 2.38630740
-0.00006737 2.42863967
-0.00005200 2.48529557
-0.00000980 2.38373365
0.00004906 2.42211971
0.00013594 2.41219309
0.00024690 2.56912670
0.00036164 2.53403425
0.00050395 2.67853357
0.00066121 3.00221662
0.00081698 3.13512807
0.00097573 3.03322582
0.00114458 3.03402274
0.00133022 3.17800112
0.00152880 3.57744814
0.00173042 4.04157345
0.00193653 4.22005423
0.00214693 4.52434492
0.00236140 4.59380838
0.00257975 4.82352526
0.00280177 5.03055464
0.00302725 5.01740008
0.00325601 5.13243500
0.00348686 5.35571901
0.00366790 5.47740809
0.00385058 5.28552764
0.00403483 5.37833687
0.00422056 5.49742180
0.00440770 5.55108893
0.00459616 5.60465421
0.00478589 5.68013928
0.00497681 5.77824481
0.00516885 5.54611677
0.00536194 5.57232768
0.00555602 5.47971228
0.00575104 5.23177504
0.00594692 4.95161302
0.00614362 4.75702708
0.00634107 4.63919916
0.00653922 4.54481776
0.00673803 4.46772097
0.00693742 4.43543753
0.00713738 4.42664973
0.00733788 4.41598589
0.00753893 4.42945087
0.00774052 4.40736767
0.00794264 4.36488038
0.00814530 4.27502013
0.00834848 4.15985527
0.00855219 4.01761947
0.00875642 3.85582294
0.00896117 3.68402118
0.00916643 3.51081538
0.00937219 3.26578362
0.00957846 3.11533062
0.00978523 2.98103575
0.00999250 2.86215424
0.01020026 2.81424299
0.01040850 2.71798489
0.01061723 2.63307370
0.01082644 2.55816223
0.01103613 2.49213220
0.01124628 2.43391913
0.01145690 2.38261668
0.01166798 2.33739475
0.01187952 2.29749334
0.01209151 2.26226404
0.01230395 2.19100209
0.01251684 2.16421056
0.01273017 2.14060769
0.01294393 2.11985126
0.01315812 2.10166221
0.01337274 2.08579520
0.01358778 2.07203157
0.01380324 2.06022271
0.01401911 2.05025627
0.01423540 2.04200072
0.01445208 2.03533144
0.01466917 2.03011027
0.01488665 2.02622274
0.01510452 2.02359725
0.01532277 2.02218955
0.01554141 2.02195858
0.01576042 2.02285469
0.01597981 2.02478068
0.01619956 2.02761701
0.01641967 2.00045951
0.01664014 2.00447171
0.01686096 2.00962634
0.01708213 2.01592597
0.01730365 2.02335602
0.01752550 2.03193808
0.01774768 2.04168849
0.01797020 2.05260712
0.01819303 2.06468850
0.01841619 2.07792802
0.01863966 2.09221325
0.01886084 2.07914630
