0.99532950 2.63630679
0.99541616 2.63572142
0.99550277 2.63193253
0.99558932 2.62907764
0.99567574 2.62422788
0.99576199 2.61932341
0.99584806 2.61395887
0.99593389 2.60848309
0.99601936 2.60380702
0.99610454 2.59860677
0.99618924 2.59518900
0.99627340 2.59350208
0.99635702 2.59370803
0.99643999 2.59788557
0.99652243 2.60352367
0.99660444 2.61004339
0.99668616 2.61649395
0.99676770 2.62175721
0.99684924 2.62502204
0.99693084 2.62437854
0.99701273 2.61536604
0.99709487 2.59583409
0.99717700 2.56830192
0.99725837 2.66572566
0.99733829 2.65555058
0.99741620 2.65721344
0.99749213 2.66871502
0.99756652 2.68129473
0.99763966 2.69362054
0.99771202 2.58540586
0.99778414 2.59106954
0.99785632 2.58783792
0.99792832 2.57977159
0.99799997 2.69019654
0.99807101 2.67791351
0.99814105 2.66869336
0.99820983 2.66221142
0.99827701 2.66028953
0.99834239 2.66185693
0.99840611 2.66603312
0.99846834 2.67147729
0.99852931 2.67830158
0.99858934 2.68257374
0.99864858 2.68541118
0.99870735 2.68346508
0.99876553 2.67940763
0.99882293 2.67535687
0.99887937 2.66903117
0.99893463 2.66362356
0.99898851 2.65957463
0.99904078 2.65823969
0.99909139 2.66053467
0.99914050 2.66311437
0.99918818 2.66739671
0.99923480 2.66899964
0.99928033 2.67107519
0.99932516 2.66985793
0.99936926 2.66464821
0.99941254 2.65825887
0.99945474 2.65120995
0.99949574 2.64384121
0.99953538 2.63828323
0.99957335 2.63900638
0.99960965 2.63666704
0.99964428 2.63572323
0.99967736 2.63890393
0.99970907 2.64147222
0.99973959 2.64186545
0.99976903 2.64052844
0.99979752 2.63769016
0.99982512 2.63114339
0.99985152 2.62504322
0.99987668 2.61888798
0.99990034 2.61455698
0.99992251 2.61085046
0.99994296 2.60908270
0.99996161 2.61207726
0.99997872 2.61224980
0.99999434 2.61262334
1.00000846 2.61609988
1.00002134 2.61724298
1.00003314 2.61081106
1.00004363 2.60973402
1.00005305 2.60299287
1.00006104 2.60348940
1.00006771 2.59986831
1.00007284 2.59844065
1.00007641 2.59617840
1.00007832 2.59663333
1.00007868 2.59418278
1.00007737 2.59988595
1.00007463 2.59939909
1.00007045 2.60178351
1.00006485 2.60735577
1.00005805 2.61037763
1.00004995 2.60881359
1.00004053 2.60595441
1.00002968 2.60487125
1.00001740 2.60841164
1.00000370 2.60553443
0.99998838 2.61229080
0.99997163 2.61343524
0.99995345 2.61600926
0.99993378 2.62012155
0.99991274 2.62278750
0.99989033 2.62528688
0.99986649 2.62940208
0.99984127 2.63486949
0.99981469 2.63764135
0.99978673 2.64229897
0.99975747 2.64622481
0.99972677 2.65251919
0.99969482 2.65676313
0.99966156 5.05215220
0.99962705 5.12412333
0.99959123 5.21118268
0.99955416 5.26376963
0.99951577 5.33615012
0.99947602 5.41533988
0.99943495 5.44523722
0.99939251 5.50853829
0.99934870 5.51896752
0.99930358 5.55426517
0.99925727 5.57470943
0.99920976 5.56737761
0.99916112 5.60816021
0.99911153 5.59042747
0.99906093 5.53423347
0.99900925 5.55118515
0.99895644 5.55158813
0.99890244 5.47215654
0.99884725 5.46466589
0.99879068 5.49873641
0.99873281 5.40214016
0.99867374 5.34505900
0.99861366 5.35578261
0.99855256 5.31168913
0.99849057 5.27307273
0.99842781 5.21731383
0.99836433 5.19528426
0.99830002 5.18941135
0.99823481 5.11581478
0.99816865 5.07644867
0.99810141 5.07566421
0.99803305 5.05113596
0.99796355 5.00893775
0.99789304 5.00167438
0.99782157 4.97056162
0.99774927 4.93055185
0.99767625 4.95166575
0.99760258 4.93837699
0.99752837 4.88353719
0.99745363 4.84062450
0.99737829 4.80491822
0.99730223 4.73159244
0.99722540 4.69229627
0.99714768 4.60773655
0.99706906 4.49763837
0.99698955 4.38513717
0.99690914 4.33718166
0.99682802 4.20157052
0.99674624 4.08227302
0.99666387 3.96314747
0.99658102 3.84334763
0.99649769 3.80000511
0.99641395 3.66891113
0.99632978 3.55145870
0.99624509 3.42905526
0.99615997 3.31517685
0.99607444 3.20059597
0.99598843 3.09319732
0.99590200 3.04003106
0.99581522 2.93194611
0.99572796 2.82602911
0.99564034 2.72909514
0.99555230 2.63931448
0.99546391 2.55631219
0.99537516 2.48257720
0.99528617 2.41635183
0.99519700 2.35631034
0.99510777 2.30180989
0.99501848 2.25113602
0.99492913 2.20270769
0.99483973 2.15515800
0.99475038 2.10716699
0.99466103 2.08271354
0.99457169 2.03016362
0.99448234 1.97904289
0.99439293 1.96908025
0.99430346 1.92386392
0.99421400 1.88664806
0.99412453 1.85834533
0.99403512 1.83835090
0.99394584 1.82519148
0.99385661 1.81727628
0.99376744 1.85328525
0.99367839 1.85174365
0.99358934 1.85157462
0.99350035 1.85168417
0.99341136 1.85201452
