0.000000000000000000e+00 2.770174418938555760e+00
4.425025456673903346e-02 3.104713053519817745e+00
8.850050913347806691e-02 4.199848519510413603e+00
1.327507637002171004e-01 4.621713769164335517e+00
1.770010182669561338e-01 4.715977557080853089e+00
2.212512728336951673e-01 4.428124233412411570e+00
2.655015274004342007e-01 5.019520554242745902e+00
3.097517819671732342e-01 5.528538550928551842e+00
3.540020365339122677e-01 5.055134676941597682e+00
3.982522911006513011e-01 5.039611650213057459e+00
4.425025456673903346e-01 5.403965221261585405e+00
4.867528002341293680e-01 5.494311349236492781e+00
5.310030548008684015e-01 5.436210931552235337e+00
5.752533093676074349e-01 5.296063542891841891e+00
6.195035639343464684e-01 4.557959030639100462e+00
6.637538185010855019e-01 4.497242638572643614e+00
7.080040730678245353e-01 3.148649256379704831e+00
7.522543276345635688e-01 3.173342143347761546e+00
7.965045822013026022e-01 3.302954860565646467e+00
8.407548367680417467e-01 2.626075633528898834e+00
8.850050913347806691e-01 2.598780959923355116e+00
9.292553459015198136e-01 2.071047673503797260e+00
9.735056004682587361e-01 1.254667715344437884e+00
1.017755855034997881e+00 1.003137651850191991e+00
1.062006109601736803e+00 1.302854390105994797e+00
1.106256364168475947e+00 1.125403720066481261e+00
1.150506618735214870e+00 1.181149029762060154e+00
1.194756873301953792e+00 1.609372466369891175e+00
1.239007127868692937e+00 1.295052356634373902e+00
1.283257382435431859e+00 1.172494334207290434e+00
1.327507637002171004e+00 1.272267843521037056e+00
1.371757891568910148e+00 8.723845062014308205e-01
1.416008146135649071e+00 7.845098951437056156e-01
1.460258400702387993e+00 7.788649279689704441e-01
1.504508655269127138e+00 8.114742913582608796e-01
1.548758909835866060e+00 7.291982954679587792e-01
1.593009164402605204e+00 6.241830975031421591e-01
1.637259418969344349e+00 5.616075211325233241e-01
1.681509673536083493e+00 7.012539230231451537e-01
1.725759928102822416e+00 7.509226863196124535e-01
1.770010182669561338e+00 7.802997548694751151e-01
1.814260437236300483e+00 7.854869937225272825e-01
1.858510691803039627e+00 7.142511170977985380e-01
1.902760946369778550e+00 4.878403619604786412e-01
1.947011200936517472e+00 4.919081576779956722e-01
1.991261455503256839e+00 6.723005059819348039e-01
2.035511710069995761e+00 7.222255090038873782e-01
2.079761964636734461e+00 5.786368382787240305e-01
2.124012219203473606e+00 4.753154917472673380e-01
2.168262473770212306e+00 4.843680913336300131e-01
2.212512728336951895e+00 5.395115308497703266e-01
2.256762982903690595e+00 5.829656781381931108e-01
2.301013237470429740e+00 5.714512066052839234e-01
2.345263492037168884e+00 5.455477608389465161e-01
2.389513746603907585e+00 3.838415645270769061e-01
2.433764001170646729e+00 5.509669625196536025e-01
2.478014255737385874e+00 4.580052449600535702e-01
2.522264510304124574e+00 3.847765240745301130e-01
2.566514764870863718e+00 2.922014723316396778e-01
2.610765019437602863e+00 3.777849792509327398e-01
2.655015274004342007e+00 2.651104721153370036e-01
2.699265528571080708e+00 2.197665941656714306e-01
2.743515783137820296e+00 2.337124451976312911e-01
2.787766037704558997e+00 2.545844086242365911e-01
2.832016292271298141e+00 2.310098540227815411e-01
2.876266546838037286e+00 2.824942118985890871e-01
2.920516801404775986e+00 3.478473324815005707e-01
2.964767055971515131e+00 2.659334201713463020e-01
3.009017310538254275e+00 2.396281431050201749e-01
3.053267565104992975e+00 2.302682348709546856e-01
3.097517819671732120e+00 2.829252375878392733e-01
3.141768074238471264e+00 3.714245567839109530e-01
3.186018328805210409e+00 2.910592635326499922e-01
3.230268583371949553e+00 2.974303549977617145e-01
3.274518837938688698e+00 2.079369661103256106e-01
3.318769092505427398e+00 2.822053607256828633e-01
3.363019347072166987e+00 2.172353285505006226e-01
3.407269601638905243e+00 2.834308668789940477e-01
3.451519856205644832e+00 3.328782026608206324e-01
3.495770110772383532e+00 2.520242626095382521e-01
3.540020365339122677e+00 1.735335628934071561e-01
3.584270619905861377e+00 1.721111476277364938e-01
3.628520874472600966e+00 1.693404824509850692e-01
3.672771129039340110e+00 2.016771924422162687e-01
3.717021383606079254e+00 2.264929916684140510e-01
3.761271638172817955e+00 2.942426068663269167e-01
3.805521892739557099e+00 3.468893317895400119e-01
3.849772147306295800e+00 2.183219703137798118e-01
3.894022401873034944e+00 2.469862215804320971e-01
3.938272656439774089e+00 1.549768782122792621e-01
3.982522911006513677e+00 1.724632417854409516e-01
4.026773165573252378e+00 2.319683498496362128e-01
4.071023420139991522e+00 2.300904279406981445e-01
4.115273674706729778e+00 1.426018218759264877e-01
4.159523929273468923e+00 1.640451133951340845e-01
4.203774183840208956e+00 1.546987528210586327e-01
4.248024438406947212e+00 2.047715497312418420e-01
4.292274692973686356e+00 2.152103712811416214e-01
4.336524947540424613e+00 1.494293359827014167e-01
4.380775202107163757e+00 1.229869550918922111e-01
4.425025456673903790e+00 1.378620492939840181e-01
4.469275711240642934e+00 1.342335594269676580e-01
4.513525965807381191e+00 6.507651070501940804e-02
4.557776220374120335e+00 5.509893999001108655e-02
4.602026474940859480e+00 1.924823019982929706e-01
4.646276729507598624e+00 1.993027815113891377e-01
4.690526984074337769e+00 1.326813192680920961e-01
4.734777238641076913e+00 2.178422403523399553e-01
4.779027493207815169e+00 2.204718093552163749e-01
4.823277747774554314e+00 1.331850573411900995e-01
4.867528002341293458e+00 2.145372719289628527e-01
4.911778256908032603e+00 2.780577132817806385e-01
4.956028511474771747e+00 1.464632565112583273e-01
5.000278766041510892e+00 9.270166482117767059e-02
5.044529020608249148e+00 1.265719350450920933e-01
5.088779275174989181e+00 1.996422468093224933e-01
5.133029529741727437e+00 1.499448612615208454e-01
5.177279784308466581e+00 1.418868692836697254e-01
5.221530038875205726e+00 1.867691440215693555e-01
5.265780293441944870e+00 1.500444234807700727e-01
5.310030548008684015e+00 2.089761128406920632e-01
5.354280802575423159e+00 1.315301578062861576e-01
5.398531057142161416e+00 1.292569155487752475e-01
5.442781311708900560e+00 1.291203863319972389e-01
5.487031566275640593e+00 1.647599772599668000e-01
5.531281820842379737e+00 1.898518288085780104e-01
5.575532075409117994e+00 1.048614701320715742e-01
5.619782329975857138e+00 9.625931399493133089e-02
5.664032584542596283e+00 9.891923819224766878e-02
5.708282839109335427e+00 1.073082791570246081e-01
5.752533093676074571e+00 1.585379769400731276e-01
5.796783348242812828e+00 1.717624207029090078e-01
5.841033602809551972e+00 1.403663545354358333e-01
5.885283857376292005e+00 1.514778725295278239e-01
5.929534111943030261e+00 1.165279540705473627e-01
5.973784366509769406e+00 1.632598343086580361e-01
6.018034621076508550e+00 1.912174819107317347e-01
6.062284875643247695e+00 1.316746225046617758e-01
6.106535130209985951e+00 1.072169250765322296e-01
6.150785384776725095e+00 1.511437498058013085e-01
6.195035639343464240e+00 1.245238435924738152e-01
6.239285893910204273e+00 1.478076156753129755e-01
6.283536148476942529e+00 1.056039877612422045e-01
6.327786403043681673e+00 1.847209817305247859e-01
6.372036657610420818e+00 1.305242641964717565e-01
6.416286912177159962e+00 1.830256997950840125e-01
6.460537166743899107e+00 2.260965009209771892e-01
6.504787421310638251e+00 1.572199811226358546e-01
6.549037675877377396e+00 1.814635011107672558e-01
6.593287930444116540e+00 1.393291223970560266e-01
6.637538185010854797e+00 1.322352805549191490e-01
6.681788439577593941e+00 1.780655703115465172e-01
6.726038694144333974e+00 1.866763213314888981e-01
6.770288948711073118e+00 1.462611064262711869e-01
6.814539203277810486e+00 1.712885786864130067e-01
6.858789457844550519e+00 1.873245516019132195e-01
6.903039712411289663e+00 1.250098472068894018e-01
6.947289966978028808e+00 1.212378703644928918e-01
6.991540221544767064e+00 1.475386654937715647e-01
7.035790476111506209e+00 1.073434753464739960e-01
7.080040730678245353e+00 1.345752824024665506e-01
7.124290985244983609e+00 2.153796802064951721e-01
7.168541239811722754e+00 1.430589768997517497e-01
7.212791494378462787e+00 1.296149608182910196e-01
7.257041748945201931e+00 1.056143491410311830e-01
7.301292003511940187e+00 1.389762630052827352e-01
7.345542258078680220e+00 8.419754082448241417e-02
7.389792512645418476e+00 9.794352604886544245e-02
7.434042767212158509e+00 1.133277293754929166e-01
7.478293021778895877e+00 7.633310908966239872e-02
7.522543276345635910e+00 4.872758092406623970e-02
7.566793530912374166e+00 1.002133015052525805e-01
7.611043785479114199e+00 1.160405224380115785e-01
7.655294040045853343e+00 1.357586304894878582e-01
7.699544294612591600e+00 1.476163066023280235e-01
7.743794549179331632e+00 1.600286418988300929e-01
7.788044803746069888e+00 1.890279740305855771e-01
7.832295058312809033e+00 1.255895679448440216e-01
7.876545312879548177e+00 1.273159661193563330e-01
7.920795567446287322e+00 2.096460877260443445e-01
7.965045822013027355e+00 1.912176013265086127e-01
8.009296076579763835e+00 1.628412236340509578e-01
8.053546331146504755e+00 1.243830278680283508e-01
8.097796585713242123e+00 1.133447129066657705e-01
8.142046840279983044e+00 2.173689357342524220e-01
8.186297094846720412e+00 1.972331904388209545e-01
8.230547349413459557e+00 1.316670804654745675e-01
8.274797603980198701e+00 2.338684044819394903e-01
8.319047858546937846e+00 1.886471525975506602e-01
8.363298113113676990e+00 1.806655132083904713e-01
8.407548367680417911e+00 1.509752535665878914e-01
8.451798622247157056e+00 1.070671290459581787e-01
8.496048876813894424e+00 1.927334415054809402e-01
8.540299131380631792e+00 2.109314068738985526e-01
8.584549385947372713e+00 1.716812492562524717e-01
8.628799640514111857e+00 1.985952264930141431e-01
8.673049895080849225e+00 7.962540614124964666e-02
8.717300149647590146e+00 3.521529353079550645e-02
8.761550404214327514e+00 1.272580987770108862e-01
8.805800658781068435e+00 2.388261141349178329e-01
8.850050913347807580e+00 1.837087981397851899e-01
8.894301167914544948e+00 9.959990563842480160e-02
8.938551422481285869e+00 1.108953875528480848e-01
8.982801677048023237e+00 1.469091653882489967e-01
9.027051931614762381e+00 1.887793857201841008e-01
9.071302186181501526e+00 2.357955252433282800e-01
9.115552440748240670e+00 2.320610865014143265e-01
9.159802695314981591e+00 1.618889431264208256e-01
9.204052949881718959e+00 3.084599162910725556e-01
9.248303204448458104e+00 2.968381922512161042e-01
9.292553459015197248e+00 1.272860002676709512e-01
9.336803713581938169e+00 6.510136349322051541e-02
9.381053968148675537e+00 1.104770667356485825e-01
9.425304222715414681e+00 1.943574180337385438e-01
9.469554477282153826e+00 1.686263686591871758e-01
9.513804731848892970e+00 1.073121248519130350e-01
9.558054986415630339e+00 1.484537686741110030e-01
9.602305240982369483e+00 1.770057772460466028e-01
9.646555495549108628e+00 1.246531204940453524e-01
9.690805750115849548e+00 1.930736543178389331e-01
9.735056004682586916e+00 1.956251290805863796e-01
9.779306259249326061e+00 1.930926703757777918e-01
9.823556513816065205e+00 2.404411142817946268e-01
9.867806768382804350e+00 2.152237332140926884e-01
9.912057022949543494e+00 2.808382306943016382e-01
9.956307277516282639e+00 3.659231901872185833e-01
1.000055753208302178e+01 2.297834566536984813e-01
1.004480778664975915e+01 2.575068340636913478e-01
1.008905804121649830e+01 2.675653299958852260e-01
1.013330829578323922e+01 1.904841312375250839e-01
1.017755855034997836e+01 2.345074408354829720e-01
1.022180880491671573e+01 1.991353094116573019e-01
1.026605905948345487e+01 1.391140017786690886e-01
1.031030931405019402e+01 1.677579699874280628e-01
1.035455956861693316e+01 2.043463245451476451e-01
1.039880982318367231e+01 2.489567045104544574e-01
1.044306007775041145e+01 3.217855764535489382e-01
1.048731033231715060e+01 2.179508365733615061e-01
1.053156058688388974e+01 2.195592855033725310e-01
1.057581084145062711e+01 2.736704105986549895e-01
1.062006109601736803e+01 2.912411082740470891e-01
1.066431135058410717e+01 2.140128117646145633e-01
1.070856160515084632e+01 1.307108786521609112e-01
1.075281185971758546e+01 2.126685832883011273e-01
1.079706211428432283e+01 1.955071426643795462e-01
1.084131236885106375e+01 1.442883538849507874e-01
1.088556262341780112e+01 2.638401507760377851e-01
1.092981287798454026e+01 2.999983456099085677e-01
1.097406313255128119e+01 2.429820874274204734e-01
1.101831338711801855e+01 2.133825369012877227e-01
1.106256364168475947e+01 2.337735132304707419e-01
1.110681389625149684e+01 2.972172202833787136e-01
1.115106415081823599e+01 2.337847484759866534e-01
1.119531440538497868e+01 2.103218731117889317e-01
1.123956465995171428e+01 2.275552151141873314e-01
1.128381491451845342e+01 3.268544458880135450e-01
1.132806516908519257e+01 2.308202217001627254e-01
1.137231542365193171e+01 1.989145766770572255e-01
1.141656567821867085e+01 2.178895559153388450e-01
1.146081593278540822e+01 3.078277688932235523e-01
1.150506618735214914e+01 2.680957392112562343e-01
1.154931644191888651e+01 1.997277634387459588e-01
1.159356669648562566e+01 1.735224594685574606e-01
1.163781695105236658e+01 2.200864736360850504e-01
1.168206720561910394e+01 3.072084306960536360e-01
1.172631746018584487e+01 3.269141685150578347e-01
1.177056771475258401e+01 3.103177722702953334e-01
1.181481796931932315e+01 3.633023822765689137e-01
1.185906822388606052e+01 3.231977450862387191e-01
1.190331847845279967e+01 2.901800398685973614e-01
1.194756873301953881e+01 2.842957061623015425e-01
1.199181898758627796e+01 2.322512584657088486e-01
1.203606924215301710e+01 2.747734918681710714e-01
1.208031949671975624e+01 2.540486951519812520e-01
1.212456975128649539e+01 3.530403428695528811e-01
1.216882000585323453e+01 3.123320927870121833e-01
1.221307026041997190e+01 2.820453514384297367e-01
1.225732051498671105e+01 2.807665371748812588e-01
1.230157076955345019e+01 2.939047026387672235e-01
1.234582102412019111e+01 3.626373636267184453e-01
1.239007127868692848e+01 3.215864583033082869e-01
1.243432153325366940e+01 3.538449552185378710e-01
1.247857178782040855e+01 4.263776002402034360e-01
1.252282204238714769e+01 4.753969296971471969e-01
1.256707229695388506e+01 3.615981523586321855e-01
1.261132255152062420e+01 2.589008648969586268e-01
1.265557280608736335e+01 2.202213530646288941e-01
1.269982306065410249e+01 1.753621169588936435e-01
1.274407331522084164e+01 2.085656776969682935e-01
1.278832356978758078e+01 2.570424485654119739e-01
1.283257382435431992e+01 3.307320532239897970e-01
1.287682407892105729e+01 3.264993321476120647e-01
1.292107433348779821e+01 4.195496401922537699e-01
1.296532458805453558e+01 3.998447438278797117e-01
1.300957484262127650e+01 2.428627600022174038e-01
1.305382509718801387e+01 2.169181193187331991e-01
1.309807535175475479e+01 3.156050151421989636e-01
1.314232560632149394e+01 3.335469138593236127e-01
1.318657586088823308e+01 4.884978219462639548e-01
1.323082611545497045e+01 5.687862797723889363e-01
1.327507637002170959e+01 4.255212812375028242e-01
1.331932662458844874e+01 2.841533118193727003e-01
1.336357687915518788e+01 2.464322328936519035e-01
1.340782713372192703e+01 3.114254029982770899e-01
1.345207738828866795e+01 4.602420387675990598e-01
1.349632764285540532e+01 3.885558035670301225e-01
1.354057789742214624e+01 3.182011239914989131e-01
1.358482815198888360e+01 3.107244759418511526e-01
1.362907840655562097e+01 3.730906843755300017e-01
1.367332866112236189e+01 3.936050345702634679e-01
1.371757891568910104e+01 3.176548356041051790e-01
1.376182917025584018e+01 3.836216688249656226e-01
1.380607942482257933e+01 3.261554889991862827e-01
1.385032967938931847e+01 3.592636964345310990e-01
1.389457993395605762e+01 4.330266876098975981e-01
1.393883018852279498e+01 4.138005606059804165e-01
1.398308044308953413e+01 5.941854561432496906e-01
1.402733069765627327e+01 5.641079705090613627e-01
1.407158095222301242e+01 4.581420370101021433e-01
1.411583120678975156e+01 5.034423332956619035e-01
1.416008146135649071e+01 4.308915307427262364e-01
1.420433171592322985e+01 3.685295801273194560e-01
1.424858197048996722e+01 4.172055315602557490e-01
1.429283222505670814e+01 4.636108524729107838e-01
1.433708247962344551e+01 3.464183449752316624e-01
1.438133273419018643e+01 2.187480076015644315e-01
1.442558298875692557e+01 2.735388273949830862e-01
1.446983324332366472e+01 5.182556662122912439e-01
1.451408349789040386e+01 5.913225767397096710e-01
1.455833375245714301e+01 5.977182983432571817e-01
1.460258400702388037e+01 5.106529184630825835e-01
1.464683426159061952e+01 4.193840718913863785e-01
1.469108451615736044e+01 5.079082534596002230e-01
1.473533477072409958e+01 4.116776431872444242e-01
1.477958502529083695e+01 3.361631100864270194e-01
1.482383527985757610e+01 4.165269217028883530e-01
1.486808553442431702e+01 5.254927005890456249e-01
1.491233578899105616e+01 3.773597763037891406e-01
1.495658604355779175e+01 2.488730748317691532e-01
1.500083629812453268e+01 3.937899737695035873e-01
1.504508655269127182e+01 5.830639371206800536e-01
1.508933680725801096e+01 5.325317902449842045e-01
1.513358706182474833e+01 3.498198848563959795e-01
1.517783731639148925e+01 3.346112970012202759e-01
1.522208757095822840e+01 4.249538030785393050e-01
1.526633782552496754e+01 5.392573222550205436e-01
1.531058808009170669e+01 3.955755274262174326e-01
1.535483833465844405e+01 2.684263192825577793e-01
1.539908858922518320e+01 2.529608722810932075e-01
1.544333884379192412e+01 3.330797606924020826e-01
1.548758909835866326e+01 3.166713712111380863e-01
1.553183935292540241e+01 4.004825333480739324e-01
1.557608960749213978e+01 3.885656821391487714e-01
1.562033986205887892e+01 3.487502975196568600e-01
1.566459011662561807e+01 3.942907280311528928e-01
1.570884037119235543e+01 4.250580879323724859e-01
1.575309062575909635e+01 4.491410223482987796e-01
1.579734088032583550e+01 4.838687057117363466e-01
1.584159113489257464e+01 4.813414517645522306e-01
1.588584138945931379e+01 5.347601932278150949e-01
1.593009164402605471e+01 4.554321817978432274e-01
1.597434189859279030e+01 4.922566775373657388e-01
1.601859215315952767e+01 3.964987185653794377e-01
1.606284240772627214e+01 3.207662247873980799e-01
1.610709266229300951e+01 4.800720000738365467e-01
1.615134291685974688e+01 5.258695189394378966e-01
1.619559317142648425e+01 5.056276673359804130e-01
1.623984342599322872e+01 3.938196102771783225e-01
1.628409368055996609e+01 3.588862663769784578e-01
1.632834393512669990e+01 4.155843399023363416e-01
1.637259418969344082e+01 3.642583555185361921e-01
1.641684444426018175e+01 4.124347205076402956e-01
1.646109469882691911e+01 3.662382348093911610e-01
1.650534495339366359e+01 3.421630971462682469e-01
1.654959520796039740e+01 4.504485148849482479e-01
1.659384546252713832e+01 4.665499395011024064e-01
1.663809571709387569e+01 4.032822434093829012e-01
1.668234597166061661e+01 4.621128760698292037e-01
1.672659622622735398e+01 4.619538223065413618e-01
1.677084648079409135e+01 5.658525461867481843e-01
1.681509673536083582e+01 5.109289119055275830e-01
1.685934698992757319e+01 5.479141420120500205e-01
1.690359724449431411e+01 4.806852372851230792e-01
1.694784749906104793e+01 4.741472513080572937e-01
1.699209775362778885e+01 5.218131759724330410e-01
1.703634800819452622e+01 4.191904239429820600e-01
1.708059826276126358e+01 3.788882094033609871e-01
1.712484851732800450e+01 3.738110304142586715e-01
1.716909877189474543e+01 4.832066399356350073e-01
1.721334902646148279e+01 4.465720655746061585e-01
1.725759928102822371e+01 4.094365389875331274e-01
1.730184953559496464e+01 7.278906219549262646e-01
1.734609979016169845e+01 6.642176074808229247e-01
1.739035004472843937e+01 4.792508819073065807e-01
1.743460029929518029e+01 5.572151334959087876e-01
1.747885055386191766e+01 4.221347387734957213e-01
1.752310080842865503e+01 3.522151131527874179e-01
1.756735106299539595e+01 4.247650331140894187e-01
1.761160131756213687e+01 5.062627626702912442e-01
1.765585157212887779e+01 5.137654402878928384e-01
1.770010182669561516e+01 4.818891495750514675e-01
1.774435208126235253e+01 3.781575677487591935e-01
1.778860233582908990e+01 3.598905954050886646e-01
1.783285259039583082e+01 3.548694605887767195e-01
1.787710284496257174e+01 2.655039842167238873e-01
1.792135309952930911e+01 2.999985107721817035e-01
1.796560335409604647e+01 4.022153202530631133e-01
1.800985360866278739e+01 4.820137255235197316e-01
1.805410386322952476e+01 4.492482288490170506e-01
1.809835411779626213e+01 4.155099702821229424e-01
1.814260437236300305e+01 5.239055709080990830e-01
1.818685462692974397e+01 5.099076792471171071e-01
1.823110488149648134e+01 5.588798999535806722e-01
1.827535513606322226e+01 4.144373974656278548e-01
1.831960539062996318e+01 2.731777952824057110e-01
1.836385564519670055e+01 3.997531570781869270e-01
1.840810589976343792e+01 4.354180240053810436e-01
1.845235615433017884e+01 5.707212151328768801e-01
1.849660640889691621e+01 5.584389399079054961e-01
1.854085666346365358e+01 4.768323067872193288e-01
1.858510691803039450e+01 3.722577539464921870e-01
1.862935717259713542e+01 3.437121088070626551e-01
1.867360742716387634e+01 3.714687973524836151e-01
1.871785768173061015e+01 4.146680307098605800e-01
1.876210793629735107e+01 5.069326773595939084e-01
