0.01886084 0.00321037 4.56550541 0.00361567
0.01908307 0.00323482 4.59295891 0.00364321
0.01931639 0.00360048 4.45950944 0.00405503
0.01956136 0.00363346 4.46542063 0.00409217
0.01981856 0.00366675 4.47413785 0.00412967
0.02008860 0.00370029 4.48625558 0.00416744
0.02037212 0.00373388 4.50236641 0.00420527
0.02066979 0.00376732 4.52270233 0.00424294
0.02098232 0.00380047 4.54689212 0.00428027
0.02131045 0.00383309 4.57453408 0.00431700
0.02165497 0.00386486 4.60553690 0.00435279
0.02201667 0.00424052 4.49463465 0.00477588
0.02239644 0.00428176 4.49856140 0.00482232
0.02279516 0.00432298 4.50341560 0.00486875
0.02321378 0.00436376 4.51312516 0.00491468
0.02365329 0.00440389 4.52771536 0.00495987
0.02411475 0.00444315 4.54674441 0.00500408
0.02459924 0.00448123 4.56911230 0.00504697
0.02510792 0.00451782 4.59364304 0.00508818
0.02564199 0.00489776 4.49988164 0.00551609
0.02617675 0.00494068 4.50508443 0.00556443
0.02671147 0.00498097 4.51183286 0.00560981
0.02724617 0.00501880 4.52023087 0.00565242
0.02778085 0.00505430 4.53013467 0.00569240
0.02831551 0.00508744 4.54149124 0.00572972
0.02885016 0.00511827 4.55371479 0.00576444
0.02938480 0.00514696 4.56581375 0.00579675
0.02991945 0.00551114 4.49089523 0.00620691
0.03045409 0.00554336 4.48862850 0.00624320
0.03098873 0.00557402 4.48545939 0.00627772
0.03152339 0.00560338 4.48116566 0.00631080
0.03205806 0.00563162 4.47593617 0.00634261
0.03259275 0.00565866 4.47039345 0.00637305
0.03312747 0.00568439 4.46496204 0.00640203
0.03366221 0.00570880 4.45979192 0.00642952
0.03419699 0.00573249 4.44958505 0.00645620
0.03473180 0.00575507 4.43816857 0.00648164
0.03526665 0.00610350 4.37195223 0.00687406
0.03580155 0.00612849 4.35402213 0.00690220
0.03633650 0.00615250 4.33612740 0.00692924
0.03687150 0.00617555 4.31821791 0.00695520
0.03740656 0.00619834 4.29553705 0.00698086
0.03794168 0.00622063 4.27077611 0.00700598
0.03847687 0.00624228 4.24580173 0.00703035
0.03901213 0.00626325 4.22078210 0.00705397
0.03954746 0.00628417 4.19126175 0.00707753
0.04008288 0.00630456 4.16111225 0.00710050
0.04061839 0.00632432 4.13139313 0.00712275
0.04115399 0.00634414 4.09765830 0.00714508
0.04168969 0.00636342 4.06433603 0.00716679
0.04222549 0.00638258 4.02893071 0.00718837
0.04276141 0.00640140 3.99307084 0.00720957
0.04329745 0.00674082 3.92469896 0.00759184
0.04383361 0.00676223 3.88462313 0.00761595
0.04436990 0.00678362 3.84374116 0.00764004
0.04490631 0.00680494 3.80234182 0.00766405
0.04544285 0.00682610 3.76090474 0.00768788
0.04597950 0.00684717 3.71948646 0.00771161
0.04651627 0.00686811 3.67825121 0.00773520
0.04705314 0.00688892 3.63740125 0.00775863
0.04759012 0.00690957 3.59701254 0.00778188
0.04812720 0.00692999 3.55729558 0.00780489
0.04866437 0.00695018 3.51835504 0.00782762
0.04920164 0.00697012 3.48024050 0.00785008
0.04973900 0.00698982 3.44298536 0.00787227
0.05027644 0.00700926 3.40660394 0.00789416
0.05081396 0.00702844 3.37111041 0.00791577
0.05135156 0.00735367 3.32669206 0.00828206
0.05188923 0.00737390 3.29209033 0.00830483
0.05242697 0.00739387 3.25840622 0.00832733
0.05296478 0.00741362 3.22558839 0.00834957
0.05350265 0.00743313 3.19360004 0.00837155
0.05404057 0.00745242 3.16241340 0.00839328
0.05457856 0.00747148 3.13200392 0.00841473
0.05511659 0.00749030 3.10233464 0.00843594
0.05565466 0.00750891 3.07336801 0.00845689
0.05619278 0.00752731 3.04506989 0.00847761
0.05673093 0.00754547 3.01742307 0.00849807
0.05726912 0.00756339 2.99040358 0.00851825
0.05780733 0.00758108 2.96397968 0.00853818
0.05834557 0.00759856 2.93812161 0.00855787
0.05888383 0.00761583 2.91280580 0.00857731
0.05942210 0.00763286 2.88801691 0.00859650
0.05996039 0.00764966 2.86373960 0.00861542
0.06049869 0.00766624 2.83995164 0.00863409
0.06103700 0.00768262 2.81663681 0.00865253
0.06157534 0.00769881 2.79377528 0.00867077
0.06211369 0.00771482 2.77135936 0.00868880
0.06265205 0.00773067 2.74938752 0.00870665
0.06319043 0.00774637 2.72785054 0.00872433
0.06372882 0.00776192 2.70673688 0.00874185
0.06426723 0.00777734 2.68604019 0.00875921
0.06480566 0.00779262 2.66575258 0.00877642
0.06534411 0.00780778 2.64586208 0.00879349
0.06588257 0.00782281 2.62635977 0.00881043
0.06642105 0.00783773 2.60723930 0.00882723
0.06695955 0.00785253 2.58848731 0.00884390
0.06749806 0.00786722 2.57009350 0.00886044
0.06803659 0.00788180 2.55204533 0.00887686
0.06857514 0.00821003 2.52741111 0.00924652
0.06911369 0.00822562 2.50982859 0.00926409
0.06965228 0.00824116 2.49258663 0.00928159
0.07019088 0.00825664 2.47567798 0.00929902
0.07072950 0.00827207 2.45909450 0.00931640
0.07126813 0.00828746 2.44283194 0.00933373
0.07180680 0.00830280 2.42688727 0.00935101
0.07234547 0.00831808 2.41125006 0.00936822
0.07288416 0.00833331 2.39591730 0.00938538
0.07342287 0.00834852 2.38088078 0.00940250
0.07396161 0.00836369 2.36613349 0.00941959
0.07450036 0.00837881 2.35167092 0.00943662
0.07503913 0.00839387 2.33748875 0.00945357
0.07557791 0.00840886 2.32358464 0.00947046
0.07611673 0.00842379 2.30995261 0.00948728
0.07665556 0.00843868 2.29658755 0.00950404
0.07719441 0.00845352 2.28348330 0.00952076
0.07773328 0.00846833 2.27063077 0.00953744
0.07827216 0.00848309 2.25802323 0.00955406
0.07881108 0.00849781 2.24565831 0.00957064
0.07935001 0.00851249 2.23352908 0.00958717
0.07988896 0.00852712 2.22162973 0.00960365
0.08042794 0.00854171 2.20995791 0.00962008
0.08096693 0.00855625 2.19850965 0.00963646
0.08150595 0.00857074 2.18727677 0.00965277
0.08204498 0.00858517 2.17625516 0.00966903
0.08258404 0.00859955 2.16543767 0.00968523
0.08312312 0.00861389 2.15481984 0.00970137
0.08366221 0.00862816 2.14439330 0.00971745
0.08420134 0.00864238 2.13415468 0.00973346
0.08474047 0.00865653 2.12410100 0.00974940
0.08527963 0.00867062 2.11422520 0.00976526
0.08581881 0.00868464 2.10452657 0.00978105
0.08635801 0.00869859 2.09499757 0.00979676
0.08689723 0.00871246 2.08563736 0.00981239
0.08743647 0.00872626 2.07644107 0.00982793
0.08797573 0.00873996 2.06740266 0.00984337
0.08851501 0.00875357 2.05851926 0.00985868
0.08905432 0.00908844 2.04620479 0.01023584
0.08959364 0.00910295 2.03756415 0.01025218
0.09013298 0.00911741 2.02907225 0.01026846
0.09067234 0.00913181 2.02072572 0.01028469
0.09121173 0.00914614 2.01252085 0.01030082
0.09175113 0.00916039 2.00445629 0.01031687
0.09229055 0.00917457 1.99653038 0.01033284
0.09282999 0.00918868 1.98874108 0.01034873
0.09336946 0.00920271 1.98108162 0.01036454
0.09390894 0.00921668 1.97355061 0.01038027
0.09444844 0.00923056 1.96614581 0.01039590
0.09498797 0.00924438 1.95886420 0.01041146
0.09552751 0.00925811 1.95170502 0.01042693
0.09606707 0.00927176 1.94466323 0.01044230
0.09660665 0.00928534 1.93773790 0.01045759
0.09714625 0.00929883 1.93092441 0.01047278
0.09768587 0.00931223 1.92422306 0.01048788
0.09822551 0.00932557 1.91762791 0.01050290
0.09876517 0.00933881 1.91113780 0.01051781
0.09930485 0.00935196 1.90475241 0.01053263
0.09984455 0.00936503 1.89846948 0.01054734
0.10038427 0.00937800 1.89228195 0.01056195
0.10092401 0.00939088 1.88619341 0.01057646
0.10146376 0.00940367 1.88019679 0.01059087
0.10200354 0.00941636 1.87429377 0.01060516
0.10254334 0.00942896 1.86848084 0.01061935
0.10308316 0.00944147 1.86275718 0.01063343
0.10362300 0.00945387 1.85712034 0.01064741
0.10416287 0.00946619 1.85156972 0.01066127
0.10470276 0.00947841 1.84609843 0.01067504
0.10524266 0.00949053 1.84071384 0.01068869
0.10578259 0.00950255 1.83540706 0.01070223
0.10632254 0.00951447 1.83018164 0.01071566
0.10686252 0.00952629 1.82503333 0.01072896
0.10740252 0.00953800 1.81995881 0.01074216
0.10794254 0.00954961 1.81495995 0.01075523
0.10848258 0.00956111 1.81003048 0.01076818
0.10902265 0.00957250 1.80517369 0.01078100
0.10956274 0.00958375 1.80038451 0.01079368
0.11010285 0.00959488 1.79566238 0.01080622
0.11064300 0.00960589 1.79100830 0.01081862
0.11118317 0.00961678 1.78641883 0.01083088
0.11172336 0.00962755 1.78189576 0.01084301
0.11226357 0.00963821 1.77743413 0.01085501
0.11280381 0.00964872 1.77303215 0.01086685
0.11334407 0.00965909 1.76869247 0.01087853
0.11388437 0.00966931 1.76441059 0.01089004
0.11442468 0.01000824 1.75813835 0.01127176
0.11496503 0.01001941 1.75397070 0.01128434
0.11550540 0.01003048 1.74986483 0.01129681
0.11604580 0.01004146 1.74581579 0.01130918
0.11658622 0.01005234 1.74182631 0.01132143
0.11712667 0.01006311 1.73789256 0.01133356
0.11766715 0.01007379 1.73401633 0.01134558
0.11820766 0.01008436 1.73019412 0.01135748
0.11874820 0.01009482 1.72642456 0.01136927
0.11928876 0.01010517 1.72271213 0.01138093
0.11982936 0.01011542 1.71905138 0.01139247
0.12036997 0.01012556 1.71543966 0.01140389
0.12091062 0.01013558 1.71188080 0.01141518
0.12145130 0.01014550 1.70837156 0.01142635
0.12199201 0.01015531 1.70491001 0.01143740
0.12253275 0.01016500 1.70149781 0.01144832
0.12307351 0.01017459 1.69813282 0.01145911
0.12361431 0.01018405 1.69481515 0.01146977
0.12415513 0.01019341 1.69154153 0.01148031
0.12469599 0.01020266 1.68831266 0.01149072
0.12523687 0.01021178 1.68512887 0.01150100
0.12577780 0.01022079 1.68199257 0.01151114
0.12631874 0.01022968 1.67889531 0.01152116
0.12685972 0.01023846 1.67584105 0.01153104
0.12740073 0.01024710 1.67282829 0.01154078
0.12794177 0.01025563 1.66985843 0.01155038
0.12848285 0.01026403 1.66692645 0.01155984
0.12902394 0.01027230 1.66403250 0.01156916
0.12956508 0.01028046 1.66117778 0.01157834
0.13010626 0.01028849 1.65836340 0.01158739
0.13064745 0.01029641 1.65558382 0.01159631
0.13118868 0.01030422 1.65283925 0.01160510
0.13172995 0.01031191 1.65013336 0.01161376
0.13227125 0.01031948 1.64746281 0.01162229
0.13281257 0.01032694 1.64482390 0.01163069
0.13335393 0.01033426 1.64222179 0.01163894
0.13389534 0.01034148 1.63965007 0.01164707
0.13443676 0.01034857 1.63711139 0.01165506
0.13497822 0.01035556 1.63460457 0.01166292
0.13551971 0.01036243 1.63212726 0.01167066
0.13606125 0.01036918 1.62968284 0.01167826
0.13660282 0.01037581 1.62726717 0.01168573
0.13714442 0.01038232 1.62487907 0.01169307
0.13768604 0.01038871 1.62252023 0.01170026
0.13822772 0.01039497 1.62019097 0.01170731
0.13876942 0.01040110 1.61788841 0.01171422
0.13931116 0.01040711 1.61561240 0.01172099
0.13985293 0.01041301 1.61336112 0.01172763
0.14039475 0.01041878 1.61113927 0.01173413
0.14093658 0.01042443 1.60894275 0.01174049
0.14147846 0.01042994 1.60676582 0.01174670
0.14202037 0.01077030 1.60333798 0.01213003
0.14256233 0.01077722 1.60124018 0.01213782
0.14310431 0.01078410 1.59916689 0.01214557
0.14364634 0.01079092 1.59712321 0.01215326
0.14418840 0.01079771 1.59510323 0.01216090
0.14473051 0.01080444 1.59311282 0.01216848
0.14527264 0.01081113 1.59114902 0.01217601
0.14581481 0.01081778 1.58920807 0.01218350
0.14635701 0.01082439 1.58729336 0.01219094
0.14689927 0.01083095 1.58540739 0.01219833
0.14744155 0.01083748 1.58354569 0.01220569
0.14798388 0.01084398 1.58170751 0.01221301
0.14852624 0.01085044 1.57989547 0.01222028
0.14906862 0.01085687 1.57810516 0.01222752
0.14961107 0.01086325 1.57634259 0.01223472
0.15015353 0.01086962 1.57460247 0.01224188
0.15069605 0.01087595 1.57288602 0.01224901
0.15123861 0.01088224 1.57119517 0.01225610
0.15178120 0.01088850 1.56952627 0.01226315
0.15232383 0.01089473 1.56788072 0.01227017
0.15286650 0.01090093 1.56625751 0.01227715
0.15340920 0.01090708 1.56465906 0.01228408
0.15395194 0.01091320 1.56308143 0.01229097
0.15449473 0.01091928 1.56153003 0.01229781
0.15503757 0.01092532 1.55999984 0.01230462
0.15558043 0.01093132 1.55848974 0.01231137
0.15612334 0.01093727 1.55700121 0.01231808
0.15666629 0.01094316 1.55553758 0.01232471
0.15720928 0.01094901 1.55409282 0.01233130
0.15775231 0.01095482 1.55267195 0.01233785
0.15829538 0.01096060 1.55127264 0.01234435
0.15883848 0.01096632 1.54989456 0.01235080
0.15938164 0.01097198 1.54854364 0.01235717
0.15992483 0.01097759 1.54721372 0.01236349
0.16046807 0.01098312 1.54590879 0.01236972
0.16101134 0.01098860 1.54462398 0.01237588
0.16155465 0.01099399 1.54336038 0.01238195
0.16209801 0.01099931 1.54211192 0.01238795
0.16264139 0.01100455 1.54087838 0.01239385
0.16318482 0.01100971 1.53965518 0.01239966
0.16372827 0.01101477 1.53844020 0.01240536
0.16427176 0.01101973 1.53722883 0.01241095
0.16481528 0.01102458 1.53602259 0.01241641
0.16535881 0.01102933 1.53481320 0.01242176
0.16590239 0.01103397 1.53360449 0.01242698
0.16644599 0.01103849 1.53239362 0.01243208
0.16698962 0.01104289 1.53118508 0.01243703
0.16753328 0.01104718 1.52997816 0.01244186
0.16807696 0.01105133 1.52877145 0.01244654
0.16862068 0.01139351 1.52672220 0.01283192
0.16916443 0.01139932 1.52556303 0.01283846
0.16970821 0.01140509 1.52440862 0.01284496
0.17025203 0.01141080 1.52326791 0.01285138
0.17079587 0.01141646 1.52213619 0.01285776
0.17133975 0.01142208 1.52101642 0.01286409
0.17188366 0.01142766 1.51990806 0.01287038
0.17242759 0.01143319 1.51881498 0.01287660
0.17297158 0.01143868 1.51773404 0.01288279
0.17351559 0.01144414 1.51666850 0.01288894
0.17405964 0.01144956 1.51561896 0.01289505
0.17460373 0.01145495 1.51458746 0.01290112
0.17514786 0.01146031 1.51357251 0.01290715
0.17569202 0.01146563 1.51257599 0.01291315
0.17623621 0.01147093 1.51159709 0.01291911
0.17678045 0.01147621 1.51063329 0.01292506
0.17732473 0.01148146 1.50968650 0.01293097
0.17786902 0.01148669 1.50875259 0.01293686
0.17841336 0.01149190 1.50782915 0.01294273
0.17895775 0.01149709 1.50691792 0.01294857
0.17950214 0.01150224 1.50601636 0.01295437
0.18004659 0.01150736 1.50512365 0.01296014
0.18059105 0.01151245 1.50423378 0.01296587
0.18113555 0.01151750 1.50335311 0.01297157
0.18168008 0.01152252 1.50247788 0.01297722
0.18222465 0.01152750 1.50160963 0.01298283
0.18276924 0.01153245 1.50074573 0.01298839
0.18331386 0.01153734 1.49988766 0.01299391
0.18385851 0.01154220 1.49903668 0.01299938
0.18440320 0.01154703 1.49818921 0.01300482
0.18494791 0.01155181 1.49735044 0.01301021
0.18549266 0.01155655 1.49651609 0.01301554
0.18603744 0.01156126 1.49568666 0.01302084
0.18658224 0.01156591 1.49486207 0.01302608
0.18712707 0.01157051 1.49404219 0.01303126
0.18767193 0.01157507 1.49322827 0.01303640
0.18821682 0.01157958 1.49241809 0.01304148
0.18876174 0.01158403 1.49161538 0.01304649
0.18930671 0.01158843 1.49081451 0.01305144
0.18985169 0.01159275 1.49001868 0.01305631
0.19039670 0.01159701 1.48922791 0.01306111
0.19094174 0.01160122 1.48843778 0.01306585
0.19148679 0.01160536 1.48765197 0.01307051
0.19203189 0.01160939 1.48687206 0.01307505
0.19257702 0.01161337 1.48609491 0.01307954
0.19312218 0.01161726 1.48532269 0.01308392
0.19366735 0.01162110 1.48455165 0.01308824
0.19421257 0.01162486 1.48378608 0.01309247
0.19475780 0.01162854 1.48302332 0.01309661
0.19530308 0.01163210 1.48226640 0.01310063
0.19584838 0.01197616 1.48092071 0.01348813
0.19639370 0.01198155 1.48020064 0.01349420
0.19693905 0.01198693 1.47948189 0.01350025
0.19748443 0.01199227 1.47877355 0.01350627
0.19802985 0.01199759 1.47806813 0.01351226
0.19857529 0.01200289 1.47736905 0.01351823
0.19912075 0.01200819 1.47667159 0.01352420
0.19966625 0.01201345 1.47598228 0.01353012
0.20021176 0.01201867 1.47529921 0.01353600
0.20075731 0.01202388 1.47461928 0.01354187
0.20130289 0.01202907 1.47394268 0.01354771
0.20184849 0.01203422 1.47327375 0.01355352
0.20239413 0.01203934 1.47260956 0.01355929
0.20293979 0.01204444 1.47195064 0.01356503
0.20348547 0.01204952 1.47129439 0.01357074
0.20403120 0.01205456 1.47064552 0.01357642
0.20457694 0.01205957 1.47000049 0.01358207
0.20512271 0.01206455 1.46936027 0.01358767
0.20566851 0.01206950 1.46872380 0.01359325
0.20621432 0.01207441 1.46809132 0.01359877
0.20676018 0.01207928 1.46746375 0.01360426
0.20730606 0.01208410 1.46684163 0.01360969
0.20785196 0.01208888 1.46622361 0.01361507
0.20839790 0.01209361 1.46560997 0.01362040
0.20894386 0.01209829 1.46499997 0.01362567
0.20948984 0.01210291 1.46439621 0.01363088
0.21003586 0.01210748 1.46379661 0.01363602
0.21058190 0.01211200 1.46320016 0.01364112
0.21112797 0.01211647 1.46260803 0.01364615
0.21167405 0.01212089 1.46201943 0.01365112
0.21222018 0.01212524 1.46143733 0.01365603
0.21276632 0.01212955 1.46085659 0.01366088
0.21331249 0.01213380 1.46028016 0.01366567
0.21385869 0.01213798 1.45970767 0.01367037
0.21440491 0.01214211 1.45913506 0.01367503
0.21495116 0.01214618 1.45856433 0.01367961
0.21549742 0.01215019 1.45799555 0.01368412
0.21604373 0.01215411 1.45743032 0.01368854
0.21659003 0.01215800 1.45686213 0.01369292
0.21713638 0.01216180 1.45629578 0.01369721
0.21768275 0.01216554 1.45573002 0.01370141
0.21822913 0.01216920 1.45516297 0.01370553
0.21877554 0.01217277 1.45459746 0.01370955
0.21932198 0.01217627 1.45402848 0.01371350
0.21986844 0.01217968 1.45345939 0.01371734
0.22041491 0.01218301 1.45288804 0.01372109
0.22096142 0.01218625 1.45231451 0.01372474
0.22150794 0.01218942 1.45173644 0.01372831
0.22205448 0.01219249 1.45115776 0.01373177
0.22260104 0.01219547 1.45057706 0.01373512
0.22314763 0.01219837 1.44999363 0.01373839
0.22369424 0.01220120 1.44940885 0.01374158
0.22424087 0.01220394 1.44882307 0.01374467
0.22478752 0.01220659 1.44823666 0.01374764
0.22533420 0.01220912 1.44764815 0.01375050
0.22588089 0.01221156 1.44705841 0.01375324
0.22642761 0.01255913 1.44607898 0.01414469
0.22697435 0.01256338 1.44551597 0.01414948
0.22752112 0.01256759 1.44495566 0.01415422
0.22806790 0.01257177 1.44439508 0.01415893
0.22861472 0.01257592 1.44383685 0.01416360
0.22916156 0.01258003 1.44328111 0.01416823
0.22970840 0.01258413 1.44272412 0.01417285
0.23025529 0.01258818 1.44217229 0.01417741
0.23080219 0.01259222 1.44161965 0.01418196
0.23134911 0.01259623 1.44106897 0.01418648
0.23189606 0.01260022 1.44051829 0.01419097
0.23244303 0.01260416 1.43997254 0.01419541
0.23299003 0.01260807 1.43942856 0.01419981
0.23353705 0.01261196 1.43888605 0.01420419
0.23408408 0.01261583 1.43834341 0.01420855
0.23463115 0.01261965 1.43780552 0.01421286
0.23517825 0.01262344 1.43726975 0.01421712
0.23572536 0.01262721 1.43673463 0.01422136
0.23627250 0.01263093 1.43620101 0.01422556
0.23681965 0.01263461 1.43567164 0.01422970
0.23736684 0.01263825 1.43514260 0.01423381
0.23791404 0.01264187 1.43461467 0.01423788
0.23846129 0.01264541 1.43409295 0.01424187
0.23900853 0.01264893 1.43356996 0.01424583
0.23955582 0.01265239 1.43305086 0.01424973
0.24010313 0.01265581 1.43253406 0.01425357
0.24065046 0.01265919 1.43201728 0.01425739
0.24119781 0.01266253 1.43150339 0.01426115
0.24174519 0.01266581 1.43099356 0.01426484
0.24229260 0.01266904 1.43048455 0.01426848
0.24284002 0.01267223 1.42997758 0.01427207
0.24338748 0.01267535 1.42947304 0.01427558
0.24393496 0.01267841 1.42897230 0.01427904
0.24448246 0.01268144 1.42847041 0.01428244
0.24502999 0.01268440 1.42797224 0.01428578
0.24557754 0.01268730 1.42747675 0.01428905
0.24612512 0.01269015 1.42698332 0.01429225
0.24667272 0.01269292 1.42649391 0.01429537
0.24722035 0.01269564 1.42600381 0.01429844
0.24776800 0.01269831 1.42551651 0.01430144
0.24831568 0.01270090 1.42503271 0.01430436
0.24886338 0.01270342 1.42455080 0.01430720
0.24941112 0.01270590 1.42406837 0.01430999
0.24995887 0.01270831 1.42358967 0.01431270
0.25050667 0.01271063 1.42311488 0.01431532
0.25105447 0.01271289 1.42264156 0.01431786
0.25160229 0.01271508 1.42217013 0.01432033
0.25215015 0.01271721 1.42169886 0.01432273
0.25269803 0.01271924 1.42123259 0.01432501
0.25324595 0.01272123 1.42076315 0.01432726
0.25379390 0.01272310 1.42030389 0.01432937
0.25434184 0.01272495 1.41983958 0.01433144
0.25488985 0.01272669 1.41938098 0.01433340
0.25543785 0.01272837 1.41892161 0.01433530
0.25598589 0.01272999 1.41846362 0.01433712
0.25653395 0.01273151 1.41801134 0.01433884
0.25708205 0.01273299 1.41755601 0.01434050
0.25763017 0.01273438 1.41710588 0.01434207
0.25817829 0.01273571 1.41665685 0.01434357
0.25872648 0.01273698 1.41621133 0.01434499
0.25927466 0.01273821 1.41576311 0.01434638
0.25982291 0.01273932 1.41532551 0.01434763
0.26037115 0.01274039 1.41488273 0.01434884
0.26091942 0.01309242 1.41418979 0.01474531
0.26146773 0.01309543 1.41377569 0.01474870
0.26201606 0.01309842 1.41336499 0.01475207
0.26256442 0.01310141 1.41295921 0.01475543
0.26311278 0.01310442 1.41255171 0.01475883
0.26366121 0.01310743 1.41215023 0.01476222
0.26420963 0.01311045 1.41175289 0.01476562
0.26475811 0.01311350 1.41135882 0.01476905
0.26530659 0.01311655 1.41097212 0.01477248
0.26585513 0.01311958 1.41059544 0.01477590
0.26640368 0.01312267 1.41021958 0.01477938
0.26695225 0.01312575 1.40985493 0.01478285
0.26750088 0.01312884 1.40949857 0.01478633
0.26804951 0.01313195 1.40914982 0.01478984
0.26859817 0.01313510 1.40880625 0.01479338
0.26914689 0.01313824 1.40847186 0.01479692
0.26969561 0.01314144 1.40814068 0.01480051
0.27024436 0.01314464 1.40781578 0.01480412
0.27079314 0.01314784 1.40749865 0.01480773
0.27134195 0.01315111 1.40717846 0.01481141
0.27189079 0.01315435 1.40687044 0.01481506
0.27243966 0.01315763 1.40656109 0.01481876
0.27298856 0.01316093 1.40625530 0.01482246
0.27353749 0.01316420 1.40595443 0.01482615
0.27408642 0.01316748 1.40565520 0.01482985
0.27463540 0.01317077 1.40535774 0.01483355
0.27518439 0.01317406 1.40505857 0.01483726
0.27573341 0.01317732 1.40476571 0.01484092
0.27628246 0.01318059 1.40446948 0.01484461
0.27683154 0.01318380 1.40417951 0.01484823
0.27738065 0.01318702 1.40388742 0.01485185
0.27792978 0.01319021 1.40359647 0.01485544
0.27847892 0.01319338 1.40330606 0.01485902
0.27902812 0.01319654 1.40301615 0.01486257
0.27957731 0.01319968 1.40272548 0.01486611
0.28012654 0.01320274 1.40244318 0.01486956
0.28067580 0.01320580 1.40215815 0.01487300
0.28122509 0.01320881 1.40187480 0.01487640
0.28177437 0.01321179 1.40159183 0.01487975
0.28232372 0.01321470 1.40131400 0.01488303
0.28287306 0.01321756 1.40103902 0.01488625
0.28342244 0.01322039 1.40076333 0.01488944
0.28397185 0.01322313 1.40049382 0.01489253
0.28452128 0.01322585 1.40022185 0.01489559
0.28507072 0.01322851 1.39995166 0.01489858
0.28562021 0.01323108 1.39968591 0.01490148
0.28616971 0.01323358 1.39942168 0.01490429
0.28671923 0.01323603 1.39915589 0.01490705
0.28726879 0.01323838 1.39889253 0.01490970
0.28781837 0.01324065 1.39862997 0.01491225
0.28836796 0.01324283 1.39836830 0.01491471
0.28891757 0.01324492 1.39810593 0.01491706
0.28946722 0.01324689 1.39784713 0.01491928
0.29001689 0.01324875 1.39758939 0.01492138
0.29056659 0.01325054 1.39733100 0.01492339
0.29111630 0.01325224 1.39707034 0.01492530
0.29166603 0.01325383 1.39681101 0.01492709
0.29221579 0.01325532 1.39655176 0.01492878
0.29276559 0.01325672 1.39629303 0.01493035
0.29331538 0.01325804 1.39603300 0.01493184
0.29386520 0.01325925 1.39577450 0.01493321
0.29441506 0.01326038 1.39551687 0.01493447
0.29496494 0.01326143 1.39525645 0.01493566
0.29551485 0.01326240 1.39499840 0.01493675
0.29606476 0.01326330 1.39473924 0.01493776
0.29661471 0.01362001 1.39428464 0.01533951
0.29716468 0.01362304 1.39404660 0.01534292
0.29771465 0.01362606 1.39380910 0.01534632
0.29826465 0.01362906 1.39357122 0.01534970
0.29881468 0.01363207 1.39333208 0.01535309
0.29936475 0.01363506 1.39309296 0.01535646
0.29991481 0.01363800 1.39285883 0.01535977
0.30046490 0.01364096 1.39262088 0.01536310
0.30101502 0.01364392 1.39238124 0.01536643
0.30156514 0.01364686 1.39214325 0.01536975
0.30211532 0.01364977 1.39190879 0.01537302
0.30266547 0.01365272 1.39166821 0.01537634
0.30321568 0.01365564 1.39143106 0.01537963
0.30376589 0.01365858 1.39119052 0.01538294
0.30431613 0.01366151 1.39095079 0.01538625
0.30486640 0.01366442 1.39071514 0.01538952
0.30541667 0.01366739 1.39047051 0.01539287
0.30596700 0.01367031 1.39023419 0.01539616
0.30651730 0.01367328 1.38999178 0.01539951
0.30706766 0.01367622 1.38975561 0.01540281
0.30761802 0.01367922 1.38951114 0.01540620
0.30816841 0.01368217 1.38927495 0.01540952
0.30871883 0.01368516 1.38903422 0.01541288
0.30926925 0.01368816 1.38879145 0.01541627
0.30981970 0.01369113 1.38855384 0.01541960
0.31037015 0.01369413 1.38831063 0.01542299
0.31092066 0.01369709 1.38807325 0.01542631
0.31147116 0.01370007 1.38783085 0.01542967
0.31202170 0.01370303 1.38758979 0.01543300
0.31257224 0.01370596 1.38735052 0.01543630
0.31312281 0.01370888 1.38711031 0.01543960
0.31367341 0.01371179 1.38686891 0.01544288
0.31422403 0.01371468 1.38662788 0.01544613
0.31477466 0.01371754 1.38638874 0.01544934
0.31532532 0.01372038 1.38614667 0.01545255
0.31587598 0.01372316 1.38590765 0.01545568
0.31642666 0.01372592 1.38566715 0.01545879
0.31697738 0.01372864 1.38542656 0.01546186
0.31752813 0.01373127 1.38519065 0.01546482
0.31807888 0.01373391 1.38494948 0.01546778
0.31862968 0.01373641 1.38471789 0.01547060
0.31918046 0.01373892 1.38447961 0.01547343
0.31973130 0.01374136 1.38424185 0.01547618
0.32028213 0.01374372 1.38400750 0.01547883
0.32083300 0.01374600 1.38377372 0.01548141
0.32138386 0.01374818 1.38354352 0.01548386
0.32193479 0.01375030 1.38331178 0.01548624
0.32248572 0.01375232 1.38308086 0.01548852
0.32303664 0.01375425 1.38284894 0.01549069
0.32358763 0.01375604 1.38262184 0.01549271
0.32413861 0.01375771 1.38239593 0.01549460
0.32468960 0.01375931 1.38216499 0.01549640
0.32524064 0.01376070 1.38194366 0.01549796
0.32579169 0.01376200 1.38171814 0.01549942
0.32634276 0.01376316 1.38149244 0.01550073
0.32689384 0.01376413 1.38127155 0.01550182
0.32744497 0.01376498 1.38104794 0.01550278
0.32799610 0.01376563 1.38083212 0.01550352
0.32854724 0.01376621 1.38060892 0.01550417
0.32909843 0.01376663 1.38039050 0.01550464
0.32964963 0.01376689 1.38017514 0.01550493
0.33020085 0.01376705 1.37995736 0.01550512
0.33075207 0.01376709 1.37974061 0.01550516
0.33130333 0.01376702 1.37952524 0.01550507
0.33185461 0.01376681 1.37931274 0.01550485
0.33240592 0.01376651 1.37910109 0.01550451
0.33295724 0.01412643 1.37874084 0.01590986
0.33350858 0.01412854 1.37854907 0.01591224
0.33405995 0.01413059 1.37836326 0.01591454
0.33461133 0.01413262 1.37817706 0.01591684
0.33516273 0.01413468 1.37799120 0.01591915
0.33571416 0.01413672 1.37780953 0.01592145
0.33626562 0.01413874 1.37763214 0.01592373
0.33681709 0.01414078 1.37745458 0.01592603
0.33736858 0.01414282 1.37727941 0.01592832
0.33792007 0.01414487 1.37710658 0.01593063
0.33847162 0.01414695 1.37693420 0.01593297
0.33902317 0.01414901 1.37676771 0.01593529
0.33957472 0.01415114 1.37659750 0.01593769
0.34012634 0.01415329 1.37643157 0.01594011
0.34067795 0.01415548 1.37626606 0.01594258
0.34122959 0.01415765 1.37610776 0.01594503
0.34178123 0.01415994 1.37594368 0.01594760
0.34233290 0.01416223 1.37578625 0.01595018
0.34288460 0.01416461 1.37562491 0.01595286
0.34343630 0.01416699 1.37547197 0.01595554
0.34398806 0.01416946 1.37531618 0.01595833
0.34453979 0.01417199 1.37516231 0.01596117
0.34509158 0.01417460 1.37500879 0.01596411
0.34564337 0.01417726 1.37485885 0.01596711
0.34619519 0.01418001 1.37471174 0.01597020
0.34674701 0.01418287 1.37456159 0.01597343
0.34729889 0.01418575 1.37442081 0.01597667
0.34785077 0.01418874 1.37427614 0.01598004
0.34840265 0.01419181 1.37413161 0.01598349
0.34895456 0.01419488 1.37399354 0.01598696
0.34950650 0.01419802 1.37385651 0.01599049
0.35005847 0.01420120 1.37372095 0.01599408
0.35061044 0.01420442 1.37358855 0.01599770
0.35116243 0.01420764 1.37346176 0.01600132
0.35171446 0.01421092 1.37333388 0.01600502
0.35226649 0.01421421 1.37320910 0.01600872
0.35281855 0.01421751 1.37308769 0.01601244
0.35337064 0.01422081 1.37297023 0.01601615
0.35392272 0.01422411 1.37285404 0.01601987
0.35447484 0.01422739 1.37274127 0.01602357
0.35502699 0.01423067 1.37263072 0.01602726
0.35557914 0.01423391 1.37252265 0.01603091
0.35613132 0.01423710 1.37241930 0.01603450
0.35668349 0.01424025 1.37231754 0.01603805
0.35723573 0.01424333 1.37221913 0.01604152
0.35778794 0.01424638 1.37211989 0.01604496
0.35834020 0.01424935 1.37202470 0.01604830
0.35889247 0.01425223 1.37193330 0.01605155
0.35944477 0.01425502 1.37184488 0.01605468
0.35999706 0.01425773 1.37175581 0.01605774
0.36054942 0.01426031 1.37167050 0.01606065
0.36110175 0.01426277 1.37158746 0.01606342
0.36165413 0.01426511 1.37150391 0.01606605
0.36220652 0.01426727 1.37142448 0.01606849
0.36275890 0.01426929 1.37134475 0.01607076
0.36331132 0.01427109 1.37127111 0.01607278
0.36386377 0.01427276 1.37119345 0.01607466
0.36441624 0.01427419 1.37112283 0.01607628
0.36496872 0.01427546 1.37105119 0.01607771
0.36552119 0.01427658 1.37097824 0.01607897
0.36607373 0.01427752 1.37090903 0.01608002
0.36662626 0.01427827 1.37084356 0.01608087
0.36717880 0.01427892 1.37077398 0.01608161
0.36773136 0.01427940 1.37070906 0.01608215
0.36828396 0.01427976 1.37064452 0.01608255
0.36883655 0.01427994 1.37058510 0.01608275
0.36938918 0.01464550 1.37038994 0.01649447
0.36994180 0.01464839 1.37034933 0.01649772
0.37049446 0.01465125 1.37030981 0.01650094
0.37104714 0.01465409 1.37027367 0.01650413
0.37159982 0.01465693 1.37023667 0.01650733
0.37215251 0.01465975 1.37020139 0.01651051
0.37270525 0.01466252 1.37017277 0.01651364
0.37325796 0.01466537 1.37013939 0.01651684
0.37381074 0.01466817 1.37011441 0.01652000
0.37436351 0.01467103 1.37008965 0.01652321
0.37491629 0.01467392 1.37006571 0.01652647
0.37546909 0.01467685 1.37004387 0.01652977
0.37602192 0.01467981 1.37002419 0.01653310
0.37657475 0.01468281 1.37000614 0.01653649
0.37712759 0.01468588 1.36998984 0.01653994
0.37768048 0.01468899 1.36997638 0.01654345
0.37823334 0.01469217 1.36996481 0.01654703
0.37878627 0.01469546 1.36995224 0.01655073
0.37933916 0.01469879 1.36994538 0.01655449
0.37989211 0.01470228 1.36993407 0.01655842
0.38044503 0.01470588 1.36992463 0.01656247
0.38099802 0.01470957 1.36992000 0.01656662
0.38155097 0.01471342 1.36991254 0.01657096
0.38210398 0.01471737 1.36991117 0.01657540
0.38265696 0.01472149 1.36990755 0.01658004
0.38321000 0.01472575 1.36990498 0.01658485
0.38376302 0.01473018 1.36990041 0.01658984
0.38431609 0.01473471 1.36989888 0.01659494
0.38486913 0.01473937 1.36989500 0.01660018
0.38542220 0.01474407 1.36989716 0.01660548
0.38597530 0.01474888 1.36989631 0.01661090
0.38652840 0.01475377 1.36989580 0.01661640
0.38708153 0.01475867 1.36990070 0.01662192
0.38763466 0.01476366 1.36990198 0.01662754
0.38818780 0.01476869 1.36990436 0.01663321
0.38874096 0.01477378 1.36990454 0.01663894
0.38929415 0.01477883 1.36991158 0.01664463
0.38984734 0.01478394 1.36991532 0.01665038
0.39040053 0.01478904 1.36992057 0.01665612
0.39095375 0.01479416 1.36992336 0.01666189
0.39150697 0.01479921 1.36993265 0.01666757
0.39206022 0.01480423 1.36994154 0.01667323
0.39261347 0.01480924 1.36994676 0.01667888
0.39316672 0.01481418 1.36995497 0.01668443
0.39372000 0.01481903 1.36996592 0.01668990
0.39427328 0.01482382 1.36997500 0.01669529
0.39482659 0.01482848 1.36998835 0.01670054
0.39537990 0.01483307 1.36999837 0.01670571
0.39593324 0.01483749 1.37001317 0.01671070
0.39648658 0.01484180 1.37002690 0.01671555
0.39703992 0.01484596 1.37003880 0.01672023
0.39759329 0.01484991 1.37005471 0.01672468
0.39814666 0.01485368 1.37006827 0.01672893
0.39870006 0.01485720 1.37008664 0.01673289
0.39925346 0.01486048 1.37010379 0.01673659
0.39980689 0.01486351 1.37012113 0.01673999
0.40036029 0.01486628 1.37013564 0.01674312
0.40091375 0.01486876 1.37015277 0.01674591
0.40146717 0.01487099 1.37016977 0.01674842
0.40202063 0.01487294 1.37018957 0.01675061
0.40257409 0.01487466 1.37020727 0.01675255
0.40312758 0.01487618 1.37022198 0.01675426
0.40368107 0.01487744 1.37023966 0.01675568
0.40423459 0.01487844 1.37026211 0.01675682
0.40478808 0.01524754 1.37014550 0.01717251
0.40534163 0.01525124 1.37018382 0.01717668
0.40589514 0.01525489 1.37021959 0.01718079
0.40644869 0.01525850 1.37025229 0.01718486
0.40700224 0.01526200 1.37029059 0.01718879
0.40755582 0.01526541 1.37033188 0.01719263
0.40810940 0.01526879 1.37037036 0.01719644
0.40866297 0.01527212 1.37041038 0.01720019
0.40921658 0.01527544 1.37044926 0.01720393
0.40977019 0.01527870 1.37049018 0.01720761
0.41032380 0.01528195 1.37053020 0.01721126
0.41087744 0.01528519 1.37057224 0.01721491
0.41143104 0.01528850 1.37060900 0.01721864
0.41198471 0.01529182 1.37064922 0.01722237
0.41253835 0.01529517 1.37068825 0.01722616
0.41309202 0.01529855 1.37073074 0.01722996
0.41364568 0.01530203 1.37076851 0.01723388
0.41419938 0.01530553 1.37080980 0.01723783
0.41475308 0.01530914 1.37084968 0.01724188
0.41530678 0.01531281 1.37089013 0.01724602
0.41586047 0.01531659 1.37092927 0.01725028
0.41641420 0.01532045 1.37097260 0.01725463
0.41696793 0.01532447 1.37101129 0.01725915
0.41752166 0.01532860 1.37105262 0.01726381
0.41807541 0.01533287 1.37109610 0.01726861
0.41862917 0.01533733 1.37113740 0.01727364
0.41918293 0.01534198 1.37117834 0.01727887
0.41973671 0.01534680 1.37122074 0.01728430
0.42029047 0.01535181 1.37126123 0.01728994
0.42084426 0.01535695 1.37130419 0.01729574
0.42139807 0.01536226 1.37134534 0.01730172
0.42195186 0.01536766 1.37139101 0.01730779
0.42250568 0.01537318 1.37143455 0.01731401
0.42305949 0.01537881 1.37147694 0.01732035
0.42361334 0.01538450 1.37152216 0.01732676
0.42416719 0.01539023 1.37157020 0.01733321
0.42472100 0.01539607 1.37161127 0.01733979
0.42527488 0.01540189 1.37165917 0.01734635
0.42582873 0.01540779 1.37170191 0.01735299
0.42638260 0.01541365 1.37174867 0.01735960
0.42693648 0.01541957 1.37179041 0.01736626
0.42749035 0.01542542 1.37183585 0.01737285
0.42804423 0.01543122 1.37188254 0.01737938
0.42859814 0.01543700 1.37192640 0.01738589
0.42915204 0.01544271 1.37197043 0.01739232
0.42970595 0.01544834 1.37201382 0.01739866
0.43025988 0.01545382 1.37206190 0.01740483
0.43081379 0.01545923 1.37210556 0.01741092
0.43136773 0.01546450 1.37214862 0.01741686
0.43192166 0.01546958 1.37219539 0.01742258
0.43247560 0.01547451 1.37223823 0.01742813
0.43302956 0.01547919 1.37228483 0.01743341
0.43358353 0.01548366 1.37232947 0.01743844
0.43413749 0.01548789 1.37237129 0.01744321
0.43469146 0.01549178 1.37241829 0.01744758
0.43524542 0.01549542 1.37246028 0.01745168
0.43579942 0.01549870 1.37250351 0.01745537
0.43635342 0.01550161 1.37254774 0.01745866
0.43690741 0.01550419 1.37259011 0.01746156
0.43746141 0.01550640 1.37263264 0.01746405
0.43801540 0.01550829 1.37267467 0.01746618
0.43856943 0.01587888 1.37258904 0.01788356
0.43912345 0.01588316 1.37264376 0.01788838
0.43967748 0.01588730 1.37269695 0.01789303
0.44023150 0.01589125 1.37275108 0.01789749
0.44078553 0.01589506 1.37280693 0.01790177
0.44133958 0.01589871 1.37286429 0.01790588
0.44189364 0.01590224 1.37292004 0.01790987
0.44244766 0.01590565 1.37297921 0.01791370
0.44300175 0.01590897 1.37303606 0.01791744
0.44355580 0.01591223 1.37308990 0.01792112
0.44410986 0.01591537 1.37314888 0.01792465
0.44466394 0.01591844 1.37320786 0.01792811
0.44521803 0.01592147 1.37326534 0.01793152
0.44577211 0.01592444 1.37332364 0.01793486
0.44632620 0.01592737 1.37338115 0.01793817
0.44688028 0.01593028 1.37343759 0.01794145
0.44743437 0.01593316 1.37349495 0.01794469
0.44798848 0.01593601 1.37355495 0.01794790
0.44854259 0.01593890 1.37361233 0.01795115
0.44909671 0.01594182 1.37366831 0.01795444
0.44965082 0.01594476 1.37372754 0.01795775
0.45020494 0.01594779 1.37378341 0.01796116
0.45075905 0.01595085 1.37384261 0.01796462
0.45131320 0.01595404 1.37389838 0.01796820
0.45186731 0.01595730 1.37395711 0.01797188
0.45242146 0.01596074 1.37401181 0.01797575
0.45297560 0.01596428 1.37407117 0.01797973
0.45352975 0.01596804 1.37412487 0.01798398
0.45408389 0.01597194 1.37418446 0.01798837
0.45463803 0.01597607 1.37423893 0.01799301
0.45519221 0.01598032 1.37429750 0.01799781
0.45574635 0.01598477 1.37435274 0.01800281
0.45630053 0.01598936 1.37440742 0.01800799
0.45685470 0.01599409 1.37446270 0.01801331
0.45740888 0.01599890 1.37452249 0.01801873
0.45796305 0.01600385 1.37457809 0.01802431
0.45851722 0.01600893 1.37463115 0.01803002
0.45907140 0.01601403 1.37469065 0.01803576
0.45962557 0.01601926 1.37474353 0.01804166
0.46017978 0.01602451 1.37480069 0.01804757
0.46073395 0.01602981 1.37485789 0.01805354
0.46128815 0.01603517 1.37491189 0.01805957
0.46184236 0.01604050 1.37497000 0.01806557
0.46239656 0.01604585 1.37502502 0.01807161
0.46295077 0.01605119 1.37508040 0.01807762
0.46350497 0.01605650 1.37513597 0.01808360
0.46405917 0.01606174 1.37519251 0.01808950
0.46461338 0.01606694 1.37524775 0.01809536
0.46516758 0.01607203 1.37530531 0.01810109
0.46572182 0.01607706 1.37535848 0.01810676
0.46627602 0.01608194 1.37541564 0.01811225
0.46683025 0.01608671 1.37547072 0.01811762
0.46738446 0.01609133 1.37552466 0.01812283
0.46793869 0.01609576 1.37558047 0.01812781
0.46849293 0.01610001 1.37563526 0.01813260
0.46904716 0.01647208 1.37557005 0.01855165
0.46960136 0.01647824 1.37563087 0.01855859
0.47015560 0.01648421 1.37569683 0.01856531
0.47070983 0.01649004 1.37576016 0.01857188
0.47126409 0.01649571 1.37582364 0.01857826
0.47181833 0.01650118 1.37588864 0.01858442
0.47237256 0.01650647 1.37595124 0.01859037
0.47292680 0.01651153 1.37601506 0.01859607
0.47348103 0.01651637 1.37607953 0.01860153
0.47403529 0.01652101 1.37614515 0.01860675
0.47458953 0.01652544 1.37621168 0.01861174
0.47514379 0.01652969 1.37627698 0.01861652
0.47569802 0.01653377 1.37634091 0.01862112
0.47625229 0.01653767 1.37640433 0.01862552
0.47680652 0.01654141 1.37646720 0.01862973
0.47736079 0.01654497 1.37653187 0.01863374
0.47791502 0.01654835 1.37659777 0.01863755
0.47846928 0.01655162 1.37666072 0.01864122
0.47902355 0.01655472 1.37672426 0.01864472
0.47957781 0.01655773 1.37678415 0.01864811
0.48013204 0.01656057 1.37684947 0.01865130
0.48068631 0.01656334 1.37690782 0.01865443
0.48124057 0.01656598 1.37696932 0.01865740
0.48179483 0.01656850 1.37703221 0.01866024
0.48234910 0.01657098 1.37709022 0.01866303
0.48290333 0.01657334 1.37714997 0.01866569
0.48345760 0.01657562 1.37721198 0.01866826
0.48401186 0.01657788 1.37727042 0.01867081
0.48456612 0.01658009 1.37732954 0.01867329
0.48512039 0.01658231 1.37738662 0.01867579
0.48567465 0.01658448 1.37744788 0.01867823
0.48622891 0.01658672 1.37750376 0.01868076
0.48678315 0.01658894 1.37756405 0.01868326
0.48733741 0.01659127 1.37761827 0.01868589
0.48789167 0.01659364 1.37767590 0.01868855
0.48844594 0.01659610 1.37773232 0.01869132
0.48900020 0.01659865 1.37779017 0.01869419
0.48955446 0.01660130 1.37784873 0.01869718
0.49010870 0.01660412 1.37790455 0.01870036
0.49066296 0.01660707 1.37796284 0.01870368
0.49121723 0.01661022 1.37801556 0.01870722
0.49177149 0.01661344 1.37807295 0.01871086
0.49232575 0.01661677 1.37813071 0.01871460
0.49287999 0.01662021 1.37818845 0.01871847
0.49343425 0.01662376 1.37824423 0.01872248
0.49398851 0.01662744 1.37829712 0.01872662
0.49454275 0.01663114 1.37835584 0.01873079
0.49509701 0.01663494 1.37841259 0.01873506
0.49565125 0.01663880 1.37846850 0.01873941
0.49620551 0.01701060 1.37842733 0.01915815
0.49675974 0.01701688 1.37849413 0.01916522
0.49731398 0.01702321 1.37855940 0.01917236
0.49786824 0.01702960 1.37862388 0.01917955
0.49842247 0.01703601 1.37868997 0.01918676
0.49897671 0.01704245 1.37875305 0.01919403
0.49953094 0.01704889 1.37881885 0.01920128
0.50008518 0.01705531 1.37888646 0.01920850
0.50063944 0.01706173 1.37895251 0.01921573
0.50119364 0.01706812 1.37901895 0.01922294
0.50174791 0.01707445 1.37908808 0.01923007
0.50230211 0.01708078 1.37915278 0.01923720
0.50285637 0.01708699 1.37922452 0.01924418
0.50341058 0.01709319 1.37929046 0.01925117
0.50396478 0.01709924 1.37936382 0.01925799
0.50451899 0.01710525 1.37943359 0.01926475
0.50507325 0.01711115 1.37950585 0.01927139
0.50562745 0.01711695 1.37957563 0.01927793
0.50618166 0.01712260 1.37965013 0.01928429
0.50673586 0.01712810 1.37972659 0.01929049
0.50729007 0.01713347 1.37980230 0.01929653
0.50784427 0.01713868 1.37987587 0.01930241
0.50839847 0.01714366 1.37995562 0.01930801
0.50895268 0.01714845 1.38003327 0.01931341
0.50950688 0.01715303 1.38011317 0.01931856
0.51006109 0.01715737 1.38019613 0.01932345
0.51061523 0.01716151 1.38027904 0.01932811
0.51116943 0.01716543 1.38036371 0.01933253
0.51172364 0.01716918 1.38044638 0.01933675
0.51227778 0.01717268 1.38053531 0.01934069
0.51283199 0.01717603 1.38061933 0.01934447
0.51338613 0.01717914 1.38071094 0.01934797
0.51394027 0.01718210 1.38080152 0.01935130
0.51449448 0.01718491 1.38089142 0.01935447
0.51504862 0.01718755 1.38098350 0.01935745
0.51560277 0.01719007 1.38107551 0.01936028
0.51615691 0.01719246 1.38116748 0.01936298
0.51671106 0.01719470 1.38126414 0.01936549
0.51726520 0.01719685 1.38135902 0.01936792
0.51781934 0.01719891 1.38145499 0.01937023
0.51837343 0.01720082 1.38155773 0.01937239
0.51892757 0.01720272 1.38165525 0.01937452
0.51948172 0.01720453 1.38175463 0.01937656
0.52003580 0.01720626 1.38185773 0.01937851
0.52058995 0.01720798 1.38195850 0.01938045
0.52114403 0.01720966 1.38206148 0.01938235
0.52169812 0.01721133 1.38216655 0.01938422
0.52225220 0.01721300 1.38227261 0.01938610
0.52280629 0.01721467 1.38238115 0.01938798
0.52336037 0.01758202 1.38240477 0.01980172
0.52391446 0.01758703 1.38252230 0.01980735
0.52446854 0.01759208 1.38264517 0.01981305
0.52502263 0.01759726 1.38276894 0.01981887
0.52557665 0.01760251 1.38289811 0.01982478
0.52613074 0.01760794 1.38302338 0.01983091
0.52668476 0.01761349 1.38315396 0.01983715
0.52723879 0.01761917 1.38328784 0.01984355
0.52779287 0.01762505 1.38341911 0.01985018
0.52834690 0.01763108 1.38355589 0.01985697
0.52890092 0.01763733 1.38369061 0.01986400
0.52945489 0.01764369 1.38383256 0.01987117
0.53000891 0.01765023 1.38397300 0.01987854
0.53056294 0.01765692 1.38411625 0.01988607
0.53111690 0.01766371 1.38426343 0.01989372
0.53167087 0.01767064 1.38441068 0.01990152
0.53222489 0.01767770 1.38455763 0.01990948
0.53277886 0.01768482 1.38470960 0.01991750
0.53333282 0.01769204 1.38486241 0.01992562
0.53388679 0.01769931 1.38501869 0.01993381
0.53444070 0.01770663 1.38517720 0.01994205
0.53499466 0.01771403 1.38533363 0.01995039
0.53554857 0.01772141 1.38549653 0.01995870
0.53610253 0.01772884 1.38565905 0.01996707
0.53665644 0.01773624 1.38582556 0.01997541
0.53721035 0.01774366 1.38599208 0.01998376
0.53776425 0.01775102 1.38616142 0.01999205
0.53831816 0.01775834 1.38633388 0.02000029
0.53887200 0.01776557 1.38651066 0.02000843
0.53942591 0.01777275 1.38668568 0.02001652
0.53997976 0.01777982 1.38686417 0.02002449
0.54053360 0.01778680 1.38704247 0.02003234
0.54108745 0.01779363 1.38722482 0.02004003
0.54164129 0.01780030 1.38740942 0.02004755
0.54219514 0.01780682 1.38759615 0.02005490
0.54274899 0.01781316 1.38778546 0.02006203
0.54330277 0.01781929 1.38797800 0.02006894
0.54385656 0.01782521 1.38817133 0.02007561
0.54441035 0.01783092 1.38836490 0.02008203
0.54496413 0.01783631 1.38856555 0.02008811
0.54551792 0.01784148 1.38876257 0.02009392
0.54607171 0.01784631 1.38896610 0.02009937
0.54662544 0.01785088 1.38916844 0.02010451
0.54717916 0.01785515 1.38937514 0.02010933
0.54773289 0.01785917 1.38958345 0.02011385
0.54828662 0.01786294 1.38979319 0.02011810
0.54884034 0.01786645 1.39000691 0.02012205
0.54939407 0.01786973 1.39022315 0.02012575
0.54994774 0.01787282 1.39044001 0.02012922
0.55050141 0.01787569 1.39066028 0.02013246
0.55105507 0.01824316 1.39080389 0.02054631
0.55160874 0.01824914 1.39104206 0.02055305
0.55216241 0.01825507 1.39128246 0.02055973
0.55271602 0.01826094 1.39152630 0.02056634
0.55326968 0.01826678 1.39177157 0.02057292
0.55382329 0.01827260 1.39201904 0.02057948
0.55437690 0.01827839 1.39227071 0.02058600
0.55493045 0.01828418 1.39252461 0.02059251
0.55548406 0.01828998 1.39277952 0.02059905
0.55603760 0.01829582 1.39303501 0.02060563
0.55659115 0.01830165 1.39329709 0.02061219
0.55714470 0.01830758 1.39355592 0.02061888
0.55769825 0.01831353 1.39382120 0.02062557
0.55825174 0.01831956 1.39408642 0.02063236
0.55880529 0.01832569 1.39435120 0.02063927
0.55935878 0.01833187 1.39462161 0.02064623
0.55991226 0.01833821 1.39488907 0.02065337
0.56046575 0.01834464 1.39516021 0.02066061
0.56101918 0.01835121 1.39543196 0.02066802
0.56157261 0.01835793 1.39570632 0.02067558
0.56212610 0.01836485 1.39597637 0.02068338
0.56267947 0.01837187 1.39625473 0.02069128
0.56323290 0.01837909 1.39653008 0.02069941
0.56378633 0.01838647 1.39680440 0.02070772
0.56433970 0.01839394 1.39708395 0.02071614
0.56489307 0.01840156 1.39736338 0.02072471
0.56544644 0.01840926 1.39764489 0.02073339
0.56599975 0.01841710 1.39792461 0.02074222
0.56655312 0.01842502 1.39820620 0.02075114
0.56710643 0.01843298 1.39849144 0.02076011
0.56765974 0.01844102 1.39877745 0.02076916
0.56821305 0.01844911 1.39906226 0.02077827
0.56876630 0.01845720 1.39935149 0.02078738
0.56931961 0.01846532 1.39963880 0.02079653
0.56987286 0.01847341 1.39992913 0.02080564
0.57042611 0.01848148 1.40022056 0.02081473
0.57097930 0.01848950 1.40051322 0.02082376
0.57153255 0.01849745 1.40080754 0.02083272
0.57208574 0.01850534 1.40110091 0.02084160
0.57263893 0.01851310 1.40139783 0.02085034
0.57319212 0.01852074 1.40169495 0.02085894
0.57374525 0.01852822 1.40199269 0.02086737
0.57429838 0.01853554 1.40229226 0.02087561
0.57485151 0.01890495 1.40251861 0.02129166
0.57540464 0.01891457 1.40282788 0.02130250
0.57595778 0.01892407 1.40313834 0.02131319
0.57651085 0.01893338 1.40345367 0.02132367
0.57706392 0.01894254 1.40376910 0.02133400
0.57761699 0.01895153 1.40408520 0.02134412
0.57817006 0.01896035 1.40440079 0.02135405
0.57872307 0.01896892 1.40472004 0.02136370
0.57927608 0.01897727 1.40504120 0.02137311
0.57982910 0.01898540 1.40536454 0.02138226
0.58038211 0.01899334 1.40568734 0.02139121
0.58093506 0.01900105 1.40601346 0.02139990
0.58148801 0.01900859 1.40634046 0.02140838
0.58204097 0.01901594 1.40666794 0.02141666
0.58259392 0.01902308 1.40699792 0.02142470
0.58314681 0.01903002 1.40732995 0.02143252
0.58369970 0.01903680 1.40766096 0.02144016
0.58425260 0.01904337 1.40799635 0.02144756
0.58480549 0.01904979 1.40833013 0.02145479
0.58535832 0.01905601 1.40866752 0.02146179
0.58591115 0.01906205 1.40900703 0.02146860
0.58646399 0.01906795 1.40934611 0.02147523
0.58701676 0.01907366 1.40968775 0.02148167
0.58756959 0.01907923 1.41002868 0.02148795
0.58812237 0.01908465 1.41037294 0.02149405
0.58867514 0.01908995 1.41071646 0.02150002
0.58922786 0.01909514 1.41106085 0.02150586
0.58978063 0.01910024 1.41140631 0.02151161
0.59033334 0.01910529 1.41175024 0.02151729
0.59088600 0.01911022 1.41210153 0.02152284
0.59143871 0.01911516 1.41244856 0.02152841
0.59199136 0.01912006 1.41279728 0.02153392
0.59254402 0.01912497 1.41314529 0.02153945
0.59309667 0.01912989 1.41349423 0.02154499
0.59364927 0.01913480 1.41384784 0.02155053
0.59420186 0.01949867 1.41414033 0.02196033
0.59475446 0.01950708 1.41450348 0.02196980
0.59530705 0.01951564 1.41486496 0.02197945
0.59585959 0.01952432 1.41523154 0.02198923
0.59641212 0.01953316 1.41559849 0.02199918
0.59696466 0.01954217 1.41596623 0.02200933
0.59751713 0.01955133 1.41633763 0.02201965
0.59806967 0.01956068 1.41670846 0.02203018
0.59862214 0.01957020 1.41708049 0.02204089
0.59917456 0.01957985 1.41745594 0.02205176
0.59972703 0.01958967 1.41782909 0.02206283
0.60027945 0.01959960 1.41820612 0.02207401
0.60083187 0.01960966 1.41858202 0.02208534
0.60138422 0.01961978 1.41896268 0.02209674
0.60193664 0.01963000 1.41934352 0.02210825
0.60248899 0.01964031 1.41972275 0.02211985
0.60304129 0.01965064 1.42010701 0.02213149
0.60359365 0.01966101 1.42049165 0.02214318
0.60414594 0.01967142 1.42087805 0.02215490
0.60469824 0.01968185 1.42126488 0.02216664
0.60525048 0.01969229 1.42165261 0.02217840
0.60580277 0.01970273 1.42203907 0.02219016
0.60635501 0.01971312 1.42243033 0.02220185
0.60690719 0.01972343 1.42282443 0.02221348
0.60745943 0.01973372 1.42321705 0.02222506
0.60801160 0.01974394 1.42360886 0.02223657
0.60856378 0.01975405 1.42400379 0.02224795
0.60911590 0.01976404 1.42440127 0.02225920
0.60966802 0.01977390 1.42480055 0.02227031
0.61022013 0.01978366 1.42519704 0.02228131
0.61077225 0.01979325 1.42559777 0.02229210
0.61132431 0.01980269 1.42599745 0.02230274
0.61187637 0.01981193 1.42639923 0.02231314
0.61242843 0.01982095 1.42680259 0.02232330
0.61298043 0.01982976 1.42720562 0.02233323
0.61353242 0.01983834 1.42760939 0.02234289
0.61408442 0.01984664 1.42801502 0.02235224
0.61463642 0.01985468 1.42841938 0.02236129
0.61518836 0.01986239 1.42882760 0.02236997
0.61574030 0.01986978 1.42923440 0.02237830
0.61629224 0.02023451 1.42958787 0.02278908
0.61684412 0.02024445 1.43000720 0.02280027
0.61739600 0.02025421 1.43042942 0.02281126
0.61794788 0.02026381 1.43085102 0.02282207
0.61849970 0.02027320 1.43127513 0.02283265
0.61905152 0.02028246 1.43169870 0.02284307
0.61960334 0.02029154 1.43212551 0.02285330
0.62015510 0.02030047 1.43255477 0.02286337
0.62070692 0.02030931 1.43298205 0.02287332
0.62125862 0.02031801 1.43341357 0.02288311
0.62181038 0.02032658 1.43384703 0.02289276
0.62236208 0.02033503 1.43427947 0.02290229
0.62291378 0.02034336 1.43471284 0.02291167
0.62346548 0.02035155 1.43514985 0.02292089
0.62401712 0.02035963 1.43558666 0.02292999
0.62456876 0.02036758 1.43602462 0.02293895
0.62512040 0.02037543 1.43646296 0.02294779
0.62567198 0.02038316 1.43690404 0.02295649
0.62622356 0.02039078 1.43734614 0.02296507
0.62677515 0.02039828 1.43778916 0.02297352
0.62732667 0.02040568 1.43823263 0.02298186
0.62787819 0.02041300 1.43867762 0.02299010
0.62842971 0.02042027 1.43912000 0.02299829
0.62898117 0.02042744 1.43956862 0.02300636
0.62953264 0.02043458 1.44001618 0.02301440
0.63008410 0.02044172 1.44046185 0.02302244
0.63063550 0.02044881 1.44091092 0.02303043
0.63118696 0.02045591 1.44136012 0.02303843
0.63173831 0.02046303 1.44181200 0.02304644
0.63228971 0.02047022 1.44226017 0.02305454
0.63284105 0.02047743 1.44271181 0.02306267
0.63339239 0.02083979 1.44312067 0.02347076
0.63394368 0.02085031 1.44358601 0.02348262
0.63449496 0.02086100 1.44405188 0.02349465
0.63504624 0.02087186 1.44451729 0.02350689
0.63559753 0.02088288 1.44498653 0.02351930
0.63614875 0.02089412 1.44545358 0.02353195
0.63669997 0.02090549 1.44592419 0.02354477
0.63725114 0.02091701 1.44639778 0.02355774
0.63780230 0.02092870 1.44687111 0.02357090
0.63835347 0.02094053 1.44734543 0.02358423
0.63890463 0.02095250 1.44782235 0.02359771
0.63945574 0.02096459 1.44829994 0.02361133
0.64000684 0.02097680 1.44877821 0.02362508
0.64055789 0.02098907 1.44926246 0.02363889
0.64110899 0.02100146 1.44974219 0.02365285
0.64165998 0.02101389 1.45022714 0.02366685
0.64221102 0.02102638 1.45071195 0.02368092
0.64276201 0.02103891 1.45119943 0.02369503
0.64331299 0.02105148 1.45168581 0.02370919
0.64386392 0.02106405 1.45217560 0.02372334
0.64441484 0.02107662 1.45266682 0.02373750
0.64496577 0.02108918 1.45315938 0.02375164
0.64551669 0.02110172 1.45365115 0.02376577
0.64606756 0.02111420 1.45414680 0.02377982
0.64661843 0.02112661 1.45464409 0.02379380
0.64716923 0.02113892 1.45514274 0.02380767
0.64772004 0.02115114 1.45564308 0.02382142
0.64827085 0.02116325 1.45614339 0.02383506
0.64882159 0.02117522 1.45664737 0.02384855
0.64937234 0.02118706 1.45715140 0.02386188
0.64992309 0.02119874 1.45765697 0.02387504
0.65047377 0.02121025 1.45816167 0.02388800
0.65102446 0.02122153 1.45867183 0.02390070
0.65157515 0.02123264 1.45917839 0.02391322
0.65212578 0.02124351 1.45969012 0.02392545
0.65267640 0.02125416 1.46020139 0.02393745
0.65322703 0.02126457 1.46071247 0.02394917
0.65377760 0.02162843 1.46117303 0.02435898
0.65432817 0.02164104 1.46169530 0.02437318
0.65487874 0.02165346 1.46222042 0.02438716
0.65542924 0.02166566 1.46274953 0.02440090
0.65597975 0.02167767 1.46327954 0.02441443
0.65653026 0.02168949 1.46380985 0.02442775
0.65708071 0.02170107 1.46434449 0.02444079
0.65763110 0.02171242 1.46488282 0.02445357
0.65818155 0.02172360 1.46542024 0.02446616
0.65873194 0.02173458 1.46595893 0.02447852
0.65928233 0.02174536 1.46650152 0.02449066
0.65983266 0.02175595 1.46704579 0.02450260
0.66038299 0.02176635 1.46759474 0.02451431
0.66093332 0.02177661 1.46814248 0.02452586
0.66148359 0.02178666 1.46869487 0.02453718
0.66203386 0.02179654 1.46924899 0.02454830
0.66258413 0.02180626 1.46980245 0.02455926
0.66313434 0.02181578 1.47036091 0.02456997
0.66368455 0.02182511 1.47092191 0.02458049
0.66423476 0.02183430 1.47148215 0.02459083
0.66478491 0.02184327 1.47204809 0.02460093
0.66533506 0.02185209 1.47261351 0.02461087
0.66588515 0.02186071 1.47318500 0.02462058
0.66643524 0.02186916 1.47375897 0.02463010
0.66698533 0.02187746 1.47433424 0.02463944
0.66753536 0.02188561 1.47491188 0.02464863
0.66808540 0.02189363 1.47549354 0.02465765
0.66863543 0.02190154 1.47607688 0.02466657
0.66918540 0.02190933 1.47666647 0.02467534
0.66973537 0.02191703 1.47725889 0.02468401
0.67028534 0.02233923 1.47778193 0.02515951
0.67083526 0.02235035 1.47839283 0.02517204
0.67138517 0.02236149 1.47901040 0.02518458
0.67193502 0.02237263 1.47963622 0.02519712
0.67248487 0.02238378 1.48026825 0.02520969
0.67303473 0.02239492 1.48090876 0.02522223
0.67358452 0.02240601 1.48156047 0.02523472
0.67413431 0.02241727 1.48220810 0.02524740
0.67468417 0.02242901 1.48279070 0.02526062
0.67523402 0.02244129 1.48319720 0.02527445
0.67578393 0.02245419 1.48353845 0.02528898
0.67633379 0.02246681 1.48391177 0.02530320
0.67688364 0.02247936 1.48430208 0.02531733
0.67743343 0.02249181 1.48471353 0.02533135
0.67798322 0.02250425 1.48513681 0.02534536
0.67853296 0.02251668 1.48557321 0.02535936
0.67908269 0.02252907 1.48602316 0.02537332
0.67963237 0.02254143 1.48648516 0.02538724
0.68018210 0.02255381 1.48695220 0.02540119
0.68073171 0.02256613 1.48743280 0.02541505
0.68128139 0.02257844 1.48791782 0.02542892
0.68183094 0.02259067 1.48841503 0.02544269
0.68238056 0.02260288 1.48891622 0.02545644
0.68293011 0.02261501 1.48942613 0.02547010
0.68347961 0.02262707 1.48994206 0.02548369
0.68402916 0.02263905 1.49046386 0.02549718
0.68457860 0.02265090 1.49099402 0.02551053
0.68512809 0.02266265 1.49152727 0.02552376
0.68567747 0.02267424 1.49206838 0.02553682
0.68622690 0.02268571 1.49261207 0.02554973
0.68677628 0.02269700 1.49316329 0.02556244
0.68732560 0.02270810 1.49372081 0.02557495
0.68787497 0.02271906 1.49427659 0.02558729
0.68842423 0.02272975 1.49484298 0.02559934
0.68897355 0.02274026 1.49540959 0.02561117
0.68952280 0.02275050 1.49598283 0.02562270
0.69007200 0.02276048 1.49656095 0.02563394
0.69062120 0.02326270 1.49701153 0.02619956
0.69117039 0.02327559 1.49760600 0.02621408
0.69171953 0.02328833 1.49820523 0.02622843
0.69226867 0.02330089 1.49880678 0.02624258
0.69281775 0.02331325 1.49941725 0.02625650
0.69336683 0.02332543 1.50002968 0.02627021
0.69391584 0.02333739 1.50064816 0.02628368
0.69446486 0.02334918 1.50126996 0.02629696
0.69501388 0.02336080 1.50189670 0.02631005
0.69556284 0.02337226 1.50252755 0.02632296
0.69611180 0.02338357 1.50316099 0.02633570
0.69666070 0.02339470 1.50380117 0.02634824
0.69720960 0.02340570 1.50444396 0.02636062
0.69775844 0.02341650 1.50509383 0.02637279
0.69830728 0.02342717 1.50574476 0.02638480
0.69885612 0.02343771 1.50639871 0.02639667
0.69940490 0.02344808 1.50705873 0.02640835
0.69995362 0.02345833 1.50772290 0.02641989
0.70050240 0.02346846 1.50838612 0.02643131
0.70105106 0.02347840 1.50906037 0.02644250
0.70159978 0.02348823 1.50973178 0.02645357
0.70214844 0.02349787 1.51040832 0.02646443
0.70269704 0.02350736 1.51109008 0.02647511
0.70324564 0.02351673 1.51177293 0.02648566
0.70379424 0.02352596 1.51246001 0.02649606
0.70434278 0.02353507 1.51315173 0.02650632
0.70489132 0.02354409 1.51384245 0.02651648
0.70543981 0.02355299 1.51453934 0.02652650
0.70598829 0.02356180 1.51523846 0.02653643
0.70653671 0.02357055 1.51594129 0.02654628
0.70708513 0.02357923 1.51664809 0.02655606
0.70763355 0.02358792 1.51735294 0.02656585
0.70818192 0.02359658 1.51806521 0.02657559
0.70873028 0.02417355 1.51855010 0.02722541
0.70927858 0.02418631 1.51927583 0.02723978
0.70982689 0.02419919 1.52000267 0.02725429
0.71037513 0.02421218 1.52073477 0.02726891
0.71092337 0.02422527 1.52147149 0.02728366
0.71147156 0.02423850 1.52221199 0.02729855
0.71201980 0.02425188 1.52295387 0.02731363
0.71256793 0.02426539 1.52370200 0.02732885
0.71311605 0.02427906 1.52445305 0.02734424
0.71366417 0.02429288 1.52520720 0.02735980
0.71421224 0.02430685 1.52596407 0.02737554
0.71476030 0.02432095 1.52672492 0.02739142
0.71530837 0.02433517 1.52748999 0.02740744
0.71585637 0.02434952 1.52825700 0.02742360
0.71640432 0.02436396 1.52902983 0.02743985
0.71695226 0.02437847 1.52980678 0.02745620
0.71750021 0.02439309 1.53058346 0.02747267
0.71804810 0.02440777 1.53136573 0.02748920
0.71859598 0.02442251 1.53215255 0.02750580
0.71914387 0.02443734 1.53293992 0.02752250
0.71969169 0.02445220 1.53373258 0.02753924
0.72023946 0.02446709 1.53452856 0.02755601
0.72078723 0.02448197 1.53532946 0.02757276
0.72133499 0.02449684 1.53613165 0.02758952
0.72188270 0.02451168 1.53694035 0.02760623
0.72243041 0.02452650 1.53775008 0.02762291
0.72297806 0.02454126 1.53856479 0.02763955
0.72352570 0.02455598 1.53938250 0.02765612
0.72407329 0.02457061 1.54020438 0.02767260
0.72462088 0.02458514 1.54102968 0.02768897
0.72516847 0.02459959 1.54185656 0.02770524
0.72571599 0.02461393 1.54268814 0.02772139
0.72626346 0.02462814 1.54352564 0.02773739
0.72681099 0.02464226 1.54436210 0.02775329
0.72735840 0.02465619 1.54520638 0.02776898
0.72790587 0.02466999 1.54605066 0.02778452
0.72845328 0.02468361 1.54689988 0.02779987
0.72900063 0.02469707 1.54775332 0.02781503
0.72954798 0.02471036 1.54860923 0.02782999
0.73009533 0.02528909 1.54915021 0.02848178
0.73064262 0.02530521 1.55001605 0.02849994
0.73118985 0.02532118 1.55088962 0.02851793
0.73173714 0.02533705 1.55176303 0.02853580
0.73228431 0.02535277 1.55264506 0.02855350
0.73283154 0.02536837 1.55352846 0.02857107
0.73337871 0.02538383 1.55441712 0.02858848
0.73392582 0.02539911 1.55531070 0.02860569
0.73447293 0.02541419 1.55620919 0.02862268
0.73502004 0.02542913 1.55711047 0.02863951
0.73556709 0.02544391 1.55801777 0.02865615
0.73611414 0.02545856 1.55892850 0.02867265
0.73666114 0.02547306 1.55984460 0.02868898
0.73720813 0.02548743 1.56076494 0.02870517
0.73775506 0.02550164 1.56169061 0.02872116
0.73830199 0.02551571 1.56261911 0.02873701
0.73884887 0.02552963 1.56355229 0.02875269
0.73939580 0.02554343 1.56448648 0.02876824
0.73994261 0.02555710 1.56542779 0.02878363
0.74048942 0.02557068 1.56637218 0.02879892
0.74103624 0.02558415 1.56731758 0.02881410
0.74158299 0.02559745 1.56826972 0.02882907
0.74212974 0.02561060 1.56922377 0.02884388
0.74267650 0.02562361 1.57017984 0.02885854
0.74322319 0.02563647 1.57113928 0.02887302
0.74376988 0.02564920 1.57210104 0.02888736
0.74431652 0.02566179 1.57306702 0.02890154
0.74486315 0.02567424 1.57403496 0.02891555
0.74540973 0.02568656 1.57500590 0.02892943
0.74595630 0.02569877 1.57597852 0.02894318
0.74650288 0.02571088 1.57695286 0.02895682
0.74704939 0.02572289 1.57792986 0.02897036
0.74759591 0.02573484 1.57890910 0.02898380
0.74814236 0.02574668 1.57989480 0.02899714
0.74868882 0.02631998 1.58054998 0.02964282
0.74923521 0.02633528 1.58154482 0.02966005
0.74978161 0.02635063 1.58254275 0.02967734
0.75032800 0.02636605 1.58354433 0.02969471
0.75087434 0.02638151 1.58455295 0.02971212
0.75142062 0.02639701 1.58556874 0.02972957
0.75196695 0.02641261 1.58658598 0.02974715
0.75251317 0.02642826 1.58761378 0.02976478
0.75305939 0.02644401 1.58864683 0.02978251
0.75360560 0.02645985 1.58968558 0.02980035
0.75415182 0.02647580 1.59072845 0.02981831
0.75469792 0.02649182 1.59178310 0.02983636
0.75524408 0.02650798 1.59284286 0.02985455
0.75579017 0.02652423 1.59390922 0.02987285
0.75633621 0.02654051 1.59498664 0.02989120
0.75688225 0.02655688 1.59606924 0.02990963
0.75742829 0.02657331 1.59715696 0.02992813
0.75797427 0.02658981 1.59825068 0.02994671
0.75852019 0.02660635 1.59935270 0.02996535
0.75906610 0.02662295 1.60045867 0.02998404
0.75961202 0.02663956 1.60156807 0.03000275
0.76015794 0.02665617 1.60267915 0.03002146
0.76070380 0.02667275 1.60379512 0.03004013
0.76124960 0.02668930 1.60491558 0.03005876
0.76179540 0.02670582 1.60603784 0.03007737
0.76234120 0.02672231 1.60716050 0.03009595
0.76288694 0.02673873 1.60828670 0.03011443
0.76343268 0.02675509 1.60941268 0.03013286
0.76397842 0.02677141 1.61053634 0.03015125
0.76452410 0.02678766 1.61166268 0.03016954
0.76506978 0.02680383 1.61278685 0.03018775
0.76561546 0.02681992 1.61390870 0.03020588
0.76616108 0.02683592 1.61503019 0.03022389
0.76670671 0.02685183 1.61615101 0.03024182
0.76725233 0.02742258 1.61694978 0.03088462
0.76779789 0.02744113 1.61807172 0.03090551
0.76834345 0.02745963 1.61919446 0.03092635
0.76888895 0.02747808 1.62032269 0.03094713
0.76943445 0.02749648 1.62145490 0.03096785
0.76997995 0.02751483 1.62259140 0.03098852
0.77052540 0.02753309 1.62373493 0.03100909
0.77107084 0.02755127 1.62488478 0.03102956
0.77161622 0.02756937 1.62604455 0.03104995
0.77216160 0.02758740 1.62721242 0.03107025
0.77270693 0.02760535 1.62839081 0.03109047
0.77325219 0.02762314 1.62958244 0.03111050
0.77379751 0.02764085 1.63078214 0.03113045
0.77434272 0.02765843 1.63199792 0.03115025
0.77488792 0.02767591 1.63322529 0.03116993
0.77543312 0.02769323 1.63446711 0.03118944
0.77597821 0.02771036 1.63572865 0.03120873
0.77652335 0.02772734 1.63700245 0.03122786
0.77706838 0.02774417 1.63829249 0.03124682
0.77761346 0.02776086 1.63959223 0.03126562
0.77815843 0.02777733 1.64090670 0.03128415
0.77870339 0.02779359 1.64223082 0.03130247
0.77924836 0.02780965 1.64356153 0.03132056
0.77979326 0.02782546 1.64490110 0.03133836
0.78033817 0.02784104 1.64624628 0.03135592
0.78088307 0.02785645 1.64759383 0.03137327
0.78142792 0.02787161 1.64894624 0.03139034
0.78197277 0.02788653 1.65030121 0.03140715
0.78251755 0.02790126 1.65165668 0.03142374
0.78306234 0.02791576 1.65301308 0.03144006
0.78360713 0.02793003 1.65436574 0.03145614
0.78415185 0.02849356 1.65540854 0.03209082
0.78469664 0.02851067 1.65675137 0.03211009
0.78524137 0.02852768 1.65809063 0.03212924
0.78578609 0.02854459 1.65942374 0.03214828
0.78633082 0.02856145 1.66074868 0.03216728
0.78687549 0.02857824 1.66206951 0.03218618
0.78742015 0.02859493 1.66338624 0.03220498
0.78796488 0.02861162 1.66469513 0.03222378
0.78850949 0.02862823 1.66600731 0.03224248
0.78905416 0.02864480 1.66731493 0.03226114
0.78959876 0.02866130 1.66862437 0.03227973
0.79014337 0.02867778 1.66993533 0.03229829
0.79068798 0.02869422 1.67124704 0.03231680
0.79123253 0.02871059 1.67256338 0.03233524
0.79177707 0.02872692 1.67388426 0.03235363
0.79232156 0.02874321 1.67521168 0.03237197
0.79286605 0.02875949 1.67654583 0.03239032
0.79341054 0.02877580 1.67788716 0.03240869
0.79395497 0.02879209 1.67923829 0.03242703
0.79449940 0.02880829 1.68059868 0.03244528
0.79504377 0.02882439 1.68197069 0.03246340
0.79558814 0.02884041 1.68335356 0.03248145
0.79613245 0.02885634 1.68475154 0.03249940
0.79667675 0.02887222 1.68616087 0.03251728
0.79722100 0.02888804 1.68758408 0.03253509
0.79776525 0.02890381 1.68901868 0.03255285
0.79830945 0.02891954 1.69046525 0.03257057
0.79885358 0.02947992 1.69162821 0.03320170
0.79939777 0.02949845 1.69309346 0.03322256
0.79994184 0.02951703 1.69457144 0.03324350
0.80048591 0.02953568 1.69606192 0.03326450
0.80102998 0.02955438 1.69756041 0.03328556
0.80157399 0.02957315 1.69907096 0.03330670
0.80211800 0.02959203 1.70059034 0.03332796
0.80266196 0.02961097 1.70212128 0.03334929
0.80320591 0.02962997 1.70366079 0.03337069
0.80374986 0.02964906 1.70520811 0.03339219
0.80429375 0.02966820 1.70676576 0.03341374
0.80483758 0.02968737 1.70833429 0.03343534
0.80538142 0.02970659 1.70991103 0.03345699
0.80592525 0.02972587 1.71149464 0.03347870
0.80646902 0.02974517 1.71308732 0.03350044
0.80701280 0.02976447 1.71468844 0.03352218
0.80755657 0.02978378 1.71629500 0.03354392
0.80810028 0.02980305 1.71791154 0.03356562
0.80864400 0.02982233 1.71953336 0.03358733
0.80918765 0.02984161 1.72116426 0.03360905
0.80973130 0.02986090 1.72280210 0.03363078
0.81027496 0.02988020 1.72444656 0.03365251
0.81081855 0.02989943 1.72609753 0.03367417
0.81136215 0.02991853 1.72775517 0.03369568
0.81190568 0.02993749 1.72941951 0.03371704
0.81244922 0.02995629 1.73109101 0.03373821
0.81299275 0.02997499 1.73276612 0.03375927
0.81353629 0.03053148 1.73415504 0.03438601
0.81407976 0.03055233 1.73583597 0.03440949
0.81462324 0.03057312 1.73752295 0.03443291
0.81516665 0.03059386 1.73921666 0.03445627
0.81571007 0.03061455 1.74091477 0.03447957
0.81625348 0.03063515 1.74261782 0.03450277
0.81679690 0.03065567 1.74432542 0.03452588
0.81734025 0.03067610 1.74603863 0.03454889
0.81788361 0.03069644 1.74775746 0.03457180
0.81842697 0.03071667 1.74947987 0.03459458
0.81897032 0.03073681 1.75120511 0.03461727
0.81951362 0.03075687 1.75293495 0.03463986
0.82005692 0.03077680 1.75467022 0.03466230
0.82060021 0.03079659 1.75640768 0.03468460
0.82114345 0.03081624 1.75815159 0.03470673
0.82168674 0.03083578 1.75989531 0.03472873
0.82222998 0.03085515 1.76164408 0.03475055
0.82277322 0.03087434 1.76339583 0.03477215
0.82331640 0.03089332 1.76515312 0.03479354
0.82385963 0.03091213 1.76690952 0.03481472
0.82440281 0.03093073 1.76866978 0.03483567
0.82494599 0.03094910 1.77043314 0.03485636
0.82548916 0.03096731 1.77219760 0.03487686
0.82603234 0.03098531 1.77396355 0.03489714
0.82657546 0.03100306 1.77573368 0.03491713
0.82711864 0.03102057 1.77750234 0.03493685
0.82766175 0.03157134 1.77898637 0.03555715
0.82820487 0.03159065 1.78075235 0.03557891
0.82874799 0.03160983 1.78251849 0.03560050
0.82929111 0.03162887 1.78428504 0.03562195
0.82983416 0.03164774 1.78605539 0.03564320
0.83037728 0.03166647 1.78782347 0.03566430
0.83092034 0.03168503 1.78959373 0.03568520
0.83146340 0.03170344 1.79136508 0.03570593
0.83200651 0.03172173 1.79313301 0.03572653
0.83254957 0.03173988 1.79490253 0.03574697
0.83309263 0.03175789 1.79667251 0.03576725
0.83363569 0.03177575 1.79843982 0.03578737
0.83417869 0.03179347 1.80020942 0.03580733
0.83472174 0.03181107 1.80197542 0.03582715
0.83526480 0.03182854 1.80373953 0.03584683
0.83580786 0.03184589 1.80550120 0.03586637
0.83635086 0.03186307 1.80726284 0.03588572
0.83689392 0.03188011 1.80902086 0.03590491
0.83743691 0.03189697 1.81077967 0.03592390
0.83797997 0.03191371 1.81253454 0.03594275
0.83852297 0.03193031 1.81428984 0.03596144
0.83906597 0.03194672 1.81604531 0.03597993
0.83960903 0.03196301 1.81779816 0.03599827
0.84015203 0.03250957 1.81926967 0.03661383
0.84069502 0.03252785 1.82101501 0.03663442
0.84123802 0.03254606 1.82276078 0.03665494
0.84178102 0.03256420 1.82450645 0.03667537
0.84232396 0.03258226 1.82625640 0.03669570
0.84286696 0.03260025 1.82800507 0.03671596
0.84340990 0.03261819 1.82975775 0.03673616
0.84395289 0.03263608 1.83150973 0.03675632
0.84449583 0.03265393 1.83326572 0.03677642
0.84503877 0.03267175 1.83502416 0.03679649
0.84558171 0.03268952 1.83678534 0.03681650
0.84612465 0.03270724 1.83854915 0.03683646
0.84666759 0.03272495 1.84031519 0.03685641
0.84721047 0.03274263 1.84208626 0.03687632
0.84775341 0.03276030 1.84385826 0.03689622
0.84829628 0.03277795 1.84563638 0.03691609
0.84883916 0.03279555 1.84741790 0.03693591
0.84938204 0.03281312 1.84920277 0.03695571
0.84992492 0.03283066 1.85099180 0.03697546
0.85046774 0.03284817 1.85278689 0.03699518
0.85101056 0.03286565 1.85458697 0.03701486
0.85155344 0.03288311 1.85638962 0.03703453
0.85209626 0.03290052 1.85819751 0.03705414
0.85263902 0.03344700 1.85973110 0.03766961
0.85318184 0.03346649 1.86154048 0.03769157
0.85372460 0.03348604 1.86335617 0.03771358
0.85426736 0.03350561 1.86517929 0.03773562
0.85481012 0.03352520 1.86700780 0.03775769
0.85535288 0.03354485 1.86884211 0.03777981
0.85589558 0.03356452 1.87068555 0.03780197
0.85643834 0.03358424 1.87253341 0.03782418
0.85698104 0.03360403 1.87438875 0.03784647
0.85752368 0.03362385 1.87625317 0.03786879
0.85806638 0.03364370 1.87812387 0.03789115
0.85860902 0.03366358 1.88000314 0.03791354
0.85915166 0.03368348 1.88188983 0.03793595
0.85969430 0.03370341 1.88378366 0.03795840
0.86023688 0.03372336 1.88568737 0.03798087
0.86077946 0.03374332 1.88759960 0.03800334
0.86132205 0.03376327 1.88951965 0.03802581
0.86186463 0.03378322 1.89144722 0.03804828
0.86240715 0.03380312 1.89338583 0.03807070
0.86294967 0.03382299 1.89533342 0.03809307
0.86349219 0.03384283 1.89728952 0.03811542
0.86403465 0.03386263 1.89925691 0.03813772
0.86457711 0.03388237 1.90123369 0.03815995
0.86511958 0.03442837 1.90293940 0.03877488
0.86566198 0.03444989 1.90492687 0.03879911
0.86620438 0.03447141 1.90692442 0.03882336
0.86674678 0.03449296 1.90893177 0.03884763
0.86728913 0.03451450 1.91095066 0.03887188
0.86783147 0.03453599 1.91298133 0.03889608
0.86837381 0.03455745 1.91502268 0.03892026
0.86891609 0.03457888 1.91707685 0.03894439
0.86945838 0.03460027 1.91914307 0.03896848
0.87000066 0.03462166 1.92121917 0.03899257
0.87054288 0.03464302 1.92330961 0.03901662
0.87108511 0.03466432 1.92541200 0.03904062
0.87162727 0.03468558 1.92752787 0.03906456
0.87216944 0.03470676 1.92965738 0.03908842
0.87271160 0.03472790 1.93179781 0.03911222
0.87325370 0.03474898 1.93395372 0.03913596
0.87379581 0.03476998 1.93612283 0.03915962
0.87433791 0.03479089 1.93830493 0.03918317
0.87487996 0.03481171 1.94050054 0.03920662
0.87542194 0.03483240 1.94271351 0.03922992
0.87596393 0.03485297 1.94494040 0.03925308
0.87650591 0.03539532 1.94691484 0.03986390
0.87704790 0.03541751 1.94915670 0.03988890
0.87758976 0.03543965 1.95141706 0.03991383
0.87813169 0.03546174 1.95369002 0.03993871
0.87867355 0.03548381 1.95597717 0.03996356
0.87921536 0.03550582 1.95828248 0.03998836
0.87975723 0.03552781 1.96059931 0.04001312
0.88029897 0.03554974 1.96293396 0.04003782
0.88084078 0.03557160 1.96528141 0.04006244
0.88138247 0.03559340 1.96764693 0.04008699
0.88192421 0.03561515 1.97002610 0.04011148
0.88246590 0.03563689 1.97241910 0.04013597
0.88300753 0.03565855 1.97483142 0.04016036
0.88354921 0.03568017 1.97725461 0.04018472
0.88409078 0.03570175 1.97969606 0.04020901
0.88463241 0.03572326 1.98215054 0.04023325
0.88517392 0.03574469 1.98462417 0.04025739
0.88571548 0.03576605 1.98711059 0.04028143
0.88625699 0.03578734 1.98961223 0.04030541
0.88679844 0.03580852 1.99213138 0.04032927
0.88733989 0.03634939 1.99440088 0.04093842
0.88788134 0.03637224 1.99693590 0.04096416
0.88842273 0.03639509 1.99948735 0.04098990
0.88896412 0.03641792 2.00205428 0.04101560
0.88950545 0.03644074 2.00463795 0.04104131
0.89004678 0.03646357 2.00723682 0.04106702
0.89058805 0.03648637 2.00985344 0.04109270
0.89112937 0.03650920 2.01248237 0.04111840
0.89167058 0.03653201 2.01513018 0.04114410
0.89221179 0.03655477 2.01779561 0.04116973
0.89275301 0.03657751 2.02047561 0.04119535
0.89329416 0.03660024 2.02317351 0.04122094
0.89383531 0.03662295 2.02588697 0.04124652
0.89437640 0.03664565 2.02861859 0.04127208
0.89491749 0.03666830 2.03136703 0.04129760
0.89545858 0.03669093 2.03413119 0.04132309
0.89599961 0.03671351 2.03691344 0.04134852
0.89654064 0.03673603 2.03971239 0.04137387
0.89708161 0.03727527 2.04227230 0.04198119
0.89762259 0.03729934 2.04508968 0.04200830
0.89816350 0.03732343 2.04792361 0.04203543
0.89870441 0.03734751 2.05077281 0.04206255
0.89924532 0.03737160 2.05363495 0.04208969
0.89978617 0.03739569 2.05651239 0.04211681
0.90032703 0.03741977 2.05940408 0.04214394
0.90086788 0.03744386 2.06230735 0.04217106
0.90140867 0.03746794 2.06522617 0.04219819
0.90194952 0.03749203 2.06815397 0.04222532
0.90249026 0.03751611 2.07109709 0.04225243
0.90303105 0.03754012 2.07405089 0.04227949
0.90357178 0.03756409 2.07701723 0.04230648
0.90411258 0.03758805 2.07999268 0.04233346
0.90465331 0.03761201 2.08297747 0.04236045
0.90519398 0.03763590 2.08597597 0.04238735
0.90573472 0.03765972 2.08898223 0.04241418
0.90627539 0.03768346 2.09199941 0.04244092
0.90681612 0.03822242 2.09476321 0.04304792
0.90735680 0.03824761 2.09777965 0.04307629
0.90789747 0.03827278 2.10080439 0.04310464
0.90843815 0.03829798 2.10383395 0.04313302
0.90897876 0.03832315 2.10687323 0.04316137
0.90951943 0.03834828 2.10991761 0.04318967
0.91006011 0.03837343 2.11296588 0.04321799
0.91060072 0.03839854 2.11602226 0.04324628
0.91114140 0.03842364 2.11908169 0.04327454
0.91168201 0.03844873 2.12214698 0.04330280
0.91222268 0.03847378 2.12521558 0.04333101
0.91276336 0.03849883 2.12828616 0.04335922
0.91330397 0.03852380 2.13136285 0.04338735
0.91384465 0.03854872 2.13444110 0.04341541
0.91438526 0.03857359 2.13752372 0.04344342
0.91492593 0.03859838 2.14060751 0.04347135
0.91546661 0.03862313 2.14369216 0.04349922
0.91600728 0.03916073 2.14652805 0.04410469
0.91654795 0.03918669 2.14959863 0.04413393
0.91708863 0.03921265 2.15266925 0.04416316
0.91762930 0.03923858 2.15574115 0.04419237
0.91817003 0.03926452 2.15881008 0.04422158
0.91871071 0.03929045 2.16188080 0.04425078
0.91925144 0.03931632 2.16495053 0.04427992
0.91979218 0.03934220 2.16801921 0.04430907
0.92033291 0.03936806 2.17108711 0.04433819
0.92087364 0.03939390 2.17415488 0.04436730
0.92141438 0.03941969 2.17722337 0.04439634
0.92195517 0.03944549 2.18028790 0.04442540
0.92249590 0.03947128 2.18335326 0.04445444
0.92303669 0.03949699 2.18641786 0.04448340
0.92357749 0.03952266 2.18948050 0.04451231
0.92411828 0.03954827 2.19254283 0.04454115
0.92465913 0.03957385 2.19560112 0.04456997
0.92519993 0.03959937 2.19866087 0.04459871
0.92574078 0.04013688 2.20146176 0.04520408
0.92628163 0.04016353 2.20449952 0.04523409
0.92682248 0.04019014 2.20753631 0.04526406
0.92736340 0.04021675 2.21056892 0.04529403
0.92790431 0.04024336 2.21359767 0.04532400
0.92844522 0.04026997 2.21662358 0.04535397
0.92898613 0.04029656 2.21964624 0.04538391
0.92952704 0.04032311 2.22266716 0.04541381
0.93006802 0.04034963 2.22568339 0.04544369
0.93060899 0.04037616 2.22869517 0.04547356
0.93114996 0.04040266 2.23170421 0.04550341
0.93169099 0.04042913 2.23470825 0.04553322
0.93223202 0.04045562 2.23770716 0.04556305
0.93277305 0.04048207 2.24070190 0.04559285
0.93331409 0.04050846 2.24369368 0.04562257
0.93385518 0.04053481 2.24667961 0.04565224
0.93439627 0.04056113 2.24966048 0.04568189
0.93493736 0.04058737 2.25263773 0.04571144
0.93547851 0.04112442 2.25535252 0.04631630
0.93601966 0.04115171 2.25830115 0.04634702
0.93656081 0.04117896 2.26124468 0.04637772
0.93710202 0.04120621 2.26418075 0.04640840
0.93764323 0.04123345 2.26711109 0.04643908
0.93818450 0.04126070 2.27003202 0.04646978
0.93872571 0.04128794 2.27294829 0.04650046
0.93926698 0.04131512 2.27585759 0.04653106
0.93980831 0.04134231 2.27875784 0.04656169
0.94034964 0.04136951 2.28164994 0.04659232
0.94089097 0.04139666 2.28453551 0.04662290
0.94143236 0.04142381 2.28741105 0.04665348
0.94197369 0.04145095 2.29028174 0.04668405
0.94251513 0.04147805 2.29314193 0.04671457
0.94305658 0.04150517 2.29599113 0.04674511
0.94359803 0.04153225 2.29883286 0.04677561
0.94413948 0.04155925 2.30166851 0.04680602
0.94468105 0.04158622 2.30449140 0.04683639
0.94522256 0.04212221 2.30706097 0.04744005
0.94576412 0.04215005 2.30984957 0.04747140
0.94630569 0.04217789 2.31262833 0.04750276
0.94684732 0.04220574 2.31539527 0.04753413
0.94738895 0.04223361 2.31815116 0.04756551
0.94793063 0.04226147 2.32089406 0.04759689
0.94847232 0.04228932 2.32362589 0.04762826
0.94901407 0.04231717 2.32634400 0.04765963
0.94955581 0.04234503 2.32904934 0.04769100
0.95009756 0.04237277 2.33174721 0.04772225
0.95063937 0.04240007 2.33443318 0.04775299
0.95118123 0.04242604 2.33710280 0.04778224
0.95172310 0.04245195 2.33975878 0.04781142
0.95226496 0.04247777 2.34240284 0.04784050
0.95280689 0.04250351 2.34503348 0.04786948
0.95334888 0.04252919 2.34764735 0.04789841
0.95389086 0.04255494 2.35026590 0.04792741
0.95443285 0.04258040 2.35286672 0.04795608
0.95497489 0.04260575 2.35541860 0.04798464
0.95551699 0.04313899 2.35771101 0.04858519
0.95605910 0.04316505 2.36022721 0.04861455
0.95660126 0.04319108 2.36273033 0.04864386
0.95714343 0.04321710 2.36521996 0.04867316
0.95768559 0.04324284 2.36769720 0.04870215
0.95822781 0.04326776 2.37015989 0.04873022
0.95877004 0.04329230 2.37261056 0.04875787
0.95931226 0.04331681 2.37505369 0.04878546
0.95985454 0.04334130 2.37748705 0.04881304
0.96039677 0.04336578 2.37991633 0.04884061
0.96093905 0.04339023 2.38234051 0.04886816
0.96148133 0.04341471 2.38476111 0.04889572
0.96202362 0.04343919 2.38718023 0.04892330
0.96256590 0.04346371 2.38959904 0.04895091
0.96310818 0.04348826 2.39201910 0.04897857
0.96365047 0.04351285 2.39444159 0.04900626
0.96419275 0.04353747 2.39686767 0.04903398
0.96473497 0.04356211 2.39930182 0.04906173
0.96527725 0.04409450 2.40149618 0.04966134
0.96581948 0.04412028 2.40392604 0.04969037
0.96636170 0.04414619 2.40636450 0.04971955
0.96690387 0.04417224 2.40881430 0.04974889
0.96744603 0.04419842 2.41127645 0.04977838
0.96798819 0.04422477 2.41374975 0.04980806
0.96853030 0.04425131 2.41623707 0.04983794
0.96907234 0.04427801 2.41874171 0.04986801
0.96961439 0.04430487 2.42126393 0.04989826
0.97015643 0.04433192 2.42380215 0.04992874
0.97069842 0.04435921 2.42635933 0.04995947
0.97124034 0.04438671 2.42893817 0.04999044
0.97178221 0.04441445 2.43153914 0.05002168
0.97232401 0.04444242 2.43416501 0.05005318
0.97286582 0.04447063 2.43681422 0.05008495
0.97340757 0.04449910 2.43948826 0.05011701
0.97394925 0.04452781 2.44219005 0.05014935
0.97449088 0.04506395 2.44467269 0.05075318
0.97503239 0.04509429 2.44741376 0.05078735
0.97557390 0.04512495 2.45018446 0.05082188
0.97611535 0.04515602 2.45298369 0.05085687
0.97665668 0.04518748 2.45581534 0.05089230
0.97719795 0.04521932 2.45868139 0.05092816
0.97773916 0.04525155 2.46158159 0.05096446
0.97828031 0.04528423 2.46451444 0.05100126
0.97882134 0.04531734 2.46748451 0.05103856
0.97936231 0.04535085 2.47049286 0.05107630
0.97990322 0.04538485 2.47353736 0.05111459
0.98044401 0.04541935 2.47662102 0.05115345
0.98098469 0.04545431 2.47974676 0.05119282
0.98152530 0.04548977 2.48291227 0.05123276
0.98206580 0.04552577 2.48611926 0.05127331
0.98260617 0.04556225 2.48937162 0.05131439
0.98314649 0.04610559 2.49242136 0.05192632
0.98368663 0.04614427 2.49574029 0.05196989
0.98422670 0.04618355 2.49910347 0.05201413
0.98476666 0.04622352 2.50251062 0.05205914
0.98530650 0.04626414 2.50596359 0.05210489
0.98584622 0.04630544 2.50946323 0.05215140
0.98638582 0.04634747 2.51300805 0.05219874
0.98692524 0.04639020 2.51660342 0.05224687
0.98746461 0.04643365 2.52024533 0.05229580
0.98800379 0.04647788 2.52393605 0.05234561
0.98854285 0.04652288 2.52767455 0.05239629
0.98908174 0.04656869 2.53146185 0.05244789
0.98962051 0.04661528 2.53529918 0.05250036
0.99015915 0.04666274 2.53918287 0.05255381
0.99069762 0.04721539 2.54290023 0.05317623
0.99123591 0.04726564 2.54686164 0.05323283
0.99177408 0.04731622 2.55085089 0.05328979
0.99231201 0.04736616 2.55484392 0.05334603
0.99284983 0.04741524 2.55887812 0.05340131
0.99334258 0.04745941 2.56265831 0.05345106
0.99374640 0.04749530 2.56579624 0.05349148
0.99407727 0.04752419 2.56838644 0.05352402
0.99434841 0.04754767 2.57053865 0.05355046
0.99457067 0.04756668 2.57231911 0.05357188
0.99475282 0.04758247 2.57380479 0.05358965
0.99490207 0.04759493 2.57504258 0.05360369
0.99502444 0.04760538 2.57601993 0.05361546
0.99512470 0.04761404 2.57678365 0.05362521
0.99520689 0.04762108 2.57741666 0.05363314
0.99527425 0.04762645 2.57795069 0.05363919
0.99532950 0.04763052 2.57840284 0.05364378
