0.99532950 0.51733555
0.99541658 0.51703578
0.99550366 0.51692974
0.99559063 0.51702215
0.99567747 0.51683075
0.99576420 0.51660095
0.99585068 0.51633304
0.99593693 0.51579971
0.99602282 0.51546819
0.99610835 0.51529479
0.99619347 0.51483448
0.99627805 0.51430746
0.99636203 0.51395358
0.99644542 0.51342325
0.99652821 0.51319735
0.99661064 0.51287103
0.99669272 0.51265825
0.99677473 0.51277145
0.99685663 0.51277459
0.99693871 0.51267183
0.99702102 0.51285870
0.99710363 0.51289171
0.99718606 0.51270915
0.99726778 0.51173741
0.99734783 0.51067360
0.99742585 0.50959274
0.99750203 0.50927729
0.99757653 0.50798961
0.99764991 0.50743584
0.99772257 0.50723758
0.99779505 0.50716231
0.99786758 0.50709544
0.99793994 0.50693606
0.99801189 0.50656174
0.99808311 0.50606959
0.99815333 0.50554600
0.99822217 0.50469326
0.99828941 0.50379699
0.99835473 0.00000000
0.99841845 0.00000000
0.99848074 0.00358776
0.99854177 0.00400149
0.99860191 0.00435790
0.99866140 0.00513954
0.99872035 0.00559207
0.99877864 0.00601491
0.99883616 0.00641227
0.99889261 0.00678346
0.99894786 0.00712519
0.99900162 0.00742932
0.99905372 0.49825157
0.99910414 0.00789318
0.99915314 0.00805459
0.99920076 0.00817978
0.99924731 0.00921300
0.99929285 0.00936782
0.99933773 0.00952786
0.99938184 0.00970467
0.99942499 0.00990614
0.99946707 0.01125104
0.99950790 0.01159842
0.99954724 0.01312504
0.99958491 0.01361739
0.99962085 0.01413577
0.99965513 0.01467721
0.99968791 0.01524116
0.99971938 0.01583593
0.99974966 0.01646206
0.99977893 0.01710528
0.99980730 0.01641332
0.99983460 0.01710373
0.99986070 0.01780939
0.99988544 0.01850431
0.99990869 0.01916501
0.99993032 0.06295825
0.99995023 0.06122550
0.99996841 0.05950524
0.99998498 0.05782221
1.00000000 0.05627005
1.00001383 0.05404566
1.00002623 0.05259403
1.00003755 0.05123041
1.00004768 0.04980531
1.00005651 0.04836672
1.00006402 0.04692793
1.00007010 0.04546717
1.00007463 0.04400492
1.00007749 0.04258710
1.00007868 0.04016734
1.00007820 0.03920697
1.00007629 0.03842269
1.00007284 0.03780698
1.00006807 0.03632854
1.00006187 0.03632247
1.00005436 0.03645837
1.00004566 0.03567588
1.00003552 0.03639357
1.00002384 0.03714813
1.00001085 0.03666568
0.99999619 0.03771878
0.99998009 0.03868615
0.99996251 0.03953924
0.99994349 0.03864406
0.99992299 0.03944961
0.99990112 0.04008323
0.99987787 0.48707346
0.99985319 0.03888156
0.99982709 0.03932688
0.99979961 0.49131422
0.99977076 0.49236909
0.99974060 0.49353898
0.99970901 0.49459834
0.99967617 0.49556069
0.99964201 0.49644707
0.99960661 0.49725229
0.99956983 0.49809944
0.99953181 0.49872985
0.99949247 0.49926053
0.99945176 0.49996362
0.99940962 0.50043873
0.99936610 0.50103294
0.99932128 0.50143868
0.99927515 0.50190569
0.99922788 0.50229374
0.99917942 0.50260835
0.99912995 0.50282289
0.99907947 0.50331392
0.99902791 0.50352252
0.99897528 0.50363094
0.99892145 0.50418485
0.99886632 0.50430375
0.99880993 0.50480213
0.99875224 0.50485198
0.99869329 0.50530159
0.99863321 0.50517111
0.99857211 0.50561138
0.99851006 0.50592492
0.99844724 0.50614723
0.99838364 0.50601381
0.99831927 0.50633785
0.99825400 0.50660171
0.99818778 0.50680190
0.99812055 0.50672662
0.99805218 0.50703881
0.99798262 0.50726427
0.99791199 0.50700162
0.99784040 0.50729870
0.99776798 0.50751657
0.99769473 0.50767056
0.99762088 0.50711439
0.99754643 0.50736329
0.99747145 0.50757790
0.99739587 0.50777006
0.99731958 0.50793471
0.99724257 0.50717906
0.99716467 0.50750465
0.99708581 0.50778435
0.99700606 0.50800589
0.99692541 0.50817008
0.99684405 0.50829012
0.99676198 0.50748025
0.99667931 0.50769923
0.99659610 0.50787768
0.99651247 0.50802667
0.99642837 0.50815510
0.99634385 0.50826588
0.99625880 0.50835860
0.99617332 0.50843310
0.99608743 0.50747212
0.99600106 0.50764450
0.99591428 0.50779452
0.99582708 0.50792536
0.99573946 0.50803773
0.99565142 0.50813024
0.99556297 0.50820607
0.99547416 0.50826396
0.99538499 0.50829883
0.99529564 0.50831598
0.99520606 0.50831898
0.99511635 0.50831162
0.99502659 0.50829788
0.99493676 0.50828173
0.99484694 0.50732207
0.99475712 0.50733584
0.99466735 0.50734298
0.99457753 0.50735123
0.99448776 0.50522353
0.99439788 0.50526294
0.99430799 0.50528822
0.99421805 0.50529217
0.99412817 0.50210300
0.99403828 0.50209027
0.99394852 0.50205359
0.99385887 0.50199911
0.99376923 0.50193915
0.99367976 0.50185857
0.99359030 0.50177820
0.99350083 0.50169905
0.99341136 0.50161837
