0.99341136 2.06062583
0.99335474 2.05643681
0.99328572 2.04110201
0.99320149 2.02565582
0.99309874 2.00982744
0.99297339 1.99287205
0.99282044 1.97487784
0.99263388 1.95660738
0.99240625 1.93770053
0.99212855 1.91871905
0.99178970 1.89936210
0.99137640 1.88060680
0.99087214 1.86106522
0.99025697 1.84112545
0.98963583 1.82355265
0.98901469 1.80768342
0.98839355 1.79319810
0.98777246 1.78105534
0.98715132 1.76963696
0.98653024 1.75973018
0.98590922 1.75114883
0.98528814 1.74270025
0.98466712 1.73563029
0.98404610 1.72880140
0.98342508 1.72215080
0.98280406 1.71628639
0.98218310 1.71081707
0.98156214 1.70568839
0.98094118 1.70087413
0.98032022 1.69632890
0.97969925 1.69168599
0.97907835 1.68796596
0.97845745 1.68410603
0.97783655 1.68044049
0.97721565 1.67694149
0.97659475 1.67326355
0.97597390 1.67039962
0.97535300 1.66700118
0.97473216 1.66404647
0.97411132 1.66119071
0.97349048 1.65844751
0.97286963 1.65581004
0.97224879 1.65326223
0.97162801 1.65079070
0.97100723 1.64839249
0.97038639 1.64605724
0.96976560 1.64378388
0.96914482 1.64156844
0.96852404 1.63940078
0.96790326 1.63726368
0.96728247 1.63482591
0.96666169 1.63276688
0.96604097 1.63108713
0.96542019 1.62876438
0.96479946 1.62716473
0.96417868 1.62493788
0.96355796 1.62308530
0.96293718 1.62128358
0.96231645 1.61951303
0.96169573 1.61777702
0.96107495 1.61607050
0.96045423 1.61437677
0.95983350 1.61270126
0.95921278 1.61105181
0.95859200 1.60909534
0.95797127 1.60748645
0.95735055 1.60622663
0.95672983 1.60465188
0.95610905 1.60274436
0.95548832 1.60117284
0.95486760 1.59962330
0.95424682 1.59808092
0.95362610 1.59655048
0.95300531 1.59471681
0.95238459 1.59355545
0.95176381 1.59174748
0.95114309 1.59062177
0.95052230 1.58917024
0.94990152 1.58738753
0.94928080 1.58626470
0.94866002 1.58482720
0.94803923 1.58337861
0.94741845 1.58191523
0.94679761 1.58011765
0.94617683 1.57863389
0.94555604 1.57745763
0.94493520 1.57563249
0.94431436 1.57412611
0.94369358 1.57260995
0.94307274 1.57107869
0.94245189 1.56953600
0.94183099 1.56764840
0.94121015 1.56638574
0.94058925 1.56445190
0.93996841 1.56315000
0.93934751 1.56151277
0.93872660 1.55986643
0.93810570 1.55821827
0.93748474 1.55625402
0.93686384 1.55492189
0.93624288 1.55296444
0.93562192 1.55130416
0.93500096 1.54962710
0.93437994 1.54792910
0.93375897 1.54621918
0.93313795 1.54447754
0.93251693 1.54273233
0.93189585 1.54065365
0.93127483 1.53917743
0.93065375 1.53737099
0.93003267 1.53554936
0.92941159 1.53370324
0.92879045 1.53152416
0.92816931 1.52961758
0.92754817 1.52768720
0.92692703 1.52574391
0.92630583 1.52376776
0.92568469 1.52207463
0.92506343 1.51973583
0.92444223 1.51768408
0.92382097 1.51558113
0.92319971 1.51348363
0.92257845 1.51133827
0.92195714 1.50915108
0.92133582 1.50696756
0.92071450 1.50476677
0.92009312 1.50259720
0.91947174 1.50044808
0.91885036 1.49838727
0.91822892 1.49611004
0.91760749 1.49416401
0.91698605 1.49227093
0.91636455 1.49043113
0.91574305 1.48864026
0.91512156 1.48690976
0.91450006 1.48519719
0.91387850 1.48354086
0.91325694 1.48190795
0.91263539 1.48031296
0.91201383 1.47876670
0.91139221 1.47720873
0.91077060 1.47543513
0.91014898 1.47393240
0.90952736 1.47278017
0.90890574 1.47136837
0.90828407 1.46970621
0.90766239 1.46833791
0.90704072 1.46698776
0.90641904 1.46566165
0.90579736 1.46436404
0.90517563 1.46309648
0.90455395 1.46185899
0.90393221 1.46064742
0.90331048 1.45944059
0.90268874 1.45800961
0.90206701 1.45690429
0.90144527 1.45580075
0.90082353 1.45501533
0.90020180 1.45398189
0.89958006 1.45296329
0.89895827 1.45169467
0.89833653 1.45098890
0.89771473 1.44976953
0.89709300 1.44910475
0.89647120 1.44792601
0.89584947 1.44728516
0.89522767 1.44615568
0.89460588 1.44532073
0.89398414 1.44451818
0.89336234 1.44375257
0.89274061 1.44303250
0.89211881 1.44209918
0.89149708 1.44168250
0.89087528 1.44087300
0.89025354 1.44055447
0.88963181 1.43999843
0.88901001 1.43920042
0.88838828 1.43872388
0.88776654 1.43825746
0.88714480 1.43775478
0.88652307 1.43728419
0.88590139 1.43703441
0.88527966 1.43622977
0.88465792 1.43567865
0.88403624 1.43500431
0.88341457 1.43426221
0.88279289 1.43335083
0.88217115 1.43215706
0.88154954 1.43141264
0.88092786 1.43028000
0.88030618 1.42906631
0.87968451 1.42755240
0.87906283 1.42620499
0.87844121 1.42509429
0.87781954 1.42335634
0.87719792 1.42209337
0.87657624 1.42026431
0.87595463 1.41859094
0.87533295 1.41688037
0.87471133 1.41509952
0.87408966 1.41320926
0.87346798 1.41098736
0.87284636 1.40926939
0.87222469 1.40718396
0.87160301 1.40480535
0.87098140 1.40284010
0.87035972 1.40054135
0.86973804 1.39818258
0.86911637 1.39578507
0.86849469 1.39333039
0.86787295 1.39057060
0.86725128 1.38794087
0.86662960 1.38557979
0.86600786 1.38264643
0.86538613 1.37990930
0.86476439 1.37706986
0.86414266 1.37419360
0.86352092 1.37121163
0.86289912 1.36816308
0.86227733 1.36483108
0.86165559 1.36190181
0.86103374 1.35840891
0.86041194 1.35513722
0.85979009 1.35180355
0.85916829 1.34865528
0.85854644 1.34515266
0.85792452 1.34131610
0.85730267 1.33791469
0.85668075 1.33416787
0.85605878 1.33015081
0.85543686 1.32627370
0.85481489 1.32236441
0.85419291 1.31839837
0.85357088 1.31411425
0.85294890 1.31028108
0.85232681 1.30589436
0.85170478 1.30192999
0.85108268 1.29774520
0.85046059 1.29355542
0.84983844 1.28911721
0.84921628 1.28499039
0.84859413 1.28115709
0.84797192 1.27721374
0.84734964 1.27318064
0.84672743 1.26946259
0.84610516 1.26579732
0.84548289 1.26225077
0.84486055 1.25876304
0.84423822 1.25536401
0.84361589 1.25208454
0.84299350 1.24884710
0.84237111 1.24570914
0.84174871 1.24260793
0.84112626 1.23939845
0.84050387 1.23666759
0.83988142 1.23382294
0.83925891 1.23088622
0.83863646 1.22822764
0.83801395 1.22569923
0.83739144 1.22321764
0.83676893 1.22085669
0.83614641 1.21855646
0.83552384 1.21633040
0.83490133 1.21421165
0.83427876 1.21214561
0.83365619 1.21015026
0.83303362 1.20825865
0.83241099 1.20626374
0.83178842 1.20452839
0.83116585 1.20307406
0.83054322 1.20134922
0.82992059 1.19987731
0.82929802 1.19868188
0.82867539 1.19718579
0.82805276 1.19600459
0.82743013 1.19487053
0.82680750 1.19384164
0.82618487 1.19285659
0.82556224 1.19194277
0.82493961 1.19112851
0.82431698 1.19035466
0.82369435 1.18967652
0.82307172 1.18903255
0.82244909 1.18829394
0.82182646 1.18776563
0.82120389 1.18756119
0.82058126 1.18718232
0.81995863 1.18672013
0.81933600 1.18644026
0.81871343 1.18619002
0.81809086 1.18616047
0.81746823 1.18576586
0.81684566 1.18562799
0.81622308 1.18540675
0.81560051 1.18514955
0.81497800 1.18486283
0.81435543 1.18435920
0.81373292 1.18368225
0.81311035 1.18263846
0.81248784 1.18169883
0.81186533 1.18049750
0.81124288 1.17947430
0.81062037 1.17806883
0.80999786 1.17640538
0.80937541 1.17489653
0.80875289 1.17299920
0.80813044 1.17133293
0.80750793 1.16916431
0.80688548 1.16712484
0.80626297 1.16490806
0.80564052 1.16257564
0.80501807 1.16012129
0.80439556 1.15755776
0.80377311 1.15490661
0.80315059 1.15202551
0.80252814 1.14937015
0.80190563 1.14624911
0.80128312 1.14324578
0.80066061 1.14021683
0.80003816 1.13723608
0.79941565 1.13399120
0.79879308 1.13047746
0.79817057 1.12713491
0.79754806 1.12360770
0.79692549 1.12011858
0.79630291 1.11650991
0.79568034 1.11282663
0.79505777 1.10907312
0.79443520 1.10525930
0.79381257 1.10142996
0.79318994 1.09731270
0.79256731 1.09349198
0.79194468 1.08947032
0.79132199 1.08511030
0.79069930 1.08099114
0.79007661 1.07676134
0.78945386 1.07242513
0.78883117 1.06815341
0.78820843 1.06396291
0.78758562 1.05940734
0.78696281 1.05500012
0.78634000 1.05057584
0.78571719 1.04620203
0.78509432 1.04179103
0.78447145 1.03740556
0.78384852 1.03310700
0.78322560 1.02875788
0.78260261 1.02444163
0.78197968 1.02046982
0.78135663 1.01647511
0.78073359 1.01281343
0.78011054 1.00938322
0.77948749 1.00617291
0.77886438 1.00322444
0.77824128 1.00057646
0.77761811 0.99782435
0.77699494 0.99541555
0.77637178 0.99320003
0.77574855 0.99116986
0.77512532 0.98931730
0.77450210 0.98764123
0.77387881 0.98613997
0.77325553 0.98466642
0.77263224 0.98355210
0.77200896 0.98269062
0.77138561 0.98170300
0.77076232 0.98114875
0.77013898 0.98059832
0.76951557 0.98010150
0.76889223 0.97978648
0.76826888 0.97970650
0.76764548 0.97975778
0.76702207 0.97983700
0.76639867 0.98008981
0.76577526 0.98051364
0.76515186 0.98095616
0.76452839 0.98148315
0.76390499 0.98240238
0.76328158 0.98318476
0.76265812 0.98398612
0.76203465 0.98508108
0.76141125 0.98636273
0.76078779 0.98747086
0.76016432 0.98881286
0.75954092 0.99024043
0.75891745 0.99175756
0.75829399 0.99335766
0.75767058 0.99508062
0.75704712 0.99681921
0.75642365 0.99847537
0.75580025 1.00051379
0.75517684 1.00240353
0.75455338 1.00418478
0.75392997 1.00627278
0.75330657 1.00823034
0.75268316 1.01023433
0.75205976 1.01216427
0.75143635 1.01390404
0.75081295 1.01576066
0.75018960 1.01744934
0.74956626 1.01896516
0.74894291 1.02024093
0.74831957 1.02124029
0.74769622 1.02196259
0.74707294 1.02248362
0.74644965 1.02276840
0.74582630 1.02256023
0.74520302 1.02237578
0.74457973 1.02192771
0.74395645 1.02127275
0.74333322 1.02056778
0.74270993 1.01956186
0.74208665 1.01820543
0.74146342 1.01691742
0.74084014 1.01515855
0.74021685 1.01336971
0.73959363 1.01145541
0.73897034 1.00932040
0.73834705 1.00697989
0.73772377 1.00443541
0.73710054 1.00196855
0.73647726 0.99920439
0.73585397 0.99630331
0.73523062 0.99317186
0.73460734 0.99013669
0.73398405 0.98682637
0.73336071 0.98344833
0.73273736 0.97971298
0.73211402 0.97609847
0.73149067 0.97232387
0.73086727 0.96845533
0.73024392 0.96444778
0.72962052 0.96044422
0.72899711 0.95635360
0.72837365 0.95209524
0.72775018 0.94782425
0.72712672 0.94348881
0.72650325 0.93910071
0.72587973 0.93455189
0.72525620 0.93010341
0.72463268 0.92580240
0.72400910 0.92119739
0.72338551 0.91668926
0.72276187 0.91224999
0.72213829 0.90796931
0.72151458 0.90351167
0.72089094 0.89938873
0.72026724 0.89525608
0.71964347 0.89118786
0.71901971 0.88737941
0.71839595 0.88378775
0.71777213 0.88059069
0.71714830 0.87761337
0.71652442 0.87498273
0.71590054 0.87263106
0.71527666 0.87059072
0.71465272 0.86872551
0.71402878 0.86714801
0.71340477 0.86569752
0.71278083 0.86469377
0.71215677 0.86369429
0.71153277 0.86300778
0.71090877 0.86263226
0.71028471 0.86224321
0.70966065 0.86218510
0.70903659 0.86222534
0.70841247 0.86249480
0.70778835 0.86286533
0.70716429 0.86355430
0.70654017 0.86431154
0.70591599 0.86511611
0.70529187 0.86621068
0.70466775 0.86746750
0.70404357 0.86874410
0.70341939 0.87016845
0.70279527 0.87186941
0.70217109 0.87353156
0.70154691 0.87537376
0.70092273 0.87733751
0.70029855 0.87940747
0.69967437 0.88157409
0.69905019 0.88388388
0.69842601 0.88624380
0.69780183 0.88869228
0.69717765 0.89126317
0.69655341 0.89375226
0.69592923 0.89641421
0.69530505 0.89913815
0.69468093 0.90205308
0.69405675 0.90484606
0.69343257 0.90751317
0.69280839 0.91038542
0.69218427 0.91330152
0.69156009 0.91598210
0.69093597 0.91872291
0.69031185 0.92142034
0.68968773 0.92396415
0.68906361 0.92635696
0.68843949 0.92850159
0.68781543 0.93037870
0.68719137 0.93188703
0.68656731 0.93307485
0.68594325 0.93394435
0.68531919 0.93456635
0.68469512 0.93474684
0.68407112 0.93487223
0.68344712 0.93460912
0.68282306 0.93402009
0.68219906 0.93324800
0.68157506 0.93222386
0.68095106 0.93100072
0.68032706 0.92945379
0.67970306 0.92777864
0.67907906 0.92587987
0.67845505 0.92366789
0.67783105 0.92134098
0.67720705 0.91876511
0.67658299 0.91587786
0.67595899 0.91302575
0.67533499 0.90988315
0.67471093 0.90645497
0.67408693 0.90311859
0.67346287 0.89946127
0.67283881 0.89550474
0.67221475 0.89171599
0.67159063 0.88752331
0.67096657 0.88329992
0.67034245 0.87896248
0.66971833 0.87452396
0.66909420 0.86998675
0.66847003 0.86536481
0.66784585 0.86056960
0.66722167 0.85585934
0.66659749 0.85115747
0.66597325 0.84628317
0.66534901 0.84148144
0.66472471 0.83650419
0.66410047 0.83178439
0.66347617 0.82701679
0.66285181 0.82223048
0.66222745 0.81763563
0.66160309 0.81317104
0.66097867 0.80887367
0.66035426 0.80478630
0.65972978 0.80097195
0.65910530 0.79751526
0.65848082 0.79439950
0.65785629 0.79172352
0.65723175 0.78935505
0.65660715 0.78719756
0.65598255 0.78547624
0.65535796 0.78405603
0.65473336 0.78299970
0.65410870 0.78214240
0.65348405 0.78154948
0.65285933 0.78113621
0.65223467 0.78111766
0.65160996 0.78118416
0.65098524 0.78151621
0.65036047 0.78210899
0.64973575 0.78290366
0.64911097 0.78394157
0.64848620 0.78506713
0.64786142 0.78640811
0.64723665 0.78801035
0.64661187 0.78974987
0.64598709 0.79172442
0.64536226 0.79371775
0.64473748 0.79605124
0.64411265 0.79830452
0.64348781 0.80081464
0.64286298 0.80346823
0.64223820 0.80631682
0.64161336 0.80913788
0.64098853 0.81219302
0.64036369 0.81531910
0.63973886 0.81854130
0.63911402 0.82189215
0.63848919 0.82529385
0.63786435 0.82878266
0.63723952 0.83233526
0.63661468 0.83586354
0.63598984 0.83951171
0.63536501 0.84324425
0.63474023 0.84698880
0.63411540 0.85065804
0.63349062 0.85442304
0.63286579 0.85805408
0.63224101 0.86165299
0.63161623 0.86515374
0.63099146 0.86852658
0.63036668 0.87171809
0.62974191 0.87464722
0.62911719 0.87727963
0.62849247 0.87951358
0.62786770 0.88137171
0.62724298 0.88293971
0.62661833 0.88427852
0.62599361 0.88523057
0.62536889 0.88579998
0.62474424 0.88634218
0.62411952 0.88635889
0.62349486 0.88610883
0.62287021 0.88568356
0.62224549 0.88501046
0.62162083 0.88418605
0.62099618 0.88303522
0.62037152 0.88166227
0.61974686 0.88006746
0.61912221 0.87825514
0.61849749 0.87623698
0.61787283 0.87392318
0.61724818 0.87159059
0.61662352 0.86898310
0.61599880 0.86611043
0.61537415 0.86331941
0.61474943 0.86010329
0.61412472 0.85681096
0.61350000 0.85328004
0.61287528 0.84968654
0.61225057 0.84604666
0.61162585 0.84219172
0.61100107 0.83812637
0.61037630 0.83405337
0.60975152 0.82987228
0.60912675 0.82567013
0.60850197 0.82132094
0.60787714 0.81683856
0.60725230 0.81237744
0.60662746 0.80788118
0.60600263 0.80344068
0.60537773 0.79885758
0.60475284 0.79428434
0.60412794 0.78989917
0.60350299 0.78552411
0.60287803 0.78114747
0.60225308 0.77696905
0.60162807 0.77295439
0.60100305 0.76913242
0.60037804 0.76554741
0.59975302 0.76229120
0.59912795 0.75943633
0.59850281 0.75692954
0.59787774 0.75492229
0.59725261 0.75310018
0.59662747 0.75176747
0.59600234 0.75082533
0.59537715 0.75017337
0.59475195 0.74972901
0.59412676 0.74973175
0.59350157 0.74986590
0.59287637 0.75042434
0.59225112 0.75116472
0.59162587 0.75215195
0.59100062 0.75325163
0.59037536 0.75470719
0.58975011 0.75637774
0.58912486 0.75830363
0.58849961 0.76038120
0.58787429 0.76260200
0.58724898 0.76505258
0.58662373 0.76772304
0.58599842 0.77045936
0.58537310 0.77339767
0.58474779 0.77655806
0.58412254 0.77974651
0.58349723 0.78304444
0.58287191 0.78658181
0.58224660 0.79014236
0.58162129 0.79379686
0.58099598 0.79744875
0.58037066 0.80133241
0.57974535 0.80519309
0.57912004 0.80904066
0.57849473 0.81295761
0.57786947 0.81692863
0.57724416 0.82082875
0.57661885 0.82463178
0.57599360 0.82854991
0.57536829 0.83216929
0.57474303 0.83560786
0.57411772 0.83900808
0.57349247 0.84202427
0.57286721 0.84466326
0.57224196 0.84690867
0.57161677 0.84878077
0.57099152 0.85029532
0.57036626 0.85155191
0.56974107 0.85230362
0.56911582 0.85285137
0.56849062 0.85312114
0.56786537 0.85297665
0.56724018 0.85260034
0.56661499 0.85200014
0.56598979 0.85107230
0.56536454 0.84982353
0.56473935 0.84837654
0.56411415 0.84659111
0.56348896 0.84473071
0.56286371 0.84246136
0.56223851 0.84013406
0.56161326 0.83743769
0.56098807 0.83463756
0.56036282 0.83151146
0.55973762 0.82829350
0.55911237 0.82476587
0.55848712 0.82110646
0.55786186 0.81726240
0.55723661 0.81315712
0.55661136 0.80905769
0.55598611 0.80477784
0.55536079 0.80025204
0.55473548 0.79565079
0.55411023 0.79085624
0.55348492 0.78604585
0.55285954 0.78123585
0.55223423 0.77628827
0.55160886 0.77122878
0.55098349 0.76627391
0.55035812 0.76130860
0.54973274 0.75636392
0.54910731 0.75158251
0.54848194 0.74687304
0.54785651 0.74239271
0.54723102 0.73814830
0.54660559 0.73432194
0.54598010 0.73094097
0.54535460 0.72800817
0.54472911 0.72550600
0.54410356 0.72342313
0.54347807 0.72167367
0.54285252 0.72046564
0.54222697 0.71956543
0.54160142 0.71903466
0.54097581 0.71883336
0.54035026 0.71903550
0.53972465 0.71951679
0.53909910 0.72030406
0.53847349 0.72144957
0.53784788 0.72286981
0.53722227 0.72460265
0.53659666 0.72660957
0.53597105 0.72897813
0.53534538 0.73139984
0.53471977 0.73416157
0.53409415 0.73714694
0.53346848 0.74041503
0.53284287 0.74373051
0.53221720 0.74728243
0.53159159 0.75104416
0.53096592 0.75490196
0.53034031 0.75894123
0.52971464 0.76304386
0.52908903 0.76736633
0.52846336 0.77155657
0.52783775 0.77592739
0.52721208 0.78027153
0.52658647 0.78474161
0.52596080 0.78905347
0.52533519 0.79333038
0.52470952 0.79749573
0.52408391 0.80151466
0.52345830 0.80534245
0.52283263 0.80885599
0.52220702 0.81192747
0.52158141 0.81476334
0.52095580 0.81707761
0.52033019 0.81898447
0.51970458 0.82055612
0.51907897 0.82178013
0.51845336 0.82276158
0.51782781 0.82329237
0.51720220 0.82354283
0.51657659 0.82361875
0.51595098 0.82325862
0.51532543 0.82276066
0.51469982 0.82202909
0.51407421 0.82099864
0.51344860 0.81973399
0.51282299 0.81813357
0.51219743 0.81655221
0.51157182 0.81464630
0.51094621 0.81253096
0.51032060 0.81019334
0.50969499 0.80770762
0.50906938 0.80504480
0.50844377 0.80220882
0.50781816 0.79912555
0.50719255 0.79605268
0.50656694 0.79278539
0.50594127 0.78924498
0.50531566 0.78568054
0.50469005 0.78199679
0.50406438 0.77821177
0.50343871 0.77431176
0.50281310 0.77046129
0.50218743 0.76636668
0.50156176 0.76230615
0.50093609 0.75822083
0.50031042 0.75413338
0.49968475 0.75005919
0.49905905 0.74604891
0.49843335 0.74211680
0.49780768 0.73833106
0.49718195 0.73470516
0.49655625 0.73133298
0.49593055 0.72829920
0.49530482 0.72563792
0.49467909 0.72329040
0.49405336 0.72137555
0.49342763 0.71988356
0.49280187 0.71857670
0.49217615 0.71774812
0.49155042 0.71709295
0.49092466 0.71680552
0.49029890 0.71681708
0.48967314 0.71711068
0.48904741 0.71769194
0.48842165 0.71853716
0.48779589 0.71964433
0.48717013 0.72100800
0.48654437 0.72261369
0.48591861 0.72445283
0.48529282 0.72644383
0.48466706 0.72880470
0.48404130 0.73122775
0.48341554 0.73400207
0.48278978 0.73689434
0.48216400 0.73997039
0.48153824 0.74322648
0.48091248 0.74664681
0.48028672 0.75022257
0.47966093 0.75386576
0.47903517 0.75771474
0.47840941 0.76167516
0.47778365 0.76574157
0.47715786 0.76997049
0.47653210 0.77410974
0.47590634 0.77846161
0.47528055 0.78275907
0.47465479 0.78705795
0.47402903 0.79133060
0.47340328 0.79546300
0.47277749 0.79965128
0.47215173 0.80360867
0.47152597 0.80736074
0.47090021 0.81082800
0.47027445 0.81388930
0.46964869 0.81645058
0.46902293 0.81851401
0.46839717 0.82011104
0.46777141 0.82124999
0.46714565 0.82195055
0.46651989 0.82223042
0.46589413 0.82210835
0.46526837 0.82168317
0.46464261 0.82080623
0.46401685 0.81949178
0.46339110 0.81792202
0.46276534 0.81603108
0.46213958 0.81390591
0.46151382 0.81140095
0.46088806 0.80861777
0.46026230 0.80556849
0.45963654 0.80226922
0.45901078 0.79873406
0.45838502 0.79498625
0.45775926 0.79095081
0.45713350 0.78689224
0.45650774 0.78259446
0.45588198 0.77814268
0.45525622 0.77355657
0.45463043 0.76886739
0.45400468 0.76402107
0.45337892 0.75926397
0.45275313 0.75431590
0.45212737 0.74943462
0.45150161 0.74456966
0.45087582 0.73975200
0.45025006 0.73501370
0.44962430 0.73031741
0.44899851 0.72592645
0.44837275 0.72158710
0.44774699 0.71757076
0.44712123 0.71386434
0.44649547 0.71048444
0.44586971 0.70774057
0.44524395 0.70537601
0.44461820 0.70358349
0.44399244 0.70226109
0.44336671 0.70129729
0.44274095 0.70090545
0.44211522 0.70075751
0.44148949 0.70105459
0.44086376 0.70170379
0.44023803 0.70268525
0.43961230 0.70399465
0.43898660 0.70559819
0.43836087 0.70749994
0.43773517 0.70957723
0.43710944 0.71200547
0.43648374 0.71475296
0.43585804 0.71758767
0.43523234 0.72078467
0.43460664 0.72412035
0.43398094 0.72766168
0.43335524 0.73140020
0.43272954 0.73530004
0.43210384 0.73929324
0.43147817 0.74352047
0.43085247 0.74788185
0.43022677 0.75236559
0.42960107 0.75697416
0.42897540 0.76173690
0.42834970 0.76652218
0.42772400 0.77136340
0.42709830 0.77624356
0.42647263 0.78105350
0.42584693 0.78601366
0.42522123 0.79085245
0.42459553 0.79560125
0.42396984 0.80022123
0.42334411 0.80467233
0.42271841 0.80885156
0.42209271 0.81266222
0.42146698 0.81597655
0.42084128 0.81879394
0.42021555 0.82087224
0.41958982 0.82249788
0.41896409 0.82366487
0.41833839 0.82422140
0.41771266 0.82428761
0.41708693 0.82379680
0.41646120 0.82299328
0.41583544 0.82157270
0.41520971 0.81988023
0.41458398 0.81759518
0.41395825 0.81497836
0.41333252 0.81197308
0.41270679 0.80867335
0.41208106 0.80492286
0.41145533 0.80084078
0.41082960 0.79642834
0.41020390 0.79170165
0.40957817 0.78663410
0.40895244 0.78145752
0.40832675 0.77596566
0.40770102 0.77018847
0.40707532 0.76430661
0.40644962 0.75828035
0.40582392 0.75214368
0.40519825 0.74589596
0.40457255 0.73962651
0.40394688 0.73327209
0.40332121 0.72703000
0.40269554 0.72087077
0.40206990 0.71484500
0.40144426 0.70901538
0.40081862 0.70346352
0.40019301 0.69822943
0.39956743 0.69331831
0.39894181 0.68903838
0.39831626 0.68542012
0.39769071 0.68252304
0.39706516 0.68030609
0.39643964 0.67866056
0.39581412 0.67770982
0.39518863 0.67730453
0.39456314 0.67748332
0.39393768 0.67816562
0.39331222 0.67926934
0.39268678 0.68090674
0.39206135 0.68298594
0.39143592 0.68548471
0.39081052 0.68837698
0.39018512 0.69164250
0.38955972 0.69526099
0.38893431 0.69923087
0.38830894 0.70349250
0.38768357 0.70804410
0.38705820 0.71286619
0.38643283 0.71786591
0.38580745 0.72326354
0.38518211 0.72874921
0.38455674 0.73445949
0.38393137 0.74030896
0.38330603 0.74621674
0.38268065 0.75238323
0.38205528 0.75855070
0.38142991 0.76478276
0.38080454 0.77100371
0.38017917 0.77719801
0.37955379 0.78320620
0.37892839 0.78927942
0.37830299 0.79505025
0.37767759 0.80053869
0.37705219 0.80561634
0.37642676 0.81021017
0.37580132 0.81399384
0.37517586 0.81724935
0.37455043 0.81986224
0.37392497 0.82193875
0.37329951 0.82343943
0.37267402 0.82443743
0.37204856 0.82488725
0.37142307 0.82488634
0.37079760 0.82446177
0.37017211 0.82345649
0.36954662 0.82207575
0.36892113 0.82027943
0.36829567 0.81807969
0.36767018 0.81556550
0.36704469 0.81250821
0.36641923 0.80917835
0.36579373 0.80551767
0.36516827 0.80148289
0.36454278 0.79718112
0.36391732 0.79255686
0.36329189 0.78764325
0.36266643 0.78247096
0.36204100 0.77698151
0.36141557 0.77142775
0.36079013 0.76561645
0.36016473 0.75959514
0.35953933 0.75339895
0.35891393 0.74714357
0.35828859 0.74080955
0.35766321 0.73444250
0.35703787 0.72802672
0.35641256 0.72176054
0.35578725 0.71549872
0.35516196 0.70952946
0.35453671 0.70364451
0.35391149 0.69814188
0.35328627 0.69302539
0.35266110 0.68856881
0.35203594 0.68473838
0.35141081 0.68146135
0.35078573 0.67884529
0.35016066 0.67684024
0.34953561 0.67539942
0.34891057 0.67453460
0.34828559 0.67416166
0.34766060 0.67428453
0.34703565 0.67489085
0.34641072 0.67588974
0.34578580 0.67742595
0.34516090 0.67935898
0.34453604 0.68170118
0.34391117 0.68443127
0.34328634 0.68746374
0.34266150 0.69092342
0.34203666 0.69475726
0.34141186 0.69888368
0.34078708 0.70335006
0.34016228 0.70809943
0.33953750 0.71301521
0.33891273 0.71825130
0.33828798 0.72372323
0.33766320 0.72941029
0.33703843 0.73531864
0.33641368 0.74132318
0.33578891 0.74754367
0.33516416 0.75381395
0.33453938 0.76023924
0.33391461 0.76668677
0.33328983 0.77315341
0.33266506 0.77959537
0.33204025 0.78597269
0.33141544 0.79214747
0.33079061 0.79832952
0.33016577 0.80412720
0.32954094 0.80954191
0.32891607 0.81441220
0.32829121 0.81861401
0.32766631 0.82214273
0.32704142 0.82503731
0.32641649 0.82731942
0.32579157 0.82902000
0.32516661 0.83019747
0.32454169 0.83080194
0.32391673 0.83090280
0.32329178 0.83043331
0.32266679 0.82969253
0.32204184 0.82838369
0.32141688 0.82661374
0.32079190 0.82449746
0.32016695 0.82194918
0.31954199 0.81893976
0.31891704 0.81573558
0.31829208 0.81205215
0.31766716 0.80813924
0.31704223 0.80379283
0.31641731 0.79924142
0.31579238 0.79445098
0.31516749 0.78937591
0.31454259 0.78411586
0.31391773 0.77862190
0.31329289 0.77291108
0.31266806 0.76708917
0.31204325 0.76115549
0.31141844 0.75509333
0.31079370 0.74909919
0.31016895 0.74294652
0.30954424 0.73690330
0.30891955 0.73094187
0.30829489 0.72511797
0.30767027 0.71952140
0.30704567 0.71415259
0.30642113 0.70905740
0.30579662 0.70441349
0.30517215 0.70050739
0.30454770 0.69715633
0.30392331 0.69456817
0.30329895 0.69269889
0.30267462 0.69134956
0.30205035 0.69058887
0.30142608 0.69043210
0.30080187 0.69080012
0.30017769 0.69167185
0.29955351 0.69299115
0.29892939 0.69484120
0.29830527 0.69705756
0.29768118 0.69977013
0.29705712 0.70283362
0.29643309 0.70627068
0.29580906 0.71003361
0.29518506 0.71416944
0.29456106 0.71865974
0.29393709 0.72337995
0.29331312 0.72841730
0.29268914 0.73371730
0.29206517 0.73926868
0.29144123 0.74506625
0.29081729 0.75101925
0.29019335 0.75713947
0.28956941 0.76340105
0.28894544 0.76982385
0.28832150 0.77618466
0.28769752 0.78271547
0.28707355 0.78918615
0.28644958 0.79553204
0.28582558 0.80183922
0.28520155 0.80788734
0.28457752 0.81361018
0.28395349 0.81883061
0.28332940 0.82339615
0.28270531 0.82725185
0.28208122 0.83041497
0.28145707 0.83293591
0.28083295 0.83482511
0.28020880 0.83610317
0.27958462 0.83679580
0.27896044 0.83697115
0.27833626 0.83654844
0.27771208 0.83560718
0.27708790 0.83412143
0.27646372 0.83222643
0.27583951 0.82977314
0.27521533 0.82695943
0.27459118 0.82361756
0.27396700 0.81990517
0.27334285 0.81579695
0.27271870 0.81128208
0.27209455 0.80651237
0.27147046 0.80132208
0.27084634 0.79592815
0.27022228 0.79022320
0.26959822 0.78429534
0.26897418 0.77816502
0.26835021 0.77183404
0.26772624 0.76543784
0.26710230 0.75898660
0.26647842 0.75250657
0.26585454 0.74605631
0.26523072 0.73983643
0.26460695 0.73363752
0.26398322 0.72785286
0.26335955 0.72240513
0.26273593 0.71744722
0.26211235 0.71323276
0.26148883 0.70972986
0.26086536 0.70688751
0.26024196 0.70470712
0.25961858 0.70327847
0.25899526 0.70232744
0.25837198 0.70198517
0.25774875 0.70215310
0.25712556 0.70287462
0.25650242 0.70408940
0.25587928 0.70577383
0.25525621 0.70790603
0.25463316 0.71043063
0.25401011 0.71345354
0.25338712 0.71680761
0.25276414 0.72049393
0.25214121 0.72454261
0.25151825 0.72895284
0.25089535 0.73365322
0.25027245 0.73864115
0.24964955 0.74388598
0.24902669 0.74938974
0.24840380 0.75519205
0.24778095 0.76106597
0.24715808 0.76722051
0.24653523 0.77350390
0.24591236 0.77995680
0.24528950 0.78642633
0.24466664 0.79305377
0.24404375 0.79976453
0.24342087 0.80646664
0.24279796 0.81318973
0.24217504 0.81982180
0.24155211 0.82634417
0.24092916 0.83273969
0.24030618 0.83882940
0.23968320 0.84467262
0.23906018 0.84995409
0.23843713 0.85467189
0.23781405 0.85878269
0.23719096 0.86225477
0.23656785 0.86515708
0.23594472 0.86754722
0.23532158 0.86936023
0.23469841 0.87075200
0.23407525 0.87155854
0.23345207 0.87208437
0.23282889 0.87205704
0.23220570 0.87163520
0.23158251 0.87088495
0.23095931 0.86967219
0.23033611 0.86816194
0.22971293 0.86621096
0.22908975 0.86395351
0.22846659 0.86135410
0.22784342 0.85845372
0.22722027 0.85520159
0.22659715 0.85159329
0.22597402 0.84773044
0.22535093 0.84357839
0.22472785 0.83914237
0.22410479 0.83449107
0.22348177 0.82952649
0.22285877 0.82440927
0.22223581 0.81907026
0.22161289 0.81351980
0.22098999 0.80787424
0.22036713 0.80216590
0.21974432 0.79638220
0.21912156 0.79056687
0.21849884 0.78486358
0.21787617 0.77939007
0.21725357 0.77412159
0.21663101 0.76923995
0.21600851 0.76500134
0.21538609 0.76117782
0.21476372 0.75799977
0.21414140 0.75531102
0.21351914 0.75320054
0.21289694 0.75147815
0.21227479 0.75025988
0.21165268 0.74954475
0.21103063 0.74924785
0.21040863 0.74939143
0.20978667 0.74996161
0.20916475 0.75098267
0.20854288 0.75237824
0.20792106 0.75413413
0.20729925 0.75637420
0.20667750 0.75887796
0.20605576 0.76176854
0.20543407 0.76504512
0.20481239 0.76861752
0.20419075 0.77251161
0.20356913 0.77667090
0.20294751 0.78119507
0.20232593 0.78599339
0.20170435 0.79101333
0.20108280 0.79623636
0.20046125 0.80172536
0.19983971 0.80737918
0.19921817 0.81325764
0.19859663 0.81933438
0.19797508 0.82546725
0.19735354 0.83175522
0.19673198 0.83812445
0.19611043 0.84454194
0.19548886 0.85092166
0.19486727 0.85726950
0.19424567 0.86361783
0.19362405 0.86968111
0.19300240 0.87560977
0.19238073 0.88107745
0.19175903 0.88613941
0.19113731 0.89072154
0.19051558 0.89489859
0.18989383 0.89874469
0.18927205 0.90223719
0.18865025 0.90536109
0.18802845 0.90817911
0.18740663 0.91075762
0.18678479 0.91305855
0.18616295 0.91501411
0.18554111 0.91682628
0.18491925 0.91836415
0.18429738 0.91972127
0.18367551 0.92083222
0.18305364 0.92179543
0.18243177 0.92256513
0.18180990 0.92311319
0.18118803 0.92349039
0.18056618 0.92374680
0.17994431 0.92383505
0.17932245 0.92377677
0.17870061 0.92357400
0.17807877 0.92318285
0.17745695 0.92265625
0.17683512 0.92208877
0.17621332 0.92135454
0.17559153 0.92050080
0.17496976 0.91953368
0.17434801 0.91845899
0.17372628 0.91728271
0.17310455 0.91610463
0.17248286 0.91479889
0.17186119 0.91341094
0.17123954 0.91196440
0.17061792 0.91042114
0.16999634 0.90888447
0.16937476 0.90742166
0.16875324 0.90592702
0.16813174 0.90443129
0.16751027 0.90306648
0.16688885 0.90176623
0.16626745 0.90064939
0.16564609 0.89957644
0.16502476 0.89862761
0.16440347 0.89770948
0.16378222 0.89690332
0.16316099 0.89620137
0.16253981 0.89546526
0.16191867 0.89477969
0.16129756 0.89418514
0.16067648 0.89363214
0.16005544 0.89311778
0.15943445 0.89259317
0.15881348 0.89218962
0.15819256 0.89172539
0.15757167 0.89133280
0.15695082 0.89096552
0.15633000 0.89057540
0.15570924 0.89020375
0.15508850 0.88984570
0.15446779 0.88954473
0.15384714 0.88920992
0.15322652 0.88884507
0.15260594 0.88853586
0.15198539 0.88818468
0.15136489 0.88783404
0.15074444 0.88748510
0.15012401 0.88718836
0.14950363 0.88675787
0.14888330 0.88641236
0.14826299 0.88601918
0.14764273 0.88557335
0.14702252 0.88512815
0.14640234 0.88468248
0.14578222 0.88418854
0.14516212 0.88380287
0.14454207 0.88329887
0.14392208 0.88277402
0.14330211 0.88229503
0.14268218 0.88181768
0.14206231 0.88128746
0.14144248 0.88073378
0.14082269 0.88020715
0.14020294 0.87973353
0.13958324 0.87919136
0.13896360 0.87865494
0.13834399 0.87812717
0.13772441 0.87766026
0.13710490 0.87715739
0.13648543 0.87667223
0.13586600 0.87618753
0.13524662 0.87575244
0.13462730 0.87535067
0.13400801 0.87506267
0.13338877 0.87475086
0.13276958 0.87449940
0.13215044 0.87432123
0.13153134 0.87432922
0.13091230 0.87435263
0.13029331 0.87454014
0.12967438 0.87487838
0.12905547 0.87553263
0.12843663 0.87634914
0.12781782 0.87742520
0.12719907 0.87866514
0.12658036 0.88009271
0.12596169 0.88170190
0.12534307 0.88348389
0.12472448 0.88550487
0.12410592 0.88764711
0.12348741 0.88996486
0.12286893 0.89241707
0.12225049 0.89503247
0.12163207 0.89781811
0.12101369 0.90074374
0.12039533 0.90377781
0.11977700 0.90699658
0.11915870 0.91029300
0.11854042 0.91374172
0.11792216 0.91730845
0.11730392 0.92102611
0.11668570 0.92482699
0.11606751 0.92873750
0.11544932 0.93281490
0.11483114 0.93697473
0.11421298 0.94120577
0.11359483 0.94553839
0.11297669 0.95002382
0.11235855 0.95460490
0.11174041 0.95927267
0.11112228 0.96396839
0.11050416 0.96877016
0.10988603 0.97368073
0.10926789 0.97863659
0.10864976 0.98367548
0.10803162 0.98875326
0.10741347 0.99387103
0.10679531 0.99902940
0.10617714 1.00422006
0.10555896 1.00940932
0.10494076 1.01461805
0.10432255 1.01972814
0.10370432 1.02484839
0.10308607 1.02975992
0.10246780 1.03445490
0.10184951 1.03880645
0.10123120 1.04300462
0.10061286 1.04685659
0.09999452 1.05047738
0.09937616 1.05394417
0.09875778 1.05712933
0.09813939 1.06019118
0.09752099 1.06308187
0.09690259 1.06575190
0.09628417 1.06833558
0.09566575 1.07074484
0.09504733 1.07305384
0.09442891 1.07520213
0.09381048 1.07717849
0.09319206 1.07913080
0.09257364 1.08096067
0.09195522 1.08264903
0.09133681 1.08423724
0.09071840 1.08575276
0.09010001 1.08714348
0.08948162 1.08849013
0.08886325 1.08971656
0.08824489 1.09088448
0.08762655 1.09195381
0.08700822 1.09294815
0.08638991 1.09389526
0.08577163 1.09472458
0.08515336 1.09551637
0.08453512 1.09620671
0.08391691 1.09683623
0.08329872 1.09742384
0.08268055 1.09798022
0.08206242 1.09843319
0.08144432 1.09887187
0.08082626 1.09923123
0.08020823 1.09958996
0.07959024 1.09987313
0.07897228 1.10019026
0.07835437 1.10048467
0.07773650 1.10078058
0.07711866 1.10120577
0.07650089 1.10168950
0.07588315 1.10242317
0.07526546 1.10332872
0.07464781 1.10448223
0.07403022 1.10579175
0.07341266 1.10732671
0.07279516 1.10897485
0.07217769 1.11081150
0.07156026 1.11280391
0.07094288 1.11486650
0.07032553 1.11712380
0.06970823 1.11945181
0.06909095 1.12195402
0.06847372 1.12450849
0.06785652 1.12721403
0.06723936 1.12997706
0.06662223 1.13284558
0.06600513 1.13585505
0.06538805 1.13894973
0.06477101 1.14209535
0.06415400 1.14536649
0.06353702 1.14869011
0.06292006 1.15208830
0.06230313 1.15561390
0.06168622 1.15919980
0.06106934 1.16287518
0.06045247 1.16661344
0.05983563 1.17041936
0.05921881 1.17430457
0.05860201 1.17825678
0.05798522 1.18227978
0.05736845 1.18636985
0.05675169 1.19052906
0.05613495 1.19474878
0.05551823 1.19904509
0.05490151 1.20337932
0.05428481 1.20781321
0.05366811 1.21229773
0.05305142 1.21684465
0.05243475 1.22142287
0.05181807 1.22611784
0.05120140 1.23082028
0.05058474 1.23560404
0.04996807 1.24046532
0.04935141 1.24534536
0.04873475 1.25032079
0.04811809 1.25533076
0.04750142 1.26039190
0.04688476 1.26551087
0.04626808 1.27068180
0.04565141 1.27590357
0.04503472 1.28117205
0.04441803 1.28649256
0.04380133 1.29187924
0.04318462 1.29726659
0.04256789 1.30272149
0.04195116 1.30824241
0.04133441 1.31375196
0.04071765 1.31932490
0.04010087 1.32495480
0.03948407 1.33059482
0.03886725 1.33625916
0.03825042 1.34195325
0.03763357 1.34763954
0.03701669 1.35338658
0.03639979 1.35909600
0.03578287 1.36482987
0.03516592 1.37057538
0.03454895 1.37626729
0.03393195 1.38196315
0.03331492 1.38757727
0.03269786 1.39316647
0.03208077 1.39865979
0.03146365 1.40404575
0.03084544 1.40922363
0.03025664 1.41408836
0.02969585 1.41857941
0.02916173 1.42268458
0.02865303 1.42642302
0.02816852 1.42978688
0.02770706 1.43284358
0.02726756 1.43558107
0.02684897 1.43809143
0.02645029 1.44038348
0.02607058 1.44257182
0.02570894 1.44473461
0.02536451 1.44700668
0.02503646 1.44952764
0.02472403 1.45253947
0.02442646 1.45633745
0.02414305 1.46130159
0.02387313 1.46801802
0.02361606 1.47746768
0.02337121 1.49193211
0.02313803 1.51806213
0.02291594 1.52602343
