0.99341136 0.00397946
0.99335474 0.00395807
0.99328572 0.00392406
0.99320149 0.00388682
0.99309874 0.00384623
0.99297339 0.00378268
0.99282044 0.00373748
0.99263388 0.00368926
0.99240625 0.00363857
0.99212855 0.00358567
0.99178970 0.00353192
0.99137640 0.00347506
0.99087214 0.00339921
0.99025697 0.00334175
0.98963583 0.00328960
0.98901469 0.00324398
0.98839355 0.00320369
0.98777246 0.00316808
0.98715132 0.00313685
0.98653024 0.00310842
0.98590922 0.00306690
0.98528814 0.00304390
0.98466712 0.00302246
0.98404610 0.00300278
0.98342508 0.00298463
0.98280406 0.00296829
0.98218310 0.00295265
0.98156214 0.00293805
0.98094118 0.00292442
0.98032022 0.00291161
0.97969925 0.00290002
0.97907835 0.00288863
0.97845745 0.00287784
0.97783655 0.00286760
0.97721565 0.00285787
0.97659475 0.00284859
0.97597390 0.00283971
0.97535300 0.00283165
0.97473216 0.00282346
0.97411132 0.00281556
0.97349048 0.00280795
0.97286963 0.00280063
0.97224879 0.00279401
0.97162801 0.00278714
0.97100723 0.00278005
0.97038639 0.00277406
0.96976560 0.00276782
0.96914482 0.00276178
0.96852404 0.00275591
0.96790326 0.00275063
0.96728247 0.00274507
0.96666169 0.00273967
0.96604097 0.00273441
0.96542019 0.00272927
0.96479946 0.00272428
0.96417868 0.00271985
0.96355796 0.00271466
0.96293718 0.00271046
0.96231645 0.00270591
0.96169573 0.00270143
0.96107495 0.00269745
0.96045423 0.00269308
0.95983350 0.00268876
0.95921278 0.00268448
0.95859200 0.00268025
0.95797127 0.00267608
0.95735055 0.00267197
0.95672983 0.00266793
0.95610905 0.00266437
0.95548832 0.00266043
0.95486760 0.00265655
0.95424682 0.00265312
0.95362610 0.00264885
0.95300531 0.00264545
0.95238459 0.00264162
0.95176381 0.00263778
0.95114309 0.00263396
0.95052230 0.00263014
0.94990152 0.00262674
0.94928080 0.00262252
0.94866002 0.00261875
0.94803923 0.00261539
0.94741845 0.00261162
0.94679761 0.00260825
0.94617683 0.00260402
0.94555604 0.00260020
0.94493520 0.00259680
0.94431436 0.00259297
0.94369358 0.00258915
0.94307274 0.00258536
0.94245189 0.00258158
0.94183099 0.00257824
0.94121015 0.00257448
0.94058925 0.00257074
0.93996841 0.00256700
0.93934751 0.00256325
0.93872660 0.00255946
0.93810570 0.00255563
0.93748474 0.00255219
0.93686384 0.00254834
0.93624288 0.00254444
0.93562192 0.00254055
0.93500096 0.00253665
0.93437994 0.00253314
0.93375897 0.00252883
0.93313795 0.00252531
0.93251693 0.00252137
0.93189585 0.00251784
0.93127483 0.00251349
0.93065375 0.00250993
0.93003267 0.00250598
0.92941159 0.00250204
0.92879045 0.00249807
0.92816931 0.00249449
0.92754817 0.00249051
0.92692703 0.00248646
0.92630583 0.00248239
0.92568469 0.00247786
0.92506343 0.00247409
0.92444223 0.00246987
0.92382097 0.00246564
0.92319971 0.00246137
0.92257845 0.00245711
0.92195714 0.00245324
0.92133582 0.00244896
0.92071450 0.00244473
0.92009312 0.00244058
0.91947174 0.00243657
0.91885036 0.00243276
0.91822892 0.00242947
0.91760749 0.00242606
0.91698605 0.00242282
0.91636455 0.00241979
0.91574305 0.00241729
0.91512156 0.00241457
0.91450006 0.00241204
0.91387850 0.00240967
0.91325694 0.00240744
0.91263539 0.00240543
0.91201383 0.00240353
0.91139221 0.00240218
0.91077060 0.00240062
0.91014898 0.00239921
0.90952736 0.00239796
0.90890574 0.00239690
0.90828407 0.00239595
0.90766239 0.00239548
0.90704072 0.00239478
0.90641904 0.00239424
0.90579736 0.00239379
0.90517563 0.00239345
0.90455395 0.00239325
0.90393221 0.00239350
0.90331048 0.00239352
0.90268874 0.00239364
0.90206701 0.00239390
0.90144527 0.00239436
0.90082353 0.00239494
0.90020180 0.00239565
0.89958006 0.00239651
0.89895827 0.00239782
0.89833653 0.00239895
0.89771473 0.00240014
0.89709300 0.00241170
0.89647120 0.00241334
0.89584947 0.00241443
0.89522767 0.00241629
0.89460588 0.00241786
0.89398414 0.00241956
0.89336234 0.00242163
0.89274061 0.00242310
0.89211881 0.00242536
0.89149708 0.00242743
0.89087528 0.00242944
0.89025354 0.00243158
0.88963181 0.00243380
0.88901001 0.00243643
0.88838828 0.00243876
0.88776654 0.00244114
0.88714480 0.00244352
0.88652307 0.00244586
0.88590139 0.00244819
0.88527966 0.00245047
0.88465792 0.00245283
0.88403624 0.00245464
0.88341457 0.00245584
0.88279289 0.00245721
0.88217115 0.00245898
0.88154954 0.00245952
0.88092786 0.00246021
0.88030618 0.00246075
0.87968451 0.00246138
0.87906283 0.00246152
0.87844121 0.00246147
0.87781954 0.00246124
0.87719792 0.00246082
0.87657624 0.00246056
0.87595463 0.00245938
0.87533295 0.00245876
0.87471133 0.00245757
0.87408966 0.00245628
0.87346798 0.00245520
0.87284636 0.00245326
0.87222469 0.00245190
0.87160301 0.00245000
0.87098140 0.00244800
0.87035972 0.00244590
0.86973804 0.00244362
0.86911637 0.00244113
0.86849469 0.00243855
0.86787295 0.00243616
0.86725128 0.00243336
0.86662960 0.00243039
0.86600786 0.00242726
0.86538613 0.00242436
0.86476439 0.00242103
0.86414266 0.00241755
0.86352092 0.00241393
0.86289912 0.00242079
0.86227733 0.00241715
0.86165559 0.00241267
0.86103374 0.00240876
0.86041194 0.00240431
0.85979009 0.00239978
0.85916829 0.00239513
0.85854644 0.00239033
0.85792452 0.00238566
0.85730267 0.00238019
0.85668075 0.00237486
0.85605878 0.00236977
0.85543686 0.00236420
0.85481489 0.00235845
0.85419291 0.00235262
0.85357088 0.00234702
0.85294890 0.00234062
0.85232681 0.00233484
0.85170478 0.00232869
0.85108268 0.00232255
0.85046059 0.00231643
0.84983844 0.00231079
0.84921628 0.00230499
0.84859413 0.00229920
0.84797192 0.00229438
0.84734964 0.00228971
0.84672743 0.00228463
0.84610516 0.00228008
0.84548289 0.00227569
0.84486055 0.00227175
0.84423822 0.00226764
0.84361589 0.00226365
0.84299350 0.00225978
0.84237111 0.00225627
0.84174871 0.00225263
0.84112626 0.00224911
0.84050387 0.00224574
0.83988142 0.00224251
0.83925891 0.00223969
0.83863646 0.00223641
0.83801395 0.00223385
0.83739144 0.00223111
0.83676893 0.00222846
0.83614641 0.00222598
0.83552384 0.00223356
0.83490133 0.00223093
0.83427876 0.00222884
0.83365619 0.00222717
0.83303362 0.00222540
0.83241099 0.00222405
0.83178842 0.00222237
0.83116585 0.00222102
0.83054322 0.00222011
0.82992059 0.00221904
0.82929802 0.00221801
0.82867539 0.00221708
0.82805276 0.00221626
0.82743013 0.00221554
0.82680750 0.00221524
0.82618487 0.00221479
0.82556224 0.00221446
0.82493961 0.00221425
0.82431698 0.00221415
0.82369435 0.00221415
0.82307172 0.00221451
0.82244909 0.00221469
0.82182646 0.00221495
0.82120389 0.00221529
0.82058126 0.00221571
0.81995863 0.00221609
0.81933600 0.00221679
0.81871343 0.00221729
0.81809086 0.00221740
0.81746823 0.00221814
0.81684566 0.00221843
0.81622308 0.00221860
0.81560051 0.00222885
0.81497800 0.00222816
0.81435543 0.00222773
0.81373292 0.00222650
0.81311035 0.00222523
0.81248784 0.00222320
0.81186533 0.00222090
0.81124288 0.00221788
0.81062037 0.00221512
0.80999786 0.00221174
0.80937541 0.00220812
0.80875289 0.00220408
0.80813044 0.00219984
0.80750793 0.00219559
0.80688548 0.00219030
0.80626297 0.00218547
0.80564052 0.00217999
0.80501807 0.00217433
0.80439556 0.00216859
0.80377311 0.00216212
0.80315059 0.00215586
0.80252814 0.00214911
0.80190563 0.00214202
0.80128312 0.00213505
0.80066061 0.00212747
0.80003816 0.00211946
0.79941565 0.00211142
0.79879308 0.00210350
0.79817057 0.00209502
0.79754806 0.00208641
0.79692549 0.00207751
0.79630291 0.00206866
0.79568034 0.00205941
0.79505777 0.00204992
0.79443520 0.00204014
0.79381257 0.00203014
0.79318994 0.00202003
0.79256731 0.00200990
0.79194468 0.00199915
0.79132199 0.00198874
0.79069930 0.00197785
0.79007661 0.00196686
0.78945386 0.00195594
0.78883117 0.00194428
0.78820843 0.00193278
0.78758562 0.00192129
0.78696281 0.00190951
0.78634000 0.00189761
0.78571719 0.00188556
0.78509432 0.00187356
0.78447145 0.00186157
0.78384852 0.00184979
0.78322560 0.00183796
0.78260261 0.00182624
0.78197968 0.00181489
0.78135663 0.00180414
0.78073359 0.00180077
0.78011054 0.00179058
0.77948749 0.00178076
0.77886438 0.00177135
0.77824128 0.00176242
0.77761811 0.00175386
0.77699494 0.00174568
0.77637178 0.00173779
0.77574855 0.00173047
0.77512532 0.00172335
0.77450210 0.00171658
0.77387881 0.00171007
0.77325553 0.00170416
0.77263224 0.00169838
0.77200896 0.00169288
0.77138561 0.00168781
0.77076232 0.00168307
0.77013898 0.00167867
0.76951557 0.00167466
0.76889223 0.00167098
0.76826888 0.00166729
0.76764548 0.00166429
0.76702207 0.00166148
0.76639867 0.00165898
0.76577526 0.00165672
0.76515186 0.00165481
0.76452839 0.00165332
0.76390499 0.00165192
0.76328158 0.00165089
0.76265812 0.00165012
0.76203465 0.00164972
0.76141125 0.00164931
0.76078779 0.00164953
0.76016432 0.00164970
0.75954092 0.00165018
0.75891745 0.00165088
0.75829399 0.00165204
0.75767058 0.00165300
0.75704712 0.00165457
0.75642365 0.00165609
0.75580025 0.00165777
0.75517684 0.00165965
0.75455338 0.00166176
0.75392997 0.00166383
0.75330657 0.00166587
0.75268316 0.00166797
0.75205976 0.00166995
0.75143635 0.00167181
0.75081295 0.00167365
0.75018960 0.00167508
0.74956626 0.00168283
0.74894291 0.00168320
0.74831957 0.00168291
0.74769622 0.00168228
0.74707294 0.00168066
0.74644965 0.00167871
0.74582630 0.00167650
0.74520302 0.00167347
0.74457973 0.00167011
0.74395645 0.00166643
0.74333322 0.00166199
0.74270993 0.00165724
0.74208665 0.00165225
0.74146342 0.00164650
0.74084014 0.00164083
0.74021685 0.00163459
0.73959363 0.00162786
0.73897034 0.00162091
0.73834705 0.00161380
0.73772377 0.00160611
0.73710054 0.00159807
0.73647726 0.00158977
0.73585397 0.00158117
0.73523062 0.00157237
0.73460734 0.00156316
0.73398405 0.00155342
0.73336071 0.00154379
0.73273736 0.00153380
0.73211402 0.00152358
0.73149067 0.00151308
0.73086727 0.00150264
0.73024392 0.00149186
0.72962052 0.00148090
0.72899711 0.00146974
0.72837365 0.00145850
0.72775018 0.00144732
0.72712672 0.00143589
0.72650325 0.00142433
0.72587973 0.00141280
0.72525620 0.00140125
0.72463268 0.00138970
0.72400910 0.00137820
0.72338551 0.00136694
0.72276187 0.00135566
0.72213829 0.00134459
0.72151458 0.00133364
0.72089094 0.00132303
0.72026724 0.00131275
0.71964347 0.00130301
0.71901971 0.00129365
0.71839595 0.00128498
0.71777213 0.00127692
0.71714830 0.00126968
0.71652442 0.00126309
0.71590054 0.00125726
0.71527666 0.00125180
0.71465272 0.00124717
0.71402878 0.00124298
0.71340477 0.00123930
0.71278083 0.00123615
0.71215677 0.00123360
0.71153277 0.00123141
0.71090877 0.00122956
0.71028471 0.00122840
0.70966065 0.00122751
0.70903659 0.00122709
0.70841247 0.00122726
0.70778835 0.00122755
0.70716429 0.00122821
0.70654017 0.00122948
0.70591599 0.00123111
0.70529187 0.00123281
0.70466775 0.00123501
0.70404357 0.00123766
0.70341939 0.00124051
0.70279527 0.00124367
0.70217109 0.00124707
0.70154691 0.00125082
0.70092273 0.00125482
0.70029855 0.00125924
0.69967437 0.00126374
0.69905019 0.00126853
0.69842601 0.00127350
0.69780183 0.00127874
0.69717765 0.00128411
0.69655341 0.00128977
0.69592923 0.00129551
0.69530505 0.00130135
0.69468093 0.00130728
0.69405675 0.00131334
0.69343257 0.00131944
0.69280839 0.00132562
0.69218427 0.00133155
0.69156009 0.00133760
0.69093597 0.00134342
0.69031185 0.00134889
0.68968773 0.00135414
0.68906361 0.00135897
0.68843949 0.00136326
0.68781543 0.00136668
0.68719137 0.00136941
0.68656731 0.00137133
0.68594325 0.00137257
0.68531919 0.00137306
0.68469512 0.00137301
0.68407112 0.00137217
0.68344712 0.00137074
0.68282306 0.00136864
0.68219906 0.00136600
0.68157506 0.00136271
0.68095106 0.00135897
0.68032706 0.00135461
0.67970306 0.00134972
0.67907906 0.00134421
0.67845505 0.00133829
0.67783105 0.00133184
0.67720705 0.00132497
0.67658299 0.00131779
0.67595899 0.00131005
0.67533499 0.00130186
0.67471093 0.00129333
0.67408693 0.00128438
0.67346287 0.00127514
0.67283881 0.00126571
0.67221475 0.00125582
0.67159063 0.00124565
0.67096657 0.00123527
0.67034245 0.00122473
0.66971833 0.00121401
0.66909420 0.00120297
0.66847003 0.00119201
0.66784585 0.00118086
0.66722167 0.00116959
0.66659749 0.00115834
0.66597325 0.00114726
0.66534901 0.00113608
0.66472471 0.00112499
0.66410047 0.00111405
0.66347617 0.00110330
0.66285181 0.00109284
0.66222745 0.00108270
0.66160309 0.00107284
0.66097867 0.00106356
0.66035426 0.00105475
0.65972978 0.00104660
0.65910530 0.00103933
0.65848082 0.00103274
0.65785629 0.00102705
0.65723175 0.00102202
0.65660715 0.00101772
0.65598255 0.00101418
0.65535796 0.00101112
0.65473336 0.00100872
0.65410870 0.00100687
0.65348405 0.00100558
0.65285933 0.00100488
0.65223467 0.00100463
0.65160996 0.00100486
0.65098524 0.00100562
0.65036047 0.00100686
0.64973575 0.00100845
0.64911097 0.00101366
0.64848620 0.00101612
0.64786142 0.00101894
0.64723665 0.00102206
0.64661187 0.00102558
0.64598709 0.00102942
0.64536226 0.00103367
0.64473748 0.00103818
0.64411265 0.00104304
0.64348781 0.00104829
0.64286298 0.00105372
0.64223820 0.00105939
0.64161336 0.00106546
0.64098853 0.00107168
0.64036369 0.00107818
0.63973886 0.00108485
0.63911402 0.00109175
0.63848919 0.00109889
0.63786435 0.00110616
0.63723952 0.00111358
0.63661468 0.00112105
0.63598984 0.00112870
0.63536501 0.00113637
0.63474023 0.00114407
0.63411540 0.00115169
0.63349062 0.00115924
0.63286579 0.00116681
0.63224101 0.00117398
0.63161623 0.00118096
0.63099146 0.00118772
0.63036668 0.00119386
0.62974191 0.00119941
0.62911719 0.00120414
0.62849247 0.00120808
0.62786770 0.00121135
0.62724298 0.00121383
0.62661833 0.00121547
0.62599361 0.00121664
0.62536889 0.00121705
0.62474424 0.00121671
0.62411952 0.00121595
0.62349486 0.00121450
0.62287021 0.00121245
0.62224549 0.00120974
0.62162083 0.00120658
0.62099618 0.00120290
0.62037152 0.00119861
0.61974686 0.00119402
0.61912221 0.00118886
0.61849749 0.00118333
0.61787283 0.00117718
0.61724818 0.00117070
0.61662352 0.00116383
0.61599880 0.00115657
0.61537415 0.00114887
0.61474943 0.00114091
0.61412472 0.00113264
0.61350000 0.00112425
0.61287528 0.00111542
0.61225057 0.00110625
0.61162585 0.00109694
0.61100107 0.00108752
0.61037630 0.00107793
0.60975152 0.00106802
0.60912675 0.00105808
0.60850197 0.00104807
0.60787714 0.00103808
0.60725230 0.00102800
0.60662746 0.00101793
0.60600263 0.00100785
0.60537773 0.00099803
0.60475284 0.00098828
0.60412794 0.00097879
0.60350299 0.00096945
0.60287803 0.00096051
0.60225308 0.00095184
0.60162807 0.00094368
0.60100305 0.00093603
0.60037804 0.00092892
0.59975302 0.00092241
0.59912795 0.00091700
0.59850281 0.00091235
0.59787774 0.00090839
0.59725261 0.00090536
0.59662747 0.00090293
0.59600234 0.00090118
0.59537715 0.00090007
0.59475195 0.00089971
0.59412676 0.00089974
0.59350157 0.00090042
0.59287637 0.00090159
0.59225112 0.00090338
0.59162587 0.00090561
0.59100062 0.00090845
0.59037536 0.00091162
0.58975011 0.00091524
0.58912486 0.00091927
0.58849961 0.00092367
0.58787429 0.00092847
0.58724898 0.00093372
0.58662373 0.00093930
0.58599842 0.00094523
0.58537310 0.00095136
0.58474779 0.00095785
0.58412254 0.00096463
0.58349723 0.00097167
0.58287191 0.00097894
0.58224660 0.00098634
0.58162129 0.00099405
0.58099598 0.00100188
0.58037066 0.00100983
0.57974535 0.00101789
0.57912004 0.00102597
0.57849473 0.00103411
0.57786947 0.00104224
0.57724416 0.00105023
0.57661885 0.00105811
0.57599360 0.00106570
0.57536829 0.00107307
0.57474303 0.00108005
0.57411772 0.00108656
0.57349247 0.00109223
0.57286721 0.00109718
0.57224196 0.00110128
0.57161677 0.00110449
0.57099152 0.00110709
0.57036626 0.00110884
0.56974107 0.00110992
0.56911582 0.00111025
0.56849062 0.00110994
0.56786537 0.00110905
0.56724018 0.00110746
0.56661499 0.00110521
0.56598979 0.00110234
0.56536454 0.00109906
0.56473935 0.00109517
0.56411415 0.00109083
0.56348896 0.00108581
0.56286371 0.00108052
0.56223851 0.00107452
0.56161326 0.00106816
0.56098807 0.00106135
0.56036282 0.00105419
0.55973762 0.00104652
0.55911237 0.00103858
0.55848712 0.00103024
0.55786186 0.00102157
0.55723661 0.00101267
0.55661136 0.00100334
0.55598611 0.00099385
0.55536079 0.00098420
0.55473548 0.00097432
0.55411023 0.00096434
0.55348492 0.00095427
0.55285954 0.00094407
0.55223423 0.00093384
0.55160886 0.00092383
0.55098349 0.00091374
0.55035812 0.00090394
0.54973274 0.00089433
0.54910731 0.00088510
0.54848194 0.00087619
0.54785651 0.00086783
0.54723102 0.00086024
0.54660559 0.00085336
0.54598010 0.00084731
0.54535460 0.00084221
0.54472911 0.00083805
0.54410356 0.00083466
0.54347807 0.00083208
0.54285252 0.00083019
0.54222697 0.00082913
0.54160142 0.00082873
0.54097581 0.00082903
0.54035026 0.00082988
0.53972465 0.00083156
0.53909910 0.00083374
0.53847349 0.00083663
0.53784788 0.00083994
0.53722227 0.00084393
0.53659666 0.00084838
0.53597105 0.00085327
0.53534538 0.00085880
0.53471977 0.00086470
0.53409415 0.00087103
0.53346848 0.00087779
0.53284287 0.00088488
0.53221720 0.00089237
0.53159159 0.00090014
0.53096592 0.00090819
0.53034031 0.00091648
0.52971464 0.00092500
0.52908903 0.00093357
0.52846336 0.00094245
0.52783775 0.00095128
0.52721208 0.00096024
0.52658647 0.00096908
0.52596080 0.00098145
0.52533519 0.00099008
0.52470952 0.00099844
0.52408391 0.00100642
0.52345830 0.00101391
0.52283263 0.00102070
0.52220702 0.00102681
0.52158141 0.00103187
0.52095580 0.00103617
0.52033019 0.00103967
0.51970458 0.00104233
0.51907897 0.00104435
0.51845336 0.00104571
0.51782781 0.00104635
0.51720220 0.00104639
0.51657659 0.00104578
0.51595098 0.00104474
0.51532543 0.00104307
0.51469982 0.00104080
0.51407421 0.00103811
0.51344860 0.00103496
0.51282299 0.00103133
0.51219743 0.00102723
0.51157182 0.00102275
0.51094621 0.00101776
0.51032060 0.00101238
0.50969499 0.00100674
0.50906938 0.00100073
0.50844377 0.00099440
0.50781816 0.00098784
0.50719255 0.00098084
0.50656694 0.00097367
0.50594127 0.00096637
0.50531566 0.00095875
0.50469005 0.00095093
0.50406438 0.00094300
0.50343871 0.00093496
0.50281310 0.00092679
0.50218743 0.00091534
0.50156176 0.00090718
0.50093609 0.00089911
0.50031042 0.00089106
0.49968475 0.00088315
0.49905905 0.00087546
0.49843335 0.00086804
0.49780768 0.00086105
0.49718195 0.00085439
0.49655625 0.00084837
0.49593055 0.00084307
0.49530482 0.00083861
0.49467909 0.00083485
0.49405336 0.00083187
0.49342763 0.00082945
0.49280187 0.00082777
0.49217615 0.00082655
0.49155042 0.00082879
0.49092466 0.00082881
0.49029890 0.00082940
0.48967314 0.00083054
0.48904741 0.00083222
0.48842165 0.00083442
0.48779589 0.00083712
0.48717013 0.00084038
0.48654437 0.00084405
0.48591861 0.00084818
0.48529282 0.00085275
0.48466706 0.00085774
0.48404130 0.00086315
0.48341554 0.00086897
0.48278978 0.00087516
0.48216400 0.00088172
0.48153824 0.00088863
0.48091248 0.00089587
0.48028672 0.00090348
0.47966093 0.00091132
0.47903517 0.00091940
0.47840941 0.00092771
0.47778365 0.00093621
0.47715786 0.00094481
0.47653210 0.00095367
0.47590634 0.00096253
0.47528055 0.00097142
0.47465479 0.00098019
0.47402903 0.00098894
0.47340328 0.00099758
0.47277749 0.00100587
0.47215173 0.00101368
0.47152597 0.00102104
0.47090021 0.00102771
0.47027445 0.00103349
0.46964869 0.00103822
0.46902293 0.00104183
0.46839717 0.00104462
0.46777141 0.00104635
0.46714565 0.00104709
0.46651989 0.00104704
0.46589413 0.00104613
0.46526837 0.00104434
0.46464261 0.00104186
0.46401685 0.00103866
0.46339110 0.00103476
0.46276534 0.00103020
0.46213958 0.00102501
0.46151382 0.00101923
0.46088806 0.00101290
0.46026230 0.00100599
0.45963654 0.00099869
0.45901078 0.00099102
0.45838502 0.00098290
0.45775926 0.00097441
0.45713350 0.00096555
0.45650774 0.00095658
0.45588198 0.00094723
0.45525622 0.00093785
0.45463043 0.00092828
0.45400468 0.00091863
0.45337892 0.00090896
0.45275313 0.00089939
0.45212737 0.00088983
0.45150161 0.00088040
0.45087582 0.00087125
0.45025006 0.00086229
0.44962430 0.00085374
0.44899851 0.00084552
0.44837275 0.00083780
0.44774699 0.00083073
0.44712123 0.00082436
0.44649547 0.00081875
0.44586971 0.00081410
0.44524395 0.00081050
0.44461820 0.00080777
0.44399244 0.00080598
0.44336671 0.00080509
0.44274095 0.00080486
0.44211522 0.00080557
0.44148949 0.00080678
0.44086376 0.00080878
0.44023803 0.00081135
0.43961230 0.00081459
0.43898660 0.00081828
0.43836087 0.00082258
0.43773517 0.00082746
0.43710944 0.00083284
0.43648374 0.00083858
0.43585804 0.00084491
0.43523234 0.00085153
0.43460664 0.00085865
0.43398094 0.00086617
0.43335524 0.00087406
0.43272954 0.00088230
0.43210384 0.00089095
0.43147817 0.00089986
0.43085247 0.00090903
0.43022677 0.00091845
0.42960107 0.00092811
0.42897540 0.00093788
0.42834970 0.00094788
0.42772400 0.00095798
0.42709830 0.00096814
0.42647263 0.00097831
0.42584693 0.00098841
0.42522123 0.00099835
0.42459553 0.00100798
0.42396984 0.00101733
0.42334411 0.00102619
0.42271841 0.00103440
0.42209271 0.00104174
0.42146698 0.00104799
0.42084128 0.00105292
0.42021555 0.00105671
0.41958982 0.00105942
0.41896409 0.00106081
0.41833839 0.00106121
0.41771266 0.00106052
0.41708693 0.00105882
0.41646120 0.00105612
0.41583544 0.00105245
0.41520971 0.00104789
0.41458398 0.00104246
0.41395825 0.00103618
0.41333252 0.00102911
0.41270679 0.00102122
0.41208106 0.00101279
0.41145533 0.00100362
0.41082960 0.00099378
0.41020390 0.00098347
0.40957817 0.00097276
0.40895244 0.00096153
0.40832675 0.00094994
0.40770102 0.00093812
0.40707532 0.00092591
0.40644962 0.00091363
0.40582392 0.00090131
0.40519825 0.00088891
0.40457255 0.00087657
0.40394688 0.00086447
0.40332121 0.00085253
0.40269554 0.00084099
0.40206990 0.00082982
0.40144426 0.00081919
0.40081862 0.00080924
0.40019301 0.00080020
0.39956743 0.00079199
0.39894181 0.00078495
0.39831626 0.00077917
0.39769071 0.00077474
0.39706516 0.00077164
0.39643964 0.00076975
0.39581412 0.00076898
0.39518863 0.00076922
0.39456314 0.00077049
0.39393768 0.00077277
0.39331222 0.00077589
0.39268678 0.00077995
0.39206135 0.00078478
0.39143592 0.00079037
0.39081052 0.00079679
0.39018512 0.00080380
0.38955972 0.00081154
0.38893431 0.00082000
0.38830894 0.00082901
0.38768357 0.00083857
0.38705820 0.00084869
0.38643283 0.00085939
0.38580745 0.00087040
0.38518211 0.00088192
0.38455674 0.00089381
0.38393137 0.00090601
0.38330603 0.00092206
0.38268065 0.00093468
0.38205528 0.00094749
0.38142991 0.00096041
0.38080454 0.00097330
0.38017917 0.00098610
0.37955379 0.00099868
0.37892839 0.00101090
0.37830299 0.00102248
0.37767759 0.00103342
0.37705219 0.00104335
0.37642676 0.00105212
0.37580132 0.00105962
0.37517586 0.00106579
0.37455043 0.00107069
0.37392497 0.00107428
0.37329951 0.00107672
0.37267402 0.00107801
0.37204856 0.00107816
0.37142307 0.00107740
0.37079760 0.00107552
0.37017211 0.00107281
0.36954662 0.00106902
0.36892113 0.00106451
0.36829567 0.00105908
0.36767018 0.00105277
0.36704469 0.00104583
0.36641923 0.00103813
0.36579373 0.00102971
0.36516827 0.00102074
0.36454278 0.00101100
0.36391732 0.00100079
0.36329189 0.00099019
0.36266643 0.00097902
0.36204100 0.00096756
0.36141557 0.00095560
0.36079013 0.00094342
0.36016473 0.00093112
0.35953933 0.00091859
0.35891393 0.00090604
0.35828859 0.00089344
0.35766321 0.00088090
0.35703787 0.00086864
0.35641256 0.00085657
0.35578725 0.00084486
0.35516196 0.00083075
0.35453671 0.00082030
0.35391149 0.00081064
0.35328627 0.00080186
0.35266110 0.00079427
0.35203594 0.00078798
0.35141081 0.00078296
0.35078573 0.00077900
0.35016066 0.00077882
0.34953561 0.00077705
0.34891057 0.00077635
0.34828559 0.00077657
0.34766060 0.00077771
0.34703565 0.00077983
0.34641072 0.00078276
0.34578580 0.00078656
0.34516090 0.00079112
0.34453604 0.00079646
0.34391117 0.00080251
0.34328634 0.00080938
0.34266150 0.00081688
0.34203666 0.00082502
0.34141186 0.00083389
0.34078708 0.00084324
0.34016228 0.00085320
0.33953750 0.00086382
0.33891273 0.00087481
0.33828798 0.00088643
0.33766320 0.00089839
0.33703843 0.00091075
0.33641368 0.00092353
0.33578891 0.00093663
0.33516416 0.00094985
0.33453938 0.00096341
0.33391461 0.00097688
0.33328983 0.00099056
0.33266506 0.00100409
0.33204025 0.00101739
0.33141544 0.00103041
0.33079061 0.00104290
0.33016577 0.00105475
0.32954094 0.00106559
0.32891607 0.00107526
0.32829121 0.00108364
0.32766631 0.00109041
0.32704142 0.00109589
0.32641649 0.00110003
0.32579157 0.00110294
0.32516661 0.00110462
0.32454169 0.00110521
0.32391673 0.00110464
0.32329178 0.00110314
0.32266679 0.00110042
0.32204184 0.00109687
0.32141688 0.00109249
0.32079190 0.00108713
0.32016695 0.00108097
0.31954199 0.00107400
0.31891704 0.00106634
0.31829208 0.00105799
0.31766716 0.00104901
0.31704223 0.00103953
0.31641731 0.00102940
0.31579238 0.00101879
0.31516749 0.00100786
0.31454259 0.00099650
0.31391773 0.00098472
0.31329289 0.00097289
0.31266806 0.00096081
0.31204325 0.00094863
0.31141844 0.00093647
0.31079370 0.00092432
0.31016895 0.00091238
0.30954424 0.00090057
0.30891955 0.00088920
0.30829489 0.00087819
0.30767027 0.00086771
0.30704567 0.00085802
0.30642113 0.00084917
0.30579662 0.00084136
0.30517215 0.00083469
0.30454770 0.00082942
0.30392331 0.00082556
0.30329895 0.00082280
0.30267462 0.00082147
0.30205035 0.00082110
0.30142608 0.00082187
0.30080187 0.00082363
0.30017769 0.00082638
0.29955351 0.00083002
0.29892939 0.00083455
0.29830527 0.00083989
0.29768118 0.00084611
0.29705712 0.00085308
0.29643309 0.00086078
0.29580906 0.00086924
0.29518506 0.00087834
0.29456106 0.00088805
0.29393709 0.00089846
0.29331312 0.00090936
0.29268914 0.00092085
0.29206517 0.00093284
0.29144123 0.00094528
0.29081729 0.00095814
0.29019335 0.00097134
0.28956941 0.00098483
0.28894544 0.00099849
0.28832150 0.00101239
0.28769752 0.00102626
0.28707355 0.00104007
0.28644958 0.00105806
0.28582558 0.00107118
0.28520155 0.00108376
0.28457752 0.00109552
0.28395349 0.00110611
0.28332940 0.00111524
0.28270531 0.00112286
0.28208122 0.00112904
0.28145707 0.00113368
0.28083295 0.00113705
0.28020880 0.00113904
0.27958462 0.00113969
0.27896044 0.00113915
0.27833626 0.00113743
0.27771208 0.00113457
0.27708790 0.00113067
0.27646372 0.00112562
0.27583951 0.00111956
0.27521533 0.00111267
0.27459118 0.00110488
0.27396700 0.00109615
0.27334285 0.00108674
0.27271870 0.00107656
0.27209455 0.00106570
0.27147046 0.00105434
0.27084634 0.00104242
0.27022228 0.00103007
0.26959822 0.00101737
0.26897418 0.00100442
0.26835021 0.00098739
0.26772624 0.00097430
0.26710230 0.00096118
0.26647842 0.00094832
0.26585454 0.00093571
0.26523072 0.00092354
0.26460695 0.00091204
0.26398322 0.00090119
0.26335955 0.00089139
0.26273593 0.00088281
0.26211235 0.00087559
0.26148883 0.00086987
0.26086536 0.00086555
0.26024196 0.00086253
0.25961858 0.00086066
0.25899526 0.00086317
0.25837198 0.00086353
0.25774875 0.00086504
0.25712556 0.00086756
0.25650242 0.00087102
0.25587928 0.00087538
0.25525621 0.00088068
0.25463316 0.00088683
0.25401011 0.00089371
0.25338712 0.00090146
0.25276414 0.00090991
0.25214121 0.00091910
0.25151825 0.00092893
0.25089535 0.00093946
0.25027245 0.00095057
0.24964955 0.00096223
0.24902669 0.00097445
0.24840380 0.00098715
0.24778095 0.00100037
0.24715808 0.00101391
0.24653523 0.00102790
0.24591236 0.00104215
0.24528950 0.00105669
0.24466664 0.00107142
0.24404375 0.00108624
0.24342087 0.00110114
0.24279796 0.00111594
0.24217504 0.00113058
0.24155211 0.00114497
0.24092916 0.00115894
0.24030618 0.00117226
0.23968320 0.00118477
0.23906018 0.00119616
0.23843713 0.00120619
0.23781405 0.00121474
0.23719096 0.00122205
0.23656785 0.00122805
0.23594472 0.00123279
0.23532158 0.00123643
0.23469841 0.00123897
0.23407525 0.00124049
0.23345207 0.00124092
0.23282889 0.00124045
0.23220570 0.00123907
0.23158251 0.00123675
0.23095931 0.00123357
0.23033611 0.00122955
0.22971293 0.00122473
0.22908975 0.00121911
0.22846659 0.00121272
0.22784342 0.00120566
0.22722027 0.00119791
0.22659715 0.00118959
0.22597402 0.00118059
0.22535093 0.00117096
0.22472785 0.00116088
0.22410479 0.00115025
0.22348177 0.00113921
0.22285877 0.00112780
0.22223581 0.00111610
0.22161289 0.00110417
0.22098999 0.00109209
0.22036713 0.00107993
0.21974432 0.00106790
0.21912156 0.00105610
0.21849884 0.00104458
0.21787617 0.00103361
0.21725357 0.00102345
0.21663101 0.00101432
0.21600851 0.00100630
0.21538609 0.00099960
0.21476372 0.00099400
0.21414140 0.00098952
0.21351914 0.00098606
0.21289694 0.00098372
0.21227479 0.00098238
0.21165268 0.00098198
0.21103063 0.00098255
0.21040863 0.00098401
0.20978667 0.00098637
0.20916475 0.00098963
0.20854288 0.00099371
0.20792106 0.00099866
0.20729925 0.00100438
0.20667750 0.00101091
0.20605576 0.00101821
0.20543407 0.00102621
0.20481239 0.00103497
0.20419075 0.00104443
0.20356913 0.00105456
0.20294751 0.00106529
0.20232593 0.00107668
0.20170435 0.00109329
0.20108280 0.00110572
0.20046125 0.00111871
0.19983971 0.00113222
0.19921817 0.00114603
0.19859663 0.00116025
0.19797508 0.00117480
0.19735354 0.00118964
0.19673198 0.00120464
0.19611043 0.00121977
0.19548886 0.00123485
0.19486727 0.00124993
0.19424567 0.00126471
0.19362405 0.00127907
0.19300240 0.00129273
0.19238073 0.00130557
0.19175903 0.00131747
0.19113731 0.00132835
0.19051558 0.00133833
0.18989383 0.00134753
0.18927205 0.00135588
0.18865025 0.00136350
0.18802845 0.00137053
0.18740663 0.00137674
0.18678479 0.00138243
0.18616295 0.00138759
0.18554111 0.00139208
0.18491925 0.00139605
0.18429738 0.00139956
0.18367551 0.00140253
0.18305364 0.00140509
0.18243177 0.00140711
0.18180990 0.00140881
0.18118803 0.00141010
0.18056618 0.00141094
0.17994431 0.00141130
0.17932245 0.00141146
0.17870061 0.00141122
0.17807877 0.00141059
0.17745695 0.00140966
0.17683512 0.00140836
0.17621332 0.00140689
0.17559153 0.00140503
0.17496976 0.00140297
0.17434801 0.00140057
0.17372628 0.00139806
0.17310455 0.00139524
0.17248286 0.00139220
0.17186119 0.00138906
0.17123954 0.00138575
0.17061792 0.00138241
0.16999634 0.00137898
0.16937476 0.00137546
0.16875324 0.00137212
0.16813174 0.00136884
0.16751027 0.00136578
0.16688885 0.00136303
0.16626745 0.00136042
0.16564609 0.00135802
0.16502476 0.00135576
0.16440347 0.00135374
0.16378222 0.00135183
0.16316099 0.00135007
0.16253981 0.00134839
0.16191867 0.00134693
0.16129756 0.00134554
0.16067648 0.00134420
0.16005544 0.00134300
0.15943445 0.00134193
0.15881348 0.00134076
0.15819256 0.00133976
0.15757167 0.00133876
0.15695082 0.00133775
0.15633000 0.00133712
0.15570924 0.00133642
0.15508850 0.00133572
0.15446779 0.00133502
0.15384714 0.00133450
0.15322652 0.00133402
0.15260594 0.00133355
0.15198539 0.00133311
0.15136489 0.00133271
0.15074444 0.00133238
0.15012401 0.00133205
0.14950363 0.00133178
0.14888330 0.00133155
0.14826299 0.00133130
0.14764273 0.00133116
0.14702252 0.00133095
0.14640234 0.00133085
0.14578222 0.00133074
0.14516212 0.00133056
0.14454207 0.00133055
0.14392208 0.00133056
0.14330211 0.00133728
0.14268218 0.00133716
0.14206231 0.00133703
0.14144248 0.00133702
0.14082269 0.00133704
0.14020294 0.00133701
0.13958324 0.00133702
0.13896360 0.00133712
0.13834399 0.00133726
0.13772441 0.00133740
0.13710490 0.00133757
0.13648543 0.00133789
0.13586600 0.00133820
0.13524662 0.00133863
0.13462730 0.00133925
0.13400801 0.00133989
0.13338877 0.00134065
0.13276958 0.00134168
0.13215044 0.00134285
0.13153134 0.00134425
0.13091230 0.00134606
0.13029331 0.00134814
0.12967438 0.00135076
0.12905547 0.00135379
0.12843663 0.00135740
0.12781782 0.00136143
0.12719907 0.00136598
0.12658036 0.00137093
0.12596169 0.00137640
0.12534307 0.00138219
0.12472448 0.00138841
0.12410592 0.00139504
0.12348741 0.00140206
0.12286893 0.00140951
0.12225049 0.00141731
0.12163207 0.00142540
0.12101369 0.00143392
0.12039533 0.00144281
0.11977700 0.00145197
0.11915870 0.00146154
0.11854042 0.00147144
0.11792216 0.00148167
0.11730392 0.00149218
0.11668570 0.00150305
0.11606751 0.00151420
0.11544932 0.00152567
0.11483114 0.00153746
0.11421298 0.00154955
0.11359483 0.00156194
0.11297669 0.00157458
0.11235855 0.00158752
0.11174041 0.00160068
0.11112228 0.00161413
0.11050416 0.00162785
0.10988603 0.00164179
0.10926789 0.00165589
0.10864976 0.00168046
0.10803162 0.00169472
0.10741347 0.00170917
0.10679531 0.00172371
0.10617714 0.00173837
0.10555896 0.00175305
0.10494076 0.00176770
0.10432255 0.00178222
0.10370432 0.00179650
0.10308607 0.00181038
0.10246780 0.00182368
0.10184951 0.00183639
0.10123120 0.00184835
0.10061286 0.00185978
0.09999452 0.00187062
0.09937616 0.00188096
0.09875778 0.00189087
0.09813939 0.00190033
0.09752099 0.00190940
0.09690259 0.00191812
0.09628417 0.00192644
0.09566575 0.00193443
0.09504733 0.00194215
0.09442891 0.00194956
0.09381048 0.00195668
0.09319206 0.00196354
0.09257364 0.00197011
0.09195522 0.00197652
0.09133681 0.00198260
0.09071840 0.00198853
0.09010001 0.00199424
0.08948162 0.00199967
0.08886325 0.00200496
0.08824489 0.00201007
0.08762655 0.00201502
0.08700822 0.00201973
0.08638991 0.00202425
0.08577163 0.00202869
0.08515336 0.00203296
0.08453512 0.00203710
0.08391691 0.00204110
0.08329872 0.00204497
0.08268055 0.00204868
0.08206242 0.00205236
0.08144432 0.00205587
0.08082626 0.00205941
0.08020823 0.00206287
0.07959024 0.00206638
0.07897228 0.00206988
0.07835437 0.00207351
0.07773650 0.00207733
0.07711866 0.00208142
0.07650089 0.00208601
0.07588315 0.00210653
0.07526546 0.00211187
0.07464781 0.00211783
0.07403022 0.00212444
0.07341266 0.00213150
0.07279516 0.00213912
0.07217769 0.00214719
0.07156026 0.00215565
0.07094288 0.00216463
0.07032553 0.00217394
0.06970823 0.00218381
0.06909095 0.00219393
0.06847372 0.00220451
0.06785652 0.00221540
0.06723936 0.00222677
0.06662223 0.00223840
0.06600513 0.00225041
0.06538805 0.00226274
0.06477101 0.00227546
0.06415400 0.00228846
0.06353702 0.00230185
0.06292006 0.00231566
0.06230313 0.00232966
0.06168622 0.00234403
0.06106934 0.00235874
0.06045247 0.00237381
0.05983563 0.00238918
0.05921881 0.00240489
0.05860201 0.00242091
0.05798522 0.00243728
0.05736845 0.00245397
0.05675169 0.00247098
0.05613495 0.00248831
0.05551823 0.00250602
0.05490151 0.00252406
0.05428481 0.00254241
0.05366811 0.00258402
0.05305142 0.00260216
0.05243475 0.00262073
0.05181807 0.00263956
0.05120140 0.00265882
0.05058474 0.00267845
0.04996807 0.00269836
0.04935141 0.00271877
0.04873475 0.00273947
0.04811809 0.00276055
0.04750142 0.00278201
0.04688476 0.00280392
0.04626808 0.00282617
0.04565141 0.00284886
0.04503472 0.00287190
0.04441803 0.00289535
0.04380133 0.00291921
0.04318462 0.00294352
0.04256789 0.00296820
0.04195116 0.00299331
0.04133441 0.00301887
0.04071765 0.00304487
0.04010087 0.00307122
0.03948407 0.00309807
0.03886725 0.00312531
0.03825042 0.00315303
0.03763357 0.00321679
0.03701669 0.00324350
0.03639979 0.00327067
0.03578287 0.00329833
0.03516592 0.00332641
0.03454895 0.00335496
0.03393195 0.00338391
0.03331492 0.00341331
0.03269786 0.00344300
0.03208077 0.00347316
0.03146365 0.00350355
0.03084544 0.00353408
0.03025664 0.00356365
0.02969585 0.00359219
0.02916173 0.00361943
0.02865303 0.00364571
0.02816852 0.00367087
0.02770706 0.00369516
0.02726756 0.00371867
0.02684897 0.00374165
0.02645029 0.00376424
0.02607058 0.00378697
0.02570894 0.00386064
0.02536451 0.00388191
0.02503646 0.00390467
0.02472403 0.00392983
0.02442646 0.00395803
0.02414305 0.00399059
0.02387313 0.00402868
0.02361606 0.00407433
0.02337121 0.00412955
0.02313803 0.00419611
0.02291594 0.00421508
