0.02291594 0.00061361 2.39344326 0.00069107
0.02268816 0.00061246 2.40881854 0.00068978
0.02246013 0.00061045 2.42007958 0.00068752
0.02223240 0.00060724 2.41424890 0.00068391
0.02200486 0.00060322 2.39630319 0.00067937
0.02177737 0.00051992 2.44232486 0.00058556
0.02154981 0.00051663 2.40710795 0.00058185
0.02132203 0.00051366 2.37154668 0.00057851
0.02109392 0.00051132 2.34136560 0.00057588
0.02086539 0.00050982 2.32294653 0.00057419
0.02063644 0.00050915 2.31924278 0.00057342
0.02040724 0.00050888 2.32725411 0.00057313
0.02017793 0.00050847 2.33972700 0.00057266
0.01994866 0.00050741 2.34716143 0.00057147
0.01971955 0.00050546 2.34168195 0.00056928
0.01949053 0.00050291 2.32291847 0.00056640
0.01926146 0.00050030 2.29655967 0.00056346
0.01903221 0.00042902 2.34281050 0.00048318
0.01880265 0.00042847 2.32218097 0.00048257
0.01857280 0.00042878 2.31538676 0.00048291
0.01834275 0.00042974 2.32184708 0.00048400
0.01811258 0.00043104 2.33931139 0.00048546
0.01788236 0.00043234 2.36577380 0.00048692
0.01765214 0.00050243 2.32437214 0.00056586
0.01742197 0.00050257 2.35777260 0.00056601
0.01719192 0.00050128 2.38904965 0.00056457
0.01696207 0.00049808 2.40118499 0.00056096
0.01673274 0.00042596 2.45861487 0.00047974
0.01650345 0.00042151 2.41995472 0.00047473
0.01627392 0.00041779 2.38570583 0.00047054
0.01604417 0.00041444 2.35907367 0.00046676
0.01581422 0.00041140 2.33753662 0.00046334
0.01558411 0.00035008 2.40092628 0.00039428
0.01535385 0.00034844 2.38305914 0.00039243
0.01512347 0.00034694 2.36763620 0.00039074
0.01489299 0.00034556 2.35417270 0.00038919
0.01466243 0.00034424 2.34234231 0.00038770
0.01443182 0.00034297 2.33188694 0.00038626
0.01420116 0.00034175 2.32257024 0.00038490
0.01397049 0.00034059 2.31424916 0.00038359
0.01373981 0.00033949 2.30677366 0.00038235
0.01350915 0.00033844 2.30002300 0.00038117
0.01327851 0.00033744 2.29390353 0.00038004
0.01304792 0.00028541 2.37425779 0.00032145
0.01281738 0.00028478 2.36828874 0.00032073
0.01258691 0.00028414 2.36274162 0.00032001
0.01235651 0.00028348 2.35756585 0.00031927
0.01212620 0.00028281 2.35272884 0.00031852
0.01189598 0.00028213 2.34822315 0.00031774
0.01166586 0.00028142 2.34407659 0.00031695
0.01143584 0.00028069 2.34023347 0.00031613
0.01120593 0.00027993 2.33669228 0.00031527
0.01097613 0.00027912 2.33342974 0.00031436
0.01074645 0.00027824 2.33045587 0.00031337
0.01051688 0.00027729 2.32773749 0.00031230
0.01028742 0.00027623 2.32515528 0.00031110
0.01005808 0.00027503 2.32263007 0.00030975
0.00982884 0.00027369 2.32025878 0.00030824
0.00959972 0.00022760 2.41403430 0.00025633
0.00937070 0.00022632 2.41195026 0.00025489
0.00914178 0.00022495 2.40991067 0.00025335
0.00891296 0.00022347 2.40756665 0.00025168
0.00868424 0.00022189 2.40445111 0.00024990
0.00845562 0.00022020 2.40036077 0.00024800
0.00822713 0.00021842 2.39561876 0.00024600
0.00799878 0.00021657 2.39079773 0.00024391
0.00777058 0.00021468 2.38562091 0.00024178
0.00754255 0.00017496 2.48338503 0.00019704
0.00731472 0.00017341 2.47711357 0.00019530
0.00708709 0.00017185 2.47061630 0.00019354
0.00685970 0.00017028 2.46305184 0.00019178
0.00663257 0.00013634 2.56102111 0.00015355
0.00640572 0.00013516 2.55252561 0.00015222
0.00617920 0.00013393 2.53063294 0.00015084
0.00595310 0.06087932 2.12297049 0.06856521
0.00565985 0.06144785 2.19342809 0.06920551
0.00536651 0.00013099 2.51234195 0.00014753
0.00507465 0.00013050 2.49349528 0.00014698
0.00478460 0.00013018 2.47751408 0.00014661
0.00449657 0.00012992 2.46502028 0.00014632
0.00421049 0.00012939 2.45371074 0.00014572
0.00392625 0.00012850 2.44066270 0.00014473
0.00364368 0.00012723 2.42545830 0.00014329
0.00336262 0.00012529 2.39816781 0.00014111
0.00308287 0.00012261 2.35827250 0.00013809
0.00280805 0.00012306 2.33581665 0.00013860
0.00254093 0.00012558 2.33396896 0.00014143
0.00228066 0.00012714 2.33097261 0.00014319
0.00202641 0.00012772 2.31964327 0.00014385
0.00177713 0.00012706 2.29733336 0.00014310
0.00153225 0.00010214 2.37943942 0.00011504
0.00129326 0.00010101 2.33554536 0.00011376
0.00106121 0.00009974 2.29305997 0.00011233
0.00084475 0.00008130 2.41114090 0.00009156
0.00064997 0.00008401 2.42249853 0.00009462
0.00047331 0.00008518 2.40623377 0.00009593
0.00031177 0.00008543 2.37898651 0.00009621
0.00018008 0.00008743 2.39082674 0.00009846
0.00007682 0.00008875 2.40661716 0.00009996
-0.00000677 0.00008951 2.41921138 0.00010081
-0.00004433 0.00011249 2.33621627 0.00012670
-0.00006737 0.00011274 2.39432325 0.00012697
-0.00005200 0.00013771 2.36332768 0.00015510
-0.00000980 0.00014045 2.47319582 0.00015818
0.00004906 0.00016868 2.45152091 0.00018997
0.00013594 0.00020253 2.54859326 0.00022810
0.00024690 0.00024761 2.73988907 0.00027887
0.00036164 0.00029061 2.84012350 0.00032730
0.00050395 0.00034979 3.11430517 0.00039395
0.00066121 0.00037748 3.70356729 0.00042514
0.00081698 0.00045208 3.93133864 0.00050915
0.00097573 0.00046975 4.19269578 0.00052905
0.00114458 0.00054590 4.26968814 0.00061482
0.00133022 0.00064539 4.42769396 0.00072687
0.00152880 0.00077414 4.62676903 0.00087188
0.00173042 0.00081990 4.90433167 0.00092342
0.00193653 0.00096475 4.98664964 0.00108655
0.00214693 0.00101339 5.18422675 0.00114133
0.00236140 0.00118224 5.22958228 0.00133150
0.00257975 0.00123541 5.35879487 0.00139137
0.00280177 0.00128505 5.53840696 0.00144728
0.00302725 0.00148602 5.46712709 0.00167362
0.00325601 0.00154530 5.57311434 0.00174039
0.00348686 0.00159841 5.71178413 0.00180021
0.00366790 0.00182564 5.60233442 0.00205612
0.00385058 0.00187425 5.61825889 0.00211087
0.00403483 0.00191830 5.67850881 0.00216048
0.00422056 0.00196305 5.74589372 0.00221088
0.00440770 0.00200500 5.86654905 0.00225813
0.00459616 0.00227974 5.60064075 0.00256755
0.00478589 0.00232913 5.54219107 0.00262318
0.00497681 0.00237719 5.49460260 0.00267730
0.00516885 0.00242320 5.47402742 0.00272913
0.00536194 0.00237817 5.59723706 0.00267841
0.00555602 0.00277440 5.27737961 0.00312466
0.00575104 0.00283611 5.16986600 0.00319416
0.00594692 0.00288940 5.03120615 0.00325418
0.00614362 0.00293924 4.93590732 0.00331031
0.00634107 0.00299364 4.85105432 0.00337158
0.00653922 0.00303065 4.83964732 0.00341326
0.00673803 0.00307163 4.82776676 0.00345941
0.00693742 0.00343254 4.66257030 0.00386589
0.00713738 0.00350447 4.61831626 0.00394690
0.00733788 0.00355344 4.60714757 0.00400206
0.00753893 0.00359821 4.61327523 0.00405248
0.00774052 0.00364430 4.58489359 0.00410439
0.00794264 0.00368491 4.57825121 0.00415012
0.00814530 0.00364747 4.61906781 0.00410796
0.00834848 0.00376051 4.59500499 0.00423527
0.00855219 0.00379407 4.61876445 0.00427307
0.00875642 0.00419700 4.43911145 0.00472687
0.00896117 0.00423772 4.45814888 0.00477273
0.00916643 0.00427957 4.47829203 0.00481986
0.00937219 0.00431960 4.50587925 0.00486494
0.00957846 0.00435468 4.55166623 0.00490444
0.00978523 0.00439604 4.56267060 0.00495103
0.00999250 0.00443401 4.57010528 0.00499379
0.01020026 0.00447004 4.58494279 0.00503437
0.01040850 0.00450375 4.60661830 0.00507234
0.01061723 0.00490623 4.46971470 0.00552563
0.01082644 0.00494773 4.48483398 0.00557237
0.01103613 0.00498682 4.50590053 0.00561640
0.01124628 0.00502391 4.53247593 0.00565817
0.01145690 0.00505905 4.56413250 0.00569774
0.01166798 0.00509260 4.59984530 0.00573553
0.01187952 0.00512467 4.63979937 0.00577165
0.01209151 0.00515525 4.68345052 0.00580609
0.01230395 0.00554354 4.60418898 0.00624340
0.01251684 0.00558609 4.61362828 0.00629132
0.01273017 0.00562892 4.61929552 0.00633956
0.01294393 0.00567116 4.62993145 0.00638714
0.01315812 0.00571244 4.64516484 0.00643362
0.01337274 0.00575204 4.66482180 0.00647822
0.01358778 0.00579008 4.68843030 0.00652107
0.01380324 0.00582633 4.71575093 0.00656190
0.01401911 0.00621160 4.65122493 0.00699580
0.01423540 0.00625525 4.67181328 0.00704496
0.01445208 0.00629782 4.69620689 0.00709290
0.01466917 0.00633988 4.72438852 0.00714027
0.01488665 0.00638127 4.75634458 0.00718689
0.01510452 0.00642154 4.79189232 0.00723224
0.01532277 0.00646010 4.83111960 0.00727568
0.01554141 0.00649770 4.86122807 0.00731802
0.01576042 0.00688460 4.79426551 0.00775377
0.01597981 0.00693218 4.80408644 0.00780736
0.01619956 0.00697938 4.81801260 0.00786051
0.01641967 0.00702584 4.83567855 0.00791284
0.01664014 0.00707111 4.85694172 0.00796382
0.01686096 0.00711480 4.88177487 0.00801303
0.01708213 0.00715672 4.91017431 0.00806024
0.01730365 0.00753925 4.87336624 0.00849106
0.01752550 0.00758874 4.89587832 0.00854680
0.01774768 0.00763762 4.92118114 0.00860185
0.01797020 0.00768585 4.94914559 0.00865617
0.01819303 0.00773331 4.97972864 0.00870962
0.01841619 0.00777992 5.01298361 0.00876212
0.01863966 0.00782546 5.04896831 0.00881340
0.01886084 0.00820850 5.00839358 0.00924480
