0.99341136 0.00529991
0.99335474 0.00526710
0.99328572 0.00521579
0.99320149 0.00515921
0.99309874 0.00509681
0.99297339 0.00502924
0.99282044 0.00495615
0.99263388 0.00487611
0.99240625 0.00478937
0.99212855 0.00466167
0.99178970 0.00456261
0.99137640 0.00445551
0.99087214 0.00434347
0.99025697 0.00423145
0.98963583 0.00412897
0.98901469 0.00403882
0.98839355 0.00395877
0.98777246 0.00388698
0.98715132 0.00382254
0.98653024 0.00376321
0.98590922 0.00370816
0.98528814 0.00365846
0.98466712 0.00361183
0.98404610 0.00356843
0.98342508 0.00350718
0.98280406 0.00346950
0.98218310 0.00343352
0.98156214 0.00339955
0.98094118 0.00336744
0.98032022 0.00333696
0.97969925 0.00330853
0.97907835 0.00328092
0.97845745 0.00325457
0.97783655 0.00322936
0.97721565 0.00320523
0.97659475 0.00318206
0.97597390 0.00315979
0.97535300 0.00313884
0.97473216 0.00311815
0.97411132 0.00309816
0.97349048 0.00307883
0.97286963 0.00306015
0.97224879 0.00304255
0.97162801 0.00302496
0.97100723 0.00300739
0.97038639 0.00299126
0.96976560 0.00297509
0.96914482 0.00295933
0.96852404 0.00294395
0.96790326 0.00292939
0.96728247 0.00291469
0.96666169 0.00290032
0.96604097 0.00288626
0.96542019 0.00287247
0.96479946 0.00285895
0.96417868 0.00284614
0.96355796 0.00283264
0.96293718 0.00282028
0.96231645 0.00280767
0.96169573 0.00279525
0.96107495 0.00278348
0.96045423 0.00277142
0.95983350 0.00275952
0.95921278 0.00274778
0.95859200 0.00273619
0.95797127 0.00272473
0.95735055 0.00271341
0.95672983 0.00270221
0.95610905 0.00269155
0.95548832 0.00268055
0.95486760 0.00266967
0.95424682 0.00265931
0.95362610 0.00264817
0.95300531 0.00263799
0.95238459 0.00262745
0.95176381 0.00261698
0.95114309 0.00260659
0.95052230 0.00259626
0.94990152 0.00258639
0.94928080 0.00257576
0.94866002 0.00255368
0.94803923 0.00254396
0.94741845 0.00253389
0.94679761 0.00252426
0.94617683 0.00251386
0.94555604 0.00250390
0.94493520 0.00249439
0.94431436 0.00248451
0.94369358 0.00247465
0.94307274 0.00246483
0.94245189 0.00245503
0.94183099 0.00244566
0.94121015 0.00243590
0.94058925 0.00242617
0.93996841 0.00241647
0.93934751 0.00240679
0.93872660 0.00239713
0.93810570 0.00238748
0.93748474 0.00237823
0.93686384 0.00236863
0.93624288 0.00235904
0.93562192 0.00234948
0.93500096 0.00233994
0.93437994 0.00233078
0.93375897 0.00232092
0.93313795 0.00231180
0.93251693 0.00230235
0.93189585 0.00229330
0.93127483 0.00228355
0.93065375 0.00227456
0.93003267 0.00226524
0.92941159 0.00225598
0.92879045 0.00224675
0.92816931 0.00223793
0.92754817 0.00222884
0.92692703 0.00221979
0.92630583 0.00221084
0.92568469 0.00220161
0.92506343 0.00219319
0.92444223 0.00218451
0.92382097 0.00217598
0.92319971 0.00216757
0.92257845 0.00215933
0.92195714 0.00215163
0.92133582 0.00214375
0.92071450 0.00213614
0.92009312 0.00212881
0.91947174 0.00212182
0.91885036 0.00211523
0.91822892 0.00210931
0.91760749 0.00210348
0.91698605 0.00209799
0.91636455 0.00209289
0.91574305 0.00208843
0.91512156 0.00208396
0.91450006 0.00207983
0.91387850 0.00207599
0.91325694 0.00207244
0.91263539 0.00206922
0.91201383 0.00206624
0.91139221 0.00206387
0.91077060 0.00206144
0.91014898 0.00205927
0.90952736 0.00205736
0.90890574 0.00205572
0.90828407 0.00205430
0.90766239 0.00205340
0.90704072 0.00205243
0.90641904 0.00205171
0.90579736 0.00205119
0.90517563 0.00205089
0.90455395 0.00205080
0.90393221 0.00205122
0.90331048 0.00205153
0.90268874 0.00205202
0.90206701 0.00205269
0.90144527 0.00205359
0.90082353 0.00205464
0.90020180 0.00205585
0.89958006 0.00205722
0.89895827 0.00205904
0.89833653 0.00206075
0.89771473 0.00206256
0.89709300 0.00206453
0.89647120 0.00206691
0.89584947 0.00206885
0.89522767 0.00207148
0.89460588 0.00207390
0.89398414 0.00207644
0.89336234 0.00207933
0.89274061 0.00208172
0.89211881 0.00208476
0.89149708 0.00208763
0.89087528 0.00209041
0.89025354 0.00209326
0.88963181 0.00209609
0.88901001 0.00209922
0.88838828 0.00210199
0.88776654 0.00210469
0.88714480 0.00210728
0.88652307 0.00210970
0.88590139 0.00211197
0.88527966 0.00211404
0.88465792 0.00211601
0.88403624 0.00211734
0.88341457 0.00211797
0.88279289 0.00211856
0.88217115 0.00211933
0.88154954 0.00211886
0.88092786 0.00211836
0.88030618 0.00211758
0.87968451 0.00211670
0.87906283 0.00211525
0.87844121 0.00211351
0.87781954 0.00211150
0.87719792 0.00210921
0.87657624 0.00210697
0.87595463 0.00210384
0.87533295 0.00210109
0.87471133 0.00209774
0.87408966 0.00209419
0.87346798 0.00209071
0.87284636 0.00208639
0.87222469 0.00208246
0.87160301 0.00207798
0.87098140 0.00207332
0.87035972 0.00206849
0.86973804 0.00206343
0.86911637 0.00205812
0.86849469 0.00205266
0.86787295 0.00204728
0.86725128 0.00204150
0.86662960 0.00203550
0.86600786 0.00202930
0.86538613 0.00202324
0.86476439 0.00201676
0.86414266 0.00201012
0.86352092 0.00200333
0.86289912 0.00199637
0.86227733 0.00198961
0.86165559 0.00198216
0.86103374 0.00197516
0.86041194 0.00196771
0.85979009 0.00196021
0.85916829 0.00195263
0.85854644 0.00194498
0.85792452 0.00193749
0.85730267 0.00192944
0.85668075 0.00192160
0.85605878 0.00191405
0.85543686 0.00190622
0.85481489 0.00189836
0.85419291 0.00189058
0.85357088 0.00188314
0.85294890 0.00187522
0.85232681 0.00186797
0.85170478 0.00186062
0.85108268 0.00185347
0.85046059 0.00184655
0.84983844 0.00184022
0.84921628 0.00183398
0.84859413 0.00182798
0.84797192 0.00182300
0.84734964 0.00181839
0.84672743 0.00181373
0.84610516 0.00180978
0.84548289 0.00180623
0.84486055 0.00180331
0.84423822 0.00180054
0.84361589 0.00179814
0.84299350 0.00179611
0.84237111 0.00179464
0.84174871 0.00179330
0.84112626 0.00179231
0.84050387 0.00179165
0.83988142 0.00179132
0.83925891 0.00179153
0.83863646 0.00179158
0.83801395 0.00179241
0.83739144 0.00179328
0.83676893 0.00179441
0.83614641 0.00179587
0.83552384 0.00179782
0.83490133 0.00179957
0.83427876 0.00180186
0.83365619 0.00180460
0.83303362 0.00180734
0.83241099 0.00181054
0.83178842 0.00181356
0.83116585 0.00181697
0.83054322 0.00182087
0.82992059 0.00182477
0.82929802 0.00182884
0.82867539 0.00183311
0.82805276 0.00183756
0.82743013 0.00184218
0.82680750 0.00184719
0.82618487 0.00185212
0.82556224 0.00185717
0.82493961 0.00186236
0.82431698 0.00186766
0.82369435 0.00187305
0.82307172 0.00187876
0.82244909 0.00188430
0.82182646 0.00188989
0.82120389 0.00189551
0.82058126 0.00190116
0.81995863 0.00190671
0.81933600 0.00191245
0.81871343 0.00191794
0.81809086 0.00192298
0.81746823 0.00192844
0.81684566 0.00193337
0.81622308 0.00194569
0.81560051 0.00195036
0.81497800 0.00195402
0.81435543 0.00195774
0.81373292 0.00196056
0.81311035 0.00196316
0.81248784 0.00196490
0.81186533 0.00196621
0.81124288 0.00196670
0.81062037 0.00196724
0.80999786 0.00196707
0.80937541 0.00196654
0.80875289 0.00196550
0.80813044 0.00196415
0.80750793 0.00196268
0.80688548 0.00196015
0.80626297 0.00195793
0.80564052 0.00195501
0.80501807 0.00195182
0.80439556 0.00194848
0.80377311 0.00194440
0.80315059 0.00194044
0.80252814 0.00192838
0.80190563 0.00192356
0.80128312 0.00191879
0.80066061 0.00191342
0.80003816 0.00190761
0.79941565 0.00190173
0.79879308 0.00189593
0.79817057 0.00188957
0.79754806 0.00188307
0.79692549 0.00187628
0.79630291 0.00186953
0.79568034 0.00186243
0.79505777 0.00185514
0.79443520 0.00184762
0.79381257 0.00183994
0.79318994 0.00183221
0.79256731 0.00182450
0.79194468 0.00181627
0.79132199 0.00180841
0.79069930 0.00180019
0.79007661 0.00179197
0.78945386 0.00178394
0.78883117 0.00177536
0.78820843 0.00176707
0.78758562 0.00175897
0.78696281 0.00175077
0.78634000 0.00174264
0.78571719 0.00173456
0.78509432 0.00172670
0.78447145 0.00171903
0.78384852 0.00171173
0.78322560 0.00170458
0.78260261 0.00169771
0.78197968 0.00169135
0.78135663 0.00168573
0.78073359 0.00168050
0.78011054 0.00167587
0.77948749 0.00167173
0.77886438 0.00166814
0.77824128 0.00166513
0.77761811 0.00166263
0.77699494 0.00166061
0.77637178 0.00165901
0.77574855 0.00165806
0.77512532 0.00165742
0.77450210 0.00165721
0.77387881 0.00165735
0.77325553 0.00165815
0.77263224 0.00165916
0.77200896 0.00166048
0.77138561 0.00166225
0.77076232 0.00166438
0.77013898 0.00166686
0.76951557 0.00167573
0.76889223 0.00167893
0.76826888 0.00168213
0.76764548 0.00168603
0.76702207 0.00169011
0.76639867 0.00169449
0.76577526 0.00169909
0.76515186 0.00170404
0.76452839 0.00170939
0.76390499 0.00171481
0.76328158 0.00172054
0.76265812 0.00172651
0.76203465 0.00173282
0.76141125 0.00173904
0.76078779 0.00174584
0.76016432 0.00175256
0.75954092 0.00175951
0.75891745 0.00176655
0.75829399 0.00177400
0.75767058 0.00178109
0.75704712 0.00178874
0.75642365 0.00179619
0.75580025 0.00180368
0.75517684 0.00181126
0.75455338 0.00181894
0.75392997 0.00182644
0.75330657 0.00183377
0.75268316 0.00184103
0.75205976 0.00184802
0.75143635 0.00185475
0.75081295 0.00186135
0.75018960 0.00186737
0.74956626 0.00187275
0.74894291 0.00187752
0.74831957 0.00188147
0.74769622 0.00188495
0.74707294 0.00188721
0.74644965 0.00188902
0.74582630 0.00189045
0.74520302 0.00189086
0.74457973 0.00189082
0.74395645 0.00189032
0.74333322 0.00188890
0.74270993 0.00188705
0.74208665 0.00188486
0.74146342 0.00188174
0.74084014 0.00187863
0.74021685 0.00187482
0.73959363 0.00187038
0.73897034 0.00186564
0.73834705 0.00186069
0.73772377 0.00185504
0.73710054 0.00184898
0.73647726 0.00184262
0.73585397 0.00183590
0.73523062 0.00182898
0.73460734 0.00182160
0.73398405 0.00181363
0.73336071 0.00180580
0.73273736 0.00179757
0.73211402 0.00178909
0.73149067 0.00178032
0.73086727 0.00177162
0.73024392 0.00176255
0.72962052 0.00175332
0.72899711 0.00174388
0.72837365 0.00173441
0.72775018 0.00172505
0.72712672 0.00171545
0.72650325 0.00170574
0.72587973 0.00169613
0.72525620 0.00168654
0.72463268 0.00167702
0.72400910 0.00166761
0.72338551 0.00165852
0.72276187 0.00164944
0.72213829 0.00164065
0.72151458 0.00163201
0.72089094 0.00162378
0.72026724 0.00161594
0.71964347 0.00160873
0.71901971 0.00160191
0.71839595 0.00159585
0.71777213 0.00159042
0.71714830 0.00158589
0.71652442 0.00158204
0.71590054 0.00157903
0.71527666 0.00157637
0.71465272 0.00157466
0.71402878 0.00157340
0.71340477 0.00157271
0.71278083 0.00157259
0.71215677 0.00157315
0.71153277 0.00157407
0.71090877 0.00157534
0.71028471 0.00157738
0.70966065 0.00157967
0.70903659 0.00158248
0.70841247 0.00158594
0.70778835 0.00158947
0.70716429 0.00159337
0.70654017 0.00159797
0.70591599 0.00160295
0.70529187 0.00160792
0.70466775 0.00161346
0.70404357 0.00161948
0.70341939 0.00162569
0.70279527 0.00163220
0.70217109 0.00163895
0.70154691 0.00164605
0.70092273 0.00165337
0.70029855 0.00166116
0.69967437 0.00166897
0.69905019 0.00167706
0.69842601 0.00168529
0.69780183 0.00169378
0.69717765 0.00170237
0.69655341 0.00171125
0.69592923 0.00172016
0.69530505 0.00172911
0.69468093 0.00173811
0.69405675 0.00174718
0.69343257 0.00175625
0.69280839 0.00176535
0.69218427 0.00177408
0.69156009 0.00178289
0.69093597 0.00179138
0.69031185 0.00179939
0.68968773 0.00180713
0.68906361 0.00181434
0.68843949 0.00182093
0.68781543 0.00182648
0.68719137 0.00183122
0.68656731 0.00183501
0.68594325 0.00183800
0.68531919 0.00184009
0.68469512 0.00184157
0.68407112 0.00184209
0.68344712 0.00184191
0.68282306 0.00184093
0.68219906 0.00183932
0.68157506 0.00183694
0.68095106 0.00183405
0.68032706 0.00183042
0.67970306 0.00182618
0.67907906 0.00182118
0.67845505 0.00181573
0.67783105 0.00180966
0.67720705 0.00180312
0.67658299 0.00179624
0.67595899 0.00178870
0.67533499 0.00178064
0.67471093 0.00177221
0.67408693 0.00176329
0.67346287 0.00175406
0.67283881 0.00174466
0.67221475 0.00173470
0.67159063 0.00172445
0.67096657 0.00171399
0.67034245 0.00170337
0.66971833 0.00169259
0.66909420 0.00168141
0.66847003 0.00167041
0.66784585 0.00165917
0.66722167 0.00164782
0.66659749 0.00163654
0.66597325 0.00162550
0.66534901 0.00161434
0.66472471 0.00160331
0.66410047 0.00159247
0.66347617 0.00158187
0.66285181 0.00157164
0.66222745 0.00156178
0.66160309 0.00155222
0.66097867 0.00154339
0.66035426 0.00153505
0.65972978 0.00152746
0.65910530 0.00152089
0.65848082 0.00151507
0.65785629 0.00151032
0.65723175 0.00150629
0.65660715 0.00150314
0.65598255 0.00150087
0.65535796 0.00149904
0.65473336 0.00149803
0.65410870 0.00149769
0.65348405 0.00149800
0.65285933 0.00149904
0.65223467 0.00150057
0.65160996 0.00150267
0.65098524 0.00150539
0.65036047 0.00150871
0.64973575 0.00151242
0.64911097 0.00151657
0.64848620 0.00152138
0.64786142 0.00152660
0.64723665 0.00153215
0.64661187 0.00153820
0.64598709 0.00154460
0.64536226 0.00155153
0.64473748 0.00155873
0.64411265 0.00156636
0.64348781 0.00157446
0.64286298 0.00158274
0.64223820 0.00159129
0.64161336 0.00160035
0.64098853 0.00160954
0.64036369 0.00161906
0.63973886 0.00162876
0.63911402 0.00163873
0.63848919 0.00164897
0.63786435 0.00165934
0.63723952 0.00166986
0.63661468 0.00168671
0.63598984 0.00169743
0.63536501 0.00170816
0.63474023 0.00171889
0.63411540 0.00172947
0.63349062 0.00173994
0.63286579 0.00175045
0.63224101 0.00176038
0.63161623 0.00177009
0.63099146 0.00177955
0.63036668 0.00178822
0.62974191 0.00179620
0.62911719 0.00180316
0.62849247 0.00180916
0.62786770 0.00181436
0.62724298 0.00181858
0.62661833 0.00182172
0.62599361 0.00182434
0.62536889 0.00182599
0.62474424 0.00182668
0.62411952 0.00182689
0.62349486 0.00182621
0.62287021 0.00182478
0.62224549 0.00182250
0.62162083 0.00181967
0.62099618 0.00181618
0.62037152 0.00181191
0.61974686 0.00180731
0.61912221 0.00180196
0.61849749 0.00179618
0.61787283 0.00178957
0.61724818 0.00178258
0.61662352 0.00177509
0.61599880 0.00176712
0.61537415 0.00175859
0.61474943 0.00174976
0.61412472 0.00174054
0.61350000 0.00173124
0.61287528 0.00172133
0.61225057 0.00171098
0.61162585 0.00170051
0.61100107 0.00168992
0.61037630 0.00167913
0.60975152 0.00166791
0.60912675 0.00165669
0.60850197 0.00164539
0.60787714 0.00163414
0.60725230 0.00162276
0.60662746 0.00161141
0.60600263 0.00160001
0.60537773 0.00158900
0.60475284 0.00157241
0.60412794 0.00156185
0.60350299 0.00155144
0.60287803 0.00154153
0.60225308 0.00153194
0.60162807 0.00152296
0.60100305 0.00151461
0.60037804 0.00150685
0.59975302 0.00149976
0.59912795 0.00149412
0.59850281 0.00149451
0.59787774 0.00149050
0.59725261 0.00148772
0.59662747 0.00148562
0.59600234 0.00148435
0.59537715 0.00148390
0.59475195 0.00148440
0.59412676 0.00148533
0.59350157 0.00148708
0.59287637 0.00148943
0.59225112 0.00149260
0.59162587 0.00149630
0.59100062 0.00150081
0.59037536 0.00150569
0.58975011 0.00151113
0.58912486 0.00151709
0.58849961 0.00152348
0.58787429 0.00153039
0.58724898 0.00153789
0.58662373 0.00154579
0.58599842 0.00155414
0.58537310 0.00156268
0.58474779 0.00157171
0.58412254 0.00158108
0.58349723 0.00159077
0.58287191 0.00160074
0.58224660 0.00161083
0.58162129 0.00162134
0.58099598 0.00163196
0.58037066 0.00164272
0.57974535 0.00165359
0.57912004 0.00166446
0.57849473 0.00167537
0.57786947 0.00168628
0.57724416 0.00169696
0.57661885 0.00170749
0.57599360 0.00171759
0.57536829 0.00172745
0.57474303 0.00173680
0.57411772 0.00174557
0.57349247 0.00175325
0.57286721 0.00176003
0.57224196 0.00176574
0.57161677 0.00177027
0.57099152 0.00177408
0.57036626 0.00177674
0.56974107 0.00177857
0.56911582 0.00177939
0.56849062 0.00177939
0.56786537 0.00177864
0.56724018 0.00177697
0.56661499 0.00177440
0.56598979 0.00177102
0.56536454 0.00176715
0.56473935 0.00176246
0.56411415 0.00175721
0.56348896 0.00175101
0.56286371 0.00174454
0.56223851 0.00173708
0.56161326 0.00172917
0.56098807 0.00172070
0.56036282 0.00171179
0.55973762 0.00170220
0.55911237 0.00169231
0.55848712 0.00168189
0.55786186 0.00167107
0.55723661 0.00166000
0.55661136 0.00164833
0.55598611 0.00163651
0.55536079 0.00162451
0.55473548 0.00161223
0.55411023 0.00159984
0.55348492 0.00158737
0.55285954 0.00157472
0.55223423 0.00156205
0.55160886 0.00154973
0.55098349 0.00153723
0.55035812 0.00152520
0.54973274 0.00151336
0.54910731 0.00150198
0.54848194 0.00149099
0.54785651 0.00148071
0.54723102 0.00147142
0.54660559 0.00146297
0.54598010 0.00145555
0.54535460 0.00144938
0.54472911 0.00144442
0.54410356 0.00144044
0.54347807 0.00143749
0.54285252 0.00143540
0.54222697 0.00143443
0.54160142 0.00143427
0.54097581 0.00143504
0.54035026 0.00143646
0.53972465 0.00143904
0.53909910 0.00144221
0.53847349 0.00144636
0.53784788 0.00145098
0.53722227 0.00145655
0.53659666 0.00146268
0.53597105 0.00146934
0.53534538 0.00147691
0.53471977 0.00148492
0.53409415 0.00149349
0.53346848 0.00150262
0.53284287 0.00151216
0.53221720 0.00152224
0.53159159 0.00153268
0.53096592 0.00154347
0.53034031 0.00155459
0.52971464 0.00156601
0.52908903 0.00157744
0.52846336 0.00158935
0.52783775 0.00160115
0.52721208 0.00161305
0.52658647 0.00162471
0.52596080 0.00163636
0.52533519 0.00164777
0.52470952 0.00165888
0.52408391 0.00166947
0.52345830 0.00167945
0.52283263 0.00168852
0.52220702 0.00169677
0.52158141 0.00170362
0.52095580 0.00170951
0.52033019 0.00171437
0.51970458 0.00171811
0.51907897 0.00172103
0.51845336 0.00172310
0.51782781 0.00172420
0.51720220 0.00172451
0.51657659 0.00172394
0.51595098 0.00172284
0.51532543 0.00172089
0.51469982 0.00171810
0.51407421 0.00171477
0.51344860 0.00171085
0.51282299 0.00170627
0.51219743 0.00170107
0.51157182 0.00169541
0.51094621 0.00168916
0.51032060 0.00168241
0.50969499 0.00167525
0.50906938 0.00166760
0.50844377 0.00165954
0.50781816 0.00165122
0.50719255 0.00164229
0.50656694 0.00163318
0.50594127 0.00162396
0.50531566 0.00161430
0.50469005 0.00160438
0.50406438 0.00159437
0.50343871 0.00158423
0.50281310 0.00157392
0.50218743 0.00156361
0.50156176 0.00155334
0.50093609 0.00154323
0.50031042 0.00153311
0.49968475 0.00152319
0.49905905 0.00151356
0.49843335 0.00150426
0.49780768 0.00149554
0.49718195 0.00148716
0.49655625 0.00147962
0.49593055 0.00147296
0.49530482 0.00146742
0.49467909 0.00146274
0.49405336 0.00145909
0.49342763 0.00145609
0.49280187 0.00145420
0.49217615 0.00145289
0.49155042 0.00145262
0.49092466 0.00145300
0.49029890 0.00145413
0.48967314 0.00145600
0.48904741 0.00146381
0.48842165 0.00146702
0.48779589 0.00147089
0.48717013 0.00147552
0.48654437 0.00148067
0.48591861 0.00148641
0.48529282 0.00149274
0.48466706 0.00149962
0.48404130 0.00150705
0.48341554 0.00151499
0.48278978 0.00152343
0.48216400 0.00153235
0.48153824 0.00154171
0.48091248 0.00155149
0.48028672 0.00156178
0.47966093 0.00157231
0.47903517 0.00158315
0.47840941 0.00159426
0.47778365 0.00160562
0.47715786 0.00161703
0.47653210 0.00162882
0.47590634 0.00164057
0.47528055 0.00165232
0.47465479 0.00166386
0.47402903 0.00167538
0.47340328 0.00168677
0.47277749 0.00169765
0.47215173 0.00170788
0.47152597 0.00171756
0.47090021 0.00172635
0.47027445 0.00173398
0.46964869 0.00174026
0.46902293 0.00174503
0.46839717 0.00174879
0.46777141 0.00175114
0.46714565 0.00175215
0.46651989 0.00175214
0.46589413 0.00175101
0.46526837 0.00174866
0.46464261 0.00174544
0.46401685 0.00174126
0.46339110 0.00173616
0.46276534 0.00173018
0.46213958 0.00172336
0.46151382 0.00171576
0.46088806 0.00170746
0.46026230 0.00169835
0.45963654 0.00168875
0.45901078 0.00167873
0.45838502 0.00166807
0.45775926 0.00165696
0.45713350 0.00164533
0.45650774 0.00163363
0.45588198 0.00162140
0.45525622 0.00160920
0.45463043 0.00159674
0.45400468 0.00158420
0.45337892 0.00157164
0.45275313 0.00155926
0.45212737 0.00154689
0.45150161 0.00153471
0.45087582 0.00152293
0.45025006 0.00151139
0.44962430 0.00150042
0.44899851 0.00148986
0.44837275 0.00147996
0.44774699 0.00147094
0.44712123 0.00146282
0.44649547 0.00145567
0.44586971 0.00144978
0.44524395 0.00144532
0.44461820 0.00144199
0.44399244 0.00143994
0.44336671 0.00143901
0.44274095 0.00143887
0.44211522 0.00144007
0.44148949 0.00144185
0.44086376 0.00144475
0.44023803 0.00144839
0.43961230 0.00145294
0.43898660 0.00145805
0.43836087 0.00146400
0.43773517 0.00147075
0.43710944 0.00147817
0.43648374 0.00148601
0.43585804 0.00149470
0.43523234 0.00150371
0.43460664 0.00151340
0.43398094 0.00152362
0.43335524 0.00153432
0.43272954 0.00154548
0.43210384 0.00155719
0.43147817 0.00156922
0.43085247 0.00158155
0.43022677 0.00159420
0.42960107 0.00160714
0.42897540 0.00162018
0.42834970 0.00163352
0.42772400 0.00164696
0.42709830 0.00166044
0.42647263 0.00167392
0.42584693 0.00168726
0.42522123 0.00170037
0.42459553 0.00171300
0.42396984 0.00172530
0.42334411 0.00173694
0.42271841 0.00174775
0.42209271 0.00175742
0.42146698 0.00176567
0.42084128 0.00177216
0.42021555 0.00177719
0.41958982 0.00178082
0.41896409 0.00178266
0.41833839 0.00178320
0.41771266 0.00178231
0.41708693 0.00178009
0.41646120 0.00177654
0.41583544 0.00177170
0.41520971 0.00176569
0.41458398 0.00175853
0.41395825 0.00175025
0.41333252 0.00174094
0.41270679 0.00173052
0.41208106 0.00171947
0.41145533 0.00170742
0.41082960 0.00169449
0.41020390 0.00168099
0.40957817 0.00166701
0.40895244 0.00165235
0.40832675 0.00163725
0.40770102 0.00162189
0.40707532 0.00160600
0.40644962 0.00159006
0.40582392 0.00157413
0.40519825 0.00155809
0.40457255 0.00154214
0.40394688 0.00152654
0.40332121 0.00151113
0.40269554 0.00149630
0.40206990 0.00148190
0.40144426 0.00146819
0.40081862 0.00145535
0.40019301 0.00144374
0.39956743 0.00143314
0.39894181 0.00142406
0.39831626 0.00141660
0.39769071 0.00141093
0.39706516 0.00140703
0.39643964 0.00140474
0.39581412 0.00140393
0.39518863 0.00140446
0.39456314 0.00140634
0.39393768 0.00140961
0.39331222 0.00141396
0.39268678 0.00141961
0.39206135 0.00142626
0.39143592 0.00143940
0.39081052 0.00144815
0.39018512 0.00145762
0.38955972 0.00146808
0.38893431 0.00147954
0.38830894 0.00149170
0.38768357 0.00150458
0.38705820 0.00151822
0.38643283 0.00153263
0.38580745 0.00154738
0.38518211 0.00156283
0.38455674 0.00157876
0.38393137 0.00159507
0.38330603 0.00161190
0.38268065 0.00162873
0.38205528 0.00164583
0.38142991 0.00166305
0.38080454 0.00168019
0.38017917 0.00169724
0.37955379 0.00171397
0.37892839 0.00173023
0.37830299 0.00174565
0.37767759 0.00176033
0.37705219 0.00177378
0.37642676 0.00178564
0.37580132 0.00179568
0.37517586 0.00180396
0.37455043 0.00181061
0.37392497 0.00181555
0.37329951 0.00181895
0.37267402 0.00182081
0.37204856 0.00182110
0.37142307 0.00182024
0.37079760 0.00181781
0.37017211 0.00181431
0.36954662 0.00180931
0.36892113 0.00180339
0.36829567 0.00179623
0.36767018 0.00178785
0.36704469 0.00177869
0.36641923 0.00176852
0.36579373 0.00175737
0.36516827 0.00174556
0.36454278 0.00173267
0.36391732 0.00171920
0.36329189 0.00170529
0.36266643 0.00169061
0.36204100 0.00167561
0.36141557 0.00165991
0.36079013 0.00164397
0.36016473 0.00162795
0.35953933 0.00161163
0.35891393 0.00159532
0.35828859 0.00157893
0.35766321 0.00156265
0.35703787 0.00154677
0.35641256 0.00153112
0.35578725 0.00151593
0.35516196 0.00150143
0.35453671 0.00148785
0.35391149 0.00147527
0.35328627 0.00146378
0.35266110 0.00145386
0.35203594 0.00144569
0.35141081 0.00143920
0.35078573 0.00143406
0.35016066 0.00143064
0.34953561 0.00142853
0.34891057 0.00142786
0.34828559 0.00142843
0.34766060 0.00143021
0.34703565 0.00143337
0.34641072 0.00143759
0.34578580 0.00144299
0.34516090 0.00144941
0.34453604 0.00145688
0.34391117 0.00146531
0.34328634 0.00147487
0.34266150 0.00148524
0.34203666 0.00149647
0.34141186 0.00150873
0.34078708 0.00152155
0.34016228 0.00153521
0.33953750 0.00154978
0.33891273 0.00156479
0.33828798 0.00158069
0.33766320 0.00159699
0.33703843 0.00161380
0.33641368 0.00163118
0.33578891 0.00164897
0.33516416 0.00166687
0.33453938 0.00168524
0.33391461 0.00170340
0.33328983 0.00172190
0.33266506 0.00174014
0.33204025 0.00175805
0.33141544 0.00178417
0.33079061 0.00180099
0.33016577 0.00181699
0.32954094 0.00183165
0.32891607 0.00184481
0.32829121 0.00185632
0.32766631 0.00186564
0.32704142 0.00187327
0.32641649 0.00187909
0.32579157 0.00188329
0.32516661 0.00188580
0.32454169 0.00188688
0.32391673 0.00188636
0.32329178 0.00188463
0.32266679 0.00188116
0.32204184 0.00187660
0.32141688 0.00187097
0.32079190 0.00186395
0.32016695 0.00185588
0.31954199 0.00184670
0.31891704 0.00183661
0.31829208 0.00182560
0.31766716 0.00181375
0.31704223 0.00180128
0.31641731 0.00178791
0.31579238 0.00177392
0.31516749 0.00175957
0.31454259 0.00174463
0.31391773 0.00172911
0.31329289 0.00171361
0.31266806 0.00169778
0.31204325 0.00168184
0.31141844 0.00166596
0.31079370 0.00165008
0.31016895 0.00163454
0.30954424 0.00161912
0.30891955 0.00160433
0.30829489 0.00158998
0.30767027 0.00157630
0.30704567 0.00156369
0.30642113 0.00155217
0.30579662 0.00154198
0.30517215 0.00153324
0.30454770 0.00152638
0.30392331 0.00152145
0.30329895 0.00151790
0.30267462 0.00151638
0.30205035 0.00151610
0.30142608 0.00151737
0.30080187 0.00151996
0.30017769 0.00152393
0.29955351 0.00152908
0.29892939 0.00153544
0.29830527 0.00154288
0.29768118 0.00155156
0.29705712 0.00156123
0.29643309 0.00157190
0.29580906 0.00158359
0.29518506 0.00159615
0.29456106 0.00160951
0.29393709 0.00162382
0.29331312 0.00163877
0.29268914 0.00165452
0.29206517 0.00167092
0.29144123 0.00168793
0.29081729 0.00170548
0.29019335 0.00172348
0.28956941 0.00174183
0.28894544 0.00176039
0.28832150 0.00177928
0.28769752 0.00179811
0.28707355 0.00181683
0.28644958 0.00183518
0.28582558 0.00185300
0.28520155 0.00187016
0.28457752 0.00188626
0.28395349 0.00190082
0.28332940 0.00191348
0.28270531 0.00192413
0.28208122 0.00193288
0.28145707 0.00193952
0.28083295 0.00194451
0.28020880 0.00194761
0.27958462 0.00194890
0.27896044 0.00194858
0.27833626 0.00194667
0.27771208 0.00194323
0.27708790 0.00193839
0.27646372 0.00193198
0.27583951 0.00192421
0.27521533 0.00191535
0.27459118 0.00190531
0.27396700 0.00189397
0.27334285 0.00188176
0.27271870 0.00186854
0.27209455 0.00185440
0.27147046 0.00183967
0.27084634 0.00182418
0.27022228 0.00180816
0.26959822 0.00179168
0.26897418 0.00177491
0.26835021 0.00175801
0.26772624 0.00174105
0.26710230 0.00172402
0.26647842 0.00170736
0.26585454 0.00169101
0.26523072 0.00167524
0.26460695 0.00166037
0.26398322 0.00164627
0.26335955 0.00163356
0.26273593 0.00162245
0.26211235 0.00161313
0.26148883 0.00160584
0.26086536 0.00160043
0.26024196 0.00159679
0.25961858 0.00159467
0.25899526 0.00159436
0.25837198 0.00159535
0.25774875 0.00159796
0.25712556 0.00160196
0.25650242 0.00160723
0.25587928 0.00161373
0.25525621 0.00162156
0.25463316 0.00163055
0.25401011 0.00164051
0.25338712 0.00165172
0.25276414 0.00166385
0.25214121 0.00167704
0.25151825 0.00169109
0.25089535 0.00170613
0.25027245 0.00172195
0.24964955 0.00174789
0.24902669 0.00176512
0.24840380 0.00178300
0.24778095 0.00180163
0.24715808 0.00182064
0.24653523 0.00184034
0.24591236 0.00186033
0.24528950 0.00188074
0.24466664 0.00190141
0.24404375 0.00192218
0.24342087 0.00194308
0.24279796 0.00196383
0.24217504 0.00198437
0.24155211 0.00200457
0.24092916 0.00202424
0.24030618 0.00204304
0.23968320 0.00206079
0.23906018 0.00207707
0.23843713 0.00209151
0.23781405 0.00210393
0.23719096 0.00211472
0.23656785 0.00212368
0.23594472 0.00213089
0.23532158 0.00213659
0.23469841 0.00214076
0.23407525 0.00214353
0.23345207 0.00214472
0.23282889 0.00214470
0.23220570 0.00214337
0.23158251 0.00214073
0.23095931 0.00213688
0.23033611 0.00213185
0.22971293 0.00212570
0.22908975 0.00211844
0.22846659 0.00211010
0.22784342 0.00210087
0.22722027 0.00209071
0.22659715 0.00207979
0.22597402 0.00206793
0.22535093 0.00205522
0.22472785 0.00204196
0.22410479 0.00202794
0.22348177 0.00201340
0.22285877 0.00199841
0.22223581 0.00198304
0.22161289 0.00196740
0.22098999 0.00195159
0.22036713 0.00193566
0.21974432 0.00191993
0.21912156 0.00190455
0.21849884 0.00188950
0.21787617 0.00187516
0.21725357 0.00186190
0.21663101 0.00185004
0.21600851 0.00183963
0.21538609 0.00183108
0.21476372 0.00182400
0.21414140 0.00181844
0.21351914 0.00181430
0.21289694 0.00181172
0.21227479 0.00181054
0.21165268 0.00181065
0.21103063 0.00181213
0.21040863 0.00181485
0.20978667 0.00181880
0.20916475 0.00182406
0.20854288 0.00183044
0.20792106 0.00183806
0.20729925 0.00184676
0.20667750 0.00185662
0.20605576 0.00186755
0.20543407 0.00187945
0.20481239 0.00189246
0.20419075 0.00190644
0.20356913 0.00192138
0.20294751 0.00193716
0.20232593 0.00195387
0.20170435 0.00197141
0.20108280 0.00198973
0.20046125 0.00200887
0.19983971 0.00202876
0.19921817 0.00204902
0.19859663 0.00206990
0.19797508 0.00209124
0.19735354 0.00211304
0.19673198 0.00214948
0.19611043 0.00217155
0.19548886 0.00219356
0.19486727 0.00221565
0.19424567 0.00223737
0.19362405 0.00225856
0.19300240 0.00227885
0.19238073 0.00229808
0.19175903 0.00231608
0.19113731 0.00233269
0.19051558 0.00234807
0.18989383 0.00236238
0.18927205 0.00237551
0.18865025 0.00238760
0.18802845 0.00239889
0.18740663 0.00240897
0.18678479 0.00241834
0.18616295 0.00242695
0.18554111 0.00243456
0.18491925 0.00244140
0.18429738 0.00244759
0.18367551 0.00245298
0.18305364 0.00245777
0.18243177 0.00246172
0.18180990 0.00246524
0.18118803 0.00246815
0.18056618 0.00247037
0.17994431 0.00247184
0.17932245 0.00247306
0.17870061 0.00247367
0.17807877 0.00247371
0.17745695 0.00247328
0.17683512 0.00247230
0.17621332 0.00247109
0.17559153 0.00246930
0.17496976 0.00246722
0.17434801 0.00246461
0.17372628 0.00246187
0.17310455 0.00245867
0.17248286 0.00245511
0.17186119 0.00245144
0.17123954 0.00244750
0.17061792 0.00244354
0.16999634 0.00243942
0.16937476 0.00243511
0.16875324 0.00243109
0.16813174 0.00242709
0.16751027 0.00242340
0.16688885 0.00242015
0.16626745 0.00241705
0.16564609 0.00241425
0.16502476 0.00241163
0.16440347 0.00240936
0.16378222 0.00240723
0.16316099 0.00240532
0.16253981 0.00240351
0.16191867 0.00240208
0.16129756 0.00240072
0.16067648 0.00239941
0.16005544 0.00239835
0.15943445 0.00239751
0.15881348 0.00239650
0.15819256 0.00239589
0.15757167 0.00239537
0.15695082 0.00239477
0.15633000 0.00239453
0.15570924 0.00239426
0.15508850 0.00239405
0.15446779 0.00239380
0.15384714 0.00239388
0.15322652 0.00239400
0.15260594 0.00239417
0.15198539 0.00239435
0.15136489 0.00239464
0.15074444 0.00239503
0.15012401 0.00239545
0.14950363 0.00239596
0.14888330 0.00239656
0.14826299 0.00239713
0.14764273 0.00239789
0.14702252 0.00239856
0.14640234 0.00239943
0.14578222 0.00240029
0.14516212 0.00240104
0.14454207 0.00240209
0.14392208 0.00240321
0.14330211 0.00240421
0.14268218 0.00240531
0.14206231 0.00240642
0.14144248 0.00240777
0.14082269 0.00240916
0.14020294 0.00241050
0.13958324 0.00241193
0.13896360 0.00241354
0.13834399 0.00243345
0.13772441 0.00243488
0.13710490 0.00243636
0.13648543 0.00243813
0.13586600 0.00243987
0.13524662 0.00244183
0.13462730 0.00244414
0.13400801 0.00244645
0.13338877 0.00244896
0.13276958 0.00245193
0.13215044 0.00245507
0.13153134 0.00245857
0.13091230 0.00246270
0.13029331 0.00246719
0.12967438 0.00247248
0.12905547 0.00247833
0.12843663 0.00248507
0.12781782 0.00249240
0.12719907 0.00250051
0.12658036 0.00250921
0.12596169 0.00251871
0.12534307 0.00252866
0.12472448 0.00253926
0.12410592 0.00255051
0.12348741 0.00256233
0.12286893 0.00257482
0.12225049 0.00258785
0.12163207 0.00260131
0.12101369 0.00261546
0.12039533 0.00263018
0.11977700 0.00264530
0.11915870 0.00266110
0.11854042 0.00267738
0.11792216 0.00269421
0.11730392 0.00271146
0.11668570 0.00272928
0.11606751 0.00274756
0.11544932 0.00276634
0.11483114 0.00278563
0.11421298 0.00280541
0.11359483 0.00282566
0.11297669 0.00284632
0.11235855 0.00286745
0.11174041 0.00288894
0.11112228 0.00291091
0.11050416 0.00293332
0.10988603 0.00295609
0.10926789 0.00297910
0.10864976 0.00302989
0.10803162 0.00305302
0.10741347 0.00307650
0.10679531 0.00310012
0.10617714 0.00312398
0.10555896 0.00314793
0.10494076 0.00317186
0.10432255 0.00319568
0.10370432 0.00321921
0.10308607 0.00324224
0.10246780 0.00326450
0.10184951 0.00328598
0.10123120 0.00330639
0.10061286 0.00332609
0.09999452 0.00334493
0.09937616 0.00336306
0.09875778 0.00338058
0.09813939 0.00339746
0.09752099 0.00341376
0.09690259 0.00342956
0.09628417 0.00344477
0.09566575 0.00345950
0.09504733 0.00347383
0.09442891 0.00348772
0.09381048 0.00350117
0.09319206 0.00351425
0.09257364 0.00352689
0.09195522 0.00353932
0.09133681 0.00355124
0.09071840 0.00356296
0.09010001 0.00357437
0.08948162 0.00358534
0.08886325 0.00359614
0.08824489 0.00360669
0.08762655 0.00361701
0.08700822 0.00362699
0.08638991 0.00363669
0.08577163 0.00364631
0.08515336 0.00365572
0.08453512 0.00366494
0.08391691 0.00367401
0.08329872 0.00368291
0.08268055 0.00369159
0.08206242 0.00370029
0.08144432 0.00370875
0.08082626 0.00371733
0.08020823 0.00372585
0.07959024 0.00373449
0.07897228 0.00378352
0.07835437 0.00379153
0.07773650 0.00379986
0.07711866 0.00380864
0.07650089 0.00381819
0.07588315 0.00382857
0.07526546 0.00383992
0.07464781 0.00385225
0.07403022 0.00386566
0.07341266 0.00387978
0.07279516 0.00389482
0.07217769 0.00391062
0.07156026 0.00392709
0.07094288 0.00394444
0.07032553 0.00396233
0.06970823 0.00398123
0.06909095 0.00400054
0.06847372 0.00402066
0.06785652 0.00404134
0.06723936 0.00406289
0.06662223 0.00408488
0.06600513 0.00410759
0.06538805 0.00413086
0.06477101 0.00415487
0.06415400 0.00417939
0.06353702 0.00420464
0.06292006 0.00423065
0.06230313 0.00425705
0.06168622 0.00428414
0.06106934 0.00431189
0.06045247 0.00434031
0.05983563 0.00436931
0.05921881 0.00439899
0.05860201 0.00442927
0.05798522 0.00446024
0.05736845 0.00454806
0.05675169 0.00457850
0.05613495 0.00460959
0.05551823 0.00464146
0.05490151 0.00467402
0.05428481 0.00470724
0.05366811 0.00474115
0.05305142 0.00477579
0.05243475 0.00481131
0.05181807 0.00484739
0.05120140 0.00488435
0.05058474 0.00492209
0.04996807 0.00496047
0.04935141 0.00499987
0.04873475 0.00503993
0.04811809 0.00508083
0.04750142 0.00512255
0.04688476 0.00516523
0.04626808 0.00520869
0.04565141 0.00525313
0.04503472 0.00529838
0.04441803 0.00534456
0.04380133 0.00539169
0.04318462 0.00543984
0.04256789 0.00548889
0.04195116 0.00562103
0.04133441 0.00566878
0.04071765 0.00571762
0.04010087 0.00576740
0.03948407 0.00581842
0.03886725 0.00587050
0.03825042 0.00592381
0.03763357 0.00597831
0.03701669 0.00603393
0.03639979 0.00609077
0.03578287 0.00614890
0.03516592 0.00620823
0.03454895 0.00626887
0.03393195 0.00633074
0.03331492 0.00639395
0.03269786 0.00645824
0.03208077 0.00652403
0.03146365 0.00659085
0.03084544 0.00678300
0.03025664 0.00684238
0.02969585 0.00690036
0.02916173 0.00695631
0.02865303 0.00701083
0.02816852 0.00706359
0.02770706 0.00711497
0.02726756 0.00716509
0.02684897 0.00721433
0.02645029 0.00726281
0.02607058 0.00731138
0.02570894 0.00736018
0.02536451 0.00741029
0.02503646 0.00746234
0.02472403 0.00751774
0.02442646 0.00757769
0.02414305 0.00764442
0.02387313 0.00772029
0.02361606 0.00780891
0.02337121 0.00809063
0.02313803 0.00821509
0.02291594 0.00825734
