0.99341136 0.16245724
0.99335474 0.16088732
0.99328572 0.15930493
0.99320149 0.15747497
0.99309874 0.15535459
0.99297339 0.15289731
0.99282044 0.15006130
0.99263388 0.14679858
0.99240625 0.14305726
0.99212855 0.13878794
0.99178970 0.13393715
0.99137640 0.12845647
0.99087214 0.12229096
0.99025697 0.11539636
0.98950648 0.10793954
0.98868501 0.10045083
0.98786354 0.09338966
0.98704207 0.08683259
0.98622066 0.08069911
0.98539925 0.07492556
0.98457789 0.06945928
0.98375654 0.06426231
0.98293525 0.05930161
0.98211390 0.05454989
0.98129267 0.04998735
0.98047137 0.04559309
0.97965014 0.04135094
0.97882891 0.03724711
0.97800773 0.03327058
0.97718656 0.02941061
0.97636539 0.02565780
0.97554421 0.02200441
0.97472310 0.01844282
0.97390199 0.01496936
0.97308087 0.01157547
0.97225982 0.00825868
0.97143877 0.00501166
0.97061765 0.00183318
0.96979660 -0.00128310
0.96897560 -0.00433773
0.96815455 -0.00733506
0.96733356 -0.01027854
0.96651250 -0.01316959
0.96569151 -0.01601147
0.96487051 -0.01880562
0.96404952 -0.02155326
0.96322852 -0.02425806
0.96240759 -0.02691984
0.96158659 -0.02954160
0.96076560 -0.03212401
0.95994467 -0.03466829
0.95912367 -0.03717622
0.95830268 -0.03964848
0.95748174 -0.04208646
0.95666075 -0.04449018
0.95583975 -0.04686207
0.95501882 -0.04920092
0.95419782 -0.05150917
0.95337683 -0.05378682
0.95255584 -0.05603387
0.95173484 -0.05825155
0.95091385 -0.06044108
0.95009285 -0.06260247
0.94927180 -0.06473585
0.94845080 -0.06684078
0.94762975 -0.06892031
0.94680870 -0.07097154
0.94598764 -0.07299707
0.94516659 -0.07499567
0.94434547 -0.07696857
0.94352442 -0.07891577
0.94270331 -0.08083726
0.94188213 -0.08273442
0.94106102 -0.08460560
0.94023985 -0.08645135
0.93941867 -0.08827249
0.93859750 -0.09006780
0.93777627 -0.09183889
0.93695503 -0.09358414
0.93613380 -0.09530480
0.93531251 -0.09700123
0.93449122 -0.09867183
0.93366992 -0.10031795
0.93284857 -0.10193838
0.93202722 -0.10353310
0.93120581 -0.10510335
0.93038440 -0.10664789
0.92956299 -0.10816674
0.92874151 -0.10965988
0.92791998 -0.11112610
0.92709851 -0.11256662
0.92627692 -0.11398143
0.92545533 -0.11536942
0.92463374 -0.11673029
0.92381209 -0.11806443
0.92299044 -0.11937145
0.92216873 -0.12065165
0.92134696 -0.12190500
0.92052519 -0.12313134
0.91970342 -0.12432945
0.91888160 -0.12550194
0.91805971 -0.12665004
0.91723782 -0.12777472
0.91641587 -0.12887874
0.91559386 -0.12996066
0.91477191 -0.13102544
0.91394985 -0.13207309
0.91312784 -0.13310360
0.91230571 -0.13411950
0.91148365 -0.13512179
0.91066152 -0.13611190
0.90983939 -0.13708979
0.90901721 -0.13805665
0.90819502 -0.13901494
0.90737283 -0.13996467
0.90655059 -0.14090712
0.90572834 -0.14184338
0.90490609 -0.14277230
0.90408385 -0.14369755
0.90326154 -0.14461912
0.90243930 -0.14553824
0.90161699 -0.14645492
0.90079468 -0.14737037
0.89997238 -0.14828582
0.89915001 -0.14920256
0.89832771 -0.15011917
0.89750540 -0.15103951
0.89668304 -0.15196352
0.89586073 -0.15289120
0.89503837 -0.15382378
0.89421606 -0.15476247
0.89339370 -0.15570736
0.89257139 -0.15666067
0.89174902 -0.15762268
0.89092672 -0.15859435
0.89010435 -0.15957595
0.88928205 -0.16056971
0.88845974 -0.16157449
0.88763744 -0.16259273
0.88681519 -0.16362443
0.88599288 -0.16467082
0.88517064 -0.16573067
0.88434839 -0.16680643
0.88352615 -0.16789566
0.88270390 -0.16899712
0.88188171 -0.17010960
0.88105947 -0.17123195
0.88023728 -0.17236149
0.87941509 -0.17349723
0.87859291 -0.17463909
0.87777072 -0.17578593
0.87694854 -0.17693513
0.87612635 -0.17808678
0.87530416 -0.17923966
0.87448204 -0.18039124
0.87365985 -0.18154420
0.87283766 -0.18269341
0.87201548 -0.18384139
0.87119329 -0.18498449
0.87037104 -0.18612268
0.86954886 -0.18725721
0.86872661 -0.18838317
0.86790442 -0.18950301
0.86708218 -0.19061551
0.86625987 -0.19171830
0.86543763 -0.19281114
0.86461532 -0.19389312
0.86379302 -0.19496401
0.86297071 -0.19602259
0.86214834 -0.19706785
0.86132598 -0.19809829
0.86050355 -0.19911540
0.85968113 -0.20011654
0.85885870 -0.20110054
0.85803622 -0.20206863
0.85721374 -0.20301714
0.85639119 -0.20394852
0.85556865 -0.20485909
0.85474604 -0.20574886
0.85392344 -0.20661904
0.85310078 -0.20746598
0.85227805 -0.20829088
0.85145533 -0.20909376
0.85063255 -0.20987216
0.84980971 -0.21062736
0.84898686 -0.21135925
0.84816396 -0.21206911
0.84734106 -0.21275689
0.84651804 -0.21342641
0.84569508 -0.21407870
0.84487200 -0.21471394
0.84404892 -0.21533445
0.84322578 -0.21594150
0.84240264 -0.21653631
0.84157950 -0.21712010
0.84075624 -0.21769415
0.83993304 -0.21825954
0.83910978 -0.21881640
0.83828646 -0.21936719
0.83746320 -0.21991177
0.83663982 -0.22045276
0.83581650 -0.22099000
0.83499312 -0.22152365
0.83416975 -0.22205725
0.83334637 -0.22259081
0.83252293 -0.22312446
0.83169949 -0.22365928
0.83087605 -0.22419778
0.83005261 -0.22473872
0.82922918 -0.22528578
0.82840574 -0.22583774
0.82758224 -0.22639704
0.82675874 -0.22696372
0.82593530 -0.22754011
0.82511181 -0.22812633
0.82428837 -0.22872234
0.82346487 -0.22933181
0.82264137 -0.22995356
0.82181793 -0.23058991
0.82099450 -0.23124099
0.82017100 -0.23190925
0.81934756 -0.23259338
0.81852412 -0.23329586
0.81770074 -0.23401787
0.81687731 -0.23475956
0.81605393 -0.23552201
0.81523055 -0.23630527
0.81440717 -0.23710933
0.81358379 -0.23793175
0.81276047 -0.23877253
0.81193715 -0.23962922
0.81111383 -0.24049944
0.81029058 -0.24138055
0.80946726 -0.24227402
0.80864400 -0.24317471
0.80782074 -0.24408281
0.80699748 -0.24499581
0.80617416 -0.24591377
0.80535090 -0.24683411
0.80452764 -0.24775690
0.80370438 -0.24867841
0.80288106 -0.24960004
0.80205780 -0.25051916
0.80123448 -0.25143462
0.80041122 -0.25234395
0.79958791 -0.25324961
0.79876453 -0.25414677
0.79794121 -0.25503646
0.79711783 -0.25591643
0.79629445 -0.25678544
0.79547107 -0.25764454
0.79464763 -0.25849030
0.79382420 -0.25932253
0.79300076 -0.26014003
0.79217726 -0.26094289
0.79135370 -0.26172868
0.79053020 -0.26249844
0.78970659 -0.26324874
0.78888297 -0.26398062
0.78805935 -0.26469170
0.78723568 -0.26538320
0.78641194 -0.26605267
0.78558820 -0.26670011
0.78476441 -0.26732430
0.78394055 -0.26792523
0.78311670 -0.26850291
0.78229278 -0.26905612
0.78146881 -0.26958607
0.78064483 -0.27009399
0.77982074 -0.27057991
0.77899665 -0.27104866
0.77817255 -0.27149903
0.77734840 -0.27193473
0.77652419 -0.27235575
0.77569991 -0.27276578
0.77487570 -0.27316474
0.77405137 -0.27355397
0.77322704 -0.27393459
0.77240270 -0.27430910
0.77157831 -0.27467749
0.77075392 -0.27504220
0.76992947 -0.27540327
0.76910508 -0.27576184
0.76828057 -0.27612168
0.76745611 -0.27648024
0.76663160 -0.27684131
0.76580709 -0.27720479
0.76498258 -0.27757317
0.76415807 -0.27794642
0.76333356 -0.27832581
0.76250899 -0.27871379
0.76168442 -0.27910909
0.76085991 -0.27951538
0.76003534 -0.27993396
0.75921077 -0.28036352
0.75838619 -0.28080777
0.75756168 -0.28126793
0.75673711 -0.28174400
0.75591260 -0.28223721
0.75508803 -0.28274999
0.75426352 -0.28328358
0.75343901 -0.28383797
0.75261450 -0.28441562
0.75178999 -0.28501778
0.75096554 -0.28564312
0.75014108 -0.28629541
0.74931663 -0.28697346
0.74849224 -0.28767590
0.74766785 -0.28840041
0.74684346 -0.28914578
0.74601907 -0.28990946
0.74519473 -0.29068782
0.74437040 -0.29148088
0.74354607 -0.29228373
0.74272174 -0.29309637
0.74189746 -0.29391635
0.74107313 -0.29474123
0.74024880 -0.29556856
0.73942447 -0.29639840
0.73860019 -0.29722689
0.73777586 -0.29805423
0.73695153 -0.29887666
0.73612720 -0.29969421
0.73530281 -0.30050447
0.73447847 -0.30130604
0.73365408 -0.30209667
0.73282963 -0.30287633
0.73200524 -0.30364247
0.73118079 -0.30439393
0.73035634 -0.30513071
0.72953182 -0.30584912
0.72870731 -0.30655041
0.72788274 -0.30723211
0.72705817 -0.30789301
0.72623354 -0.30853188
0.72540891 -0.30914994
0.72458422 -0.30974353
0.72375947 -0.31031390
0.72293472 -0.31085972
0.72210991 -0.31138114
0.72128510 -0.31187556
0.72046018 -0.31234557
0.71963525 -0.31278862
0.71881032 -0.31320594
0.71798527 -0.31359885
0.71716022 -0.31396966
0.71633512 -0.31431970
0.71550995 -0.31465141
0.71468478 -0.31496840
0.71385956 -0.31527070
0.71303427 -0.31556076
0.71220899 -0.31583981
0.71138370 -0.31611029
0.71055835 -0.31637465
0.70973301 -0.31663288
0.70890760 -0.31688745
0.70808220 -0.31713834
0.70725673 -0.31738803
0.70643133 -0.31763890
0.70560586 -0.31788979
0.70478034 -0.31814437
0.70395488 -0.31840383
0.70312935 -0.31866696
0.70230389 -0.31893863
0.70147836 -0.31921768
0.70065284 -0.31950528
0.69982731 -0.31980512
0.69900179 -0.32011720
0.69817621 -0.32044273
0.69735068 -0.32078296
0.69652516 -0.32114031
0.69569963 -0.32151603
0.69487411 -0.32191132
0.69404858 -0.32232623
0.69322312 -0.32276555
0.69239759 -0.32322819
0.69157213 -0.32371646
0.69074667 -0.32423169
0.68992120 -0.32477510
0.68909574 -0.32534785
0.68827033 -0.32594876
0.68744493 -0.32657781
0.68661958 -0.32723378
0.68579423 -0.32791179
0.68496889 -0.32860938
0.68414354 -0.32932533
0.68331820 -0.33005725
0.68249291 -0.33080130
0.68166763 -0.33155519
0.68084234 -0.33231643
0.68001705 -0.33308379
0.67919177 -0.33385482
0.67836642 -0.33462591
0.67754114 -0.33539572
0.67671585 -0.33616186
0.67589056 -0.33692183
0.67506522 -0.33767456
0.67423987 -0.33841745
0.67341453 -0.33914810
0.67258918 -0.33986651
0.67176378 -0.34056902
0.67093837 -0.34125317
0.67011297 -0.34192018
0.66928750 -0.34256639
0.66846198 -0.34319057
0.66763645 -0.34379154
0.66681093 -0.34436917
0.66598535 -0.34492114
0.66515976 -0.34544619
0.66433406 -0.34594557
0.66350842 -0.34641551
0.66268265 -0.34685738
0.66185689 -0.34726983
0.66103107 -0.34765414
0.66020525 -0.34800782
0.65937930 -0.34833463
0.65855336 -0.34863449
0.65772742 -0.34891107
0.65690136 -0.34916567
0.65607530 -0.34940188
0.65524924 -0.34962219
0.65442312 -0.34982780
0.65359694 -0.35002118
0.65277076 -0.35020354
0.65194452 -0.35037735
0.65111828 -0.35054380
0.65029204 -0.35070657
0.64946580 -0.35086444
0.64863950 -0.35101987
0.64781314 -0.35117531
0.64698684 -0.35133197
0.64616048 -0.35148984
0.64533412 -0.35165261
0.64450777 -0.35182028
0.64368141 -0.35199407
0.64285505 -0.35217764
0.64202863 -0.35236978
0.64120227 -0.35257416
0.64037585 -0.35279079
0.63954949 -0.35302207
0.63872308 -0.35326930
0.63789672 -0.35353363
0.63707030 -0.35381757
0.63624394 -0.35412228
0.63541758 -0.35444904
0.63459122 -0.35480028
0.63376486 -0.35517721
0.63293850 -0.35558107
0.63211215 -0.35601433
0.63128585 -0.35647694
0.63045955 -0.35697137
0.62963325 -0.35749761
0.62880695 -0.35805324
0.62798071 -0.35863701
0.62715447 -0.35924648
0.62632829 -0.35987798
0.62550205 -0.36053030
0.62467587 -0.36119852
0.62384969 -0.36188265
0.62302351 -0.36257902
0.62219733 -0.36328519
0.62137115 -0.36399997
0.62054497 -0.36471960
0.61971885 -0.36544163
0.61889267 -0.36616493
0.61806649 -0.36688584
0.61724031 -0.36760425
0.61641413 -0.36831776
0.61558795 -0.36902266
0.61476171 -0.36971787
0.61393553 -0.37040201
0.61310929 -0.37107269
0.61228305 -0.37172991
0.61145675 -0.37236877
0.61063045 -0.37299050
0.60980415 -0.37359264
0.60897785 -0.37417276
0.60815150 -0.37473207
0.60732508 -0.37526695
0.60649872 -0.37577727
0.60567224 -0.37626196
0.60484576 -0.37671969
0.60401928 -0.37715173
0.60319275 -0.37755439
0.60236621 -0.37793012
0.60153961 -0.37827648
0.60071295 -0.37859470
0.59988630 -0.37888599
0.59905964 -0.37915035
0.59823287 -0.37939026
0.59740615 -0.37960932
0.59657931 -0.37981005
0.59575254 -0.37999607
0.59492570 -0.38016742
0.59409881 -0.38032775
0.59327191 -0.38047952
0.59244502 -0.38062517
0.59161812 -0.38076468
0.59079117 -0.38090176
0.58996421 -0.38103639
0.58913726 -0.38117345
0.58831024 -0.38131175
0.58748329 -0.38145494
0.58665627 -0.38160303
0.58582926 -0.38175968
0.58500230 -0.38192490
0.58417529 -0.38210235
0.58334827 -0.38229204
0.58252126 -0.38249764
0.58169419 -0.38271917
0.58086717 -0.38295904
0.58004016 -0.38321849
0.57921314 -0.38349997
0.57838613 -0.38380592
0.57755917 -0.38413633
0.57673216 -0.38449491
0.57590514 -0.38488167
0.57507819 -0.38529896
0.57425123 -0.38574566
0.57342422 -0.38622544
0.57259732 -0.38673452
0.57177037 -0.38727182
0.57094347 -0.38783357
0.57011652 -0.38841612
0.56928962 -0.38901825
0.56846273 -0.38963630
0.56763583 -0.39026781
0.56680894 -0.39091033
0.56598204 -0.39156147
0.56515521 -0.39221741
0.56432831 -0.39287708
0.56350142 -0.39353796
0.56267452 -0.39419640
0.56184763 -0.39485244
0.56102073 -0.39550104
0.56019384 -0.39614234
0.55936688 -0.39677146
0.55853999 -0.39738947
0.55771303 -0.39799165
0.55688608 -0.39857789
0.55605912 -0.39914454
0.55523211 -0.39969039
0.55440509 -0.40021421
0.55357808 -0.40071477
0.55275106 -0.40118964
0.55192399 -0.40163635
0.55109692 -0.40205615
0.55026978 -0.40244537
0.54944265 -0.40280397
0.54861552 -0.40313195
0.54778832 -0.40342693
0.54696113 -0.40369127
0.54613388 -0.40392506
0.54530662 -0.40413190
0.54447931 -0.40431304
0.54365206 -0.40447336
0.54282469 -0.40461290
0.54199737 -0.40473652
0.54117000 -0.40484667
0.54034263 -0.40494458
0.53951526 -0.40503271
0.53868783 -0.40511471
0.53786045 -0.40519059
0.53703302 -0.40526525
0.53620559 -0.40533990
0.53537816 -0.40541578
0.53455073 -0.40549533
0.53372329 -0.40558222
0.53289580 -0.40567768
0.53206837 -0.40578415
0.53124088 -0.40590286
0.53041345 -0.40603748
0.52958596 -0.40618923
0.52875853 -0.40636057
0.52793109 -0.40655391
0.52710360 -0.40676932
0.52627617 -0.40701163
0.52544868 -0.40728087
0.52462125 -0.40757948
0.52379382 -0.40790869
0.52296638 -0.40826727
0.52213895 -0.40865767
0.52131152 -0.40907745
0.52048409 -0.40952173
0.51965666 -0.40998924
0.51882929 -0.41047630
0.51800185 -0.41097934
0.51717448 -0.41149699
0.51634705 -0.41202696
0.51551968 -0.41256546
0.51469225 -0.41311130
0.51386487 -0.41366204
0.51303750 -0.41421400
0.51221007 -0.41476718
0.51138270 -0.41531914
0.51055527 -0.41586621
0.50972784 -0.41640716
0.50890040 -0.41694203
0.50807303 -0.41746580
0.50724560 -0.41797860
0.50641817 -0.41847917
0.50559068 -0.41896508
0.50476325 -0.41943504
0.50393581 -0.41988662
0.50310832 -0.42031990
0.50228083 -0.42073235
0.50145334 -0.42112399
0.50062585 -0.42149115
0.49979836 -0.42183506
0.49897084 -0.42215449
0.49814332 -0.42244823
0.49731579 -0.42271626
0.49648824 -0.42295737
0.49566066 -0.42317400
0.49483311 -0.42336737
0.49400553 -0.42353995
0.49317795 -0.42369416
0.49235037 -0.42383246
0.49152276 -0.42395608
0.49069518 -0.42406868
0.48986757 -0.42417026
0.48903996 -0.42426450
0.48821235 -0.42435262
0.48738474 -0.42443707
0.48655710 -0.42451785
0.48572949 -0.42459862
0.48490188 -0.42468062
0.48407426 -0.42476629
0.48324662 -0.42485563
0.48241901 -0.42495353
0.48159137 -0.42505879
0.48076376 -0.42517505
0.47993612 -0.42530477
0.47910851 -0.42544796
0.47828087 -0.42560828
0.47745326 -0.42578818
0.47662562 -0.42598767
0.47579801 -0.42621040
0.47497037 -0.42645762
0.47414276 -0.42673297
0.47331512 -0.42703649
0.47248751 -0.42737060
0.47165990 -0.42773773
0.47083226 -0.42813672
0.47000465 -0.42856873
0.46917704 -0.42903012
0.46834943 -0.42951844
0.46752179 -0.43002880
0.46669418 -0.43055873
0.46586657 -0.43110335
0.46503896 -0.43165898
0.46421134 -0.43222318
0.46338373 -0.43279228
0.46255612 -0.43336260
0.46172851 -0.43393169
0.46090090 -0.43449589
0.46007329 -0.43505275
0.45924568 -0.43559860
0.45841807 -0.43613220
0.45759043 -0.43665114
0.45676282 -0.43715170
0.45593521 -0.43763268
0.45510757 -0.43809286
0.45427996 -0.43852856
0.45345232 -0.43894101
0.45262471 -0.43932530
0.45179707 -0.43968391
0.45096946 -0.44001312
0.45014182 -0.44031420
0.44931418 -0.44058468
0.44848657 -0.44082579
0.44765893 -0.44103631
0.44683132 -0.44121744
0.44600371 -0.44137043
0.44517609 -0.44149895
0.44434848 -0.44160420
0.44352090 -0.44169110
0.44269329 -0.44176209
0.44186571 -0.44181962
0.44103813 -0.44186735
0.44021058 -0.44190652
0.43938300 -0.44194079
0.43855545 -0.44197138
0.43772790 -0.44200076
0.43690035 -0.44203013
0.43607280 -0.44206317
0.43524525 -0.44210234
0.43441772 -0.44214762
0.43359020 -0.44220146
0.43276265 -0.44226755
0.43193513 -0.44234587
0.43110761 -0.44244010
0.43028009 -0.44255147
0.42945257 -0.44268364
0.42862505 -0.44283661
0.42779750 -0.44301407
0.42696998 -0.44321845
0.42614245 -0.44345220
0.42531493 -0.44371532
0.42448738 -0.44401271
0.42365983 -0.44434560
0.42283231 -0.44471519
0.42200476 -0.44512272
0.42117721 -0.44556576
0.42034963 -0.44604430
0.41952208 -0.44655097
0.41869450 -0.44708212
0.41786692 -0.44763533
0.41703936 -0.44820440
0.41621178 -0.44878573
0.41538420 -0.44937441
0.41455662 -0.44996678
0.41372904 -0.45055913
0.41290146 -0.45114781
0.41207388 -0.45172792
0.41124633 -0.45229702
0.41041875 -0.45285020
0.40959120 -0.45338503
0.40876362 -0.45389785
0.40793607 -0.45438617
0.40710852 -0.45484757
0.40628099 -0.45527838
0.40545347 -0.45567858
0.40462595 -0.45604452
0.40379843 -0.45637498
0.40297094 -0.45666993
0.40214348 -0.45692573
0.40131602 -0.45714480
0.40048859 -0.45732594
0.39966118 -0.45746792
0.39883378 -0.45757318
0.39800644 -0.45764417
0.39717910 -0.45768579
0.39635181 -0.45770171
0.39552453 -0.45769437
0.39469728 -0.45766868
0.39387003 -0.45763074
0.39304283 -0.45758179
0.39221564 -0.45752427
0.39138848 -0.45746308
0.39056131 -0.45740067
0.38973418 -0.45733825
0.38890705 -0.45728195
0.38807994 -0.45723177
0.38725284 -0.45719260
0.38642573 -0.45716445
0.38559866 -0.45715220
0.38477156 -0.45716199
0.38394448 -0.45719258
0.38311738 -0.45724764
0.38229030 -0.45733086
0.38146320 -0.45744467
0.38063610 -0.45759274
0.37980899 -0.45777753
0.37898186 -0.45800150
0.37815472 -0.45826829
0.37732756 -0.45857914
0.37650040 -0.45893405
0.37567320 -0.45933058
0.37484601 -0.45976504
0.37401879 -0.46023257
0.37319157 -0.46072945
0.37236434 -0.46124959
0.37153709 -0.46179054
0.37070987 -0.46234615
0.36988261 -0.46291282
0.36905536 -0.46348681
0.36822811 -0.46406447
0.36740085 -0.46464213
0.36657360 -0.46521492
0.36574638 -0.46577910
0.36491913 -0.46633231
0.36409190 -0.46687081
0.36326468 -0.46739217
0.36243749 -0.46789151
0.36161029 -0.46836760
0.36078313 -0.46881675
0.35995600 -0.46923777
0.35912886 -0.46962696
0.35830176 -0.46998311
0.35747468 -0.47030499
0.35664764 -0.47059016
0.35582063 -0.47083616
0.35499364 -0.47104545
0.35416672 -0.47121435
0.35333982 -0.47134409
0.35251296 -0.47143711
0.35168618 -0.47149586
0.35085940 -0.47152402
0.35003272 -0.47152525
0.34920606 -0.47150078
0.34837943 -0.47145918
0.34755287 -0.47140044
0.34672630 -0.47132823
0.34589982 -0.47124502
0.34507334 -0.47115445
0.34424689 -0.47105899
0.34342048 -0.47095986
0.34259409 -0.47086195
0.34176773 -0.47076771
0.34094140 -0.47067959
0.34011507 -0.47060004
0.33928874 -0.47053150
0.33846244 -0.47047764
0.33763614 -0.47044092
0.33680984 -0.47042378
0.33598354 -0.47043356
0.33515725 -0.47046782
0.33433095 -0.47053268
0.33350462 -0.47062936
0.33267829 -0.47076275
0.33185196 -0.47093530
0.33102560 -0.47115069
0.33019921 -0.47140892
0.32937279 -0.47171488
0.32854638 -0.47206489
0.32771990 -0.47245775
0.32689342 -0.47288854
0.32606691 -0.47335238
0.32524037 -0.47384316
0.32441384 -0.47435718
0.32358730 -0.47489077
0.32276073 -0.47543663
0.32193419 -0.47599224
0.32110763 -0.47655401
0.32028106 -0.47711576
0.31945449 -0.47767507
0.31862795 -0.47822826
0.31780142 -0.47877165
0.31697491 -0.47930036
0.31614840 -0.47981071
0.31532192 -0.48030271
0.31449544 -0.48077024
0.31366903 -0.48121206
0.31284264 -0.48162572
0.31201628 -0.48200880
0.31118995 -0.48235882
0.31036365 -0.48267336
0.30953741 -0.48295364
0.30871123 -0.48319474
0.30788511 -0.48339913
0.30705902 -0.48356314
0.30623302 -0.48368920
0.30540708 -0.48377611
0.30458120 -0.48382874
0.30375537 -0.48384955
0.30292964 -0.48384099
0.30210397 -0.48381040
0.30127835 -0.48376023
0.30045280 -0.48369537
0.29962727 -0.48361827
0.29880181 -0.48353138
0.29797640 -0.48343959
0.29715103 -0.48334413
0.29632568 -0.48324990
0.29550037 -0.48315933
0.29467508 -0.48307488
0.29384980 -0.48300022
0.29302457 -0.48293780
0.29219934 -0.48289129
0.29137412 -0.48286313
0.29054889 -0.48285823
0.28972366 -0.48288025
0.28889844 -0.48293165
0.28807321 -0.48301486
0.28724799 -0.48313479
0.28642270 -0.48329511
0.28559741 -0.48349948
0.28477210 -0.48374914
0.28394675 -0.48404653
0.28312138 -0.48439042
0.28229594 -0.48477593
0.28147051 -0.48520061
0.28064501 -0.48565589
0.27981952 -0.48613932
0.27899399 -0.48664477
0.27816847 -0.48716736
0.27734295 -0.48770096
0.27651742 -0.48824191
0.27569190 -0.48878408
0.27486634 -0.48932504
0.27404085 -0.48985741
0.27321535 -0.49037877
0.27238989 -0.49088300
0.27156442 -0.49136890
0.27073902 -0.49182907
0.26991364 -0.49226354
0.26908830 -0.49266620
0.26826301 -0.49303458
0.26743779 -0.49336625
0.26661262 -0.49366000
0.26578751 -0.49391212
0.26496249 -0.49412139
0.26413754 -0.49428663
0.26331267 -0.49440902
0.26248789 -0.49448736
0.26166323 -0.49452653
0.26083863 -0.49453021
0.26001412 -0.49449963
0.25918970 -0.49444456
0.25836536 -0.49436746
0.25754109 -0.49427079
0.25671691 -0.49415820
0.25589278 -0.49403459
0.25506869 -0.49390119
0.25424469 -0.49376168
0.25342071 -0.49362093
0.25259680 -0.49348019
0.25177288 -0.49334189
0.25094903 -0.49321093
0.25012520 -0.49308977
0.24930139 -0.49298084
0.24847759 -0.49288660
0.24765381 -0.49281316
0.24683003 -0.49276053
0.24600625 -0.49273115
0.24518245 -0.49273358
0.24435866 -0.49276784
0.24353485 -0.49283515
0.24271102 -0.49294161
0.24188715 -0.49308969
0.24106327 -0.49328182
0.24023934 -0.49352169
0.23941538 -0.49381051
0.23859136 -0.49414707
0.23776731 -0.49453013
0.23694322 -0.49495358
0.23611909 -0.49541375
0.23529494 -0.49590573
0.23447075 -0.49642343
0.23364656 -0.49696438
0.23282234 -0.49752369
0.23199813 -0.49809646
0.23117392 -0.49867902
0.23034969 -0.49926769
0.22952549 -0.49985759
0.22870129 -0.50044750
0.22787711 -0.50103128
0.22705294 -0.50160528
0.22622882 -0.50216703
0.22540471 -0.50271166
0.22458065 -0.50323792
0.22375663 -0.50373971
0.22293267 -0.50421457
0.22210874 -0.50466006
0.22128488 -0.50507251
0.22046110 -0.50544946
0.21963738 -0.50578725
0.21881375 -0.50608465
0.21799020 -0.50633800
0.21716675 -0.50654851
0.21634340 -0.50671374
0.21552016 -0.50683858
0.21469702 -0.50692549
0.21387398 -0.50697934
0.21305104 -0.50700260
0.21222819 -0.50699772
0.21140543 -0.50696957
0.21058276 -0.50692062
0.20976016 -0.50685454
0.20893764 -0.50677255
0.20811521 -0.50667954
0.20729282 -0.50657674
0.20647050 -0.50646659
0.20564823 -0.50635400
0.20482603 -0.50624140
0.20400386 -0.50613003
0.20318171 -0.50602355
0.20235962 -0.50592564
0.20153753 -0.50583996
0.20071548 -0.50576775
0.19989344 -0.50571390
0.19907141 -0.50567962
0.19824938 -0.50566982
0.19742735 -0.50569062
0.19660529 -0.50574202
0.19578323 -0.50582645
0.19496113 -0.50594883
0.19413902 -0.50611282
0.19331686 -0.50631964
0.19249468 -0.50657297
0.19167243 -0.50686914
0.19085015 -0.50720570
0.19002785 -0.50758141
0.18920550 -0.50799141
0.18838313 -0.50843322
0.18756074 -0.50890440
0.18673831 -0.50940129
0.18591587 -0.50992266
0.18509343 -0.51046604
0.18427096 -0.51102903
0.18344849 -0.51160915
0.18262602 -0.51220394
0.18180355 -0.51281342
0.18098108 -0.51343270
0.18015863 -0.51406299
0.17933618 -0.51469939
0.17851374 -0.51534315
0.17769131 -0.51599058
0.17686892 -0.51663922
0.17604654 -0.51728909
0.17522418 -0.51793896
0.17440185 -0.51858517
0.17357956 -0.51922770
0.17275731 -0.51986533
0.17193510 -0.52049439
0.17111292 -0.52111611
0.17029080 -0.52172683
0.16946872 -0.52232530
0.16864669 -0.52291275
0.16782473 -0.52348552
0.16700283 -0.52404605
0.16618098 -0.52459312
0.16535920 -0.52513039
0.16453747 -0.52565544
0.16371582 -0.52617067
0.16289422 -0.52667736
0.16207269 -0.52717424
0.16125122 -0.52766257
0.16042981 -0.52814232
0.15960847 -0.52861473
0.15878719 -0.52907981
0.15796599 -0.52953630
0.15714483 -0.52998668
0.15632376 -0.53042972
0.15550274 -0.53086665
0.15468180 -0.53129621
0.15386093 -0.53171968
0.15304011 -0.53213701
0.15221937 -0.53254823
0.15139870 -0.53295210
0.15057810 -0.53334986
0.14975756 -0.53374150
0.14893711 -0.53412701
0.14811672 -0.53450641
0.14729640 -0.53487969
0.14647615 -0.53524563
0.14565599 -0.53560544
0.14483589 -0.53595791
0.14401586 -0.53630427
0.14319591 -0.53664328
0.14237605 -0.53697372
0.14155625 -0.53729805
0.14073654 -0.53761503
0.13991690 -0.53792345
0.13909733 -0.53822329
0.13827784 -0.53851457
0.13745844 -0.53879729
0.13663912 -0.53907021
0.13581988 -0.53933334
0.13500072 -0.53958546
0.13418163 -0.53982779
0.13336264 -0.54005910
0.13254373 -0.54027940
0.13172491 -0.54048623
0.13090616 -0.54068205
0.13008751 -0.54086564
0.12926894 -0.54103698
0.12845045 -0.54119731
0.12763205 -0.54135029
0.12681372 -0.54149471
0.12599549 -0.54163423
0.12517731 -0.54177008
0.12435920 -0.54190226
0.12354115 -0.54203321
0.12272317 -0.54216539
0.12190524 -0.54229879
0.12108737 -0.54243586
0.12026955 -0.54257661
0.11945178 -0.54272224
0.11863405 -0.54287645
0.11781635 -0.54303800
0.11699869 -0.54321056
0.11618107 -0.54339414
0.11536347 -0.54359117
0.11454589 -0.54380167
0.11372833 -0.54402931
0.11291079 -0.54427407
0.11209325 -0.54453965
0.11127573 -0.54482481
0.11045821 -0.54513444
0.10964069 -0.54546854
0.10882316 -0.54583080
0.10800562 -0.54622243
0.10718807 -0.54664466
0.10637050 -0.54710115
0.10555291 -0.54759436
0.10473529 -0.54812674
0.10391765 -0.54869950
0.10309997 -0.54931510
0.10228226 -0.54997353
0.10146451 -0.55067480
0.10064673 -0.55141523
0.09982891 -0.55219238
0.09901107 -0.55300380
0.09819321 -0.55384704
0.09737533 -0.55471843
0.09655744 -0.55561920
0.09573954 -0.55654443
0.09492163 -0.55749415
0.09410371 -0.55846591
0.09328579 -0.55945723
0.09246788 -0.56046937
0.09164999 -0.56149863
0.09083209 -0.56254505
0.09001422 -0.56360491
0.08919636 -0.56467946
0.08837853 -0.56576625
0.08756072 -0.56686283
0.08674295 -0.56797043
0.08592520 -0.56908538
0.08510750 -0.57020642
0.08428983 -0.57133361
0.08347221 -0.57246568
0.08265465 -0.57359898
0.08183713 -0.57473228
0.08101967 -0.57586680
0.08020227 -0.57699765
0.07938493 -0.57812482
0.07856767 -0.57924710
0.07775047 -0.58036204
0.07693335 -0.58146719
0.07611632 -0.58256376
0.07529937 -0.58365178
0.07448249 -0.58473368
0.07366570 -0.58581435
0.07284898 -0.58689501
0.07203234 -0.58797813
0.07121577 -0.58906614
0.07039927 -0.59016150
0.06958283 -0.59126419
0.06876647 -0.59237913
0.06795016 -0.59350631
0.06713391 -0.59464694
0.06631771 -0.59580349
0.06550159 -0.59697717
0.06468550 -0.59817044
0.06386947 -0.59938328
0.06305348 -0.60061816
0.06223754 -0.60187629
0.06142164 -0.60315889
0.06060578 -0.60446720
0.05978996 -0.60580366
0.05897417 -0.60716948
0.05815841 -0.60856713
0.05734269 -0.60999660
0.05652699 -0.61145912
0.05571131 -0.61295957
0.05489565 -0.61449674
0.05408001 -0.61607308
0.05326439 -0.61769102
0.05244878 -0.61935181
0.05163319 -0.62105665
0.05081760 -0.62280799
0.05000201 -0.62460830
0.04918643 -0.62645755
0.04837085 -0.62835821
0.04755526 -0.63031273
0.04673968 -0.63232231
0.04592407 -0.63439065
0.04510847 -0.63651895
0.04429284 -0.63871088
0.04347720 -0.64096770
0.04266155 -0.64329304
0.04184587 -0.64568816
0.04103016 -0.64815670
0.04021443 -0.65069990
0.03939867 -0.65332020
0.03858288 -0.65601760
0.03776705 -0.65879825
0.03695119 -0.66166210
0.03613529 -0.66461285
0.03531934 -0.66764316
0.03451303 -0.67070772
0.03374508 -0.67373803
0.03301366 -0.67670224
0.03231702 -0.67959546
0.03165352 -0.68241527
0.03102159 -0.68515795
0.03041971 -0.68782110
0.02984646 -0.69039980
0.02930048 -0.69289282
0.02878048 -0.69529774
0.02828521 -0.69761208
0.02781351 -0.69983463
0.02736424 -0.70196295
0.02693635 -0.70399702
0.02652882 -0.70593563
0.02614067 -0.70777756
0.02577100 -0.70952158
0.02541891 -0.71117013
0.02508358 -0.71272078
0.02476420 -0.71417596
0.02446002 -0.71553814
0.02417032 -0.71681218
0.02389440 -0.71799934
0.02363161 -0.71911550
0.02338133 -0.72016193
0.02314296 -0.72124393
0.02291594 -0.72266362
