0.99532950 0.13789792
0.99541616 0.13786731
0.99550277 0.13783432
0.99558932 0.13780131
0.99567574 0.13776830
0.99576199 0.13773406
0.99584806 0.13770102
0.99593389 0.13766678
0.99601936 0.13763252
0.99610454 0.13759823
0.99618924 0.13756516
0.99627340 0.13753092
0.99635702 0.13749661
0.99643999 0.13746354
0.99652243 0.13743171
0.99660444 0.13739990
0.99668616 0.13736932
0.99676770 0.13733876
0.99684924 0.13730941
0.99693084 0.13728130
0.99701273 0.13725322
0.99709487 0.13722512
0.99717700 0.13719458
0.99725837 0.13716275
0.99733829 0.13712964
0.99741620 0.13709527
0.99749213 0.13706213
0.99756652 0.13703146
0.99763966 0.13700084
0.99771202 0.13697268
0.99778414 0.13694458
0.99785632 0.13691766
0.99792832 0.13689077
0.99799997 0.13686266
0.99807101 0.13683449
0.99814105 0.13680512
0.99820983 0.13677573
0.99827701 0.13674511
0.99834239 0.13671567
0.99840611 0.13668626
0.99846834 0.13665686
0.99852931 0.13662749
0.99858934 0.13659933
0.99864858 0.13657120
0.99870735 0.13654428
0.99876553 0.13651615
0.99882293 0.13648802
0.99887937 0.13645865
0.99893463 0.13643048
0.99898851 0.13640109
0.99904078 0.13637169
0.99909139 0.13634351
0.99914050 0.13631413
0.99918818 0.13628597
0.99923480 0.13625903
0.99928033 0.13623212
0.99932516 0.13620520
0.99936926 0.13617950
0.99941254 0.13615381
0.99945474 0.13612811
0.99949574 0.13610361
0.99953538 0.13608034
0.99957335 0.13605708
0.99960965 0.13603624
0.99964428 0.13601663
0.99967736 0.13599826
0.99970907 0.13598234
0.99973959 0.13596765
0.99976903 0.13595418
0.99979752 0.13594316
0.99982512 0.13593458
0.99985152 0.13592844
0.99987668 0.13592597
0.99990034 0.13592596
0.99992251 0.13592961
0.99994296 0.13593694
0.99996161 0.13594794
0.99997872 0.13596140
0.99999434 0.13597853
1.00000846 0.13599810
1.00002134 0.13602134
1.00003314 0.13604825
1.00004363 0.13608006
1.00005305 0.13611554
1.00006104 0.13615469
1.00006771 0.13619996
1.00007284 0.13625014
1.00007641 0.13630400
1.00007832 0.13636154
1.00007868 0.13642275
1.00007737 0.13648763
1.00007463 0.13655495
1.00007045 0.13662350
1.00006485 0.13669572
1.00005805 0.13677037
1.00004995 0.13684748
1.00004053 0.13692825
1.00002968 0.13701027
1.00001740 0.13709351
1.00000370 0.13717920
0.99998838 0.13726491
0.99997163 0.13734938
0.99995345 0.13743384
0.99993378 0.13751708
0.99991274 0.13759786
0.99989033 0.13767742
0.99986649 0.13775332
0.99984127 0.13782799
0.99981469 0.13789775
0.99978673 0.13796383
0.99975747 0.13802502
0.99972677 0.13808255
0.99969482 0.13813394
0.99966156 0.13818044
0.99962705 0.13822204
0.99959123 0.13825875
0.99955416 0.13829055
0.99951577 0.13831624
0.99947602 0.13833703
0.99943495 0.13835170
0.99939251 0.13836269
0.99934870 0.13836756
0.99930358 0.13836632
0.99925727 0.13836262
0.99920976 0.13835404
0.99916112 0.13834302
0.99911153 0.13832954
0.99906093 0.13831362
0.99900925 0.13829649
0.99895644 0.13827935
0.99890244 0.13826221
0.99884725 0.13824385
0.99879068 0.13822548
0.99873281 0.13820834
0.99867374 0.13819121
0.99861366 0.13817531
0.99855256 0.13816064
0.99849057 0.13814841
0.99842781 0.13813743
0.99836433 0.13813010
0.99830002 0.13812524
0.99823481 0.13812528
0.99816865 0.13813021
0.99810141 0.13814006
0.99803305 0.13815725
0.99796355 0.13818060
0.99789304 0.13821247
0.99782157 0.13824927
0.99774927 0.13829463
0.99767625 0.13834609
0.99760258 0.13840490
0.99752837 0.13846977
0.99745363 0.13853962
0.99737829 0.13861798
0.99730223 0.13870126
0.99722540 0.13879068
0.99714768 0.13888625
0.99706906 0.13898800
0.99698955 0.13909954
0.99690914 0.13921970
0.99682802 0.13935345
0.99674624 0.13950554
0.99666387 0.13968090
0.99658102 0.13988205
0.99649769 0.14011873
0.99641395 0.14039469
0.99632978 0.14071853
0.99624509 0.14109910
0.99615997 0.14154453
0.99607444 0.14206809
0.99598843 0.14267918
0.99590200 0.14339332
0.99581522 0.14421920
0.99572796 0.14516904
0.99564034 0.14624401
0.99555230 0.14744049
0.99546391 0.14874883
0.99537516 0.15015535
0.99528617 0.15163747
0.99519700 0.15318379
0.99510777 0.15478578
0.99501848 0.15644364
0.99492913 0.15816695
0.99483973 0.15997036
0.99475038 0.16186563
0.99466103 0.16384200
0.99457169 0.16585606
0.99448234 0.16783183
0.99439293 0.16965014
0.99430346 0.17114168
0.99421400 0.17214954
0.99412453 0.17257775
0.99403512 0.17236517
0.99394584 0.17162037
0.99385661 0.17048749
0.99376744 0.16906324
0.99367839 0.16747370
0.99358934 0.16583722
0.99350035 0.16416719
0.99341136 0.16246187
