0.01886084 2.40814923
0.01907823 2.40727218
0.01930648 2.40643009
0.01954613 2.40568489
0.01979774 2.40496842
0.02006191 2.40424457
0.02033927 2.40348217
0.02063048 2.40268490
0.02093622 2.40183928
0.02125722 2.40092605
0.02159425 2.39992502
0.02194810 2.39884567
0.02231961 2.39768953
0.02270967 2.39642202
0.02311919 2.39501135
0.02354916 2.39347187
0.02400060 2.39178706
0.02447456 2.38995296
0.02497219 2.38794815
0.02549467 2.38580290
0.02604323 2.38347898
0.02661919 2.38099626
0.02722391 2.37839347
0.02782694 2.37556262
0.02842994 2.37249280
0.02903293 2.36926810
0.02963592 2.36585465
0.03023890 2.36223683
0.03084189 2.35853355
0.03144488 2.35467642
0.03204790 2.35068403
0.03265094 2.34652212
0.03325402 2.34219256
0.03385712 2.33773571
0.03446027 2.33320776
0.03506348 2.32853330
0.03566673 2.32373859
0.03627005 2.31877991
0.03687343 2.31361255
0.03747689 2.30828423
0.03808044 2.30282488
0.03868406 2.29721407
0.03928778 2.29147719
0.03989160 2.28561814
0.04049553 2.27961503
0.04109957 2.27350749
0.04170375 2.26723473
0.04230806 2.26081143
0.04291251 2.25424634
0.04351712 2.24760293
0.04412188 2.24085483
0.04472681 2.23403940
0.04533190 2.22713281
0.04593713 2.22009038
0.04654250 2.21296691
0.04714802 2.20581066
0.04775367 2.19864712
0.04835944 2.19149335
0.04896533 2.18437417
0.04957134 2.17728840
0.05017746 2.17020903
0.05078368 2.16312573
0.05139000 2.15600203
0.05199641 2.14877129
0.05260291 2.14151608
0.05320949 2.13410204
0.05381615 2.12650474
0.05442288 2.11879799
0.05502968 2.11100190
0.05563653 2.10310730
0.05624343 2.09519042
0.05685038 2.08725849
0.05745738 2.07911279
0.05806440 2.07085786
0.05867145 2.06263268
0.05927853 2.05442431
0.05988562 2.04630992
0.06049273 2.03823707
0.06109986 2.03007830
0.06170701 2.02187817
0.06231418 2.01367839
0.06292137 2.00529314
0.06352858 1.99670601
0.06413580 1.98802680
0.06474306 1.97935371
0.06535033 1.97082708
0.06595762 1.96236234
0.06656494 1.95397309
0.06717227 1.94563011
0.06777963 1.93722137
0.06838702 1.92880365
0.06899442 1.92040347
0.06960184 1.91193719
0.07020929 1.90332895
0.07081676 1.89474213
0.07142426 1.88619284
0.07203177 1.87755807
0.07263932 1.86884112
0.07324689 1.86016118
0.07385448 1.85146002
0.07446209 1.84274030
0.07506973 1.83401578
0.07567740 1.82523824
0.07628509 1.81652850
0.07689281 1.80780970
0.07750054 1.79909650
0.07810832 1.79046824
0.07871611 1.78185550
0.07932393 1.77323154
0.07993177 1.76461348
0.08053965 1.75599687
0.08114755 1.74733873
0.08175547 1.73865155
0.08236343 1.73002156
0.08297141 1.72147101
0.08357941 1.71293434
0.08418744 1.70443409
0.08479550 1.69599134
0.08540358 1.68763446
0.08601169 1.67937253
0.08661982 1.67113305
0.08722799 1.66292764
0.08783618 1.65473876
0.08844439 1.64653529
0.08905263 1.63835232
0.08966089 1.63025958
0.09026918 1.62220205
0.09087750 1.61405298
0.09148584 1.60583515
0.09209421 1.59756285
0.09270259 1.58919970
0.09331101 1.58087344
0.09391946 1.57265495
0.09452792 1.56445607
0.09513641 1.55633610
0.09574493 1.54835562
0.09635348 1.54055619
0.09696204 1.53292572
0.09757064 1.52536414
0.09817925 1.51778148
0.09878790 1.51016601
0.09939656 1.50262064
0.10000525 1.49511934
0.10061397 1.48767280
0.10122272 1.48028308
0.10183149 1.47287605
0.10244028 1.46547267
0.10304911 1.45813710
0.10365795 1.45088636
0.10426683 1.44361700
0.10487574 1.43632675
0.10548467 1.42907044
0.10609363 1.42184083
0.10670262 1.41460573
0.10731164 1.40735442
0.10792068 1.40014407
0.10852976 1.39297801
0.10913887 1.38591724
0.10974801 1.37890417
0.11035718 1.37192451
0.11096638 1.36494816
0.11157561 1.35805638
0.11218487 1.35126355
0.11279418 1.34463010
0.11340350 1.33799689
0.11401287 1.33145373
0.11462226 1.32511314
0.11523169 1.31884085
0.11584115 1.31252326
0.11645065 1.30615191
0.11706018 1.29984526
0.11766975 1.29365310
0.11827935 1.28760778
0.11888898 1.28173218
0.11949866 1.27600016
0.12010837 1.27034889
0.12071811 1.26471211
0.12132789 1.25907839
0.12193771 1.25352165
0.12254757 1.24799102
0.12315746 1.24250506
0.12376740 1.23703776
0.12437737 1.23168355
0.12498738 1.22637840
0.12559743 1.22112331
0.12620752 1.21597030
0.12681764 1.21085534
0.12742780 1.20584644
0.12803800 1.20091179
0.12864825 1.19599632
0.12925854 1.19111983
0.12986887 1.18624060
0.13047923 1.18138155
0.13108964 1.17657540
0.13170008 1.17186684
0.13231058 1.16733008
0.13292111 1.16288862
0.13353169 1.15844447
0.13414231 1.15402019
0.13475296 1.14969081
0.13536367 1.14542765
0.13597441 1.14120835
0.13658521 1.13704870
0.13719603 1.13292639
0.13780691 1.12884998
0.13841783 1.12490324
0.13902879 1.12103853
0.13963979 1.11723013
0.14025086 1.11352779
0.14086196 1.10995923
0.14147310 1.10648959
0.14208429 1.10304592
0.14269553 1.09960524
0.14330681 1.09613965
0.14391814 1.09273779
0.14452951 1.08947802
0.14514093 1.08629493
0.14575240 1.08316976
0.14636391 1.08008467
0.14697549 1.07701765
0.14758709 1.07404727
0.14819875 1.07114085
0.14881046 1.06830481
0.14942221 1.06553393
0.15003403 1.06275575
0.15064588 1.06003439
0.15125778 1.05737214
0.15186974 1.05472980
0.15248173 1.05214165
0.15309380 1.04963415
0.15370589 1.04717293
0.15431805 1.04476066
0.15493025 1.04241356
0.15554251 1.04010899
0.15615481 1.03785277
0.15676717 1.03567725
0.15737958 1.03356574
0.15799205 1.03151451
0.15860456 1.02951683
0.15921712 1.02753660
0.15982974 1.02560225
0.16044241 1.02372267
0.16105513 1.02186514
0.16166790 1.01997243
0.16228072 1.01807447
0.16289358 1.01626348
0.16350649 1.01451727
0.16411944 1.01280813
0.16473243 1.01111124
0.16534545 1.00934095
0.16595851 1.00751863
0.16657160 1.00569351
0.16718473 1.00390211
0.16779789 1.00218929
0.16841111 1.00055690
0.16902435 0.99899401
0.16963762 0.99750367
0.17025095 0.99607598
0.17086431 0.99470921
0.17147772 0.99340394
0.17209117 0.99212499
0.17270467 0.99084788
0.17331821 0.98959923
0.17393179 0.98841172
0.17454542 0.98727168
0.17515910 0.98616315
0.17577282 0.98508341
0.17638659 0.98401984
0.17700040 0.98296580
0.17761427 0.98192824
0.17822817 0.98090080
0.17884213 0.97988621
0.17945611 0.97888723
0.18007015 0.97790813
0.18068422 0.97695349
0.18129833 0.97600104
0.18191248 0.97504487
0.18252668 0.97408965
0.18314090 0.97313962
0.18375516 0.97220920
0.18436947 0.97130351
0.18498382 0.97042936
0.18559819 0.96958520
0.18621261 0.96877836
0.18682708 0.96802046
0.18744157 0.96729624
0.18805611 0.96659832
0.18867068 0.96592520
0.18928529 0.96527777
0.18989994 0.96465880
0.19051461 0.96404167
0.19112933 0.96342606
0.19174409 0.96281658
0.19235888 0.96222146
0.19297372 0.96165848
0.19358858 0.96112426
0.19420348 0.96060198
0.19481842 0.96008551
0.19543339 0.95956842
0.19604841 0.95905592
0.19666345 0.95856545
0.19727853 0.95810193
0.19789365 0.95765643
0.19850881 0.95721553
0.19912399 0.95677616
0.19973923 0.95634168
0.20035449 0.95591945
0.20096979 0.95551221
0.20158511 0.95512027
0.20220049 0.95474332
0.20281589 0.95437370
0.20343132 0.95401114
0.20404680 0.95365835
0.20466231 0.95330649
0.20527785 0.95296197
0.20589343 0.95263092
0.20650904 0.95231577
0.20712468 0.95201379
0.20774035 0.95172373
0.20835607 0.95144010
0.20897181 0.95116534
0.20958760 0.95090710
0.21020342 0.95065682
0.21081927 0.95040960
0.21143515 0.95016575
0.21205106 0.94992648
0.21266702 0.94969089
0.21328300 0.94946539
0.21389902 0.94925244
0.21451508 0.94905203
0.21513115 0.94886263
0.21574725 0.94867722
0.21636340 0.94849578
0.21697956 0.94832322
0.21759577 0.94816319
0.21821199 0.94801634
0.21882826 0.94788477
0.21944454 0.94776513
0.22006086 0.94765285
0.22067721 0.94754820
0.22129358 0.94745519
0.22190997 0.94737258
0.22252640 0.94730007
0.22314286 0.94723949
0.22375934 0.94719604
0.22437584 0.94717309
0.22499239 0.94716911
0.22560896 0.94717248
0.22622555 0.94717676
0.22684218 0.94718563
0.22745882 0.94719634
0.22807550 0.94720644
0.22869222 0.94721684
0.22930896 0.94723336
0.22992572 0.94725325
0.23054253 0.94727436
0.23115934 0.94729823
0.23177621 0.94732454
0.23239309 0.94735239
0.23301001 0.94738665
0.23362695 0.94742765
0.23424393 0.94747416
0.23486093 0.94752556
0.23547797 0.94758247
0.23609503 0.94764244
0.23671213 0.94770639
0.23732926 0.94777462
0.23794642 0.94784683
0.23856360 0.94792638
0.23918082 0.94801266
0.23979807 0.94810353
0.24041535 0.94819655
0.24103266 0.94829323
0.24165002 0.94839267
0.24226739 0.94849609
0.24288478 0.94860471
0.24350223 0.94871608
0.24411970 0.94883174
0.24473719 0.94895137
0.24535473 0.94907589
0.24597229 0.94920440
0.24658990 0.94933780
0.24720752 0.94947090
0.24782518 0.94960674
0.24844287 0.94974382
0.24906060 0.94988181
0.24967836 0.95002164
0.25029615 0.95016850
0.25091398 0.95032088
0.25153184 0.95048121
0.25214970 0.95065070
0.25276762 0.95083092
0.25338560 0.95102307
0.25400358 0.95122563
0.25462160 0.95143766
0.25523964 0.95165397
0.25585774 0.95187550
0.25647587 0.95210039
0.25709400 0.95232680
0.25771219 0.95255046
0.25833040 0.95277290
0.25894865 0.95298707
0.25956696 0.95319759
0.26018527 0.95340197
0.26080361 0.95359840
0.26142201 0.95379238
0.26204044 0.95398576
0.26265889 0.95417852
0.26327738 0.95437005
0.26389590 0.95456005
0.26451445 0.95474884
0.26513305 0.95493854
0.26575169 0.95512763
0.26637036 0.95531580
0.26698905 0.95549968
0.26760781 0.95567929
0.26822659 0.95585063
0.26884541 0.95601432
0.26946425 0.95617189
0.27008313 0.95632548
0.27070206 0.95647571
0.27132103 0.95662258
0.27194002 0.95676638
0.27255905 0.95690958
0.27317813 0.95705400
0.27379721 0.95720209
0.27441636 0.95735355
0.27503553 0.95751081
0.27565473 0.95767145
0.27627397 0.95783514
0.27689323 0.95799883
0.27751252 0.95816405
0.27813187 0.95832684
0.27875122 0.95848930
0.27937061 0.95864932
0.27999005 0.95880965
0.28060949 0.95896905
0.28122899 0.95912938
0.28184852 0.95929063
0.28246808 0.95945678
0.28308764 0.95963760
0.28370726 0.95982945
0.28432691 0.96002064
0.28494659 0.96011760
0.28556633 0.96013473
0.28618607 0.96014729
0.28680584 0.96020482
0.28742564 0.96027551
0.28804547 0.96036270
0.28866532 0.96043608
0.28928524 0.96039317
0.28990516 0.96020802
0.29052511 0.95994092
0.29114509 0.95968394
0.29176512 0.95949183
0.29238516 0.95938969
0.29300523 0.95936891
0.29362532 0.95940993
0.29424545 0.95949286
0.29486561 0.95959873
0.29548579 0.95971470
0.29610601 0.95983279
0.29672626 0.95994569
0.29734653 0.96004972
0.29796684 0.96014365
0.29858714 0.96022686
0.29920751 0.96030029
0.29982787 0.96036637
0.30044830 0.96042757
0.30106872 0.96048754
0.30168918 0.96054781
0.30230969 0.96061023
0.30293021 0.96067418
0.30355075 0.96073966
0.30417129 0.96080452
0.30479190 0.96086755
0.30541253 0.96092905
0.30603316 0.96098963
0.30665386 0.96104960
0.30727455 0.96110865
0.30789527 0.96116464
0.30851603 0.96121910
0.30913681 0.96127387
0.30975762 0.96132956
0.31037846 0.96138708
0.31099930 0.96144582
0.31162021 0.96150457
0.31224111 0.96156546
0.31286204 0.96162849
0.31348300 0.96169152
0.31410399 0.96175547
0.31472501 0.96182279
0.31534606 0.96189531
0.31596714 0.96197425
0.31658822 0.96205962
0.31720936 0.96215050
0.31783050 0.96224504
0.31845167 0.96234265
0.31907287 0.96244331
0.31969410 0.96254674
0.32031536 0.96265260
0.32093665 0.96276214
0.32155794 0.96287443
0.32217929 0.96298948
0.32280064 0.96310789
0.32342201 0.96323090
0.32404342 0.96335818
0.32466486 0.96348975
0.32528633 0.96362621
0.32590783 0.96376819
0.32652935 0.96391629
0.32715091 0.96406928
0.32777247 0.96422593
0.32839409 0.96438443
0.32901570 0.96454353
0.32963735 0.96470201
0.33025903 0.96485652
0.33088073 0.96500552
0.33150247 0.96514718
0.33212423 0.96527965
0.33274603 0.96540234
0.33336782 0.96551462
0.33398968 0.96561742
0.33461154 0.96571103
0.33523342 0.96579486
0.33585536 0.96587074
0.33647731 0.96594049
0.33709928 0.96600535
0.33772126 0.96606654
0.33834329 0.96612529
0.33896536 0.96618159
0.33958742 0.96623604
0.34020951 0.96628928
0.34083167 0.96634099
0.34145382 0.96638994
0.34207600 0.96643614
0.34269819 0.96647835
0.34332043 0.96651568
0.34394270 0.96654872
0.34456497 0.96657655
0.34518728 0.96659827
0.34580961 0.96661325
0.34643197 0.96662059
0.34705436 0.96662027
0.34767678 0.96661323
0.34829924 0.96660037
0.34892169 0.96658446
0.34954417 0.96656671
0.35016671 0.96654651
0.35078925 0.96652356
0.35141179 0.96649541
0.35203439 0.96646174
0.35265702 0.96642441
0.35327965 0.96638371
0.35390231 0.96633934
0.35452500 0.96629191
0.35514772 0.96624112
0.35577047 0.96618604
0.35639325 0.96612606
0.35701603 0.96606057
0.35763887 0.96598865
0.35826170 0.96590909
0.35888457 0.96582188
0.35950744 0.96572733
0.36013037 0.96562574
0.36075330 0.96551772
0.36137629 0.96540328
0.36199927 0.96528333
0.36262226 0.96515819
0.36324531 0.96502845
0.36386836 0.96489350
0.36449143 0.96475367
0.36511454 0.96461047
0.36573768 0.96446452
0.36636081 0.96431582
0.36698398 0.96416497
0.36760718 0.96401075
0.36823040 0.96385102
0.36885363 0.96368395
0.36947691 0.96350954
0.37010017 0.96332901
0.37072349 0.96314358
0.37134680 0.96295542
0.37197018 0.96276755
0.37259352 0.96258337
0.37321693 0.96240469
0.37384033 0.96223061
0.37446377 0.96206110
0.37508723 0.96189527
0.37571070 0.96173066
0.37633419 0.96156604
0.37695771 0.96139959
0.37758124 0.96122976
0.37820479 0.96105474
0.37882838 0.96087328
0.37945196 0.96068419
0.38007557 0.96048712
0.38069922 0.96028180
0.38132286 0.96006914
0.38194653 0.95985037
0.38257024 0.95962485
0.38319394 0.95939291
0.38381767 0.95915425
0.38444141 0.95890915
0.38506517 0.95865825
0.38568896 0.95840183
0.38631275 0.95813992
0.38693658 0.95787279
0.38756043 0.95760077
0.38818428 0.95732478
0.38880813 0.95704451
0.38943204 0.95676086
0.39005592 0.95647448
0.39067987 0.95618563
0.39130381 0.95589311
0.39192775 0.95559632
0.39255172 0.95529555
0.39317572 0.95499048
0.39379972 0.95468144
0.39442372 0.95436782
0.39504775 0.95404992
0.39567181 0.95372680
0.39629588 0.95339909
0.39691997 0.95306742
0.39754406 0.95273268
0.39816818 0.95239548
0.39879230 0.95205433
0.39941645 0.95170856
0.40004060 0.95135793
0.40066478 0.95100391
0.40128896 0.95064776
0.40191317 0.95028823
0.40253738 0.94992413
0.40316162 0.94955542
0.40378585 0.94918213
0.40441012 0.94880424
0.40503439 0.94842300
0.40565869 0.94804052
0.40628299 0.94765531
0.40690729 0.94726827
0.40753162 0.94688213
0.40815595 0.94649662
0.40878031 0.94611140
0.40940467 0.94572649
0.41002905 0.94533911
0.41065344 0.94494283
0.41127783 0.94453158
0.41190225 0.94410382
0.41252670 0.94366193
0.41315112 0.94320292
0.41377556 0.94271884
0.41440004 0.94221088
0.41502452 0.94168703
0.41564900 0.94115806
0.41627350 0.94063978
0.41689801 0.94013956
0.41752252 0.93964940
0.41814706 0.93916353
0.41877159 0.93867887
0.41939613 0.93819423
0.42002070 0.93771143
0.42064530 0.93723073
0.42126986 0.93675498
0.42189446 0.93628411
0.42251906 0.93581567
0.42314368 0.93534968
0.42376831 0.93488738
0.42439294 0.93442965
0.42501760 0.93397500
0.42564225 0.93352278
0.42626691 0.93307210
0.42689160 0.93262293
0.42751628 0.93217560
0.42814097 0.93172983
0.42876565 0.93128680
0.42939037 0.93084559
0.43001509 0.93040437
0.43063983 0.92996377
0.43126458 0.92952502
0.43188933 0.92909026
0.43251407 0.92865917
0.43313882 0.92823082
0.43376359 0.92780245
0.43438837 0.92737348
0.43501318 0.92694634
0.43563795 0.92651799
0.43626276 0.92608718
0.43688759 0.92565299
0.43751240 0.92522160
0.43813723 0.92479416
0.43876207 0.92437041
0.43938690 0.92394692
0.44001174 0.92351642
0.44063661 0.92308009
0.44126147 0.92264041
0.44188634 0.92219644
0.44251120 0.92175403
0.44313610 0.92131188
0.44376099 0.92086639
0.44438589 0.92041690
0.44501078 0.91996162
0.44563571 0.91950143
0.44626060 0.91904065
0.44688553 0.91857799
0.44751045 0.91810680
0.44813538 0.91763193
0.44876033 0.91715888
0.44938529 0.91668034
0.45001021 0.91619847
0.45063519 0.91572051
0.45126015 0.91524352
0.45188510 0.91476499
0.45251009 0.91428338
0.45313507 0.91379993
0.45376003 0.91331344
0.45438504 0.91282295
0.45501003 0.91232820
0.45563501 0.91182856
0.45626003 0.91132770
0.45688501 0.91083298
0.45751002 0.91034370
0.45813504 0.90984860
0.45876005 0.90934253
0.45938510 0.90883001
0.46001011 0.90831631
0.46063516 0.90780289
0.46126017 0.90729071
0.46188521 0.90678064
0.46251026 0.90626626
0.46313530 0.90574029
0.46376035 0.90520578
0.46438542 0.90467092
0.46501046 0.90414102
0.46563554 0.90361659
0.46626058 0.90309678
0.46688566 0.90258153
0.46751073 0.90207182
0.46813580 0.90156759
0.46876088 0.90106795
0.46938595 0.90057353
0.47001103 0.90008398
0.47063610 0.89959751
0.47126117 0.89911349
0.47188628 0.89863066
0.47251135 0.89814785
0.47313645 0.89766256
0.47376153 0.89717331
0.47438663 0.89667946
0.47501174 0.89618285
0.47563684 0.89568196
0.47626191 0.89517772
0.47688702 0.89466951
0.47751212 0.89415791
0.47813722 0.89364264
0.47876233 0.89312372
0.47938743 0.89260172
0.48001254 0.89207668
0.48063764 0.89154918
0.48126274 0.89102109
0.48188788 0.89049174
0.48251298 0.88996119
0.48313808 0.88943126
0.48376319 0.88890008
0.48438829 0.88836832
0.48501340 0.88783534
0.48563853 0.88730354
0.48626363 0.88677362
0.48688874 0.88624554
0.48751384 0.88571989
0.48813894 0.88519794
0.48876408 0.88467962
0.48938918 0.88416468
0.49001428 0.88365250
0.49063939 0.88314091
0.49126449 0.88262903
0.49188960 0.88211560
0.49251470 0.88159974
0.49313980 0.88107987
0.49376491 0.88055420
0.49439001 0.88002209
0.49501511 0.87948417
0.49564022 0.87894138
0.49626532 0.87839521
0.49689040 0.87784817
0.49751550 0.87730324
0.49814057 0.87676232
0.49876568 0.87622812
0.49939075 0.87570252
0.50001585 0.87518696
0.50064093 0.87468250
0.50126600 0.87418930
0.50189108 0.87370527
0.50251615 0.87322646
0.50314122 0.87274698
0.50376630 0.87226414
0.50439137 0.87177762
0.50501645 0.87128559
0.50564146 0.87078873
0.50626653 0.87029153
0.50689161 0.86979585
0.50751662 0.86930076
0.50814170 0.86878598
0.50876671 0.86824931
0.50939178 0.86770425
0.51001680 0.86712775
0.51064181 0.86653939
0.51126683 0.86594380
0.51189184 0.86530443
0.51251686 0.86461716
0.51314187 0.86391720
0.51376688 0.86322941
0.51439190 0.86255323
0.51501691 0.86188339
0.51564187 0.86121613
0.51626688 0.86055064
0.51689184 0.85988766
0.51751679 0.85922645
0.51814181 0.85856610
0.51876676 0.85790679
0.51939172 0.85724863
0.52001661 0.85658992
0.52064157 0.85592901
0.52126652 0.85526686
0.52189142 0.85460171
0.52251637 0.85393030
0.52314126 0.85325045
0.52376616 0.85256135
0.52439106 0.85186161
0.52501595 0.85115233
0.52564085 0.85043571
0.52626574 0.84971453
0.52689058 0.84899335
0.52751547 0.84827525
0.52814031 0.84756241
0.52876514 0.84685501
0.52938998 0.84615065
0.53001481 0.84544690
0.53063965 0.84474161
0.53126442 0.84403301
0.53188926 0.84331784
0.53251404 0.84259574
0.53313881 0.84185769
0.53376359 0.84111174
0.53438836 0.84037015
0.53501308 0.83965190
0.53563786 0.83895978
0.53626257 0.83826703
0.53688729 0.83756973
0.53751200 0.83686288
0.53813666 0.83614662
0.53876138 0.83542105
0.53938603 0.83468828
0.54001075 0.83395017
0.54063541 0.83320732
0.54126000 0.83246048
0.54188466 0.83170860
0.54250926 0.83095351
0.54313385 0.83019467
0.54375845 0.82943161
0.54438305 0.82866358
0.54500765 0.82788872
0.54563218 0.82710144
0.54625672 0.82629694
0.54688126 0.82547387
0.54750580 0.82463605
0.54813033 0.82378530
0.54875481 0.82292187
0.54937929 0.82204889
0.55000377 0.82116949
0.55062819 0.82028683
0.55125266 0.81940227
0.55187708 0.81852136
0.55250150 0.81764045
0.55312586 0.81675962
0.55375028 0.81587616
0.55437464 0.81498889
0.55499899 0.81409695
0.55562335 0.81320042
0.55624765 0.81230031
0.55687195 0.81139797
0.55749625 0.81049225
0.55812055 0.80958011
0.55874479 0.80866224
0.55936903 0.80773910
0.55999327 0.80681259
0.56061751 0.80588487
0.56124169 0.80495631
0.56186587 0.80402676
0.56249005 0.80309720
0.56311423 0.80216608
0.56373835 0.80122955
0.56436247 0.80028650
0.56498659 0.79933859
0.56561071 0.79839131
0.56623477 0.79744769
0.56685883 0.79650712
0.56748289 0.79556716
0.56810689 0.79462667
0.56873089 0.79368362
0.56935489 0.79273569
0.56997889 0.79178410
0.57060283 0.79083199
0.57122678 0.78987887
0.57185072 0.78892638
0.57247460 0.78797584
0.57309848 0.78703289
0.57372236 0.78610344
0.57434624 0.78519512
0.57497007 0.78431161
0.57559389 0.78345622
0.57621765 0.78262406
0.57684147 0.78179437
0.57746524 0.78092849
0.57808900 0.78001126
0.57871270 0.77905105
0.57933640 0.77806305
0.57996011 0.77707416
0.58058375 0.77608948
0.58120745 0.77513515
0.58183104 0.77414378
0.58245468 0.77313179
0.58307827 0.77215418
0.58370185 0.77117303
0.58432543 0.77019508
0.58494896 0.76922492
0.58557248 0.76825455
0.58619595 0.76726097
0.58681947 0.76617704
0.58744293 0.76496823
0.58806634 0.76366503
0.58868974 0.76232968
0.58931315 0.76101361
0.58993655 0.75974133
0.59055990 0.75851981
0.59118325 0.75734386
0.59180659 0.75620854
0.59242988 0.75510138
0.59305316 0.75400537
0.59367645 0.75290626
0.59429967 0.75179855
0.59492290 0.75067678
0.59554607 0.74954477
0.59616929 0.74840950
0.59679240 0.74727628
0.59741557 0.74614418
0.59803867 0.74501310
0.59866178 0.74388191
0.59928483 0.74275103
0.59990788 0.74162149
0.60053092 0.74049421
0.60115391 0.73937513
0.60177690 0.73826878
0.60239989 0.73717249
0.60302281 0.73607964
0.60364574 0.73498516
0.60426867 0.73388946
0.60489154 0.73279500
0.60551441 0.73170237
0.60613722 0.73061137
0.60676003 0.72952088
0.60738283 0.72843283
0.60800564 0.72734381
0.60862839 0.72624502
0.60925108 0.72514060
0.60987377 0.72404497
0.61049646 0.72296187
0.61111915 0.72188762
0.61174178 0.72081824
0.61236435 0.71975017
0.61298698 0.71868047
0.61360955 0.71760925
0.61423206 0.71653690
0.61485457 0.71546353
0.61547709 0.71438893
0.61609960 0.71331158
0.61672205 0.71223177
0.61734444 0.71114808
0.61796689 0.71006021
0.61858922 0.70896807
0.61921161 0.70787163
0.61983395 0.70677196
0.62045628 0.70567106
0.62107855 0.70456995
0.62170082 0.70346814
0.62232304 0.70236706
0.62294525 0.70126893
0.62356746 0.70017295
0.62418962 0.69908035
0.62481177 0.69799388
0.62543392 0.69691474
0.62605602 0.69584203
0.62667805 0.69477462
0.62730014 0.69371355
0.62792212 0.69266055
0.62854415 0.69161709
0.62916613 0.69057651
0.62978804 0.68952531
0.63041002 0.68844472
0.63103187 0.68733230
0.63165379 0.68621910
0.63227564 0.68509427
0.63289744 0.68395872
0.63351929 0.68284363
0.63414103 0.68172632
0.63476282 0.68060916
0.63538450 0.67950234
0.63600624 0.67840975
0.63662791 0.67732405
0.63724959 0.67622236
0.63787121 0.67509074
0.63849282 0.67392088
0.63911438 0.67273217
0.63973594 0.67154303
0.64035743 0.67036538
0.64097893 0.66919601
0.64160043 0.66801962
0.64222187 0.66682477
0.64284331 0.66560874
0.64346474 0.66437837
0.64408606 0.66314055
0.64470744 0.66190811
0.64532876 0.66069923
0.64595008 0.65952604
0.64657134 0.65838987
0.64719260 0.65729042
0.64781380 0.65622685
0.64843500 0.65519645
0.64905614 0.65418576
0.64967728 0.65316621
0.65029842 0.65212302
0.65091950 0.65106053
0.65154058 0.64997453
0.65216160 0.64887405
0.65278262 0.64779157
0.65340358 0.64671809
0.65402454 0.64560894
0.65464544 0.64445207
0.65526640 0.64323136
0.65588725 0.64195232
0.65650809 0.64064309
0.65712893 0.63934012
0.65774971 0.63806478
0.65837049 0.63681252
0.65899122 0.63557550
0.65961194 0.63434365
0.66023266 0.63311209
0.66085333 0.63187777
0.66147393 0.63064113
0.66209453 0.62940130
0.66271514 0.62815842
0.66333568 0.62691371
0.66395622 0.62566655
0.66457671 0.62441829
0.66519719 0.62316993
0.66581762 0.62192250
0.66643804 0.62067938
0.66705841 0.61944486
0.66767877 0.61820498
0.66829914 0.61695233
0.66891944 0.61570124
0.66953969 0.61445544
0.67015994 0.61321071
0.67078018 0.61196230
0.67140037 0.61070653
0.67202055 0.60944279
0.67264068 0.60816843
0.67326081 0.60687897
0.67388088 0.60557507
0.67450094 0.60429674
0.67512113 0.60310374
0.67574131 0.60198941
0.67636144 0.60091214
0.67698157 0.59984490
0.67760164 0.59877796
0.67822170 0.59770979
0.67884171 0.59663926
0.67946166 0.59556506
0.68008161 0.59448770
0.68070155 0.59340698
0.68132144 0.59232289
0.68194127 0.59123646
0.68256110 0.59014779
0.68318093 0.58905625
0.68380070 0.58796238
0.68442041 0.58686586
0.68504012 0.58576863
0.68565977 0.58467109
0.68627942 0.58357263
0.68689901 0.58247181
0.68751854 0.58136824
0.68813807 0.58026059
0.68875760 0.57915020
0.68937707 0.57803827
0.68999648 0.57692420
0.69061589 0.57580687
0.69123530 0.57468687
0.69185460 0.57356429
0.69247395 0.57243119
0.69309318 0.57128584
0.69371241 0.57012713
0.69433165 0.56895319
0.69495082 0.56774583
0.69556993 0.56649331
0.69618905 0.56519711
0.69680816 0.56388592
0.69742721 0.56258036
0.69804621 0.56127925
0.69866520 0.55999017
0.69928414 0.55869935
0.69990301 0.55737434
0.70052189 0.55605581
0.70114076 0.55476986
0.70175958 0.55349316
0.70237833 0.55223519
0.70299709 0.55098810
0.70361578 0.54975079
0.70423448 0.54852113
0.70485312 0.54729750
0.70547175 0.54606755
0.70609033 0.54480105
0.70670885 0.54345847
0.70732737 0.54202919
0.70794588 0.54054079
0.70856434 0.53903090
0.70918274 0.53753536
0.70980114 0.53607387
0.71041948 0.53465459
0.71103776 0.53328055
0.71165609 0.53194630
0.71227431 0.53064592
0.71289253 0.52937383
0.71351069 0.52812436
0.71412885 0.52689365
0.71474701 0.52567859
0.71536505 0.52447505
0.71598309 0.52327872
0.71660113 0.52208634
0.71721911 0.52089314
0.71783710 0.51969819
0.71845502 0.51850181
0.71907288 0.51730310
0.71969074 0.51610122
0.72030854 0.51489760
0.72092634 0.51369020
0.72154409 0.51247853
0.72216183 0.51126440
0.72277951 0.51004784
0.72339714 0.50882955
0.72401476 0.50760868
0.72463232 0.50638365
0.72524989 0.50515547
0.72586739 0.50392606
0.72648489 0.50269604
0.72710234 0.50146541
0.72771978 0.50023479
0.72833717 0.49900477
0.72895449 0.49777547
0.72957182 0.49654362
0.73018909 0.49531188
0.73080635 0.49408005
0.73142356 0.49285127
0.73204076 0.49162494
0.73265791 0.49040046
0.73327500 0.48917942
0.73389208 0.48795611
0.73450917 0.48672886
0.73512614 0.48550327
0.73574317 0.48428173
0.73636007 0.48306350
0.73697698 0.48185034
0.73759389 0.48064115
0.73821074 0.47943441
0.73882753 0.47823087
0.73944432 0.47703269
0.74006110 0.47583666
0.74067777 0.47464319
0.74129450 0.47345128
0.74191111 0.47225563
0.74252772 0.47105685
0.74314433 0.46985990
0.74376088 0.46866614
0.74437743 0.46747582
0.74499393 0.46628939
0.74561036 0.46510618
0.74622679 0.46392146
0.74684322 0.46273676
0.74745959 0.46155575
0.74807590 0.46038096
0.74869221 0.45921062
0.74930847 0.45804120
0.74992472 0.45687299
0.75054091 0.45570320
0.75115705 0.45452652
0.75177318 0.45334573
0.75238931 0.45215973
0.75300533 0.45096740
0.75362140 0.44976535
0.75423735 0.44855161
0.75485331 0.44732950
0.75546926 0.44610071
0.75608510 0.44487170
0.75670099 0.44363894
0.75731677 0.44240711
0.75793254 0.44117727
0.75854832 0.43995516
0.75916404 0.43874274
0.75977969 0.43753492
0.76039535 0.43635119
0.76101094 0.43517754
0.76162654 0.43399780
0.76224208 0.43283030
0.76285762 0.43167626
0.76347315 0.43051889
0.76408863 0.42935034
0.76470405 0.42817618
0.76531947 0.42700948
0.76593488 0.42583766
0.76655024 0.42467372
0.76716560 0.42353483
0.76778090 0.42238782
0.76839620 0.42125189
0.76901144 0.42012183
0.76962668 0.41897616
0.77024186 0.41781532
0.77085704 0.41664148
0.77147216 0.41546602
0.77208722 0.41428770
0.77270228 0.41310785
0.77331728 0.41192535
0.77393228 0.41074046
0.77454716 0.40954965
0.77516204 0.40834939
0.77577692 0.40714403
0.77639169 0.40593612
0.77700645 0.40472417
0.77762115 0.40351439
0.77823579 0.40230989
0.77885044 0.40110705
0.77946508 0.39989547
0.78007960 0.39866612
0.78069413 0.39742740
0.78130865 0.39619472
0.78192312 0.39497337
0.78253758 0.39376425
0.78315204 0.39256581
0.78376645 0.39137468
0.78438079 0.39018547
0.78499520 0.38899279
0.78560954 0.38779855
0.78622389 0.38659664
0.78683823 0.38538564
0.78745252 0.38417847
0.78806680 0.38298155
0.78868109 0.38178827
0.78929538 0.38059499
0.78990960 0.37940235
0.79052377 0.37821477
0.79113799 0.37703869
0.79175210 0.37587294
0.79236627 0.37470717
0.79298031 0.37353939
0.79359442 0.37237233
0.79420841 0.37120826
0.79482239 0.37005112
0.79543632 0.36890072
0.79605025 0.36774375
0.79666412 0.36657304
0.79727799 0.36539401
0.79789174 0.36421464
0.79850549 0.36304139
0.79911923 0.36187493
0.79973292 0.36071161
0.80034655 0.35954592
0.80096012 0.35837472
0.80157369 0.35719607
0.80218726 0.35601124
0.80280077 0.35482790
0.80341423 0.35365117
0.80402768 0.35248024
0.80464107 0.35131331
0.80525440 0.35015291
0.80586773 0.34899954
0.80648106 0.34785176
0.80709434 0.34670844
0.80770755 0.34556375
0.80832082 0.34441067
0.80893397 0.34323182
0.80954713 0.34201744
0.81016028 0.34078983
0.81077337 0.33957161
0.81138641 0.33835946
0.81199950 0.33714742
0.81261247 0.33593909
0.81322551 0.33475120
0.81383848 0.33359218
0.81445140 0.33247838
0.81506431 0.33138385
0.81567723 0.33023393
0.81629008 0.32907273
0.81690294 0.32793387
0.81751579 0.32678922
0.81812859 0.32564332
0.81874138 0.32449125
0.81935418 0.32332512
0.81996691 0.32214756
0.82057965 0.32097213
0.82119232 0.31981242
0.82180506 0.31866868
0.82241774 0.31753798
0.82303041 0.31641510
0.82364303 0.31529649
0.82425565 0.31418012
0.82486826 0.31306358
0.82548088 0.31193875
0.82609349 0.31080048
0.82670605 0.30965247
0.82731861 0.30850155
0.82793117 0.30735422
0.82854372 0.30621424
0.82915622 0.30508262
0.82976878 0.30395910
0.83038127 0.30284957
0.83099377 0.30175681
0.83160627 0.30068851
0.83221877 0.29963999
0.83283126 0.29859575
0.83344370 0.29755589
0.83405620 0.29651927
0.83466864 0.29548235
0.83528107 0.29444461
0.83589357 0.29340729
0.83650601 0.29236953
0.83711845 0.29132862
0.83773088 0.29028590
0.83834332 0.28924502
0.83895576 0.28820718
0.83956820 0.28716750
0.84018058 0.28612673
0.84079301 0.28509076
0.84140539 0.28406040
0.84201783 0.28303597
0.84263021 0.28201868
0.84324259 0.28100913
0.84385496 0.28000559
0.84446728 0.27900703
0.84507966 0.27801319
0.84569198 0.27702473
0.84630430 0.27603952
0.84691662 0.27505555
0.84752893 0.27407371
0.84814125 0.27309403
0.84875351 0.27211936
0.84936577 0.27115193
0.84997803 0.27019060
0.85059029 0.26923384
0.85120249 0.26827588
0.85181475 0.26730795
0.85242695 0.26632819
0.85303909 0.26534122
0.85365129 0.26435174
0.85426342 0.26336565
0.85487556 0.26238751
0.85548764 0.26141711
0.85609978 0.26045210
0.85671186 0.25948951
0.85732388 0.25852517
0.85793597 0.25755882
0.85854799 0.25659020
0.85915995 0.25561975
0.85977197 0.25464727
0.86038393 0.25367152
0.86099589 0.25269365
0.86160779 0.25171679
0.86221969 0.25074262
0.86283153 0.24977467
0.86344337 0.24881644
0.86405522 0.24786923
0.86466706 0.24693424
0.86527884 0.24600964
0.86589056 0.24509183
0.86650229 0.24417637
0.86711401 0.24326091
0.86772567 0.24234730
0.86833733 0.24143675
0.86894894 0.24052934
0.86956054 0.23962492
0.87017214 0.23872540
0.87078369 0.23783137
0.87139517 0.23694109
0.87200665 0.23605192
0.87261814 0.23516122
0.87322950 0.23426660
0.87384093 0.23336478
0.87445229 0.23245516
0.87506360 0.23153783
0.87567490 0.23061472
0.87628615 0.22969326
0.87689739 0.22877907
0.87750858 0.22787375
0.87811977 0.22697793
0.87873089 0.22609312
0.87934202 0.22521869
0.87995303 0.22435013
0.88056409 0.22348332
0.88117510 0.22261740
0.88178605 0.22174786
0.88239700 0.22086998
0.88300788 0.21998353
0.88361877 0.21908727
0.88422960 0.21817940
0.88484043 0.21726081
0.88545120 0.21633213
0.88606191 0.21539346
0.88667262 0.21444799
0.88728327 0.21349894
0.88789392 0.21254737
0.88850451 0.21159518
0.88911510 0.21064176
0.88972563 0.20968591
0.89033616 0.20873006
0.89094663 0.20777482
0.89155704 0.20681998
0.89216745 0.20586659
0.89277786 0.20491595
0.89338815 0.20396753
0.89399850 0.20301924
0.89460874 0.20207175
0.89521897 0.20112703
0.89582920 0.20018702
0.89643937 0.19925085
0.89704949 0.19831765
0.89765960 0.19738752
0.89826971 0.19645983
0.89887977 0.19553490
0.89948976 0.19461343
0.90009981 0.19369616
0.90070975 0.19278441
0.90131974 0.19187908
0.90192968 0.19097861
0.90253955 0.19007945
0.90314949 0.18917868
0.90375936 0.18827853
0.90436918 0.18738092
0.90497905 0.18648567
0.90558887 0.18559224
0.90619868 0.18469944
0.90680850 0.18380785
0.90741831 0.18291688
0.90802807 0.18202660
0.90863782 0.18113748
0.90924764 0.18025142
0.90985739 0.17936903
0.91046715 0.17848918
0.91107690 0.17761382
0.91168666 0.17673997
0.91229641 0.17586521
0.91290617 0.17498900
0.91351593 0.17411058
0.91412568 0.17323371
0.91473550 0.17236266
0.91534525 0.17149803
0.91595501 0.17063714
0.91656482 0.16977925
0.91717464 0.16892684
0.91778439 0.16807727
0.91839421 0.16723071
0.91900408 0.16639048
0.91961390 0.16555714
0.92022377 0.16472738
0.92083359 0.16390139
0.92144346 0.16308205
0.92205340 0.16227029
0.92266327 0.16146508
0.92327321 0.16066193
0.92388314 0.15985846
0.92449307 0.15905410
0.92510301 0.15825227
0.92571300 0.15745556
0.92632300 0.15666375
0.92693299 0.15587530
0.92754304 0.15508991
0.92815304 0.15430858
0.92876315 0.15353299
0.92937320 0.15276414
0.92998332 0.15200168
0.93059343 0.15123929
0.93120360 0.15047431
0.93181372 0.14970856
0.93242395 0.14894428
0.93303412 0.14818222
0.93364435 0.14742467
0.93425465 0.14667134
0.93486488 0.14592090
0.93547517 0.14517538
0.93608552 0.14443681
0.93669587 0.14370375
0.93730623 0.14297618
0.93791664 0.14225113
0.93852711 0.14152716
0.93913752 0.14080395
0.93974805 0.14008495
0.94035852 0.13936969
0.94096911 0.13865675
0.94157964 0.13794761
0.94219029 0.13724141
0.94280088 0.13654086
0.94341159 0.13585003
0.94402224 0.13516722
0.94463301 0.13449255
0.94524372 0.13382564
0.94585454 0.13316540
0.94646537 0.13251097
0.94707620 0.13186302
0.94768709 0.13122022
0.94829804 0.13058139
0.94890898 0.12994686
0.94951999 0.12932121
0.95013100 0.12870787
0.95074207 0.12811038
0.95135319 0.12753064
0.95196432 0.12696621
0.95257550 0.12640818
0.95318675 0.12586119
0.95379800 0.12533870
0.95440930 0.12484376
0.95502067 0.12438586
0.95563203 0.12396744
0.95624346 0.12359460
0.95685488 0.12326625
0.95746636 0.12290305
0.95807791 0.12241821
0.95868939 0.12185930
0.95930099 0.12131036
0.95991254 0.12076171
0.96052414 0.12017133
0.96113575 0.11963086
0.96174735 0.11915636
0.96235895 0.11870238
0.96297055 0.11827467
0.96358210 0.11786049
0.96419370 0.11746852
0.96480531 0.11706611
0.96541685 0.11663727
0.96602839 0.11613091
0.96663988 0.11550468
0.96725136 0.11475754
0.96786284 0.11389781
0.96847421 0.11296244
0.96908563 0.11198209
0.96969694 0.11099598
0.97030824 0.11002707
0.97091943 0.10910203
0.97153062 0.10823260
0.97214174 0.10742588
0.97275281 0.10667821
0.97336382 0.10598435
0.97397470 0.10532848
0.97458559 0.10470613
0.97519636 0.10410920
0.97580701 0.10352577
0.97641760 0.10294874
0.97702813 0.10236917
0.97763854 0.10179522
0.97824883 0.10122671
0.97885907 0.10066313
0.97946918 0.10011241
0.98007917 0.09958130
0.98068905 0.09907896
0.98129880 0.09860759
0.98190838 0.09817264
0.98251790 0.09778202
0.98312730 0.09743418
0.98373652 0.09712066
0.98434561 0.09683431
0.98495454 0.09656690
0.98556334 0.09630925
0.98617196 0.09604911
0.98678041 0.09576660
0.98738873 0.09546239
0.98799682 0.09514296
0.98860478 0.09482262
0.98921257 0.09451243
0.98982012 0.09422617
0.99042755 0.09397658
0.99103475 0.09375332
0.99164170 0.09356193
0.99224854 0.09340923
0.99284983 0.09332979
0.99334258 0.09335071
0.99374640 0.09344644
0.99407727 0.09358687
0.99434841 0.09375671
0.99457067 0.09393489
0.99475282 0.09411790
0.99490207 0.09429731
0.99502444 0.09446891
0.99512470 0.09462531
0.99520689 0.09476641
0.99527425 0.09488994
0.99532950 0.09502107
