0.01886084 0.00469419 0.00087493
0.01908307 0.00475117 0.00088419
0.01931639 0.00480979 0.00089307
0.01956136 0.00486989 0.00090164
0.01981856 0.00493132 0.00090984
0.02008860 0.00499386 0.00091759
0.02037212 0.00505725 0.00092486
0.02066979 0.00515712 0.00094595
0.02098232 0.00523260 0.00095611
0.02131045 0.00530940 0.00096582
0.02165497 0.00538718 0.00097488
0.02201667 0.00546559 0.00098316
0.02239644 0.00557570 0.00100284
0.02279516 0.00566255 0.00101868
0.02321378 0.00574983 0.00103434
0.02365329 0.00583739 0.00104902
0.02411475 0.00592473 0.00106251
0.02459924 0.00605047 0.00108906
0.02510792 0.00615200 0.00110543
0.02564199 0.00625299 0.00112059
0.02620274 0.00635283 0.00113433
0.02679148 0.00649317 0.00116143
0.02740963 0.00660702 0.00117811
0.02805866 0.00671614 0.00119613
0.02874013 0.00685421 0.00122693
0.02945565 0.00697441 0.00125048
0.03020694 0.00709186 0.00127198
0.03099580 0.00723646 0.00130159
0.03180634 0.00736388 0.00132517
0.03261691 0.00748284 0.00134585
0.03342754 0.00762038 0.00137267
0.03423824 0.00774056 0.00139447
0.03504902 0.00785283 0.00141391
0.03585991 0.00795724 0.00143118
0.03667091 0.00808835 0.00145999
0.03748203 0.00819258 0.00148175
0.03829331 0.00829034 0.00150144
0.03910474 0.00840439 0.00152627
0.03991636 0.00850474 0.00154723
0.04072816 0.00859996 0.00156652
0.04154019 0.00868976 0.00158422
0.04235246 0.00879507 0.00160685
0.04316499 0.00888795 0.00162606
0.04397780 0.00897676 0.00164394
0.04479091 0.00906091 0.00166049
0.04560429 0.00913991 0.00167575
0.04641794 0.00924236 0.00169853
0.04723185 0.00932534 0.00171551
0.04804599 0.00940418 0.00173129
0.04886035 0.00947863 0.00174594
0.04967492 0.00956719 0.00176523
0.05048968 0.00964439 0.00178147
0.05130463 0.00971816 0.00179675
0.05211975 0.00978816 0.00181104
0.05293502 0.00985424 0.00182440
0.05375044 0.00993285 0.00184200
0.05456598 0.01000114 0.00185687
0.05538164 0.01006630 0.00187096
0.05619740 0.01012813 0.00188422
0.05701325 0.01018656 0.00189670
0.05782916 0.01024147 0.00190840
0.05864513 0.01031068 0.00192508
0.05946113 0.01036753 0.00193811
0.06027717 0.01042158 0.00195047
0.06109324 0.01047280 0.00196217
0.06190936 0.01052124 0.00197326
0.06272550 0.01056687 0.00198373
0.06354168 0.01060944 0.00199352
0.06435790 0.01066766 0.00200899
0.06517416 0.01071228 0.00202000
0.06599046 0.01075463 0.00203046
0.06680679 0.01079479 0.00204040
0.06762316 0.01083282 0.00204985
0.06843957 0.01086764 0.00205988
0.06925603 0.01089930 0.00207023
0.07007252 0.01093836 0.00208389
0.07088906 0.01097108 0.00209520
0.07170564 0.01100201 0.00210608
0.07252226 0.01103112 0.00211654
0.07333893 0.01105850 0.00212659
0.07415564 0.01108425 0.00213628
0.07497239 0.01110838 0.00214560
0.07578918 0.01113088 0.00215454
0.07660603 0.01115173 0.00216306
0.07742292 0.01117081 0.00217114
0.07823986 0.01119312 0.00218503
0.07905684 0.01121025 0.00219658
0.07987387 0.01122606 0.00220781
0.08069096 0.01124054 0.00221871
0.08150809 0.01125368 0.00222929
0.08232526 0.01126558 0.00223956
0.08314249 0.01127631 0.00224954
0.08395976 0.01128559 0.00225952
0.08477707 0.01129105 0.00227183
0.08559444 0.01129529 0.00228384
0.08641185 0.01129833 0.00229553
0.08722931 0.01129969 0.00230803
0.08804681 0.01130262 0.00232001
0.08886436 0.01130387 0.00233245
0.08968197 0.01130227 0.00234657
0.09049961 0.01129976 0.00236043
0.09131730 0.01129631 0.00237401
0.09213504 0.01129196 0.00238730
0.09295282 0.01128471 0.00240232
0.09377065 0.01127624 0.00241743
0.09458853 0.01126695 0.00243231
0.09540644 0.01125603 0.00244776
0.09622441 0.01124316 0.00246414
0.09704242 0.01122949 0.00248028
0.09786048 0.01121394 0.00249726
0.09867857 0.01119585 0.00251510
0.09949672 0.01117874 0.00253320
0.10031492 0.01116008 0.00255196
0.10113315 0.01114024 0.00257104
0.10195144 0.01111916 0.00259053
0.10276976 0.01109669 0.00261060
0.10358814 0.01107320 0.00263092
0.10440657 0.01104860 0.00265159
0.10522505 0.01102281 0.00267264
0.10604358 0.01099601 0.00269392
0.10686217 0.01096832 0.00271538
0.10768080 0.01093980 0.00273696
0.10849948 0.01091054 0.00275859
0.10931823 0.01088063 0.00278019
0.11013702 0.01085016 0.00280172
0.11095588 0.01081921 0.00282313
0.11177479 0.01078686 0.00284430
0.11259376 0.01075542 0.00286555
0.11341279 0.01072365 0.00288659
0.11423188 0.01069158 0.00290740
0.11505102 0.01065926 0.00292795
0.11587023 0.01062673 0.00294823
0.11668950 0.01059401 0.00296823
0.11750884 0.01056111 0.00298796
0.11832823 0.01052806 0.00300741
0.11914770 0.01049487 0.00302658
0.11996722 0.01046157 0.00304547
0.12078681 0.01042817 0.00306408
0.12160647 0.01039468 0.00308241
0.12242620 0.01036112 0.00310046
0.12324599 0.01032753 0.00311824
0.12406585 0.01029390 0.00313574
0.12488578 0.01026024 0.00315296
0.12570578 0.01022656 0.00316990
0.12652585 0.01019289 0.00318655
0.12734599 0.01015924 0.00320293
0.12816621 0.01012561 0.00321903
0.12898649 0.01009199 0.00323485
0.12980686 0.01005840 0.00325038
0.13062729 0.01002485 0.00326564
0.13144779 0.00999138 0.00328062
0.13226838 0.00995799 0.00329532
0.13308904 0.00992469 0.00330976
0.13390978 0.00989150 0.00332393
0.13473058 0.00985842 0.00333784
0.13555147 0.00982546 0.00335148
0.13637243 0.00979263 0.00336487
0.13719349 0.00975994 0.00337799
0.13801460 0.00972738 0.00339086
0.13883582 0.00969498 0.00340347
0.13965710 0.00966271 0.00341583
0.14047846 0.00963061 0.00342793
0.14129990 0.00959866 0.00343979
0.14212143 0.00956687 0.00345139
0.14294305 0.00953817 0.00346456
0.14376475 0.00950731 0.00347591
0.14458653 0.00947670 0.00348703
0.14540839 0.00944632 0.00349794
0.14623034 0.00941620 0.00350863
0.14705238 0.00938633 0.00351912
0.14787450 0.00935671 0.00352939
0.14869671 0.00932734 0.00353945
0.14951901 0.00929825 0.00354931
0.15034139 0.00926943 0.00355898
0.15116386 0.00924090 0.00356846
0.15198644 0.00921265 0.00357774
0.15280908 0.00918464 0.00358684
0.15363182 0.00915693 0.00359575
0.15445466 0.00912949 0.00360447
0.15527758 0.00910236 0.00361303
0.15610060 0.00907553 0.00362141
0.15692371 0.00904900 0.00362962
0.15774693 0.00902278 0.00363766
0.15857022 0.00899687 0.00364554
0.15939361 0.00897128 0.00365327
0.16021711 0.00894600 0.00366084
0.16104068 0.00892103 0.00366825
0.16186436 0.00889636 0.00367551
0.16268811 0.00887194 0.00368262
0.16351195 0.00884776 0.00368957
0.16433585 0.00882378 0.00369637
0.16515982 0.00879996 0.00370301
0.16598387 0.00877629 0.00370950
0.16680796 0.00875274 0.00371583
0.16763215 0.00872932 0.00372200
0.16845638 0.00870604 0.00372803
0.16928069 0.00868289 0.00373390
0.17010507 0.00865991 0.00373963
0.17092954 0.00864278 0.00374802
0.17175406 0.00862104 0.00375381
0.17257868 0.00859954 0.00375949
0.17340337 0.00857828 0.00376506
0.17422813 0.00855727 0.00377052
0.17505300 0.00853655 0.00377588
0.17587794 0.00851610 0.00378114
0.17670296 0.00849595 0.00378631
0.17752807 0.00847608 0.00379138
0.17835326 0.00845648 0.00379636
0.17917852 0.00843712 0.00380125
0.18000387 0.00841800 0.00380605
0.18082929 0.00839909 0.00381076
0.18165477 0.00838039 0.00381537
0.18248032 0.00836188 0.00381989
0.18330595 0.00834357 0.00382433
0.18413164 0.00832544 0.00382867
0.18495740 0.00830750 0.00383293
0.18578324 0.00828973 0.00383710
0.18660913 0.00827214 0.00384119
0.18743511 0.00825472 0.00384519
0.18826115 0.00823746 0.00384911
0.18908726 0.00822036 0.00385294
0.18991342 0.00820339 0.00385668
0.19073966 0.00818657 0.00386033
0.19156598 0.00816986 0.00386390
0.19239235 0.00815328 0.00386737
0.19321878 0.00813682 0.00387076
0.19404529 0.00812048 0.00387407
0.19487186 0.00810426 0.00387730
0.19569850 0.00808813 0.00388043
0.19652520 0.00807209 0.00388348
0.19735196 0.00805613 0.00388643
0.19817880 0.00804903 0.00389363
0.19900569 0.00803438 0.00389688
0.19983265 0.00801989 0.00390008
0.20065968 0.00800556 0.00390323
0.20148677 0.00799140 0.00390632
0.20231391 0.00797739 0.00390936
0.20314114 0.00796354 0.00391235
0.20396841 0.00794986 0.00391530
0.20479575 0.00793632 0.00391820
0.20562315 0.00792293 0.00392105
0.20645063 0.00790968 0.00392385
0.20727815 0.00789656 0.00392660
0.20810574 0.00788358 0.00392930
0.20893340 0.00787074 0.00393195
0.20976111 0.00785801 0.00393455
0.21058889 0.00784541 0.00393710
0.21141672 0.00783294 0.00393960
0.21224461 0.00782058 0.00394206
0.21307257 0.00780832 0.00394446
0.21390060 0.00779617 0.00394681
0.21472867 0.00778410 0.00394911
0.21555679 0.00777211 0.00395135
0.21638498 0.00776018 0.00395354
0.21721321 0.00774831 0.00395566
0.21804151 0.00773649 0.00395773
0.21886985 0.00772471 0.00395973
0.21969825 0.00771297 0.00396168
0.22052670 0.00770124 0.00396355
0.22135520 0.00768954 0.00396536
0.22218375 0.00767785 0.00396711
0.22301234 0.00766616 0.00396879
0.22384100 0.00765446 0.00397039
0.22466969 0.00764274 0.00397192
0.22549844 0.00763100 0.00397338
0.22632724 0.00761926 0.00397476
0.22715610 0.00760750 0.00397607
0.22798499 0.00759573 0.00397731
0.22881396 0.00759594 0.00398467
0.22964297 0.00758554 0.00398640
0.23047203 0.00757520 0.00398808
0.23130114 0.00756493 0.00398972
0.23213030 0.00755473 0.00399133
0.23295954 0.00754459 0.00399289
0.23378880 0.00753450 0.00399441
0.23461814 0.00752447 0.00399589
0.23544753 0.00751453 0.00399734
0.23627697 0.00750467 0.00399876
0.23710646 0.00749488 0.00400016
0.23793600 0.00748517 0.00400152
0.23876561 0.00747553 0.00400286
0.23959528 0.00746596 0.00400416
0.24042499 0.00745646 0.00400544
0.24125476 0.00744704 0.00400669
0.24208459 0.00743769 0.00400791
0.24291448 0.00742840 0.00400910
0.24374442 0.00741918 0.00401026
0.24457443 0.00741002 0.00401139
0.24540448 0.00740093 0.00401250
0.24623460 0.00739191 0.00401357
0.24706477 0.00738295 0.00401462
0.24789500 0.00737406 0.00401564
0.24872530 0.00736522 0.00401663
0.24955565 0.00735643 0.00401759
0.25038606 0.00734769 0.00401851
0.25121650 0.00733901 0.00401941
0.25204703 0.00733037 0.00402027
0.25287762 0.00732177 0.00402109
0.25370827 0.00731320 0.00402188
0.25453895 0.00730467 0.00402264
0.25536972 0.00729618 0.00402336
0.25620055 0.00728771 0.00402405
0.25703144 0.00727926 0.00402470
0.25786239 0.00727085 0.00402531
0.25869337 0.00726247 0.00402589
0.25952443 0.00725413 0.00402643
0.26035556 0.00724579 0.00402694
0.26118675 0.00723747 0.00402741
0.26201800 0.00722915 0.00402784
0.26284930 0.00722084 0.00402822
0.26368067 0.00721255 0.00402857
0.26451209 0.00720428 0.00402888
0.26534361 0.00721408 0.00403849
0.26617518 0.00720760 0.00403955
0.26700678 0.00720126 0.00404062
0.26783851 0.00719505 0.00404169
0.26867026 0.00718898 0.00404278
0.26950210 0.00718305 0.00404387
0.27033401 0.00717721 0.00404497
0.27116597 0.00717150 0.00404607
0.27199799 0.00716587 0.00404716
0.27283007 0.00716034 0.00404826
0.27366221 0.00715491 0.00404936
0.27449444 0.00714961 0.00405049
0.27532670 0.00714439 0.00405162
0.27615905 0.00713925 0.00405275
0.27699143 0.00713418 0.00405387
0.27782390 0.00712918 0.00405500
0.27865639 0.00712423 0.00405612
0.27948895 0.00711936 0.00405724
0.28032157 0.00711454 0.00405835
0.28115425 0.00710980 0.00405946
0.28198701 0.00710511 0.00406057
0.28281981 0.00710047 0.00406167
0.28365263 0.00709589 0.00406275
0.28448555 0.00709135 0.00406383
0.28531852 0.00708687 0.00406490
0.28615156 0.00708241 0.00406595
0.28698462 0.00707799 0.00406699
0.28781778 0.00707359 0.00406801
0.28865096 0.00706920 0.00406900
0.28948420 0.00706480 0.00406997
0.29031751 0.00706042 0.00407091
0.29115084 0.00705603 0.00407182
0.29198423 0.00705163 0.00407270
0.29281771 0.00704722 0.00407355
0.29365122 0.00704278 0.00407437
0.29448476 0.00703833 0.00407515
0.29531839 0.00703388 0.00407590
0.29615206 0.00702938 0.00407661
0.29698575 0.00702484 0.00407728
0.29781953 0.00702024 0.00407790
0.29865333 0.00701560 0.00407847
0.29948720 0.00701089 0.00407900
0.30032110 0.00700613 0.00407948
0.30115506 0.00700132 0.00407991
0.30198908 0.00701748 0.00409114
0.30282316 0.00701447 0.00409243
0.30365726 0.00701148 0.00409370
0.30449140 0.00700851 0.00409498
0.30532560 0.00700556 0.00409624
0.30615985 0.00700264 0.00409749
0.30699417 0.00699974 0.00409873
0.30782852 0.00699686 0.00409997
0.30866289 0.00699400 0.00410119
0.30949736 0.00699116 0.00410241
0.31033182 0.00698832 0.00410360
0.31116638 0.00698549 0.00410478
0.31200096 0.00698269 0.00410595
0.31283557 0.00697992 0.00410713
0.31367028 0.00697719 0.00410830
0.31450498 0.00697445 0.00410946
0.31533977 0.00697174 0.00411061
0.31617460 0.00696905 0.00411175
0.31700945 0.00696637 0.00411288
0.31784436 0.00696370 0.00411399
0.31867933 0.00696104 0.00411510
0.31951433 0.00695840 0.00411619
0.32034940 0.00695576 0.00411727
0.32118452 0.00695314 0.00411833
0.32201967 0.00695052 0.00411938
0.32285488 0.00694791 0.00412041
0.32369012 0.00694530 0.00412143
0.32452542 0.00694268 0.00412242
0.32536077 0.00694005 0.00412339
0.32619616 0.00693741 0.00412433
0.32703161 0.00693474 0.00412524
0.32786709 0.00693203 0.00412612
0.32870263 0.00692928 0.00412695
0.32953823 0.00692649 0.00412775
0.33037385 0.00692366 0.00412851
0.33120954 0.00692078 0.00412923
0.33204529 0.00691784 0.00412990
0.33288106 0.00691484 0.00413052
0.33371690 0.00691178 0.00413110
0.33455276 0.00690866 0.00413163
0.33538869 0.00690548 0.00413211
0.33622468 0.00690225 0.00413255
0.33706069 0.00692116 0.00414426
0.33789676 0.00692011 0.00414578
0.33873287 0.00691910 0.00414731
0.33956903 0.00691816 0.00414884
0.34040526 0.00691727 0.00415039
0.34124151 0.00691643 0.00415194
0.34207782 0.00691564 0.00415351
0.34291416 0.00691490 0.00415508
0.34375057 0.00691422 0.00415667
0.34458700 0.00691359 0.00415826
0.34542349 0.00691302 0.00415987
0.34626004 0.00691250 0.00416148
0.34709662 0.00691203 0.00416311
0.34793323 0.00691160 0.00416473
0.34876993 0.00691123 0.00416637
0.34960663 0.00691093 0.00416803
0.35044342 0.00691070 0.00416971
0.35128021 0.00691052 0.00417140
0.35211709 0.00691040 0.00417310
0.35295400 0.00691033 0.00417481
0.35379094 0.00691031 0.00417653
0.35462794 0.00691035 0.00417826
0.35546499 0.00691043 0.00418000
0.35630208 0.00691055 0.00418175
0.35713920 0.00691071 0.00418349
0.35797638 0.00691092 0.00418525
0.35881361 0.00691117 0.00418700
0.35965088 0.00691145 0.00418875
0.36048818 0.00691173 0.00419050
0.36132553 0.00691203 0.00419223
0.36216295 0.00691232 0.00419395
0.36300036 0.00691259 0.00419564
0.36383784 0.00691280 0.00419730
0.36467537 0.00691294 0.00419890
0.36551294 0.00691299 0.00420046
0.36635053 0.00691297 0.00420196
0.36718819 0.00691286 0.00420341
0.36802587 0.00691269 0.00420480
0.36886361 0.00691243 0.00420615
0.36970136 0.00691209 0.00420743
0.37053919 0.00691166 0.00420867
0.37137702 0.00693707 0.00422294
0.37221491 0.00693927 0.00422552
0.37305284 0.00694153 0.00422811
0.37389079 0.00694385 0.00423072
0.37472880 0.00694623 0.00423334
0.37556684 0.00694865 0.00423598
0.37640491 0.00695112 0.00423863
0.37724301 0.00695364 0.00424129
0.37808117 0.00695620 0.00424396
0.37891933 0.00695881 0.00424664
0.37975755 0.00696145 0.00424932
0.38059583 0.00696412 0.00425201
0.38143411 0.00696681 0.00425469
0.38227242 0.00696953 0.00425738
0.38311079 0.00697230 0.00426009
0.38394919 0.00697511 0.00426281
0.38478759 0.00697796 0.00426555
0.38562605 0.00698086 0.00426829
0.38646454 0.00698380 0.00427106
0.38730305 0.00698679 0.00427384
0.38814160 0.00698981 0.00427662
0.38898021 0.00699284 0.00427941
0.38981882 0.00699591 0.00428219
0.39065745 0.00699898 0.00428498
0.39149612 0.00700206 0.00428777
0.39233485 0.00700516 0.00429055
0.39317358 0.00700821 0.00429331
0.39401233 0.00701123 0.00429604
0.39485112 0.00701420 0.00429874
0.39568993 0.00701712 0.00430141
0.39652881 0.00701996 0.00430403
0.39736769 0.00702270 0.00430660
0.39820659 0.00702534 0.00430910
0.39904550 0.00702787 0.00431154
0.39988446 0.00703027 0.00431391
0.40072346 0.00703252 0.00431620
0.40156245 0.00703461 0.00431840
0.40240151 0.00703653 0.00432050
0.40324056 0.00706553 0.00433623
0.40407965 0.00707009 0.00433971
0.40491876 0.00707467 0.00434320
0.40575790 0.00707927 0.00434669
0.40659708 0.00708389 0.00435017
0.40743625 0.00708851 0.00435365
0.40827546 0.00709313 0.00435713
0.40911472 0.00709775 0.00436059
0.40995395 0.00710235 0.00436404
0.41079324 0.00710692 0.00436747
0.41163254 0.00711148 0.00437088
0.41247186 0.00711598 0.00437427
0.41331121 0.00712047 0.00437763
0.41415060 0.00712496 0.00438098
0.41498998 0.00712945 0.00438433
0.41582939 0.00713393 0.00438767
0.41666880 0.00713841 0.00439100
0.41750827 0.00714287 0.00439431
0.41834772 0.00714733 0.00439762
0.41918722 0.00715177 0.00440092
0.42002672 0.00715621 0.00440421
0.42086625 0.00716066 0.00440750
0.42170581 0.00716510 0.00441077
0.42254537 0.00716953 0.00441404
0.42338496 0.00717395 0.00441730
0.42422456 0.00717833 0.00442053
0.42506418 0.00718268 0.00442374
0.42590383 0.00718699 0.00442693
0.42674348 0.00719125 0.00443009
0.42758316 0.00719547 0.00443322
0.42842284 0.00719961 0.00443631
0.42926255 0.00720367 0.00443936
0.43010226 0.00720765 0.00444235
0.43094200 0.00723714 0.00445808
0.43178177 0.00724309 0.00446212
0.43262154 0.00724907 0.00446617
0.43346131 0.00725507 0.00447022
0.43430111 0.00726108 0.00447428
0.43514094 0.00726709 0.00447834
0.43598077 0.00727311 0.00448239
0.43682060 0.00727911 0.00448643
0.43766046 0.00728509 0.00449046
0.43850031 0.00729104 0.00449447
0.43934020 0.00729695 0.00449845
0.44018009 0.00730282 0.00450241
0.44102001 0.00730865 0.00450634
0.44185993 0.00731444 0.00451024
0.44269988 0.00732017 0.00451410
0.44353983 0.00732582 0.00451791
0.44437978 0.00733140 0.00452168
0.44521976 0.00733688 0.00452539
0.44605973 0.00734227 0.00452906
0.44689971 0.00734756 0.00453267
0.44773972 0.00735276 0.00453622
0.44857973 0.00735785 0.00453971
0.44941977 0.00736283 0.00454314
0.45025980 0.00736770 0.00454651
0.45109984 0.00737244 0.00454982
0.45193988 0.00737707 0.00455307
0.45277995 0.00738162 0.00455626
0.45362002 0.00738611 0.00455942
0.45446011 0.00739056 0.00456256
0.45530018 0.00739497 0.00456567
0.45614031 0.00742815 0.00458312
0.45698041 0.00743507 0.00458757
0.45782050 0.00744203 0.00459202
0.45866063 0.00744899 0.00459647
0.45950076 0.00745598 0.00460092
0.46034092 0.00746297 0.00460538
0.46118104 0.00746999 0.00460984
0.46202120 0.00747700 0.00461430
0.46286136 0.00748404 0.00461877
0.46370152 0.00749110 0.00462323
0.46454170 0.00749816 0.00462769
0.46538186 0.00750522 0.00463215
0.46622205 0.00751226 0.00463660
0.46706223 0.00751929 0.00464103
0.46790242 0.00752628 0.00464544
0.46874264 0.00753324 0.00464983
0.46958283 0.00754014 0.00465418
0.47042304 0.00754699 0.00465850
0.47126326 0.00755374 0.00466277
0.47210345 0.00756040 0.00466699
0.47294366 0.00756696 0.00467114
0.47378391 0.00757339 0.00467523
0.47462413 0.00757967 0.00467923
0.47546434 0.00758580 0.00468316
0.47630459 0.00759177 0.00468699
0.47714481 0.00759752 0.00469072
0.47798505 0.00760305 0.00469433
0.47882530 0.00760836 0.00469782
0.47966552 0.00761345 0.00470120
0.48050576 0.00761834 0.00470447
0.48134601 0.00765106 0.00472150
0.48218626 0.00765892 0.00472634
0.48302650 0.00766676 0.00473118
0.48386675 0.00767460 0.00473601
0.48470700 0.00768245 0.00474084
0.48554724 0.00769031 0.00474566
0.48638749 0.00769816 0.00475047
0.48722774 0.00770600 0.00475527
0.48806798 0.00771380 0.00476005
0.48890823 0.00772159 0.00476481
0.48974848 0.00772936 0.00476955
0.49058872 0.00773709 0.00477427
0.49142897 0.00774478 0.00477897
0.49226919 0.00775244 0.00478364
0.49310943 0.00776009 0.00478830
0.49394968 0.00776771 0.00479293
0.49478990 0.00777530 0.00479755
0.49563015 0.00778286 0.00480214
0.49647036 0.00779036 0.00480669
0.49731058 0.00779780 0.00481121
0.49815083 0.00780517 0.00481569
0.49899104 0.00781248 0.00482013
0.49983126 0.00781969 0.00482452
0.50067145 0.00782679 0.00482884
0.50151163 0.00783376 0.00483311
0.50235188 0.00784063 0.00483731
0.50319207 0.00784738 0.00484144
0.50403225 0.00785401 0.00484550
0.50487244 0.00788930 0.00486367
0.50571263 0.00789847 0.00486908
0.50655276 0.00790767 0.00487450
0.50739294 0.00791692 0.00487993
0.50823313 0.00792621 0.00488538
0.50907326 0.00793553 0.00489083
0.50991338 0.00794485 0.00489628
0.51075351 0.00795418 0.00490172
0.51159364 0.00796349 0.00490715
0.51243377 0.00797279 0.00491256
0.51327389 0.00798205 0.00491794
0.51411402 0.00799127 0.00492329
0.51495409 0.00800042 0.00492860
0.51579416 0.00800952 0.00493386
0.51663423 0.00801857 0.00493909
0.51747429 0.00802757 0.00494428
0.51831436 0.00803648 0.00494942
0.51915443 0.00804530 0.00495450
0.51999444 0.00805402 0.00495951
0.52083445 0.00806263 0.00496446
0.52167445 0.00807111 0.00496933
0.52251446 0.00807946 0.00497413
0.52335441 0.00808768 0.00497885
0.52419442 0.00809579 0.00498351
0.52503437 0.00810380 0.00498810
0.52587432 0.00814278 0.00500790
0.52671421 0.00815396 0.00501416
0.52755415 0.00816523 0.00502044
0.52839404 0.00817655 0.00502674
0.52923393 0.00818795 0.00503307
0.53007376 0.00819942 0.00503941
0.53091365 0.00821094 0.00504578
0.53175348 0.00822251 0.00505215
0.53259325 0.00823412 0.00505853
0.53343308 0.00824577 0.00506492
0.53427285 0.00825747 0.00507132
0.53511262 0.00826920 0.00507773
0.53595239 0.00828096 0.00508414
0.53679210 0.00829275 0.00509055
0.53763181 0.00830458 0.00509696
0.53847152 0.00831642 0.00510336
0.53931117 0.00832824 0.00510974
0.54015082 0.00834004 0.00511610
0.54099047 0.00835178 0.00512241
0.54183006 0.00836346 0.00512867
0.54266965 0.00837505 0.00513487
0.54350919 0.00838653 0.00514101
0.54434878 0.00839784 0.00514705
0.54518825 0.00840898 0.00515299
0.54602778 0.00841993 0.00515881
0.54686725 0.00845991 0.00517873
0.54770672 0.00847401 0.00518620
0.54854614 0.00848818 0.00519369
0.54938555 0.00850242 0.00520119
0.55022490 0.00851670 0.00520870
0.55106425 0.00853101 0.00521620
0.55190361 0.00854534 0.00522370
0.55274290 0.00855968 0.00523118
0.55358219 0.00857403 0.00523865
0.55442142 0.00858838 0.00524610
0.55526066 0.00860271 0.00525352
0.55609983 0.00861703 0.00526092
0.55693901 0.00863135 0.00526830
0.55777818 0.00864565 0.00527564
0.55861729 0.00865989 0.00528294
0.55945641 0.00867406 0.00529019
0.56029546 0.00868815 0.00529739
0.56113452 0.00870216 0.00530453
0.56197351 0.00871605 0.00531159
0.56281245 0.00872982 0.00531858
0.56365144 0.00874348 0.00532550
0.56449032 0.00878671 0.00534673
0.56532925 0.00880352 0.00535529
0.56616813 0.00882040 0.00536386
0.56700695 0.00883732 0.00537244
0.56784576 0.00885430 0.00538103
0.56868452 0.00887133 0.00538963
0.56952327 0.00888841 0.00539824
0.57036197 0.00890553 0.00540685
0.57120067 0.00892268 0.00541546
0.57203931 0.00893986 0.00542407
0.57287794 0.00895703 0.00543267
0.57371652 0.00897421 0.00544124
0.57455504 0.00899137 0.00544979
0.57539356 0.00900853 0.00545832
0.57623208 0.00902564 0.00546680
0.57707053 0.00904265 0.00547522
0.57790893 0.00905955 0.00548356
0.57874733 0.00907629 0.00549180
0.57958573 0.00909284 0.00549992
0.58042401 0.00910914 0.00550791
0.58126235 0.00912515 0.00551573
0.58210057 0.00916910 0.00553696
0.58293879 0.00918842 0.00554650
0.58377701 0.00920774 0.00555601
0.58461517 0.00922707 0.00556551
0.58545327 0.00924639 0.00557499
0.58629137 0.00926571 0.00558444
0.58712941 0.00928502 0.00559386
0.58796740 0.00930430 0.00560326
0.58880538 0.00932354 0.00561260
0.58964330 0.00934272 0.00562190
0.59048122 0.00936187 0.00563116
0.59131908 0.00938097 0.00564037
0.59215695 0.00939997 0.00564951
0.59299475 0.00941886 0.00565857
0.59383249 0.00943761 0.00566753
0.59467024 0.00945620 0.00567640
0.59550792 0.00947461 0.00568516
0.59634554 0.00949283 0.00569381
0.59718317 0.00954011 0.00571640
0.59802073 0.00956163 0.00572673
0.59885824 0.00958318 0.00573706
0.59969574 0.00960478 0.00574738
0.60053319 0.00962642 0.00575770
0.60137063 0.00964809 0.00576802
0.60220802 0.00966980 0.00577833
0.60304534 0.00969154 0.00578862
0.60388267 0.00971328 0.00579891
0.60471994 0.00973502 0.00580917
0.60555714 0.00975678 0.00581941
0.60639435 0.00977856 0.00582962
0.60723144 0.00980030 0.00583980
0.60806859 0.00982198 0.00584993
0.60890561 0.00984357 0.00585998
0.60974264 0.00986503 0.00586994
0.61057961 0.00988636 0.00587982
0.61141658 0.00990749 0.00588957
0.61225349 0.00992838 0.00589919
0.61309034 0.00997762 0.00592235
0.61392719 0.01000164 0.00593355
0.61476392 0.01002569 0.00594473
0.61560065 0.01004976 0.00595589
0.61643738 0.01007382 0.00596703
0.61727405 0.01009787 0.00597814
0.61811066 0.01012191 0.00598921
0.61894721 0.01014590 0.00600023
0.61978370 0.01016983 0.00601119
0.62062019 0.01019369 0.00602209
0.62145662 0.01021749 0.00603292
0.62229306 0.01024119 0.00604367
0.62312943 0.01026473 0.00605433
0.62396568 0.01028810 0.00606485
0.62480199 0.01031124 0.00607525
0.62563819 0.01033412 0.00608548
0.62647438 0.01038387 0.00610847
0.62731051 0.01041009 0.00612038
0.62814659 0.01043631 0.00613226
0.62898266 0.01046252 0.00614410
0.62981868 0.01048873 0.00615592
0.63065463 0.01051495 0.00616770
0.63149053 0.01054116 0.00617944
0.63232642 0.01056735 0.00619115
0.63316226 0.01059351 0.00620281
0.63399804 0.01061964 0.00621441
0.63483375 0.01064579 0.00622599
0.63566947 0.01067189 0.00623751
0.63650513 0.01069791 0.00624896
0.63734072 0.01072383 0.00626033
0.63817626 0.01074964 0.00627161
0.63901180 0.01077528 0.00628278
0.63984728 0.01082742 0.00630647
0.64068270 0.01085611 0.00631914
0.64151806 0.01088483 0.00633179
0.64235336 0.01091362 0.00634442
0.64318866 0.01094243 0.00635704
0.64402390 0.01097130 0.00636965
0.64485908 0.01100019 0.00638225
0.64569420 0.01102911 0.00639481
0.64652932 0.01105803 0.00640734
0.64736438 0.01108693 0.00641982
0.64819938 0.01111585 0.00643227
0.64903432 0.01114478 0.00644468
0.64986920 0.01117364 0.00645702
0.65070409 0.01120239 0.00646927
0.65153891 0.01123100 0.00648142
0.65237367 0.01125943 0.00649344
0.65320837 0.01128761 0.00650530
0.65404302 0.01134278 0.00652990
0.65487766 0.01137415 0.00654330
0.65571225 0.01140553 0.00655666
0.65654677 0.01143692 0.00656999
0.65738124 0.01146830 0.00658327
0.65821564 0.01149966 0.00659650
0.65905005 0.01153100 0.00660967
0.65988439 0.01156226 0.00662277
0.66071868 0.01159345 0.00663578
0.66155291 0.01162459 0.00664871
0.66238707 0.01165561 0.00666155
0.66322118 0.01168647 0.00667425
0.66405529 0.01171711 0.00668680
0.66488934 0.01174747 0.00669918
0.66572332 0.01180369 0.00672368
0.66655725 0.01183747 0.00673768
0.66739112 0.01187122 0.00675161
0.66822499 0.01190496 0.00676549
0.66905874 0.01193870 0.00677930
0.66989249 0.01197241 0.00679305
0.67072618 0.01200611 0.00680674
0.67155981 0.01203975 0.00682034
0.67239344 0.01207335 0.00683386
0.67322695 0.01210694 0.00684732
0.67406046 0.01214043 0.00686059
0.67489398 0.01217312 0.00687356
0.67572761 0.01220466 0.00688639
0.67656118 0.01225914 0.00691006
0.67739469 0.01229376 0.00692447
0.67822814 0.01232845 0.00693884
0.67906153 0.01236323 0.00695315
0.67989486 0.01239808 0.00696742
0.68072814 0.01243302 0.00698164
0.68156135 0.01246804 0.00699582
0.68239450 0.01250312 0.00700997
0.68322760 0.01253823 0.00702406
0.68406063 0.01257339 0.00703810
0.68489367 0.01260860 0.00705208
0.68572658 0.01264381 0.00706599
0.68655944 0.01267894 0.00707980
0.68739223 0.01271394 0.00709348
0.68822503 0.01277157 0.00711761
0.68905771 0.01280974 0.00713272
0.68989033 0.01284797 0.00714779
0.69072288 0.01288625 0.00716280
0.69155544 0.01292457 0.00717777
0.69238788 0.01296292 0.00719268
0.69322026 0.01300127 0.00720752
0.69405264 0.01303960 0.00722228
0.69488490 0.01307791 0.00723695
0.69571716 0.01311617 0.00725153
0.69654930 0.01315438 0.00726601
0.69738138 0.01319242 0.00728034
0.69821346 0.01323025 0.00729449
0.69904542 0.01329223 0.00731983
0.69987732 0.01333359 0.00733557
0.70070922 0.01337495 0.00735125
0.70154101 0.01341632 0.00736684
0.70237279 0.01345767 0.00738236
0.70320445 0.01349902 0.00739780
0.70403606 0.01354032 0.00741313
0.70486766 0.01358155 0.00742836
0.70569915 0.01362276 0.00744349
0.70653057 0.01366388 0.00745850
0.70736200 0.01370483 0.00747336
0.70819330 0.01376789 0.00749837
0.70902455 0.01381229 0.00751475
0.70985579 0.01385670 0.00753107
0.71068692 0.01390114 0.00754731
0.71151799 0.01394561 0.00756348
0.71234906 0.01399009 0.00757958
0.71318001 0.01403459 0.00759561
0.71401089 0.01407908 0.00761155
0.71484178 0.01412357 0.00762740
0.71567255 0.01416806 0.00764317
0.71650326 0.01421251 0.00765882
0.71733397 0.01427633 0.00768330
0.71816456 0.01432392 0.00770031
0.71899509 0.01437157 0.00771727
0.71982563 0.01441929 0.00773417
0.72065604 0.01446706 0.00775102
0.72148639 0.01451487 0.00776779
0.72231668 0.01456273 0.00778449
0.72314698 0.01461061 0.00780112
0.72397715 0.01465850 0.00781766
0.72480726 0.01470639 0.00783411
0.72563732 0.01475427 0.00785045
0.72646731 0.01480206 0.00786666
0.72729731 0.01486927 0.00789169
0.72812718 0.01492023 0.00790923
0.72895700 0.01497126 0.00792671
0.72978675 0.01502232 0.00794412
0.73061645 0.01507342 0.00796145
0.73144609 0.01512455 0.00797868
0.73227566 0.01517568 0.00799582
0.73310518 0.01522678 0.00801285
0.73393464 0.01527782 0.00802975
0.73476404 0.01532881 0.00804652
0.73559338 0.01537967 0.00806313
0.73642266 0.01544949 0.00808831
0.73725188 0.01550363 0.00810626
0.73808104 0.01555782 0.00812414
0.73891014 0.01561200 0.00814192
0.73973918 0.01566618 0.00815959
0.74056816 0.01572032 0.00817714
0.74139708 0.01577442 0.00819455
0.74222594 0.01582841 0.00821183
0.74305475 0.01588231 0.00822895
0.74388349 0.01593609 0.00824591
0.74471223 0.01600805 0.00827106
0.74554086 0.01606511 0.00828935
0.74636942 0.01612221 0.00830755
0.74719793 0.01617930 0.00832565
0.74802637 0.01623638 0.00834364
0.74885482 0.01629344 0.00836151
0.74968314 0.01635046 0.00837925
0.75051141 0.01640743 0.00839684
0.75133961 0.01646436 0.00841430
0.75216776 0.01652123 0.00843161
0.75299591 0.01659648 0.00845718
0.75382394 0.01665671 0.00847581
0.75465190 0.01671704 0.00849435
0.75547975 0.01677742 0.00851278
0.75630760 0.01683786 0.00853110
0.75713539 0.01689833 0.00854931
0.75796312 0.01695882 0.00856738
0.75879073 0.01701927 0.00858531
0.75961834 0.01707969 0.00860309
0.76044583 0.01715503 0.00862752
0.76127332 0.01721841 0.00864642
0.76210076 0.01728190 0.00866525
0.76292813 0.01734542 0.00868397
0.76375544 0.01740891 0.00870257
0.76458275 0.01747238 0.00872106
0.76540995 0.01753581 0.00873942
0.76623714 0.01759916 0.00875764
0.76706427 0.01766242 0.00877572
0.76789135 0.01772562 0.00879367
0.76871836 0.01780355 0.00881819
0.76954538 0.01786974 0.00883727
0.77037227 0.01793611 0.00885629
0.77119911 0.01800258 0.00887523
0.77202588 0.01806913 0.00889406
0.77285260 0.01813578 0.00891278
0.77367926 0.01820253 0.00893139
0.77450585 0.01826934 0.00894986
0.77533233 0.01833619 0.00896817
0.77615875 0.01841626 0.00899230
0.77698505 0.01848630 0.00901166
0.77781135 0.01855655 0.00903091
0.77863753 0.01862690 0.00905004
0.77946365 0.01869726 0.00906899
0.78028971 0.01876761 0.00908778
0.78111571 0.01883787 0.00910638
0.78194165 0.01890801 0.00912477
0.78276759 0.01897793 0.00914293
0.78359348 0.01906082 0.00916687
0.78441930 0.01913349 0.00918602
0.78524512 0.01920612 0.00920504
0.78607088 0.01927862 0.00922391
0.78689665 0.01935094 0.00924263
0.78772241 0.01942316 0.00926121
0.78854805 0.01949523 0.00927964
0.78937376 0.01956712 0.00929788
0.79019934 0.01963886 0.00931595
0.79102492 0.01972466 0.00934027
0.79185045 0.01979950 0.00935945
0.79267591 0.01987444 0.00937853
0.79350132 0.01994943 0.00939748
0.79432666 0.02002449 0.00941631
0.79515189 0.02009961 0.00943499
0.79597712 0.02017474 0.00945349
0.79680228 0.02024988 0.00947181
0.79762733 0.02033780 0.00949574
0.79845232 0.02041607 0.00951504
0.79927725 0.02049451 0.00953421
0.80010211 0.02057305 0.00955324
0.80092692 0.02065167 0.00957212
0.80175161 0.02073033 0.00959082
0.80257630 0.02080900 0.00960934
0.80340087 0.02088765 0.00962767
0.80422544 0.02097756 0.00965095
0.80504996 0.02105910 0.00967019
0.80587435 0.02114080 0.00968930
0.80669874 0.02122259 0.00970827
0.80752301 0.02130443 0.00972709
0.80834728 0.02138625 0.00974572
0.80917150 0.02146806 0.00976418
0.80999565 0.02154980 0.00978244
0.81081975 0.02164124 0.00980498
0.81164384 0.02172562 0.00982406
0.81246781 0.02181012 0.00984300
0.81329179 0.02189470 0.00986181
0.81411570 0.02197928 0.00988046
0.81493962 0.02206380 0.00989893
0.81576341 0.02214826 0.00991721
0.81658721 0.02223262 0.00993529
0.81741095 0.02231684 0.00995315
0.81823468 0.02241306 0.00997638
0.81905836 0.02249978 0.00999500
0.81988204 0.02258661 0.01001352
0.82070559 0.02267343 0.01003188
0.82152921 0.02276021 0.01005009
0.82235271 0.02284690 0.01006813
0.82317626 0.02293330 0.01008589
0.82399976 0.02297579 0.01008480
0.82482320 0.02311589 0.01012540
0.82564664 0.02320414 0.01014351
0.82647002 0.02329264 0.01016162
0.82729346 0.02338100 0.01017953
0.82811677 0.02346920 0.01019724
0.82894015 0.02355713 0.01021472
0.82976347 0.02360993 0.01021724
0.83058679 0.02369127 0.01023182
0.83141005 0.02383227 0.01027159
0.83223337 0.02392214 0.01028937
0.83305663 0.02401182 0.01030695
0.83387989 0.02410126 0.01032433
0.83470315 0.02416037 0.01032871
0.83552635 0.02424157 0.01034257
0.83634961 0.02432266 0.01035632
0.83717281 0.02446715 0.01039625
0.83799601 0.02455741 0.01041350
0.83881927 0.02464824 0.01043099
0.83964241 0.02474021 0.01044884
0.84046561 0.02483089 0.01046588
0.84128881 0.02492112 0.01048264
0.84211195 0.02497199 0.01048291
0.84293509 0.02511084 0.01051995
0.84375823 0.02520240 0.01053725
0.84458131 0.02529515 0.01055461
0.84540439 0.02538314 0.01056929
0.84622747 0.02544463 0.01057348
0.84705055 0.02553369 0.01058900
0.84787357 0.02562073 0.01060364
0.84869659 0.02576289 0.01064107
0.84951955 0.02585656 0.01065835
0.85034251 0.02595105 0.01067566
0.85116547 0.02603953 0.01068953
0.85198838 0.02613515 0.01070699
0.85281122 0.02622920 0.01072363
0.85363406 0.02632227 0.01073965
0.85445690 0.02641379 0.01075488
0.85527968 0.02651258 0.01077329
0.85610247 0.02661359 0.01079243
0.85692519 0.02666785 0.01079160
0.85774791 0.02676821 0.01080994
0.85857058 0.02686225 0.01082557
0.85939318 0.02695315 0.01083980
0.86021578 0.02704257 0.01085329
0.86103833 0.02713175 0.01086664
0.86186081 0.02721316 0.01087691
0.86268330 0.02725022 0.01087001
0.86350572 0.02734656 0.01088556
0.86432809 0.02743316 0.01089724
0.86515045 0.02751208 0.01090601
0.86597276 0.02758874 0.01091377
0.86679500 0.02766904 0.01092282
0.86761719 0.02772887 0.01092427
0.86843938 0.02771048 0.01089683
0.86926144 0.02781007 0.01091244
0.87008351 0.02789213 0.01092149
0.87090552 0.02797958 0.01093236
0.87172747 0.02808671 0.01095039
0.87254936 0.02818159 0.01096372
0.87337124 0.02825323 0.01096832
0.87419301 0.02830227 0.01096456
0.87501472 0.02832864 0.01095234
0.87583643 0.02836261 0.01094245
0.87665802 0.02882257 0.01108936
0.87747955 0.02849877 0.01094815
0.87830108 0.02858649 0.01095809
0.87912250 0.02865913 0.01096220
0.87994391 0.02871892 0.01096145
0.88076520 0.02876585 0.01095589
0.88158649 0.02879403 0.01094346
0.88240767 0.02876719 0.01091141
0.88322884 0.02933514 0.01109212
0.88404989 0.02837694 0.01072527
0.88487089 0.02859654 0.01078057
0.88569188 0.02873467 0.01080709
0.88651276 0.02883999 0.01082151
0.88733363 0.02892458 0.01082831
0.88815439 0.02899422 0.01082959
0.88897514 0.02905025 0.01082585
0.88979578 0.02909315 0.01081733
0.89061642 0.02912226 0.01080378
0.89143693 0.02956116 0.01093630
0.89225739 0.02951104 0.01089377
0.89307785 0.03007666 0.01106938
0.89389819 0.03013369 0.01106492
0.89471853 0.03021352 0.01106819
0.89553875 0.03030944 0.01107717
0.89635891 0.02948654 0.01076148
0.89717907 0.02962759 0.01078616
0.89799911 0.02973919 0.01080017
0.89881915 0.02983163 0.01080737
0.89963913 0.02990801 0.01080878
0.90045905 0.02997141 0.01080548
0.90127891 0.03002156 0.01079738
0.90209877 0.03005569 0.01078356
0.90291858 0.03006705 0.01076161
0.90373838 0.03056821 0.01090937
0.90455812 0.03061830 0.01090234
0.90537781 0.03068190 0.01089830
0.90619749 0.03019077 0.01069942
0.90701717 0.03016249 0.01066401
0.90783685 0.03009460 0.01061466
0.90865648 0.03021302 0.01062947
0.90947610 0.03030543 0.01063515
0.91029572 0.03038080 0.01063489
0.91111535 0.03044217 0.01062971
0.91193491 0.03049012 0.01061983
0.91275454 0.03052270 0.01060463
0.91357416 0.03098792 0.01074008
0.91439378 0.03096671 0.01070531
0.91521341 0.03151365 0.01086643
0.91603303 0.03156637 0.01085849
0.91685271 0.03163217 0.01085419
0.91767240 0.03172253 0.01085848
0.91849208 0.03102624 0.01059163
0.91931176 0.03098990 0.01055306
0.92013150 0.03111513 0.01056930
0.92095125 0.03121688 0.01057746
0.92177105 0.03130262 0.01058018
0.92259085 0.03137530 0.01057842
0.92341065 0.03143374 0.01057177
0.92423052 0.03147919 0.01056069
0.92505038 0.03150891 0.01054431
0.92587030 0.03150990 0.01051805
0.92669022 0.03204606 0.01067266
0.92751020 0.00001925 0.00000727
0.92833018 0.00001974 0.00000737
0.92915022 0.00002014 0.00000744
0.92997026 0.00002047 0.00000750
0.93079036 0.00002446 0.00000975
0.93161052 0.00002527 0.00000998
0.93243074 0.00002592 0.00001016
0.93325096 0.00002648 0.00001029
0.93407118 0.00002697 0.00001039
0.93489152 0.00002738 0.00001047
0.93571186 0.00002774 0.00001054
0.93653226 0.00002805 0.00001059
0.93735272 0.00002833 0.00001064
0.93817317 0.00002859 0.00001068
0.93899369 0.00003436 0.00001365
0.93981433 0.00003490 0.00001378
0.94063497 0.00003540 0.00001389
0.94145566 0.00003584 0.00001399
0.94227636 0.00003625 0.00001407
0.94309717 0.00003660 0.00001414
0.94391805 0.00003693 0.00001420
0.94473892 0.00003724 0.00001425
0.94555992 0.00003751 0.00001430
0.94638097 0.00003776 0.00001434
0.94720203 0.00003800 0.00001438
0.94802320 0.00003822 0.00001441
0.94884443 0.00003842 0.00001444
0.94966567 0.00004591 0.00001814
0.95048702 0.00004632 0.00001823
0.95130843 0.00004671 0.00001831
0.95212990 0.00004707 0.00001839
0.95295149 0.00004739 0.00001845
0.95377308 0.00004771 0.00001851
0.95459479 0.00004799 0.00001857
0.95541656 0.00004826 0.00001862
0.95623839 0.00004852 0.00001866
0.95706028 0.00004876 0.00001870
0.95788223 0.00004897 0.00001873
0.95870423 0.00004917 0.00001876
0.95952624 0.00004935 0.00001878
0.96034831 0.00004952 0.00001880
0.96117038 0.00004970 0.00001882
0.96199250 0.00004984 0.00001884
0.96281457 0.00005000 0.00001885
0.96363664 0.00005014 0.00001887
0.96445870 0.00005949 0.00002337
0.96528077 0.00005980 0.00002343
0.96610272 0.00006011 0.00002348
0.96692473 0.00006038 0.00002353
0.96774662 0.00006066 0.00002358
0.96856844 0.00006093 0.00002362
0.96939021 0.00006118 0.00002366
0.97021192 0.00006143 0.00002370
0.97103351 0.00006167 0.00002373
0.97185498 0.00006190 0.00002377
0.97267634 0.00006213 0.00002380
0.97349763 0.00006234 0.00002383
0.97431874 0.00006255 0.00002385
0.97513974 0.00006276 0.00002388
0.97596061 0.00006294 0.00002390
0.97678131 0.00006313 0.00002392
0.97760183 0.00006331 0.00002394
0.97842216 0.00006349 0.00002396
0.97924232 0.00006366 0.00002398
0.98006225 0.00006383 0.00002400
0.98088199 0.00006398 0.00002402
0.98170155 0.00007560 0.00002949
0.98252082 0.00007589 0.00002954
0.98333991 0.00007616 0.00002959
0.98415869 0.00007641 0.00002964
0.98497719 0.00007664 0.00002968
0.98579550 0.00007683 0.00002972
0.98661345 0.00007700 0.00002976
0.98743111 0.00007714 0.00002979
0.98824847 0.00007724 0.00002981
0.98906553 0.00007729 0.00002982
0.98988223 0.00007729 0.00002983
0.99069858 0.00007723 0.00002983
0.99151456 0.00007708 0.00002981
0.99224854 0.00007683 0.00002978
0.99284983 0.00007656 0.00002974
0.99334258 0.00007624 0.00002969
0.99374640 0.00007590 0.00002965
0.99407727 0.00006431 0.00002418
0.99434841 0.00006419 0.00002418
0.99457067 0.00006407 0.00002419
0.99475282 0.00006396 0.00002419
0.99490207 0.00006386 0.00002419
0.99502444 0.00006374 0.00002418
0.99512470 0.00006362 0.00002416
0.99520689 0.00006350 0.00002413
0.99527425 0.00006338 0.00002411
0.99532950 0.00006323 0.00002408
