0.02291594 0.15379289
0.02268816 0.15355792
0.02246013 0.15335901
0.02223240 0.15321710
0.02200486 0.15310118
0.02177737 0.15004046
0.02154981 0.15014338
0.02132203 0.15011712
0.02109392 0.14990978
0.02086539 0.14950086
0.02063644 0.14892331
0.02040724 0.14825380
0.02017793 0.14757246
0.01994866 0.14693894
0.01971955 0.14636187
0.01949053 0.14579679
0.01926146 0.14516779
0.01903221 0.14097338
0.01880265 0.14020575
0.01857280 0.13918086
0.01834275 0.13797808
0.01811258 0.13669443
0.01788236 0.13542923
0.01765214 0.13767271
0.01742197 0.13671470
0.01719192 0.13592434
0.01696207 0.13531204
0.01673274 0.13199412
0.01650345 0.13188335
0.01627392 0.13164667
0.01604417 0.13119657
0.01581422 0.13053109
0.01558411 0.12605356
0.01535385 0.12534049
0.01512347 0.12443983
0.01489299 0.12336767
0.01466243 0.12212830
0.01443182 0.12074003
0.01420116 0.11922430
0.01397049 0.11759063
0.01373981 0.11585205
0.01350915 0.11401703
0.01327851 0.11208971
0.01304792 0.10629195
0.01281738 0.10436299
0.01258691 0.10233722
0.01235651 0.10022307
0.01212620 0.09802862
0.01189598 0.09575789
0.01166586 0.09341557
0.01143584 0.09100735
0.01120593 0.08853482
0.01097613 0.08599637
0.01074645 0.08339319
0.01051688 0.08072606
0.01028742 0.07799099
0.01005808 0.07518492
0.00982884 0.07231014
0.00959972 0.06601078
0.00937070 0.06318699
0.00914178 0.06030308
0.00891296 0.05735385
0.00868424 0.05432638
0.00845562 0.05120232
0.00822713 0.04796963
0.00799878 0.04461812
0.00777058 0.04113093
0.00754255 0.03491059
0.00731472 0.03140249
0.00708709 0.02771508
0.00685970 0.02383052
0.00663257 0.01786705
0.00640572 0.01393535
0.00617920 0.00971101
0.00595310 0.22187101
0.00565985 0.22315759
0.00536651 0.00888956
0.00507465 0.01659253
0.00478460 0.02512217
0.00449657 0.03436808
0.00421049 0.04432465
0.00392625 0.05515119
0.00364368 0.06716945
0.00336262 0.08103365
0.00308287 0.09742546
0.00280805 0.11558130
0.00254093 0.13387449
0.00228066 0.15221103
0.00202641 0.17160033
0.00177713 0.19335275
0.00153225 0.20833264
0.00129326 0.23971144
0.00106121 0.27736042
0.00084475 0.30108885
0.00064997 0.33668854
0.00047331 0.37352000
0.00031177 0.41657940
0.00018008 0.45671765
0.00007682 0.49304476
-0.00000677 0.52376185
-0.00004433 0.57192244
-0.00006737 0.58884459
-0.00005200 0.61587113
-0.00000980 0.61196791
0.00004906 0.62333709
0.00013594 0.62521140
0.00024690 0.62214300
0.00036164 0.61580193
0.00050395 0.61008283
0.00066121 0.60248836
0.00081698 0.60096482
0.00097573 0.59420277
0.00114458 0.59239261
0.00133022 0.59075353
0.00152880 0.58885419
0.00173042 0.58770574
0.00193653 0.58603458
0.00214693 0.58513873
0.00236140 0.58378875
0.00257975 0.58387869
0.00280177 0.58251703
0.00302725 0.58187087
0.00325601 0.58200133
0.00348686 0.58086666
0.00366790 0.57942099
0.00385058 0.57978676
0.00403483 0.57985725
0.00422056 0.57940940
0.00440770 0.57811051
0.00459616 0.57668062
0.00478589 0.57694424
0.00497681 0.57695909
0.00516885 0.57660808
0.00536194 0.56595149
0.00555602 0.57304873
0.00575104 0.57349165
0.00594692 0.57373639
0.00614362 0.57381693
0.00634107 0.57363973
0.00653922 0.57308687
0.00673803 0.57203638
0.00693742 0.57004237
0.00713738 0.57042269
0.00733788 0.57052679
0.00753893 0.57044724
0.00774052 0.57013870
0.00794264 0.56954702
0.00814530 0.56302940
0.00834848 0.56727220
0.00855219 0.56542246
0.00875642 0.56653052
0.00896117 0.56642202
0.00916643 0.56615854
0.00937219 0.56568732
0.00957846 0.56500399
0.00978523 0.56408087
0.00999250 0.56290170
0.01020026 0.56146024
0.01040850 0.55966599
0.01061723 0.56174230
0.01082644 0.56145119
0.01103613 0.56100060
0.01124628 0.56037036
0.01145690 0.55953923
0.01166798 0.55849279
0.01187952 0.55720548
0.01209151 0.55560109
0.01230395 0.55728271
0.01251684 0.55695190
0.01273017 0.55650477
0.01294393 0.55592148
0.01315812 0.55517351
0.01337274 0.55421057
0.01358778 0.55306263
0.01380324 0.55170045
0.01401911 0.55301759
0.01423540 0.55274343
0.01445208 0.55232216
0.01466917 0.55175346
0.01488665 0.55103237
0.01510452 0.55014428
0.01532277 0.54906802
0.01554141 0.54773690
0.01576042 0.54919913
0.01597981 0.54888512
0.01619956 0.54845160
0.01641967 0.54787174
0.01664014 0.54712598
0.01686096 0.54619973
0.01708213 0.54506603
0.01730365 0.54599699
0.01752550 0.54574641
0.01774768 0.54538187
0.01797020 0.54487272
0.01819303 0.54419470
0.01841619 0.54333910
0.01863966 0.54228643
0.01886084 0.54315413
