0.01886084 0.41274340
0.01908307 0.40855882
0.01931639 0.40319227
0.01956136 0.39954729
0.01981856 0.39677792
0.02008860 0.39453068
0.02037212 0.39262839
0.02066979 0.39098650
0.02098232 0.38955464
0.02131045 0.38825354
0.02165497 0.38709614
0.02201667 0.38603558
0.02239644 0.38509783
0.02279516 0.38421405
0.02321378 0.38342841
0.02365329 0.38272471
0.02411475 0.38207745
0.02459924 0.38148737
0.02510792 0.38093540
0.02564199 0.38044584
0.02620274 0.37995418
0.02679148 0.37951606
0.02740963 0.37909877
0.02805866 0.37867697
0.02874013 0.37834428
0.02945565 0.37805101
0.03020694 0.37776394
0.03099580 0.37751663
0.03180634 0.37728401
0.03261691 0.37709118
0.03342754 0.37686086
0.03423824 0.37667495
0.03504902 0.37644335
0.03585991 0.37619598
0.03667091 0.37588305
0.03748203 0.37552089
0.03829331 0.37518625
0.03910474 0.37475935
0.03991636 0.37431329
0.04072816 0.37382522
0.04154019 0.37327070
0.04235246 0.37270087
0.04316499 0.37205375
0.04397780 0.37132878
0.04479091 0.37056691
0.04560429 0.36963741
0.04641794 0.36870920
0.04723185 0.36768216
0.04804599 0.36666795
0.04886035 0.36553982
0.04967492 0.36443948
0.05048968 0.36324289
0.05130463 0.36200523
0.05211975 0.36078100
0.05293502 0.35946839
0.05375044 0.35814005
0.05456598 0.35676081
0.05538164 0.35538287
0.05619740 0.35393696
0.05701325 0.35245504
0.05782916 0.35098423
0.05864513 0.34942481
0.05946113 0.34785229
0.06027717 0.34623076
0.06109324 0.34460114
0.06190936 0.34289038
0.06272550 0.34116472
0.06354168 0.33934043
0.06435790 0.33746932
0.06517416 0.33564599
0.06599046 0.33370506
0.06680679 0.33171017
0.06762316 0.32966301
0.06843957 0.32755912
0.06925603 0.32539688
0.07007252 0.32320488
0.07088906 0.32088672
0.07170564 0.31853482
0.07252226 0.31611837
0.07333893 0.31363733
0.07415564 0.31108872
0.07497239 0.30850510
0.07578918 0.30579774
0.07660603 0.30302781
0.07742292 0.30027807
0.07823986 0.29737398
0.07905684 0.29443345
0.07987387 0.29139923
0.08069096 0.28835279
0.08150809 0.28520925
0.08232526 0.28199502
0.08314249 0.27871018
0.08395976 0.27532826
0.08477707 0.27189874
0.08559444 0.26839207
0.08641185 0.26480924
0.08722931 0.26117175
0.08804681 0.25739999
0.08886436 0.25354499
0.08968197 0.24969980
0.09049961 0.24562075
0.09131730 0.24152447
0.09213504 0.23733866
0.09295282 0.23303928
0.09377065 0.22871388
0.09458853 0.22425362
0.09540644 0.21968564
0.09622441 0.21504242
0.09704242 0.21031130
0.09786048 0.20540161
0.09867857 0.20043233
0.09949672 0.19531173
0.10031492 0.19006086
0.10113315 0.18464548
0.10195144 0.17912818
0.10276976 0.17335751
0.10358814 0.16739556
0.10440657 0.16120104
0.10522505 0.15473078
0.10604358 0.14799996
0.10686217 0.14094960
0.10768080 0.13344540
0.10849948 0.12552139
0.10931823 0.11699573
0.11013702 0.10779337
0.11095588 0.09770738
0.11177479 0.08644777
0.11259376 0.07345383
0.11341279 0.05753035
0.11423188 0.03498108
0.11505102 0.02940534
0.11587023 0.05432011
0.11668950 0.07091802
0.11750884 0.08426381
0.11832823 0.09573671
0.11914770 0.10592693
0.11996722 0.11517996
0.12078681 0.12369348
0.12160647 0.13165506
0.12242620 0.13910234
0.12324599 0.14613246
0.12406585 0.15278804
0.12488578 0.15917036
0.12570578 0.16525800
0.12652585 0.17104024
0.12734599 0.17662314
0.12816621 0.18199349
0.12898649 0.18717200
0.12980686 0.19219884
0.13062729 0.19698974
0.13144779 0.20165575
0.13226838 0.20617317
0.13308904 0.21051382
0.13390978 0.21479360
0.13473058 0.21887336
0.13555147 0.22287139
0.13637243 0.22670996
0.13719349 0.23048294
0.13801460 0.23411300
0.13883582 0.23772438
0.13965710 0.24111294
0.14047846 0.24454618
0.14129990 0.24775247
0.14212143 0.25096146
0.14294305 0.25412999
0.14376475 0.25713355
0.14458653 0.26014757
0.14540839 0.26300071
0.14623034 0.26582583
0.14705238 0.26858173
0.14787450 0.27127029
0.14869671 0.27379364
0.14951901 0.27635187
0.15034139 0.27884784
0.15116386 0.28129203
0.15198644 0.28371471
0.15280908 0.28598468
0.15363182 0.28824096
0.15445466 0.29038217
0.15527758 0.29253530
0.15610060 0.29462418
0.15692371 0.29665995
0.15774693 0.29869082
0.15857022 0.30057122
0.15939361 0.30244542
0.16021711 0.30426096
0.16104068 0.30604346
0.16186436 0.30784882
0.16268811 0.30954086
0.16351195 0.31118476
0.16433585 0.31291059
0.16515982 0.31449509
0.16598387 0.31615738
0.16680796 0.31769414
0.16763215 0.31929739
0.16845638 0.32082788
0.16928069 0.32224612
0.17010507 0.32364175
0.17092954 0.32510186
0.17175406 0.32642432
0.17257868 0.32776000
0.17340337 0.32905652
0.17422813 0.33025989
0.17505300 0.33151924
0.17587794 0.33268292
0.17670296 0.33375839
0.17752807 0.33485659
0.17835326 0.33593163
0.17917852 0.33693428
0.18000387 0.33802076
0.18082929 0.33904155
0.18165477 0.33999620
0.18248032 0.34098314
0.18330595 0.34201670
0.18413164 0.34289402
0.18495740 0.34376920
0.18578324 0.34467738
0.18660913 0.34563551
0.18743511 0.34650637
0.18826115 0.34735985
0.18908726 0.34819707
0.18991342 0.34896723
0.19073966 0.34977214
0.19156598 0.35062984
0.19239235 0.35140280
0.19321878 0.35223115
0.19404529 0.35290425
0.19487186 0.35358001
0.19569850 0.35436192
0.19652520 0.35505970
0.19735196 0.35581477
0.19817880 0.35648473
0.19900569 0.35713971
0.19983265 0.35773012
0.20065968 0.35843031
0.20148677 0.35904667
0.20231391 0.35964918
0.20314114 0.36030948
0.20396841 0.36083545
0.20479575 0.36147262
0.20562315 0.36202545
0.20645063 0.36261552
0.20727815 0.36309183
0.20810574 0.36360765
0.20893340 0.36418400
0.20976111 0.36474714
0.21058889 0.36514988
0.21141672 0.36555959
0.21224461 0.36615304
0.21307257 0.36659102
0.21390060 0.36694712
0.21472867 0.36736901
0.21555679 0.36780869
0.21638498 0.36822048
0.21721321 0.36869974
0.21804151 0.36910080
0.21886985 0.36949900
0.21969825 0.36989600
0.22052670 0.37031563
0.22135520 0.37063750
0.22218375 0.37110619
0.22301234 0.37149733
0.22384100 0.37195599
0.22466969 0.37233402
0.22549844 0.37265554
0.22632724 0.37301966
0.22715610 0.37342666
0.22798499 0.37372862
0.22881396 0.37407342
0.22964297 0.37448625
0.23047203 0.37474382
0.23130114 0.37509492
0.23213030 0.37548951
0.23295954 0.37572842
0.23378880 0.37606109
0.23461814 0.37641064
0.23544753 0.37670479
0.23627697 0.37699265
0.23710646 0.37730072
0.23793600 0.37757605
0.23876561 0.37784590
0.23959528 0.37818371
0.24042499 0.37836475
0.24125476 0.37864289
0.24208459 0.37889231
0.24291448 0.37914832
0.24374442 0.37948706
0.24457443 0.37974886
0.24540448 0.37992549
0.24623460 0.38019394
0.24706477 0.38042156
0.24789500 0.38063784
0.24872530 0.38099500
0.24955565 0.38103966
0.25038606 0.38127371
0.25121650 0.38151015
0.25204703 0.38152854
0.25287762 0.38184356
0.25370827 0.38199877
0.25453895 0.38205458
0.25536972 0.38228894
0.25620055 0.38227328
0.25703144 0.38255537
0.25786239 0.38267976
0.25869337 0.38270905
0.25952443 0.38282451
0.26035556 0.38278333
0.26118675 0.38289216
0.26201800 0.38315022
0.26284930 0.38324945
0.26368067 0.38333811
0.26451209 0.38332415
0.26534361 0.38347275
0.26617518 0.38351438
0.26700678 0.38344876
0.26783851 0.38354243
0.26867026 0.38345168
0.26950210 0.38368641
0.27033401 0.38352783
0.27116597 0.38343442
0.27199799 0.38358383
0.27283007 0.38358222
0.27366221 0.38334104
0.27449444 0.38357927
0.27532670 0.38364952
0.27615905 0.38358489
0.27699143 0.38350779
0.27782390 0.38375502
0.27865639 0.38376489
0.27948895 0.38368902
0.28032157 0.38369248
0.28115425 0.38369081
0.28198701 0.38376503
0.28281981 0.38366901
0.28365263 0.38372157
0.28448555 0.38377975
0.28531852 0.38375405
0.28615156 0.38372610
0.28698462 0.38376811
0.28781778 0.38381448
0.28865096 0.38362526
0.28948420 0.38358608
0.29031751 0.38354361
0.29115084 0.38357322
0.29198423 0.38352665
0.29281771 0.38347763
0.29365122 0.38342672
0.29448476 0.38322163
0.29531839 0.38332162
0.29615206 0.38311422
0.29698575 0.38313643
0.29781953 0.38315791
0.29865333 0.38302640
0.29948720 0.38282023
0.30032110 0.38276822
0.30115506 0.38286886
0.30198908 0.38281828
0.30282316 0.38277122
0.30365726 0.38272747
0.30449140 0.38268615
0.30532560 0.38257198
0.30615985 0.38253130
0.30699417 0.38241195
0.30782852 0.38252782
0.30866289 0.38242062
0.30949736 0.38245967
0.31033182 0.38235549
0.31116638 0.38232435
0.31200096 0.38229548
0.31283557 0.38226898
0.31367028 0.38239657
0.31450498 0.38214772
0.31533977 0.38234422
0.31617460 0.38231589
0.31700945 0.38221603
0.31784436 0.38233572
0.31867933 0.38214570
0.31951433 0.38225784
0.32034940 0.38206021
0.32118452 0.38216407
0.32201967 0.38210989
0.32285488 0.38205027
0.32369012 0.38213836
0.32452542 0.38191504
0.32536077 0.38199127
0.32619616 0.38190813
0.32703161 0.38181748
0.32786709 0.38150162
0.32870263 0.38139673
0.32953823 0.38128587
0.33037385 0.38101614
0.33120954 0.38104546
0.33204529 0.38091695
0.33288106 0.38078347
0.33371690 0.38064509
0.33455276 0.38035000
0.33538869 0.38014257
0.33622468 0.38005610
0.33706069 0.37975340
0.33789676 0.37960191
0.33873287 0.37938933
0.33956903 0.37923690
0.34040526 0.37908485
0.34124151 0.37893355
0.34207782 0.37878339
0.34291416 0.37863484
0.34375057 0.37833686
0.34458700 0.37834605
0.34542349 0.37814840
0.34626004 0.37806767
0.34709662 0.37793161
0.34793323 0.37774095
0.34876993 0.37766392
0.34960663 0.37747563
0.35044342 0.37734283
0.35128021 0.37730612
0.35211709 0.37737659
0.35295400 0.37708652
0.35379094 0.37704207
0.35462794 0.37689495
0.35546499 0.37679502
0.35630208 0.37678818
0.35713920 0.37641986
0.35797638 0.37639626
0.35881361 0.37620960
0.35965088 0.37616348
0.36048818 0.37595974
0.36132553 0.37575344
0.36216295 0.37554571
0.36300036 0.37533593
0.36383784 0.37507386
0.36467537 0.37490399
0.36551294 0.37467965
0.36635053 0.37455240
0.36718819 0.37416632
0.36802587 0.37392542
0.36886361 0.37372611
0.36970136 0.37357994
0.37053919 0.37317639
0.37137702 0.37291971
0.37221491 0.37266029
0.37305284 0.37224905
0.37389079 0.37213580
0.37472880 0.37187148
0.37556684 0.37145702
0.37640491 0.37119322
0.37724301 0.37089012
0.37808117 0.37067538
0.37891933 0.37038145
0.37975755 0.37013437
0.38059583 0.36993344
0.38143411 0.36965771
0.38227242 0.36942960
0.38311079 0.36920968
0.38394919 0.36899928
0.38478759 0.36890721
0.38562605 0.36871362
0.38646454 0.36852649
0.38730305 0.36849264
0.38814160 0.36831505
0.38898021 0.36817807
0.38981882 0.36811788
0.39065745 0.36809605
0.39149612 0.36792660
0.39233485 0.36790539
0.39317358 0.36788305
0.39401233 0.36771085
0.39485112 0.36750198
0.39568993 0.36747171
0.39652881 0.36732331
0.39736769 0.36713602
0.39820659 0.36708993
0.39904550 0.36685661
0.39988446 0.36664825
0.40072346 0.36643340
0.40156245 0.36635605
0.40240151 0.36612073
0.40324056 0.36587740
0.40407965 0.36545050
0.40491876 0.36534118
0.40575790 0.36493201
0.40659708 0.36483821
0.40743625 0.36438979
0.40827546 0.36411695
0.40911472 0.36387295
0.40995395 0.36357281
0.41079324 0.36315622
0.41163254 0.36303344
0.41247186 0.36262226
0.41331121 0.36221517
0.41415060 0.36210296
0.41498998 0.36184833
0.41582939 0.36159687
0.41666880 0.36132470
0.41750827 0.36096502
0.41834772 0.36070790
0.41918722 0.36048372
0.42002672 0.36026726
0.42086625 0.36020289
0.42170581 0.36000085
0.42254537 0.35980761
0.42338496 0.35976718
0.42422456 0.35956677
0.42506418 0.35953953
0.42590383 0.35953758
0.42674348 0.35935108
0.42758316 0.35933415
0.42842284 0.35917498
0.42926255 0.35901612
0.43010226 0.35900057
0.43094200 0.35883771
0.43178177 0.35881411
0.43262154 0.35878615
0.43346131 0.35859120
0.43430111 0.35840949
0.43514094 0.35823881
0.43598077 0.35818457
0.43682060 0.35795886
0.43766046 0.35773996
0.43850031 0.35751107
0.43934020 0.35727280
0.44018009 0.35702598
0.44102001 0.35677154
0.44185993 0.35650969
0.44269988 0.35624062
0.44353983 0.35582394
0.44437978 0.35568938
0.44521976 0.35526735
0.44605973 0.35484414
0.44689971 0.35454885
0.44773972 0.35426738
0.44857973 0.35398540
0.44941977 0.35356397
0.45025980 0.35328885
0.45109984 0.35301782
0.45193988 0.35261059
0.45277995 0.35235118
0.45362002 0.35208673
0.45446011 0.35185175
0.45530018 0.35160419
0.45614031 0.35152891
0.45698041 0.35116907
0.45782050 0.35108959
0.45866063 0.35074415
0.45950076 0.35068573
0.46034092 0.35049022
0.46118104 0.35044056
0.46202120 0.35025349
0.46286136 0.35006918
0.46370152 0.35001954
0.46454170 0.34984441
0.46538186 0.34979332
0.46622205 0.34960834
0.46706223 0.34956267
0.46790242 0.34923425
0.46874264 0.34932870
0.46958283 0.34898623
0.47042304 0.34892382
0.47126326 0.34871624
0.47210345 0.34863839
0.47294366 0.34827884
0.47378391 0.34805528
0.47462413 0.34781941
0.47546434 0.34757173
0.47630459 0.34746251
0.47714481 0.34706301
0.47798505 0.34680051
0.47882530 0.34653555
0.47966552 0.34612428
0.48050576 0.34584934
0.48134601 0.34557005
0.48218626 0.34528841
0.48302650 0.34486687
0.48386675 0.34458305
0.48470700 0.34429782
0.48554724 0.34401135
0.48638749 0.34358752
0.48722774 0.34330459
0.48806798 0.34288658
0.48890823 0.34260996
0.48974848 0.34233640
0.49058872 0.34206579
0.49142897 0.34166384
0.49226919 0.34140941
0.49310943 0.34129382
0.49394968 0.34104810
0.49478990 0.34080869
0.49563015 0.34056740
0.49647036 0.34033858
0.49731058 0.34010953
0.49815083 0.33987796
0.49899104 0.33979317
0.49983126 0.33956840
0.50067145 0.33948178
0.50151163 0.33913319
0.50235188 0.33903161
0.50319207 0.33880015
0.50403225 0.33856540
0.50487244 0.33832808
0.50571263 0.33822189
0.50655276 0.33798762
0.50739294 0.33771532
0.50823313 0.33745172
0.50907326 0.33718200
0.50991338 0.33705642
0.51075351 0.33663290
0.51159364 0.33647005
0.51243377 0.33602879
0.51327389 0.33571539
0.51411402 0.33537267
0.51495409 0.33506281
0.51579416 0.33472575
0.51663423 0.33424987
0.51747429 0.33390403
0.51831436 0.33355218
0.51915443 0.33306087
0.51999444 0.33283592
0.52083445 0.33234156
0.52167445 0.33197861
0.52251446 0.33161250
0.52335441 0.33113924
0.52419442 0.33074608
0.52503437 0.33024833
0.52587432 0.33001709
0.52671421 0.32968204
0.52755415 0.32928991
0.52839404 0.32879929
0.52923393 0.32844455
0.53007376 0.32825693
0.53091365 0.32787487
0.53175348 0.32753085
0.53259325 0.32722505
0.53343308 0.32688706
0.53427285 0.32668076
0.53511262 0.32634489
0.53595239 0.32601113
0.53679210 0.32567651
0.53763181 0.32533927
0.53847152 0.32513049
0.53931117 0.32478961
0.54015082 0.32457721
0.54099047 0.32422870
0.54183006 0.32400365
0.54266965 0.32364371
0.54350919 0.32345158
0.54434878 0.32290686
0.54518825 0.32269902
0.54602778 0.32226384
0.54686725 0.32186426
0.54770672 0.32145566
0.54854614 0.32103585
0.54938555 0.32060375
0.55022490 0.32020877
0.55106425 0.31975852
0.55190361 0.31930143
0.55274290 0.31883753
0.55358219 0.31836786
0.55442142 0.31789616
0.55526066 0.31729705
0.55609983 0.31682558
0.55693901 0.31635336
0.55777818 0.31588081
0.55861729 0.31541116
0.55945641 0.31481891
0.56029546 0.31435811
0.56113452 0.31390094
0.56197351 0.31344776
0.56281245 0.31305713
0.56365144 0.31256075
0.56449032 0.31218423
0.56532925 0.31169808
0.56616813 0.31127324
0.56700695 0.31085443
0.56784576 0.31056591
0.56868452 0.31015552
0.56952327 0.30987111
0.57036197 0.30939832
0.57120067 0.30905494
0.57203931 0.30883528
0.57287794 0.30836685
0.57371652 0.30814488
0.57455504 0.30760893
0.57539356 0.30731833
0.57623208 0.30702492
0.57707053 0.30660404
0.57790893 0.30617735
0.57874733 0.30574305
0.57958573 0.30542538
0.58042401 0.30504567
0.58126235 0.30452432
0.58210057 0.30406170
0.58293879 0.30365766
0.58377701 0.30310977
0.58461517 0.30262529
0.58545327 0.30201481
0.58629137 0.30164220
0.58712941 0.30102225
0.58796740 0.30059076
0.58880538 0.30008668
0.58964330 0.29958152
0.59048122 0.29907523
0.59131908 0.29844815
0.59215695 0.29793974
0.59299475 0.29735839
0.59383249 0.29692714
0.59467024 0.29622853
0.59550792 0.29579990
0.59634554 0.29530110
0.59718317 0.29468717
0.59802073 0.29431256
0.59885824 0.29370445
0.59969574 0.29322122
0.60053319 0.29293815
0.60137063 0.29238527
0.60220802 0.29191423
0.60304534 0.29156387
0.60388267 0.29098191
0.60471994 0.29063612
0.60555714 0.29017496
0.60639435 0.28983192
0.60723144 0.28945337
0.60806859 0.28891331
0.60890561 0.28865165
0.60974264 0.28819116
0.61057961 0.28784509
0.61141658 0.28738126
0.61225349 0.28691422
0.61309034 0.28644486
0.61392719 0.28600277
0.61476392 0.28560878
0.61560065 0.28524115
0.61643738 0.28475340
0.61727405 0.28414594
0.61811066 0.28376097
0.61894721 0.28325501
0.61978370 0.28282881
0.62062019 0.28231155
0.62145662 0.28178833
0.62229306 0.28117322
0.62312943 0.28064058
0.62396568 0.28019178
0.62480199 0.27945194
0.62563819 0.27899763
0.62647438 0.27845278
0.62731051 0.27790567
0.62814659 0.27735686
0.62898266 0.27680697
0.62981868 0.27625619
0.63065463 0.27559453
0.63149053 0.27504403
0.63232642 0.27449377
0.63316226 0.27394474
0.63399804 0.27328735
0.63483375 0.27274178
0.63566947 0.27219871
0.63650513 0.27165853
0.63734072 0.27123003
0.63817626 0.27069668
0.63901180 0.27016675
0.63984728 0.26964064
0.64068270 0.26911838
0.64151806 0.26859900
0.64235336 0.26828411
0.64318866 0.26767514
0.64402390 0.26716202
0.64485908 0.26685153
0.64569420 0.26634001
0.64652932 0.26582848
0.64736438 0.26532760
0.64819938 0.26492094
0.64903432 0.26450238
0.64986920 0.26409164
0.65070409 0.26357258
0.65153891 0.26315686
0.65237367 0.26263271
0.65320837 0.26210534
0.65404302 0.26167029
0.65487766 0.26124410
0.65571225 0.26059748
0.65654677 0.26015403
0.65738124 0.25960001
0.65821564 0.25913731
0.65905005 0.25847196
0.65988439 0.25800000
0.66071868 0.25731448
0.66155291 0.25682782
0.66238707 0.25622860
0.66322118 0.25562640
0.66405529 0.25511944
0.66488934 0.25450439
0.66572332 0.25378185
0.66655725 0.25315428
0.66739112 0.25252007
0.66822499 0.25187828
0.66905874 0.25122784
0.66989249 0.25046616
0.67072618 0.24988947
0.67155981 0.24909156
0.67239344 0.24836041
0.67322695 0.24755025
0.67406046 0.24678391
0.67489398 0.24685211
0.67572761 0.24711452
0.67656118 0.24689766
0.67739469 0.24650534
0.67822814 0.24603232
0.67906153 0.24549439
0.67989486 0.24493689
0.68072814 0.24435991
0.68156135 0.24387193
0.68239450 0.24328342
0.68322760 0.24278161
0.68406063 0.24217755
0.68489367 0.24146818
0.68572658 0.24095458
0.68655944 0.24044415
0.68739223 0.23982602
0.68822503 0.23910132
0.68905771 0.23858016
0.68989033 0.23804621
0.69072288 0.23741156
0.69155544 0.23677243
0.69238788 0.23622359
0.69322026 0.23558406
0.69405264 0.23482403
0.69488490 0.23416290
0.69571716 0.23349593
0.69654930 0.23291470
0.69738138 0.23224547
0.69821346 0.23154893
0.69904542 0.23087247
0.69987732 0.23018045
0.70070922 0.22938175
0.70154101 0.22879141
0.70237279 0.22799199
0.70320445 0.22730982
0.70403606 0.22661304
0.70486766 0.22581004
0.70569915 0.22521261
0.70653057 0.22441686
0.70736200 0.22361898
0.70819330 0.22290978
0.70902455 0.22219829
0.70985579 0.22139628
0.71068692 0.22068339
0.71151799 0.21997146
0.71234906 0.21925885
0.71318001 0.21854707
0.71401089 0.21785558
0.71484178 0.21713008
0.71567255 0.21633768
0.71650326 0.21573913
0.71733397 0.21501921
0.71816456 0.21423488
0.71899509 0.21364184
0.71982563 0.21292496
0.72065604 0.21223005
0.72148639 0.21168223
0.72231668 0.21098643
0.72314698 0.21018636
0.72397715 0.20963818
0.72480726 0.20898363
0.72563732 0.20828558
0.72646731 0.20762858
0.72729731 0.20696983
0.72812718 0.20626732
0.72895700 0.20560340
0.72978675 0.20493738
0.73061645 0.20422781
0.73144609 0.20355527
0.73227566 0.20294273
0.73310518 0.20226322
0.73393464 0.20153929
0.73476404 0.20085007
0.73559338 0.20011639
0.73642266 0.19937928
0.73725188 0.19867726
0.73808104 0.19789240
0.73891014 0.19718369
0.73973918 0.19643407
0.74056816 0.19568191
0.74139708 0.19492786
0.74222594 0.19417343
0.74305475 0.19338052
0.74388349 0.19262565
0.74471223 0.19176890
0.74554086 0.19108091
0.74636942 0.19032930
0.74719793 0.18957535
0.74802637 0.18878116
0.74885482 0.18802142
0.74968314 0.18725789
0.75051141 0.18645280
0.75133961 0.18578187
0.75216776 0.18500579
0.75299591 0.18412336
0.75382394 0.18333630
0.75465190 0.18254387
0.75547975 0.18184636
0.75630760 0.18104282
0.75713539 0.18010346
0.75796312 0.17934056
0.75879073 0.17861255
0.75961834 0.17776274
0.76044583 0.17708427
0.76127332 0.17631525
0.76210076 0.17559046
0.76292813 0.17484005
0.76375544 0.17410059
0.76458275 0.17331016
0.76540995 0.17269558
0.76623714 0.17206165
0.76706427 0.17132860
0.76789135 0.17066071
0.76871836 0.16998489
0.76954538 0.16929762
0.77037227 0.16856511
0.77119911 0.16785285
0.77202588 0.16718736
0.77285260 0.16644081
0.77367926 0.16564264
0.77450585 0.16476020
0.77533233 0.16391599
0.77615875 0.16308069
0.77698505 0.16229579
0.77781135 0.16135138
0.77863753 0.16050598
0.77946365 0.15972989
0.78028971 0.15887051
0.78111571 0.15802393
0.78194165 0.15722266
0.78276759 0.15640727
0.78359348 0.15561053
0.78441930 0.15480453
0.78524512 0.15405433
0.78607088 0.15332954
0.78689665 0.15262062
0.78772241 0.15191522
0.78854805 0.15129704
0.78937376 0.15046227
0.79019934 0.14973907
0.79102492 0.14897519
0.79185045 0.14822841
0.79267591 0.14746837
0.79350132 0.14669314
0.79432666 0.14587202
0.79515189 0.14514908
0.79597712 0.14429017
0.79680228 0.14335749
0.79762733 0.14259042
0.79845232 0.14173140
0.79927725 0.14087056
0.80010211 0.13998074
0.80092692 0.13903265
0.80175161 0.13825730
0.80257630 0.13739766
0.80340087 0.13654000
0.80422544 0.13571091
0.80504996 0.13485760
0.80587435 0.13400764
0.80669874 0.13315993
0.80752301 0.13242396
0.80834728 0.13158171
0.80917150 0.13076866
0.80999565 0.12993267
0.81081975 0.12910010
0.81164384 0.12821579
0.81246781 0.12747119
0.81329179 0.12667391
0.81411570 0.12588000
0.81493962 0.12501057
0.81576341 0.12427821
0.81658721 0.12349416
0.81741095 0.12268979
0.81823468 0.12191312
0.81905836 0.12113985
0.81988204 0.12036912
0.82070559 0.11957915
0.82152921 0.11879288
0.82235271 0.11810855
0.82317626 0.11725461
0.82399976 0.11647937
0.82482320 0.11573079
0.82564664 0.11498610
0.82647002 0.11427244
0.82729346 0.11346189
0.82811677 0.11277812
0.82894015 0.11195369
0.82976347 0.11127700
0.83058679 0.11046243
0.83141005 0.10979377
0.83223337 0.10898967
0.83305663 0.10833008
0.83387989 0.10758509
0.83470315 0.10679887
0.83552635 0.10615643
0.83634961 0.10543134
0.83717281 0.10473173
0.83799601 0.10401424
0.83881927 0.10331869
0.83964241 0.10266982
0.84046561 0.10190959
0.84128881 0.10119532
0.84211195 0.10048084
0.84293509 0.09978576
0.84375823 0.09907041
0.84458131 0.09835412
0.84540439 0.09770029
0.84622747 0.09700080
0.84705055 0.09621842
0.84787357 0.09549789
0.84869659 0.09477550
0.84951955 0.09407047
0.85034251 0.09340558
0.85116547 0.09263495
0.85198838 0.09190503
0.85281122 0.09125048
0.85363406 0.09051551
0.85445690 0.08979639
0.85527968 0.08905722
0.85610247 0.08831566
0.85692519 0.08758949
0.85774791 0.08678615
0.85857058 0.08607177
0.85939318 0.08537675
0.86021578 0.08463889
0.86103833 0.08389839
0.86186081 0.08315681
0.86268330 0.08241455
0.86350572 0.08167553
0.86432809 0.08094240
0.86515045 0.08020914
0.86597276 0.07946755
0.86679500 0.07871388
0.86761719 0.07794901
0.86843938 0.07717414
0.86926144 0.07644153
0.87008351 0.07566403
0.87090552 0.07484895
0.87172747 0.07405550
0.87254936 0.07323942
0.87337124 0.07236690
0.87419301 0.07159798
0.87501472 0.07075793
0.87583643 0.06984800
0.87665802 0.06905117
0.87747955 0.06818551
0.87830108 0.06731142
0.87912250 0.06642975
0.87994391 0.06555310
0.88076520 0.06464275
0.88158649 0.06373743
0.88240767 0.06283678
0.88322884 0.06190285
0.88404989 0.06097312
0.88487089 0.06008182
0.88569188 0.05908740
0.88651276 0.05817122
0.88733363 0.05716560
0.88815439 0.05622910
0.88897514 0.05520487
0.88979578 0.05424623
0.89061642 0.05319578
0.89143693 0.05221303
0.89225739 0.05118082
0.89307785 0.05013505
0.89389819 0.04907035
0.89471853 0.04796602
0.89553875 0.04690724
0.89635891 0.04579276
0.89717907 0.04466503
0.89799911 0.04352020
0.89881915 0.04235409
0.89963913 0.04117472
0.90045905 0.03997667
0.90127891 0.03875881
0.90209877 0.03751969
0.90291858 0.03625399
0.90373838 0.03496634
0.90455812 0.03365038
0.90537781 0.03232320
0.90619749 0.03094021
0.90701717 0.02951652
0.90783685 0.02802382
0.90865648 0.02650119
0.90947610 0.02493196
0.91029572 0.02326422
0.91111535 0.02148879
0.91193491 0.01962330
0.91275454 0.01758075
0.91357416 0.01531627
0.91439378 0.01270883
0.91521341 0.00948016
0.91603303 0.00443612
0.91685271 0.00700746
0.91767240 0.01079469
0.91849208 0.01351419
0.91931176 0.01574386
0.92013150 0.01763946
0.92095125 0.01934640
0.92177105 0.02085846
0.92259085 0.02225370
0.92341065 0.02354604
0.92423052 0.02474755
0.92505038 0.02587223
0.92587030 0.02693328
0.92669022 0.02793344
0.92751020 0.02888228
0.92833018 0.02980844
0.92915022 0.03067149
0.92997026 0.03149290
0.93079036 0.03228223
0.93161052 0.03303599
0.93243074 0.03373652
0.93325096 0.03443587
0.93407118 0.03512952
0.93489152 0.03577785
0.93571186 0.03639986
0.93653226 0.03700022
0.93735272 0.03758421
0.93817317 0.03814935
0.93899369 0.03871553
0.93981433 0.03922206
0.94063497 0.03972687
0.94145566 0.04022352
0.94227636 0.04073322
0.94309717 0.04116882
0.94391805 0.04162295
0.94473892 0.04209277
0.94555992 0.04248856
0.94638097 0.04290100
0.94720203 0.04333509
0.94802320 0.04369856
0.94884443 0.04408083
0.94966567 0.04447794
0.95048702 0.04484343
0.95130843 0.04519023
0.95212990 0.04553205
0.95295149 0.04582881
0.95377308 0.04618270
0.95459479 0.04649594
0.95541656 0.04680026
0.95623839 0.04709580
0.95706028 0.04737537
0.95788223 0.04763279
0.95870423 0.04788073
0.95952624 0.04811939
0.96034831 0.04835568
0.96117038 0.04858827
0.96199250 0.04881765
0.96281457 0.04904253
0.96363664 0.04926818
0.96445870 0.04949260
0.96528077 0.04971612
0.96610272 0.04997041
0.96692473 0.05016246
0.96774662 0.05038539
0.96856844 0.05061109
0.96939021 0.05083215
0.97021192 0.05106081
0.97103351 0.05128450
0.97185498 0.05151062
0.97267634 0.05177484
0.97349763 0.05196558
0.97431874 0.05222989
0.97513974 0.05245763
0.97596061 0.05264758
0.97678131 0.05287730
0.97760183 0.05310196
0.97842216 0.05336343
0.97924232 0.05358296
0.98006225 0.05379700
0.98088199 0.05400600
0.98170155 0.05420827
0.98252082 0.05439938
0.98333991 0.05457907
0.98415869 0.05474127
0.98497719 0.05492296
0.98579550 0.05499954
0.98661345 0.05509014
0.98743111 0.05513580
0.98824847 0.05518452
0.98906553 0.05508179
0.98988223 0.05499327
0.99069858 0.05476553
0.99151456 0.05442641
0.99224854 0.05398569
0.99284983 0.05357795
0.99334258 0.05306546
0.99374640 0.05256958
0.99407727 0.05211319
0.99434841 0.05171314
0.99457067 0.05130257
0.99475282 0.05092476
0.99490207 0.05065984
0.99502444 0.05035364
0.99512470 0.05011666
0.99520689 0.04986629
0.99527425 0.04971169
0.99532950 0.04949673
