0.99341136 0.00370317
0.99335474 0.00369933
0.99328572 0.00363051
0.99320149 0.00356732
0.99309874 0.00350314
0.99297339 0.00343210
0.99282044 0.00335569
0.99263388 0.00327964
0.99240625 0.00319327
0.99212855 0.00310629
0.99178970 0.00301880
0.99137640 0.00292159
0.99087214 0.00282794
0.99033016 0.00274099
0.98978817 0.00266482
0.98924619 0.00258198
0.98870426 0.00251924
0.98816234 0.00246633
0.98762041 0.00241914
0.98707849 0.00237610
0.98653656 0.00233680
0.98599464 0.00230447
0.98545277 0.00226767
0.98491091 0.00223695
0.98436904 0.00220836
0.98382717 0.00218513
0.98328537 0.00215668
0.98274350 0.00213659
0.98220170 0.00211109
0.98165989 0.00209031
0.98111808 0.00207065
0.98057628 0.00205189
0.98003447 0.00203739
0.97949272 0.00201723
0.97895092 0.00200418
0.97840917 0.00198871
0.97786742 0.00197074
0.97732568 0.00195654
0.97678393 0.00194603
0.97624218 0.00193289
0.97570050 0.00191724
0.97515875 0.00190810
0.97461706 0.00189627
0.97407538 0.00188179
0.97353363 0.00187376
0.97299194 0.00186313
0.97245026 0.00185275
0.97190863 0.00183977
0.97136694 0.00183291
0.97082525 0.00182342
0.97028363 0.00181119
0.96974194 0.00180505
0.96920031 0.00179329
0.96865863 0.00178755
0.96811700 0.00177909
0.96757537 0.00177086
0.96703374 0.00175989
0.96649206 0.00175483
0.96595043 0.00174701
0.96540880 0.00173935
0.96486717 0.00173183
0.96432561 0.00172447
0.96378398 0.00171722
0.96324235 0.00171005
0.96270072 0.00170298
0.96215910 0.00169604
0.96161753 0.00168916
0.96107590 0.00168240
0.96053427 0.00167572
0.95999265 0.00167183
0.95945108 0.00166256
0.95890945 0.00164666
0.95836782 0.00164292
0.95782626 0.00163387
0.95728463 0.00162757
0.95674300 0.00162397
0.95620143 0.00161510
0.95565981 0.00160894
0.95511818 0.00160281
0.95457661 0.00159673
0.95403498 0.00159068
0.95349336 0.00158469
0.95295173 0.00157874
0.95241010 0.00157282
0.95186847 0.00156944
0.95132685 0.00156355
0.95078522 0.00155767
0.95024359 0.00154931
0.94970196 0.00154350
0.94916034 0.00153769
0.94861865 0.00153439
0.94807702 0.00152859
0.94753540 0.00152038
0.94699371 0.00151709
0.94645208 0.00150888
0.94591039 0.00150314
0.94536871 0.00149988
0.94482702 0.00149411
0.94428533 0.00148842
0.94374365 0.00148269
0.94320196 0.00147693
0.94266027 0.00147121
0.94211859 0.00146312
0.94157684 0.00145980
0.94103515 0.00145162
0.94049340 0.00144827
0.93995166 0.00144251
0.93940991 0.00143680
0.93886817 0.00143102
0.93832642 0.00142294
0.93778461 0.00141951
0.93724287 0.00141371
0.93670106 0.00140791
0.93615925 0.00140209
0.93561751 0.00139411
0.93507564 0.00139050
0.93453383 0.00138473
0.93399203 0.00137668
0.93345016 0.00137302
0.93290830 0.00136716
0.93236643 0.00136130
0.93182456 0.00135543
0.93128270 0.00134962
0.93074077 0.00134366
0.93019891 0.00133784
0.92965698 0.00133196
0.92911506 0.00132608
0.92857313 0.00131814
0.92803115 0.00131435
0.92748916 0.00130856
0.92694724 0.00130266
0.92640519 0.00129690
0.92586321 0.00129109
0.92532122 0.00128538
0.92477918 0.00127959
0.92423713 0.00127397
0.92369509 0.00126840
0.92315298 0.00126276
0.92261094 0.00125719
0.92206883 0.00125183
0.92152673 0.00124656
0.92098457 0.00124128
0.92044246 0.00123628
0.91990030 0.00123146
0.91935813 0.00122672
0.91881591 0.00122235
0.91827375 0.00121824
0.91773152 0.00121426
0.91718930 0.00121064
0.91664702 0.00120907
0.91610479 0.00120395
0.91556251 0.00120099
0.91502023 0.00119823
0.91447794 0.00119556
0.91393566 0.00119320
0.91339332 0.00119102
0.91285098 0.00119081
0.91230863 0.00118899
0.91176629 0.00118722
0.91122395 0.00118400
0.91068155 0.00118445
0.91013920 0.00118143
0.90959680 0.00118045
0.90905440 0.00118138
0.90851200 0.00118071
0.90796959 0.00117845
0.90742719 0.00117796
0.90688473 0.00117947
0.90634233 0.00117764
0.90579987 0.00117769
0.90525740 0.00117949
0.90471494 0.00117981
0.90417248 0.00118026
0.90363002 0.00118072
0.90308756 0.00118154
0.90254509 0.00118053
0.90200257 0.00118320
0.90146011 0.00118428
0.90091765 0.00118376
0.90037513 0.00118667
0.89983261 0.00118808
0.89929014 0.00118949
0.89874762 0.00119113
0.89820516 0.00119113
0.89766264 0.00119470
0.89712012 0.00119664
0.89657760 0.00119868
0.89603513 0.00119894
0.89549261 0.00120302
0.89495009 0.00120533
0.89440757 0.00120759
0.89386505 0.00121005
0.89332259 0.00121080
0.89278007 0.00121516
0.89223754 0.00121771
0.89169502 0.00122044
0.89115256 0.00122321
0.89061004 0.00122601
0.89006752 0.00122885
0.88952506 0.00123172
0.88898253 0.00123459
0.88844007 0.00123746
0.88789761 0.00124008
0.88735509 0.00124315
0.88681263 0.00124593
0.88627017 0.00124839
0.88572770 0.00125099
0.88518524 0.00125345
0.88464278 0.00125596
0.88410032 0.00125771
0.88355786 0.00126130
0.88301545 0.00126090
0.88247299 0.00126210
0.88193059 0.00126281
0.88138813 0.00126565
0.88084573 0.00126403
0.88030332 0.00126431
0.87976092 0.00126438
0.87921852 0.00126425
0.87867606 0.00126578
0.87813365 0.00126524
0.87759125 0.00126451
0.87704885 0.00126362
0.87650645 0.00126256
0.87596405 0.00126131
0.87542164 0.00125990
0.87487924 0.00125833
0.87433684 0.00125634
0.87379444 0.00125444
0.87325203 0.00125053
0.87270963 0.00124831
0.87216723 0.00124595
0.87162483 0.00124345
0.87108237 0.00124265
0.87053996 0.00123986
0.86999756 0.00123509
0.86945510 0.00123358
0.86891270 0.00122856
0.86837023 0.00122703
0.86782783 0.00122176
0.86728537 0.00121816
0.86674291 0.00121622
0.86620045 0.00121237
0.86565799 0.00120839
0.86511552 0.00120253
0.86457300 0.00120008
0.86403054 0.00119552
0.86348802 0.00119108
0.86294556 0.00118481
0.86240304 0.00118016
0.86186051 0.00117518
0.86131799 0.00117057
0.86077541 0.00116732
0.86023289 0.00116060
0.85969031 0.00115715
0.85914773 0.00115171
0.85860515 0.00114665
0.85806251 0.00114107
0.85751992 0.00113565
0.85697728 0.00113017
0.85643464 0.00112464
0.85589200 0.00111886
0.85534936 0.00111325
0.85480666 0.00110763
0.85426396 0.00110201
0.85372126 0.00109638
0.85317856 0.00108923
0.85263580 0.00108499
0.85209304 0.00107968
0.85155028 0.00107423
0.85100746 0.00106869
0.85046464 0.00106349
0.84992182 0.00105846
0.84937900 0.00105345
0.84883612 0.00104916
0.84829324 0.00104497
0.84775037 0.00104089
0.84720743 0.00103731
0.84666449 0.00103544
0.84612155 0.00103101
0.84557861 0.00102827
0.84503561 0.00102579
0.84449261 0.00102474
0.84394962 0.00102158
0.84340662 0.00101963
0.84286356 0.00101812
0.84232050 0.00101684
0.84177744 0.00101599
0.84123439 0.00101495
0.84069127 0.00101567
0.84014821 0.00101391
0.83960509 0.00101373
0.83906198 0.00101374
0.83851886 0.00101394
0.83797568 0.00101413
0.83743256 0.00101472
0.83688939 0.00101550
0.83634621 0.00101667
0.83580303 0.00101761
0.83525985 0.00101894
0.83471668 0.00102044
0.83417344 0.00102325
0.83363026 0.00102376
0.83308703 0.00102577
0.83254379 0.00102928
0.83200055 0.00103183
0.83145738 0.00103298
0.83091414 0.00103542
0.83037090 0.00103822
0.82982761 0.00104252
0.82928437 0.00104561
0.82874113 0.00104884
0.82819790 0.00105084
0.82765460 0.00105549
0.82711136 0.00105912
0.82656813 0.00106170
0.82602483 0.00106694
0.82548159 0.00107092
0.82493836 0.00107361
0.82439506 0.00107897
0.82385182 0.00108325
0.82330853 0.00108761
0.82276529 0.00109205
0.82222205 0.00109656
0.82167882 0.00109971
0.82113552 0.00110576
0.82059228 0.00111020
0.82004905 0.00111488
0.81950581 0.00111958
0.81896257 0.00112427
0.81841934 0.00112894
0.81787610 0.00113356
0.81733292 0.00113664
0.81678969 0.00114258
0.81624645 0.00114691
0.81570327 0.00115106
0.81516010 0.00115497
0.81461692 0.00115858
0.81407374 0.00116181
0.81353056 0.00116465
0.81298739 0.00116711
0.81244421 0.00116875
0.81190103 0.00117253
0.81135792 0.00117195
0.81081480 0.00117352
0.81027162 0.00117385
0.80972850 0.00117483
0.80918539 0.00117457
0.80864221 0.00117497
0.80809909 0.00117464
0.80755597 0.00117358
0.80701286 0.00117273
0.80646974 0.00117163
0.80592662 0.00117029
0.80538350 0.00116871
0.80484039 0.00116689
0.80429721 0.00116641
0.80375409 0.00116262
0.80321097 0.00116016
0.80266786 0.00115748
0.80212468 0.00115611
0.80158156 0.00115150
0.80103844 0.00114777
0.80049527 0.00114478
0.79995215 0.00114114
0.79940897 0.00113732
0.79886580 0.00113287
0.79832262 0.00113064
0.79777944 0.00112585
0.79723626 0.00112136
0.79669309 0.00111525
0.79614985 0.00111189
0.79560667 0.00110550
0.79506344 0.00110186
0.79452020 0.00109665
0.79397696 0.00109132
0.79343373 0.00108587
0.79289049 0.00107890
0.79234719 0.00107459
0.79180390 0.00106880
0.79126060 0.00106292
0.79071730 0.00105697
0.79017401 0.00105093
0.78963065 0.00104441
0.78908730 0.00103868
0.78854394 0.00103208
0.78800058 0.00102628
0.78745717 0.00102005
0.78691375 0.00101341
0.78637034 0.00100719
0.78582692 0.00100101
0.78528345 0.00099490
0.78473997 0.00098926
0.78419650 0.00098331
0.78365296 0.00097711
0.78310949 0.00097067
0.78256589 0.00096605
0.78202236 0.00096089
0.78147876 0.00095605
0.78093517 0.00095162
0.78039151 0.00094761
0.77984792 0.00094285
0.77930427 0.00093961
0.77876055 0.00093783
0.77821684 0.00093528
0.77767318 0.00093197
0.77712941 0.00093080
0.77658570 0.00092960
0.77604192 0.00092833
0.77549815 0.00092697
0.77495438 0.00092665
0.77441061 0.00092586
0.77386677 0.00092610
0.77332294 0.00092623
0.77277911 0.00092662
0.77223527 0.00092689
0.77169144 0.00092779
0.77114755 0.00092893
0.77060366 0.00093029
0.77005976 0.00093296
0.76951587 0.00093480
0.76897198 0.00093580
0.76842809 0.00093808
0.76788419 0.00094058
0.76734024 0.00094329
0.76679629 0.00094726
0.76625240 0.00094933
0.76570845 0.00095265
0.76516449 0.00095615
0.76462054 0.00095986
0.76407659 0.00096377
0.76353264 0.00096786
0.76298869 0.00097171
0.76244467 0.00097762
0.76190072 0.00098074
0.76135677 0.00098588
0.76081282 0.00099080
0.76026881 0.00099698
0.75972486 0.00100068
0.75918090 0.00100602
0.75863689 0.00101261
0.75809294 0.00101707
0.75754899 0.00102279
0.75700498 0.00102975
0.75646102 0.00103567
0.75591707 0.00104050
0.75537312 0.00104655
0.75482917 0.00105263
0.75428522 0.00105875
0.75374126 0.00106446
0.75319731 0.00107102
0.75265336 0.00107831
0.75210947 0.00108266
0.75156552 0.00109021
0.75102162 0.00109473
0.75047767 0.00110154
0.74993378 0.00110639
0.74938989 0.00111128
0.74884599 0.00111614
0.74830216 0.00111833
0.74775827 0.00112343
0.74721444 0.00112502
0.74667054 0.00112872
0.74612671 0.00113024
0.74558288 0.00113222
0.74503905 0.00113331
0.74449521 0.00113352
0.74395138 0.00113378
0.74340755 0.00113365
0.74286377 0.00113183
0.74231994 0.00113224
0.74177611 0.00113099
0.74123234 0.00112810
0.74068850 0.00112745
0.74014467 0.00112517
0.73960090 0.00112083
0.73905706 0.00111965
0.73851323 0.00111644
0.73796940 0.00111292
0.73742557 0.00110866
0.73688179 0.00110457
0.73633796 0.00110022
0.73579413 0.00109562
0.73525023 0.00109120
0.73470640 0.00108567
0.73416257 0.00108034
0.73361868 0.00107480
0.73307484 0.00106906
0.73253095 0.00106313
0.73198706 0.00105700
0.73144317 0.00105070
0.73089927 0.00104422
0.73035532 0.00103761
0.72981143 0.00103087
0.72926748 0.00102359
0.72872353 0.00101701
0.72817957 0.00100991
0.72763556 0.00100273
0.72709155 0.00099658
0.72654754 0.00098928
0.72600353 0.00098194
0.72545952 0.00097313
0.72491544 0.00096617
0.72437137 0.00095950
0.72382730 0.00095156
0.72328317 0.00094496
0.72273910 0.00093683
0.72219497 0.00092982
0.72165078 0.00092429
0.72110659 0.00091758
0.72056240 0.00091072
0.72001821 0.00090448
0.71947396 0.00089854
0.71892971 0.00089334
0.71838546 0.00088787
0.71784115 0.00088361
0.71729684 0.00087955
0.71675253 0.00087599
0.71620822 0.00087203
0.71566385 0.00086906
0.71511942 0.00086773
0.71457505 0.00086630
0.71403062 0.00086459
0.71348619 0.00086360
0.71294177 0.00086298
0.71239734 0.00086224
0.71185285 0.00086281
0.71130836 0.00086359
0.71076387 0.00086399
0.71021938 0.00086540
0.70967489 0.00086642
0.70913035 0.00086808
0.70858586 0.00086921
0.70804131 0.00087228
0.70749676 0.00087479
0.70695221 0.00087674
0.70640761 0.00088059
0.70586306 0.00088389
0.70531851 0.00088660
0.70477390 0.00089120
0.70422930 0.00089522
0.70368475 0.00089864
0.70314014 0.00090393
0.70259553 0.00090863
0.70205092 0.00091318
0.70150632 0.00091829
0.70096171 0.00092398
0.70041710 0.00092951
0.69987249 0.00093523
0.69932789 0.00094074
0.69878322 0.00094681
0.69823861 0.00095342
0.69769400 0.00095983
0.69714940 0.00096599
0.69660479 0.00097267
0.69606018 0.00097949
0.69551557 0.00098683
0.69497097 0.00099389
0.69442636 0.00100063
0.69388175 0.00100783
0.69333714 0.00101508
0.69279253 0.00102277
0.69224793 0.00103059
0.69170338 0.00103729
0.69115877 0.00104406
0.69061422 0.00105111
0.69006968 0.00105800
0.68952507 0.00106567
0.68898052 0.00107201
0.68843603 0.00107690
0.68789148 0.00108223
0.68734694 0.00108798
0.68680245 0.00109061
0.68625796 0.00109412
0.68571341 0.00109855
0.68516892 0.00110093
0.68462443 0.00110232
0.68408000 0.00110256
0.68353552 0.00110334
0.68299103 0.00110362
0.68244654 0.00110447
0.68190211 0.00110269
0.68135762 0.00110257
0.68081319 0.00109986
0.68026870 0.00109884
0.67972428 0.00109526
0.67917979 0.00109337
0.67863536 0.00108896
0.67809087 0.00108625
0.67754644 0.00108103
0.67700195 0.00107754
0.67645752 0.00107160
0.67591304 0.00106636
0.67536855 0.00106137
0.67482406 0.00105588
0.67427957 0.00104923
0.67373508 0.00104314
0.67319059 0.00103634
0.67264611 0.00102830
0.67210156 0.00102198
0.67155701 0.00101403
0.67101252 0.00100533
0.67046797 0.00099739
0.66992337 0.00099021
0.66937882 0.00098194
0.66883427 0.00097263
0.66828966 0.00096539
0.66774505 0.00095639
0.66720045 0.00094770
0.66665578 0.00093935
0.66611117 0.00092977
0.66556650 0.00092067
0.66502178 0.00091279
0.66447711 0.00090451
0.66393238 0.00089559
0.66338766 0.00088718
0.66284293 0.00087929
0.66229814 0.00087090
0.66175336 0.00086310
0.66120857 0.00085594
0.66066372 0.00084879
0.66011894 0.00084174
0.65957403 0.00083555
0.65902919 0.00082996
0.65848428 0.00082501
0.65793937 0.00082067
0.65739447 0.00081690
0.65684950 0.00081368
0.65630454 0.00081099
0.65575957 0.00080879
0.65521455 0.00080707
0.65466958 0.00080581
0.65412456 0.00080533
0.65357947 0.00080524
0.65303445 0.00080498
0.65248942 0.00080509
0.65194434 0.00080623
0.65139925 0.00080709
0.65085417 0.00080897
0.65030909 0.00081054
0.64976394 0.00081339
0.64921886 0.00081569
0.64867371 0.00081885
0.64812863 0.00082146
0.64758348 0.00082531
0.64703834 0.00082879
0.64649320 0.00083289
0.64594805 0.00083761
0.64540285 0.00084254
0.64485770 0.00084748
0.64431256 0.00085208
0.64376736 0.00085849
0.64322221 0.00086325
0.64267701 0.00086982
0.64213187 0.00087540
0.64158666 0.00088244
0.64104152 0.00088845
0.64049631 0.00089529
0.63995111 0.00090263
0.63940597 0.00090960
0.63886076 0.00091766
0.63831556 0.00092490
0.63777041 0.00093239
0.63722521 0.00094099
0.63668007 0.00094838
0.63613486 0.00095723
0.63558972 0.00096482
0.63504452 0.00097387
0.63449937 0.00098118
0.63395417 0.00099071
0.63340902 0.00099874
0.63286388 0.00100714
0.63231874 0.00101545
0.63177359 0.00102362
0.63122845 0.00103161
0.63068336 0.00103856
0.63013822 0.00104707
0.62959307 0.00105346
0.62904799 0.00105962
0.62850291 0.00106512
0.62795782 0.00106997
0.62741274 0.00107464
0.62686765 0.00107827
0.62632257 0.00108131
0.62577754 0.00108290
0.62523246 0.00108480
0.62468743 0.00108615
0.62414235 0.00108697
0.62359732 0.00108815
0.62305230 0.00108795
0.62250721 0.00108638
0.62196219 0.00108608
0.62141716 0.00108356
0.62087214 0.00108146
0.62032712 0.00107892
0.61978203 0.00107677
0.61923701 0.00107255
0.61869198 0.00106876
0.61814696 0.00106456
0.61760193 0.00105998
0.61705685 0.00105503
0.61651182 0.00104973
0.61596674 0.00104572
0.61542171 0.00103812
0.61487663 0.00103262
0.61433160 0.00102526
0.61378652 0.00101841
0.61324143 0.00101129
0.61269635 0.00100392
0.61215127 0.00099632
0.61160612 0.00098924
0.61106104 0.00098051
0.61051589 0.00097304
0.60997081 0.00096398
0.60942566 0.00095549
0.60888052 0.00094689
0.60833538 0.00093820
0.60779017 0.00093010
0.60724503 0.00092065
0.60669982 0.00091183
0.60615462 0.00090301
0.60560936 0.00089484
0.60506415 0.00088610
0.60451889 0.00087746
0.60397363 0.00086896
0.60342836 0.00086062
0.60288310 0.00085249
0.60233778 0.00084460
0.60179251 0.00083647
0.60124713 0.00082975
0.60070181 0.00082359
0.60015643 0.00081659
0.59961110 0.00081036
0.59906572 0.00080533
0.59852028 0.00080146
0.59797490 0.00079730
0.59742945 0.00079425
0.59688401 0.00079180
0.59633857 0.00078992
0.59579307 0.00078904
0.59524763 0.00078779
0.59470212 0.00078794
0.59415662 0.00078813
0.59361112 0.00078880
0.59306562 0.00078949
0.59252006 0.00079212
0.59197456 0.00079346
0.59142900 0.00079586
0.59088343 0.00079866
0.59033793 0.00080142
0.58979237 0.00080540
0.58924681 0.00080932
0.58870119 0.00081358
0.58815563 0.00081819
0.58761007 0.00082380
0.58706450 0.00082839
0.58651888 0.00083396
0.58597332 0.00083983
0.58542776 0.00084666
0.58488214 0.00085310
0.58433652 0.00085953
0.58379096 0.00086605
0.58324534 0.00087324
0.58269978 0.00088065
0.58215415 0.00088827
0.58160859 0.00089608
0.58106297 0.00090408
0.58051735 0.00091269
0.57997179 0.00092054
0.57942617 0.00092896
0.57888061 0.00093671
0.57833499 0.00094528
0.57778943 0.00095465
0.57724380 0.00096374
0.57669824 0.00097181
0.57615268 0.00098028
0.57560706 0.00098909
0.57506150 0.00099719
0.57451594 0.00100419
0.57397038 0.00101156
0.57342482 0.00101919
0.57287925 0.00102530
0.57233375 0.00103013
0.57178819 0.00103532
0.57124269 0.00103872
0.57069713 0.00104172
0.57015163 0.00104462
0.56960607 0.00104634
0.56906056 0.00104800
0.56851506 0.00104793
0.56796956 0.00104898
0.56742400 0.00104917
0.56687850 0.00104823
0.56633300 0.00104676
0.56578749 0.00104336
0.56524199 0.00104086
0.56469649 0.00103785
0.56415099 0.00103436
0.56360543 0.00103178
0.56305993 0.00102734
0.56251442 0.00102246
0.56196892 0.00101660
0.56142342 0.00101087
0.56087786 0.00100446
0.56033236 0.00099794
0.55978680 0.00099104
0.55924129 0.00098459
0.55869573 0.00097699
0.55815023 0.00096855
0.55760467 0.00096083
0.55705911 0.00095232
0.55651355 0.00094356
0.55596799 0.00093380
0.55542243 0.00092487
0.55487680 0.00091593
0.55433124 0.00090636
0.55378562 0.00089594
0.55324000 0.00088686
0.55269438 0.00087700
0.55214876 0.00086709
0.55160314 0.00085720
0.55105752 0.00084736
0.55051184 0.00083761
0.54996616 0.00082733
0.54942054 0.00081860
0.54887480 0.00080880
0.54832911 0.00080063
0.54778343 0.00079223
0.54723769 0.00078434
0.54669195 0.00077711
0.54614621 0.00077063
0.54560047 0.00076495
0.54505473 0.00075938
0.54450893 0.00075576
0.54396313 0.00075220
0.54341739 0.00074873
0.54287153 0.00074671
0.54232574 0.00074577
0.54177994 0.00074396
0.54123414 0.00074411
0.54068828 0.00074432
0.54014248 0.00074505
0.53959662 0.00074636
0.53905076 0.00074819
0.53850490 0.00075075
0.53795904 0.00075299
0.53741318 0.00075692
0.53686732 0.00076072
0.53632146 0.00076498
0.53577560 0.00076886
0.53522974 0.00077461
0.53468382 0.00077975
0.53413796 0.00078632
0.53359210 0.00079181
0.53304619 0.00079935
0.53250033 0.00080556
0.53195447 0.00081355
0.53140855 0.00082149
0.53086269 0.00082854
0.53031677 0.00083695
0.52977091 0.00084591
0.52922499 0.00085477
0.52867913 0.00086341
0.52813321 0.00087193
0.52758735 0.00088082
0.52704144 0.00089023
0.52649558 0.00089994
0.52594966 0.00090938
0.52540380 0.00091851
0.52485794 0.00092726
0.52431202 0.00093630
0.52376616 0.00094481
0.52322030 0.00095188
0.52267444 0.00096019
0.52212852 0.00096730
0.52158266 0.00097256
0.52103680 0.00097863
0.52049094 0.00098239
0.51994509 0.00098626
0.51939923 0.00099026
0.51885337 0.00099201
0.51830757 0.00099445
0.51776171 0.00099530
0.51721585 0.00099689
0.51666999 0.00099630
0.51612413 0.00099680
0.51557827 0.00099598
0.51503247 0.00099438
0.51448661 0.00099211
0.51394075 0.00098986
0.51339489 0.00098716
0.51284903 0.00098484
0.51230323 0.00098023
0.51175737 0.00097659
0.51121151 0.00097227
0.51066566 0.00096836
0.51011980 0.00096254
0.50957394 0.00095718
0.50902808 0.00095148
0.50848222 0.00094549
0.50793636 0.00093997
0.50739050 0.00093341
0.50684458 0.00092610
0.50629872 0.00091880
0.50575286 0.00091155
0.50520700 0.00090481
0.50466108 0.00089645
0.50411522 0.00088866
0.50356930 0.00088145
0.50302345 0.00087342
0.50247753 0.00086531
0.50193161 0.00085646
0.50138569 0.00084917
0.50083983 0.00084080
0.50029391 0.00083201
0.49974796 0.00082407
0.49920204 0.00081617
0.49865612 0.00080903
0.49811018 0.00080097
0.49756423 0.00079443
0.49701831 0.00078755
0.49647236 0.00078122
0.49592641 0.00077486
0.49538043 0.00076986
0.49483448 0.00076544
0.49428850 0.00076164
0.49374256 0.00075906
0.49319658 0.00075583
0.49265060 0.00075377
0.49210462 0.00075284
0.49155864 0.00075127
0.49101266 0.00075080
0.49046668 0.00075140
0.48992071 0.00075191
0.48937473 0.00075287
0.48882875 0.00075370
0.48828274 0.00075618
0.48773676 0.00075850
0.48719075 0.00076066
0.48664477 0.00076381
0.48609877 0.00076802
0.48555279 0.00077197
0.48500678 0.00077635
0.48446080 0.00078045
0.48391479 0.00078622
0.48336881 0.00079103
0.48282281 0.00079752
0.48227683 0.00080302
0.48173082 0.00081021
0.48118481 0.00081699
0.48063883 0.00082419
0.48009282 0.00083089
0.47954684 0.00083921
0.47900084 0.00084727
0.47845483 0.00085542
0.47790885 0.00086386
0.47736284 0.00087248
0.47681683 0.00088057
0.47627085 0.00088951
0.47572485 0.00089930
0.47517887 0.00090770
0.47463286 0.00091762
0.47408685 0.00092678
0.47354087 0.00093589
0.47299486 0.00094487
0.47244889 0.00095363
0.47190288 0.00096132
0.47135687 0.00097018
0.47081089 0.00097686
0.47026488 0.00098361
0.46971890 0.00098937
0.46917292 0.00099500
0.46862692 0.00099811
0.46808094 0.00100193
0.46753493 0.00100414
0.46698895 0.00100543
0.46644297 0.00100515
0.46589696 0.00100494
0.46535099 0.00100470
0.46480501 0.00100216
0.46425900 0.00099977
0.46371302 0.00099667
0.46316704 0.00099370
0.46262103 0.00098938
0.46207505 0.00098363
0.46152908 0.00097808
0.46098307 0.00097288
0.46043709 0.00096557
0.45989111 0.00095854
0.45934510 0.00095115
0.45879912 0.00094408
0.45825312 0.00093588
0.45770714 0.00092733
0.45716113 0.00091775
0.45661515 0.00090867
0.45606914 0.00089935
0.45552316 0.00088983
0.45497715 0.00088086
0.45443118 0.00087037
0.45388517 0.00086120
0.45333916 0.00085060
0.45279318 0.00084137
0.45224717 0.00083083
0.45170116 0.00082172
0.45115519 0.00081208
0.45060918 0.00080261
0.45006317 0.00079273
0.44951716 0.00078440
0.44897118 0.00077579
0.44842517 0.00076694
0.44787920 0.00075980
0.44733319 0.00075197
0.44678721 0.00074538
0.44624120 0.00074014
0.44569522 0.00073515
0.44514924 0.00073112
0.44460323 0.00072785
0.44405726 0.00072531
0.44351128 0.00072359
0.44296530 0.00072251
0.44241935 0.00072276
0.44187337 0.00072237
0.44132739 0.00072321
0.44078144 0.00072468
0.44023547 0.00072660
0.43968952 0.00072910
0.43914357 0.00073212
0.43859762 0.00073570
0.43805164 0.00074021
0.43750572 0.00074472
0.43695977 0.00074894
0.43641382 0.00075487
0.43586788 0.00076000
0.43532193 0.00076676
0.43477601 0.00077266
0.43423006 0.00077955
0.43368411 0.00078674
0.43313819 0.00079443
0.43259224 0.00080295
0.43204632 0.00081065
0.43150041 0.00081924
0.43095446 0.00082875
0.43040854 0.00083795
0.42986259 0.00084657
0.42931667 0.00086008
0.42877075 0.00086997
0.42822480 0.00087920
0.42767888 0.00089021
0.42713293 0.00089972
0.42658702 0.00091020
0.42604107 0.00092129
0.42549515 0.00093106
0.42494920 0.00094133
0.42440325 0.00095154
0.42385733 0.00096162
0.42331138 0.00097128
0.42276543 0.00098039
0.42221949 0.00098894
0.42167354 0.00099662
0.42112759 0.00100324
0.42058164 0.00100882
0.42003566 0.00101314
0.41948971 0.00101729
0.41894376 0.00101885
0.41839778 0.00102006
0.41785184 0.00102036
0.41730586 0.00101970
0.41675991 0.00101809
0.41621393 0.00101557
0.41566798 0.00101217
0.41512200 0.00100872
0.41457602 0.00100275
0.41403008 0.00099775
0.41348410 0.00099032
0.41293815 0.00098298
0.41239217 0.00097494
0.41184622 0.00096702
0.41130024 0.00095688
0.41075429 0.00094710
0.41020834 0.00093673
0.40966237 0.00092581
0.40911642 0.00091456
0.40857047 0.00090301
0.40802452 0.00089106
0.40747857 0.00087547
0.40693262 0.00086306
0.40638670 0.00085059
0.40584075 0.00083785
0.40529484 0.00082524
0.40474889 0.00081248
0.40420297 0.00079990
0.40365708 0.00078756
0.40311116 0.00077526
0.40256527 0.00076405
0.40201935 0.00075238
0.40147349 0.00074134
0.40092760 0.00073007
0.40038174 0.00072001
0.39983588 0.00071076
0.39929003 0.00070295
0.39874420 0.00069544
0.39819837 0.00068860
0.39765257 0.00068400
0.39710677 0.00067942
0.39656097 0.00067699
0.39601520 0.00067501
0.39546943 0.00067396
0.39492369 0.00067382
0.39437795 0.00067454
0.39383221 0.00067607
0.39328647 0.00067825
0.39274076 0.00068132
0.39219505 0.00068511
0.39164937 0.00068975
0.39110366 0.00069420
0.39055797 0.00070057
0.39001229 0.00070924
0.38946664 0.00071643
0.38892096 0.00072387
0.38837531 0.00073219
0.38782966 0.00074090
0.38728401 0.00075012
0.38673836 0.00075984
0.38619271 0.00077003
0.38564706 0.00078048
0.38510141 0.00079153
0.38455579 0.00080315
0.38401014 0.00081477
0.38346449 0.00082687
0.38291883 0.00083932
0.38237318 0.00085189
0.38182756 0.00086512
0.38128191 0.00087784
0.38073626 0.00089105
0.38019058 0.00090409
0.37964493 0.00091708
0.37909925 0.00093004
0.37855360 0.00094266
0.37800792 0.00095493
0.37746224 0.00096661
0.37691653 0.00097750
0.37637085 0.00098732
0.37582514 0.00099592
0.37527943 0.00100330
0.37473369 0.00100930
0.37418798 0.00101456
0.37364224 0.00101850
0.37309650 0.00102117
0.37255076 0.00102219
0.37200502 0.00102386
0.37145928 0.00102373
0.37091354 0.00102285
0.37036780 0.00102086
0.36982203 0.00101777
0.36927629 0.00101405
0.36873055 0.00100970
0.36818478 0.00100416
0.36763903 0.00099805
0.36709329 0.00099142
0.36654752 0.00098371
0.36600178 0.00097553
0.36545604 0.00096674
0.36491030 0.00095736
0.36436456 0.00094743
0.36381885 0.00093699
0.36327311 0.00092683
0.36272740 0.00091476
0.36218169 0.00090305
0.36163598 0.00089101
0.36109027 0.00087868
0.36054459 0.00086613
0.35999891 0.00085407
0.35945323 0.00084051
0.35890758 0.00082756
0.35836193 0.00081460
0.35781628 0.00080233
0.35727066 0.00078952
0.35672504 0.00077670
0.35617945 0.00076391
0.35563385 0.00075168
0.35508829 0.00074028
0.35454273 0.00072954
0.35399720 0.00071903
0.35345170 0.00070900
0.35290620 0.00070055
0.35236073 0.00069279
0.35181528 0.00068635
0.35126984 0.00068000
0.35072443 0.00067596
0.35017905 0.00067232
0.34963366 0.00066906
0.34908831 0.00066724
0.34854299 0.00066626
0.34799767 0.00066663
0.34745237 0.00066672
0.34690708 0.00066864
0.34636182 0.00067077
0.34581658 0.00067362
0.34527135 0.00067740
0.34472612 0.00068139
0.34418091 0.00068627
0.34363571 0.00069179
0.34309050 0.00069737
0.34254533 0.00070468
0.34200019 0.00071203
0.34145501 0.00071996
0.34090987 0.00072786
0.34036472 0.00073687
0.33981958 0.00074701
0.33927444 0.00075678
0.33872932 0.00076759
0.33818421 0.00077860
0.33763906 0.00078975
0.33709395 0.00080190
0.33654884 0.00081413
0.33600372 0.00082671
0.33545861 0.00083964
0.33491346 0.00085248
0.33436835 0.00086627
0.33382320 0.00087940
0.33327809 0.00089372
0.33273295 0.00090732
0.33218780 0.00092092
0.33164263 0.00093447
0.33109745 0.00094773
0.33055228 0.00096088
0.33000711 0.00097337
0.32946190 0.00098521
0.32891670 0.00099600
0.32837150 0.00100592
0.32782626 0.00101418
0.32728100 0.00102081
0.32673576 0.00102656
0.32619050 0.00103111
0.32564524 0.00103452
0.32509995 0.00103766
0.32455468 0.00103805
0.32400939 0.00103824
0.32346410 0.00103744
0.32291880 0.00103567
0.32237351 0.00103380
0.32182822 0.00102938
0.32128292 0.00102494
0.32073763 0.00101967
0.32019234 0.00101361
0.31964704 0.00100682
0.31910175 0.00099931
0.31855646 0.00099081
0.31801119 0.00098235
0.31746593 0.00097375
0.31692064 0.00096349
0.31637540 0.00095340
0.31583014 0.00094252
0.31528491 0.00093048
0.31473967 0.00091885
0.31419447 0.00090692
0.31364927 0.00089471
0.31310406 0.00088301
0.31255889 0.00087045
0.31201372 0.00085680
0.31146857 0.00084412
0.31092346 0.00083177
0.31037834 0.00081891
0.30983326 0.00080650
0.30928820 0.00079529
0.30874315 0.00078305
0.30819812 0.00077162
0.30765313 0.00076041
0.30710816 0.00075004
0.30656323 0.00074056
0.30601829 0.00073105
0.30547342 0.00072307
0.30492857 0.00071602
0.30438372 0.00071026
0.30383894 0.00070561
0.30329418 0.00070207
0.30274945 0.00069957
0.30220473 0.00069805
0.30166006 0.00069746
0.30111539 0.00069778
0.30057076 0.00069895
0.30002615 0.00070095
0.29948154 0.00070370
0.29893699 0.00070731
0.29839244 0.00071191
0.29784790 0.00071664
0.29730338 0.00072264
0.29675889 0.00072874
0.29621440 0.00073577
0.29566991 0.00074308
0.29512545 0.00075136
0.29458103 0.00076059
0.29403657 0.00076966
0.29349214 0.00077965
0.29294771 0.00079017
0.29240331 0.00080191
0.29185888 0.00081302
0.29131448 0.00082539
0.29077005 0.00083738
0.29022565 0.00084980
0.28968126 0.00086333
0.28913683 0.00087631
0.28859243 0.00089079
0.28804800 0.00090379
0.28750357 0.00091822
0.28695914 0.00093539
0.28641468 0.00094960
0.28587025 0.00096344
0.28532577 0.00097684
0.28478131 0.00098978
0.28423682 0.00100191
0.28369230 0.00101295
0.28314778 0.00102267
0.28260323 0.00103101
0.28205869 0.00103801
0.28151411 0.00104319
0.28096956 0.00104805
0.28042495 0.00105118
0.27988037 0.00105310
0.27933577 0.00105428
0.27879116 0.00105345
0.27824655 0.00105192
0.27770191 0.00104926
0.27715731 0.00104570
0.27661270 0.00104149
0.27606806 0.00103542
0.27552345 0.00102847
0.27497885 0.00102107
0.27443424 0.00101325
0.27388963 0.00100422
0.27334505 0.00099491
0.27280048 0.00098407
0.27225590 0.00097339
0.27171132 0.00096128
0.27116677 0.00094875
0.27062225 0.00093653
0.27007774 0.00092353
0.26953325 0.00090649
0.26898876 0.00089335
0.26844430 0.00087969
0.26789987 0.00086594
0.26735547 0.00085218
0.26681110 0.00083888
0.26626673 0.00082500
0.26572242 0.00081187
0.26517814 0.00079919
0.26463386 0.00078693
0.26408964 0.00077493
0.26354545 0.00076366
0.26300132 0.00075407
0.26245722 0.00074474
0.26191315 0.00073735
0.26136914 0.00073088
0.26082516 0.00072563
0.26028121 0.00072150
0.25973728 0.00071805
0.25919342 0.00071604
0.25864959 0.00071513
0.25810578 0.00071533
0.25756201 0.00071585
0.25701827 0.00071783
0.25647455 0.00072261
0.25593087 0.00072591
0.25538719 0.00072955
0.25484356 0.00073468
0.25429994 0.00074023
0.25375634 0.00074621
0.25321278 0.00075347
0.25266922 0.00076109
0.25212568 0.00076936
0.25158215 0.00077793
0.25103864 0.00078741
0.25049514 0.00079747
0.24995166 0.00080809
0.24940817 0.00081958
0.24886471 0.00083117
0.24832124 0.00084308
0.24777777 0.00085571
0.24723431 0.00086876
0.24669085 0.00088222
0.24614739 0.00089641
0.24560393 0.00091057
0.24506046 0.00092505
0.24451698 0.00093949
0.24397351 0.00095441
0.24343003 0.00096976
0.24288653 0.00098460
0.24234302 0.00099935
0.24179950 0.00101493
0.24125597 0.00102969
0.24071243 0.00104455
0.24016887 0.00105877
0.23962529 0.00107222
0.23908168 0.00108450
0.23853806 0.00109631
0.23799442 0.00110599
0.23745076 0.00111528
0.23690709 0.00112246
0.23636341 0.00112890
0.23581971 0.00113467
0.23527600 0.00113889
0.23473227 0.00114127
0.23418854 0.00114389
0.23364481 0.00114541
0.23310107 0.00114563
0.23255731 0.00114460
0.23201357 0.00114302
0.23146982 0.00114091
0.23092607 0.00113730
0.23038232 0.00113320
0.22983858 0.00112876
0.22929484 0.00112265
0.22875109 0.00111670
0.22820736 0.00110914
0.22766365 0.00110179
0.22711994 0.00109290
0.22657624 0.00108427
0.22603256 0.00107461
0.22548889 0.00106439
0.22494523 0.00105365
0.22440159 0.00104210
0.22385798 0.00103073
0.22331437 0.00101834
0.22277081 0.00100624
0.22222726 0.00099324
0.22168374 0.00098061
0.22114024 0.00096721
0.22059678 0.00095404
0.22005334 0.00094122
0.21950994 0.00092776
0.21896657 0.00091479
0.21842325 0.00090226
0.21787995 0.00088958
0.21733671 0.00087884
0.21679351 0.00086786
0.21625036 0.00085796
0.21570724 0.00084917
0.21516418 0.00084181
0.21462116 0.00083504
0.21407819 0.00082975
0.21353525 0.00082485
0.21299236 0.00082114
0.21244951 0.00081834
0.21190669 0.00081641
0.21136391 0.00081532
0.21082118 0.00081505
0.21027848 0.00081559
0.20973581 0.00081692
0.20919317 0.00081903
0.20865057 0.00082189
0.20810799 0.00082519
0.20756546 0.00082982
0.20702294 0.00083486
0.20648044 0.00084029
0.20593798 0.00084703
0.20539553 0.00085413
0.20485312 0.00086188
0.20431070 0.00086996
0.20376831 0.00087899
0.20322596 0.00088896
0.20268360 0.00089956
0.20214124 0.00091004
0.20159891 0.00092106
0.20105658 0.00093298
0.20051427 0.00094542
0.19997196 0.00095873
0.19942965 0.00097543
0.19888733 0.00098883
0.19834504 0.00100378
0.19780272 0.00101834
0.19726041 0.00103321
0.19671810 0.00104835
0.19617577 0.00106411
0.19563343 0.00107921
0.19509108 0.00109473
0.19454873 0.00111027
0.19400635 0.00112557
0.19346397 0.00114084
0.19292156 0.00115571
0.19237915 0.00116942
0.19183670 0.00118205
0.19129424 0.00119447
0.19075176 0.00120526
0.19020927 0.00121611
0.18966676 0.00122626
0.18912424 0.00123424
0.18858172 0.00124293
0.18803917 0.00125055
0.18749662 0.00125749
0.18695407 0.00126479
0.18641150 0.00127003
0.18586892 0.00127574
0.18532634 0.00128041
0.18478374 0.00128409
0.18424116 0.00128819
0.18369856 0.00129139
0.18315597 0.00129409
0.18261337 0.00129581
0.18207078 0.00129813
0.18152818 0.00129951
0.18098558 0.00130048
0.18044299 0.00130105
0.17990041 0.00130176
0.17935783 0.00130106
0.17881525 0.00130104
0.17827266 0.00129969
0.17773011 0.00129894
0.17718755 0.00129693
0.17664501 0.00129554
0.17610247 0.00129339
0.17555995 0.00129096
0.17501743 0.00128777
0.17447494 0.00128480
0.17393245 0.00128157
0.17338999 0.00127813
0.17284752 0.00127446
0.17230509 0.00127009
0.17176268 0.00126657
0.17122027 0.00126189
0.17067790 0.00125759
0.17013554 0.00125320
0.16959320 0.00124779
0.16905089 0.00124335
0.16850860 0.00123943
0.16796634 0.00123421
0.16742410 0.00123016
0.16688189 0.00122634
0.16633971 0.00122270
0.16579755 0.00121882
0.16525541 0.00121508
0.16471331 0.00121151
0.16417123 0.00120906
0.16362919 0.00120577
0.16308716 0.00120261
0.16254517 0.00120005
0.16200320 0.00119711
0.16146126 0.00119475
0.16091935 0.00119201
0.16037746 0.00118936
0.15983561 0.00118678
0.15929379 0.00118522
0.15875198 0.00118184
0.15821020 0.00117993
0.15766847 0.00117807
0.15712675 0.00117626
0.15658507 0.00117402
0.15604341 0.00117184
0.15550178 0.00117015
0.15496019 0.00116802
0.15441862 0.00116639
0.15387708 0.00116478
0.15333557 0.00116273
0.15279408 0.00116067
0.15225263 0.00115865
0.15171121 0.00115710
0.15116982 0.00115555
0.15062846 0.00115401
0.15008715 0.00115294
0.14954585 0.00115140
0.14900458 0.00114936
0.14846334 0.00114781
0.14792214 0.00114673
0.14738096 0.00114514
0.14683983 0.00114311
0.14629872 0.00114244
0.14575765 0.00114085
0.14521660 0.00113926
0.14467558 0.00113768
0.14413460 0.00113581
0.14359365 0.00113494
0.14305274 0.00113353
0.14251186 0.00113220
0.14197101 0.00113086
0.14143020 0.00112946
0.14088941 0.00112785
0.14034866 0.00112650
0.13980795 0.00112568
0.13926727 0.00112387
0.13872662 0.00112281
0.13818601 0.00112155
0.13764544 0.00112033
0.13710490 0.00111966
0.13656439 0.00111825
0.13602391 0.00112183
0.13548347 0.00112075
0.13494308 0.00111998
0.13440271 0.00111856
0.13386239 0.00111851
0.13332209 0.00111784
0.13278183 0.00111703
0.13224162 0.00111699
0.13170144 0.00111685
0.13116129 0.00111644
0.13062118 0.00111708
0.13008112 0.00111838
0.12954108 0.00111959
0.12900110 0.00112105
0.12846114 0.00112322
0.12792121 0.00112509
0.12738132 0.00112840
0.12684147 0.00113191
0.12630165 0.00113563
0.12576185 0.00113975
0.12522210 0.00114451
0.12468237 0.00114968
0.12414267 0.00115500
0.12360300 0.00116069
0.12306336 0.00116698
0.12252373 0.00117313
0.12198414 0.00118046
0.12144457 0.00118732
0.12090502 0.00119458
0.12036549 0.00120267
0.11982598 0.00121087
0.11928650 0.00121940
0.11874703 0.00122827
0.11820757 0.00123748
0.11766814 0.00124671
0.11712871 0.00125656
0.11658931 0.00126672
0.11604992 0.00127721
0.11551053 0.00128802
0.11497115 0.00129913
0.11443179 0.00131055
0.11389244 0.00132227
0.11335309 0.00133429
0.11281374 0.00134601
0.11227440 0.00135890
0.11173507 0.00137180
0.11119574 0.00138470
0.11065640 0.00139814
0.11011707 0.00141186
0.10957774 0.00142555
0.10903840 0.00143941
0.10849906 0.00146124
0.10795972 0.00147611
0.10742036 0.00149043
0.10688101 0.00150533
0.10634165 0.00152004
0.10580227 0.00153526
0.10526288 0.00155035
0.10472349 0.00156583
0.10418408 0.00158036
0.10364465 0.00159530
0.10310522 0.00161001
0.10256577 0.00162459
0.10202629 0.00163771
0.10148680 0.00165022
0.10094731 0.00166274
0.10040779 0.00167393
0.09986826 0.00168496
0.09932873 0.00169588
0.09878918 0.00170547
0.09824962 0.00171501
0.09771006 0.00172451
0.09717049 0.00173316
0.09663091 0.00174098
0.09609132 0.00174884
0.09555174 0.00175632
0.09501215 0.00176379
0.09447256 0.00177012
0.09393296 0.00177620
0.09339338 0.00178311
0.09285378 0.00178829
0.09231420 0.00179397
0.09177462 0.00179916
0.09123504 0.00180423
0.09069547 0.00180886
0.09015591 0.00181321
0.08961634 0.00181686
0.08907680 0.00182114
0.08853726 0.00182444
0.08799773 0.00182796
0.08745822 0.00183106
0.08691872 0.00183391
0.08637923 0.00183672
0.08583976 0.00183913
0.08530030 0.00184104
0.08476087 0.00184320
0.08422145 0.00184543
0.08368205 0.00184655
0.08314268 0.00184793
0.08260332 0.00184932
0.08206399 0.00185054
0.08152468 0.00185140
0.08098540 0.00185213
0.08044614 0.00185292
0.07990691 0.00185341
0.07936771 0.00186505
0.07882854 0.00186471
0.07828940 0.00186485
0.07775030 0.00186507
0.07721122 0.00186519
0.07667218 0.00186638
0.07613318 0.00186778
0.07559421 0.00186962
0.07505528 0.00187228
0.07451638 0.00187485
0.07397752 0.00187846
0.07343869 0.00188276
0.07289989 0.00188737
0.07236113 0.00189245
0.07182240 0.00189795
0.07128370 0.00190408
0.07074503 0.00191042
0.07020639 0.00191733
0.06966778 0.00192463
0.06912919 0.00193161
0.06859063 0.00193935
0.06805211 0.00194772
0.06751361 0.00195626
0.06697512 0.00196470
0.06643667 0.00197388
0.06589825 0.00198402
0.06535984 0.00199342
0.06482146 0.00200366
0.06428310 0.00201400
0.06374475 0.00202442
0.06320643 0.00203546
0.06266814 0.00204735
0.06212986 0.00205910
0.06159160 0.00207075
0.06105335 0.00208306
0.06051512 0.00209527
0.05997691 0.00210815
0.05943871 0.00212121
0.05890053 0.00213467
0.05836236 0.00216247
0.05782421 0.00217588
0.05728606 0.00218933
0.05674793 0.00220338
0.05620981 0.00221742
0.05567170 0.00223203
0.05513359 0.00224693
0.05459550 0.00226212
0.05405741 0.00227723
0.05351933 0.00229331
0.05298126 0.00230935
0.05244319 0.00232536
0.05190513 0.00234194
0.05136707 0.00235885
0.05082901 0.00237576
0.05029096 0.00239320
0.04975291 0.00241092
0.04921485 0.00242895
0.04867680 0.00244723
0.04813875 0.00246547
0.04760069 0.00248429
0.04706264 0.00250340
0.04652458 0.00252246
0.04598651 0.00254217
0.04544845 0.00256252
0.04491037 0.00258207
0.04437229 0.00260294
0.04383421 0.00264226
0.04329611 0.00266282
0.04275801 0.00268291
0.04221990 0.00270329
0.04168177 0.00272430
0.04114364 0.00274555
0.04060550 0.00276709
0.04006734 0.00278885
0.03952917 0.00281080
0.03899099 0.00283252
0.03845279 0.00285494
0.03791458 0.00287743
0.03737635 0.00290003
0.03683810 0.00292236
0.03629984 0.00294519
0.03576155 0.00296807
0.03522325 0.00299057
0.03468493 0.00301352
0.03414659 0.00303618
0.03360823 0.00305881
0.03306985 0.00310532
0.03253144 0.00312626
0.03199301 0.00314560
0.03145456 0.00316495
0.03091608 0.00318334
0.03037757 0.00320088
0.02983904 0.00321754
0.02930048 0.00323294
0.02878048 0.00324636
0.02828521 0.00325817
0.02781351 0.00326818
0.02736424 0.00327624
0.02693635 0.00328378
0.02652882 0.00328929
0.02614067 0.00329610
0.02577100 0.00330225
0.02541891 0.00333602
0.02508358 0.00334314
0.02476420 0.00335271
0.02446002 0.00336755
0.02417032 0.00338904
0.02389440 0.00342064
0.02363161 0.00346496
0.02338133 0.00353841
0.02314296 0.00368614
0.02291594 0.00373312
