0.02291594 0.00367846
0.02269311 0.00353725
0.02246500 0.00342908
0.02223720 0.00349163
0.02200959 0.00368928
0.02178204 0.00400013
0.02155441 0.00439292
0.02132657 0.00487753
0.02109840 0.00527145
0.02086980 0.00553181
0.02064079 0.00559506
0.02041152 0.00549524
0.02018215 0.00533144
0.01995281 0.00522699
0.01972363 0.00528541
0.01949454 0.00552662
0.01926541 0.00589338
0.01903609 0.00627619
0.01880647 0.00654275
0.01857655 0.00661004
0.01834644 0.00648142
0.01811621 0.00620271
0.01788592 0.00581728
0.01765563 0.00537117
0.01742539 0.00492014
0.01719527 0.00453663
0.01696534 0.00441199
0.01673594 0.00471438
0.01650659 0.00525016
0.01627699 0.00585793
0.01604717 0.00630089
0.01581716 0.00669006
0.01558698 0.00703352
0.01535666 0.00733644
0.01512621 0.00760543
0.01489566 0.00784572
0.01466503 0.00806127
0.01443435 0.00825606
0.01420363 0.00843254
0.01397288 0.00878166
0.01374214 0.00892263
0.01351141 0.00905197
0.01328070 0.00917050
0.01305004 0.00927968
0.01281943 0.00938022
0.01258889 0.00947310
0.01235843 0.00955900
0.01212804 0.00963852
0.01189776 0.00971259
0.01166757 0.00978147
0.01143748 0.00984571
0.01120750 0.00990604
0.01097764 0.00996282
0.01074788 0.01001694
0.01051824 0.01006830
0.01028871 0.01011812
0.01005930 0.01016652
0.00983000 0.01021385
0.00960081 0.01026081
0.00937172 0.01030948
0.00914273 0.01036523
0.00891384 0.01043752
0.00868505 0.01053044
0.00845637 0.01064242
0.00822781 0.01077014
0.00799939 0.01091196
0.00777112 0.01106544
0.00754303 0.01123087
0.00731512 0.01140597
0.00708743 0.01159136
0.00685997 0.01219119
0.00663277 0.01239136
0.00640586 0.01262056
0.00617927 0.01289186
0.00595310 0.01321507
0.00573307 0.01364992
0.00546985 0.01422710
0.00517285 0.01478619
0.00487761 0.01594675
0.00458443 0.00696775
0.00429329 0.00647913
0.00400408 0.00590915
0.00371665 0.00520524
0.00343082 0.00446506
0.00314639 0.00359156
0.00286554 0.00275540
0.00259274 0.00142301
0.00232713 -0.00031444
0.00206792 -0.00238264
0.00181402 -0.00482301
0.00156461 -0.00826670
0.00132102 -0.01337935
0.00108465 -0.02199993
0.00086252 -0.03787871
0.00066309 0.02264451
0.00048260 0.02266132
0.00031775 0.02301099
0.00018270 0.02261368
0.00007761 0.02246100
-0.00000720 0.02237743
-0.00004504 0.02191881
-0.00006763 0.02164003
-0.00005016 0.02106653
-0.00000621 0.02046359
0.00005514 0.02060593
0.00014672 0.01869451
0.00025995 0.01741277
0.00037883 0.01743611
0.00052704 0.01448484
0.00068696 0.01188298
0.00084517 0.01253659
0.00100780 0.01497298
0.00118226 0.01653746
0.00137536 0.01518603
0.00157739 0.01205161
0.00178333 0.01000151
0.00199386 0.00841133
0.00220874 0.00737982
0.00242777 0.00667200
0.00265073 0.00618795
0.00287740 0.00571957
0.00310759 0.00534643
0.00331344 0.00498223
0.00348686 0.00462208
0.00366795 0.00425498
0.00385069 0.00388689
0.00403499 0.00349365
0.00422078 0.00313557
0.00440797 0.00279001
0.00459650 0.00246008
0.00478628 0.00214962
0.00497726 0.00186164
0.00516936 0.00159780
0.00536251 0.00135048
0.00555665 0.00113256
0.00575173 0.00093652
0.00594767 0.00076128
0.00614443 0.00060626
0.00634194 0.00047062
0.00654016 0.00035258
0.00673902 0.00025068
0.00693848 0.00016267
0.00713850 0.00008633
0.00733906 0.00001944
0.00754017 -0.00003992
0.00774182 -0.00009325
0.00794401 -0.00014173
0.00814673 -0.00018623
0.00834998 -0.00022743
0.00855375 -0.00026572
0.00875805 -0.00030136
0.00896286 -0.00033453
0.00916818 -0.00036537
0.00937401 -0.00039334
0.00958035 -0.00041956
0.00978718 -0.00044377
0.00999452 -0.00046598
0.01020234 -0.00048624
0.01041065 -0.00050468
0.01061945 -0.00052128
0.01082872 -0.00053616
0.01103847 -0.00054916
0.01124869 -0.00056041
0.01145938 -0.00056984
0.01167053 -0.00057749
0.01188214 -0.00058314
0.01209420 -0.00058679
0.01230671 -0.00058761
0.01251966 -0.00058670
0.01273306 -0.00058392
0.01294689 -0.00057979
0.01316115 -0.00057468
0.01337584 -0.00056920
0.01359095 -0.00056320
0.01380648 -0.00055635
0.01402242 -0.00054810
0.01423877 -0.00053834
0.01445553 -0.00052713
0.01467268 -0.00051623
0.01489023 -0.00050589
0.01510818 -0.00049656
0.01532650 -0.00048574
0.01554521 -0.00047190
0.01576429 -0.00045314
0.01598375 -0.00042957
0.01620357 -0.00040551
0.01642376 -0.00038655
0.01664430 -0.00037495
0.01686519 -0.00036797
0.01708644 -0.00036059
0.01730802 -0.00035196
0.01752994 -0.00034649
0.01775220 -0.00034933
0.01797478 -0.00036244
0.01819769 -0.00038587
0.01842092 -0.00041377
0.01864446 -0.00044164
0.01886084 -0.00045977
