0.99532950 0.03560809
0.99541616 0.03553135
0.99550277 0.03545430
0.99558932 0.03538161
0.99567574 0.03530500
0.99576199 0.03521704
0.99584806 0.03510970
0.99593389 0.03497326
0.99601936 0.03479961
0.99610454 0.03458127
0.99618924 0.03431108
0.99627340 0.03398667
0.99635702 0.03360671
0.99643999 0.03317739
0.99652243 0.03271105
0.99660444 0.03222357
0.99668616 0.03172773
0.99676770 0.03123369
0.99684924 0.03074761
0.99693084 0.03027261
0.99701273 0.02980996
0.99709487 0.02935867
0.99717700 0.02891911
0.99725837 0.02849288
0.99733829 0.02808346
0.99741620 0.02769978
0.99749213 0.02735019
0.99756652 0.02703868
0.99763966 0.02676524
0.99771202 0.02652632
0.99778414 0.02631646
0.99785632 0.02612878
0.99792832 0.02595913
0.99799997 0.02580312
0.99807101 0.02566020
0.99814105 0.02552836
0.99820983 0.02540663
0.99827701 0.02529459
0.99834239 0.02519137
0.99840611 0.02509738
0.99846834 0.02501181
0.99852931 0.02493423
0.99858934 0.02486285
0.99864858 0.02479764
0.99870735 0.02473728
0.99876553 0.02468043
0.99882293 0.02462711
0.99887937 0.02457641
0.99893463 0.02452925
0.99898851 0.02448560
0.99904078 0.02444634
0.99909139 0.02441282
0.99914050 0.02438503
0.99918818 0.02436386
0.99923480 0.02434798
0.99928033 0.02433783
0.99932516 0.02433253
0.99936926 0.02433119
0.99941254 0.02433294
0.99945474 0.02433777
0.99949574 0.02434394
0.99953538 0.02435142
0.99957335 0.02435935
0.99960965 0.02436729
0.99964428 0.02437522
0.99967736 0.02438227
0.99970907 0.02438800
0.99973959 0.02439241
0.99976903 0.02439462
0.99979752 0.02439331
0.99982512 0.02438628
0.99985152 0.02437220
0.99987668 0.02434843
0.99990034 0.02431278
0.99992251 0.02426346
0.99994296 0.02419915
0.99996161 0.02411898
0.99997872 0.02402471
0.99999434 0.02391588
1.00000846 0.02379475
1.00002134 0.02366128
1.00003314 0.02351632
1.00004363 0.02335952
1.00005305 0.02319077
1.00006104 0.02300927
1.00006771 0.02281585
1.00007284 0.02261184
1.00007641 0.02239857
1.00007832 0.02217911
1.00007868 0.02195701
1.00007737 0.02173536
1.00007463 0.02151813
1.00007045 0.02130707
1.00006485 0.02110437
1.00005805 0.02091183
1.00004995 0.02073073
1.00004053 0.02056329
1.00002968 0.02041082
1.00001740 0.02027510
1.00000370 0.02015879
0.99998838 0.02006316
0.99997163 0.01998959
0.99995345 0.01993936
0.99993378 0.01991162
0.99991274 0.01990855
0.99989033 0.01993060
0.99986649 0.01997512
0.99984127 0.02004301
0.99981469 0.02013337
0.99978673 0.02024442
0.99975747 0.02037529
0.99972677 0.02052385
0.99969482 0.02068864
0.99966156 0.02086756
0.99962705 0.02105878
0.99959123 0.02126106
0.99955416 0.02147122
0.99951577 0.02168717
0.99947602 0.02190576
0.99943495 0.02212428
0.99939251 0.02233927
0.99934870 0.02254727
0.99930358 0.02274512
0.99925727 0.02293144
0.99920976 0.02310410
0.99916112 0.02326358
0.99911153 0.02340852
0.99906093 0.02354020
0.99900925 0.02365650
0.99895644 0.02375690
0.99890244 0.02383967
0.99884725 0.02390394
0.99879068 0.02394883
0.99873281 0.02397433
0.99867374 0.02398220
0.99861366 0.02397378
0.99855256 0.02395304
0.99849057 0.02392306
0.99842781 0.02388603
0.99836433 0.02384373
0.99830002 0.02379879
0.99823481 0.02375207
0.99816865 0.02370495
0.99810141 0.02365778
0.99803305 0.02361240
0.99796355 0.02356877
0.99789304 0.02352824
0.99782157 0.02349081
0.99774927 0.02345735
0.99767625 0.02342785
0.99760258 0.02340277
0.99752837 0.02338296
0.99745363 0.02336846
0.99737829 0.02336101
0.99730223 0.02336327
0.99722540 0.02337698
0.99714768 0.02340261
0.99706906 0.02344145
0.99698955 0.02349130
0.99690914 0.02354995
0.99682802 0.02361430
0.99674624 0.02368174
0.99666387 0.02375141
0.99658102 0.02382280
0.99649769 0.02389730
0.99641395 0.02397798
0.99632978 0.02406745
0.99624509 0.02416985
0.99615997 0.02428942
0.99607444 0.02443140
0.99598843 0.02460186
0.99590200 0.02480888
0.99581522 0.02506208
0.99572796 0.02537314
0.99564034 0.02575570
0.99555230 0.02622378
0.99546391 0.02678858
0.99537516 0.02745924
0.99528617 0.02823961
0.99519700 0.02913154
0.99510777 0.03013170
0.99501848 0.03124378
0.99492913 0.03247062
0.99483973 0.03382276
0.99475038 0.03531420
0.99466103 0.03695872
0.99457169 0.03875787
0.99448234 0.04068293
0.99439293 0.04265215
0.99430346 0.04452937
0.99421400 0.04611475
0.99412453 0.04723298
0.99403512 0.04780271
0.99394584 0.04779108
0.99385661 0.04728002
0.99376744 0.04642142
0.99367839 0.04532524
0.99358934 0.04412343
0.99350035 0.04285702
0.99341136 0.04150105
