0.02291594 2.50368931
0.02269311 2.52351812
0.02246500 2.53646891
0.02223720 2.52403164
0.02200959 2.49330239
0.02178204 2.45107783
0.02155441 2.40418828
0.02132657 2.42419684
0.02109840 2.38169320
0.02086980 2.35722284
0.02064079 2.35370177
0.02041152 2.36609448
0.02018215 2.38412254
0.01995281 2.39484536
0.01972363 2.38770071
0.01949454 2.36254135
0.01926541 2.32809356
0.01903609 2.29586313
0.01880647 2.27622624
0.01857655 2.27432254
0.01834644 2.28947892
0.01811621 2.31909506
0.01788592 2.36092670
0.01765563 2.41166872
0.01742539 2.46539289
0.01719527 2.51178170
0.01696534 2.52589392
0.01673594 2.49112323
0.01650659 2.43527846
0.01627699 2.47022899
0.01604717 2.42592696
0.01581716 2.39111245
0.01558698 2.36321172
0.01535666 2.34060859
0.01512621 2.32204584
0.01489566 2.30662889
0.01466503 2.29370566
0.01443435 2.28276913
0.01420363 2.27347007
0.01397288 2.35750725
0.01374214 2.34869598
0.01351141 2.34101353
0.01328070 2.33432150
0.01305004 2.32846733
0.01281943 2.32335754
0.01258889 2.31888857
0.01235843 2.31498846
0.01212804 2.31161140
0.01189776 2.30870333
0.01166757 2.30624597
0.01143748 2.30420683
0.01120750 2.30256144
0.01097764 2.30131914
0.01074788 2.30046076
0.01051824 2.30002572
0.01028871 2.29999840
0.01005930 2.30039659
0.00983000 2.30121790
0.00960081 2.30240650
0.00937172 2.30384542
0.00914273 2.30521658
0.00891384 2.30601571
0.00868505 2.30598605
0.00845637 2.30519400
0.00822781 2.30386627
0.00799939 2.30212518
0.00777112 2.30010782
0.00754303 2.29785053
0.00731512 2.29549656
0.00708743 2.29307869
0.00685997 2.41142552
0.00663277 2.40713727
0.00640586 2.40153474
0.00617927 2.39391589
0.00595310 2.38352058
0.00573307 2.36807458
0.00546985 2.34874332
0.00517285 2.33027281
0.00487761 2.47352854
0.00458443 1.49691282
0.00429329 1.53253621
0.00400408 1.57285928
0.00371665 1.61386736
0.00343082 1.65722317
0.00314639 1.67252463
0.00286554 1.77525805
0.00259274 1.91856058
0.00232713 2.07381402
0.00206792 2.15785642
0.00181402 2.16752827
0.00156461 2.22908676
0.00132102 2.26818886
0.00108465 2.34375346
0.00086252 2.29805525
0.00066309 2.47540715
0.00048260 2.47014227
0.00031775 2.46308035
0.00018270 2.46247217
0.00007761 2.45932679
-0.00000720 2.45619884
-0.00004504 2.46061303
-0.00006763 2.46505086
-0.00005016 2.47968036
-0.00000621 2.49793267
0.00005514 2.50776888
0.00014672 2.34251491
0.00025995 2.37356557
0.00037883 2.39430664
0.00052704 2.34029358
0.00068696 2.45103642
0.00084517 2.40453896
0.00100780 2.28647825
0.00118226 2.24363152
0.00137536 2.30320260
0.00157739 2.30396291
0.00178333 2.41472792
0.00199386 2.40518112
0.00220874 2.47571620
0.00242777 2.53253055
0.00265073 2.57666488
0.00287740 2.52246037
0.00310759 2.55104690
0.00331344 2.58228648
0.00348686 2.62037371
0.00366795 2.66340390
0.00385069 2.71253647
0.00403499 2.68690432
0.00422078 2.73571170
0.00440797 2.78967254
0.00459650 2.84894772
0.00478628 2.91337088
0.00497726 2.98256219
0.00516936 3.05613760
0.00536251 3.04910601
0.00555665 3.11451983
0.00575173 3.18239296
0.00594767 3.25245522
0.00614443 3.32404013
0.00634194 3.39635587
0.00654016 3.40690544
0.00673902 3.46481951
0.00693848 3.52119208
0.00713850 3.57604182
0.00733906 3.62984629
0.00754017 3.68119766
0.00774182 3.73193856
0.00794401 3.78347655
0.00814673 3.83295505
0.00834998 3.88163661
0.00855375 3.93278040
0.00875805 3.98670788
0.00896286 4.04372655
0.00916818 4.09380177
0.00937401 4.04530372
0.00958035 4.08817548
0.00978718 4.13439180
0.00999452 4.18415555
0.01020234 4.22885321
0.01041065 4.26983338
0.01061945 4.31560858
0.01082872 4.36641706
0.01103847 4.42238343
0.01124869 4.48388742
0.01145938 4.53468627
0.01167053 4.58354866
0.01188214 4.64043303
0.01209420 4.70573899
0.01230671 4.64399082
0.01251966 4.70225313
0.01273306 4.74871209
0.01294689 4.78554649
0.01316115 4.83042727
0.01337584 4.88295387
0.01359095 4.94310508
0.01380648 5.01142397
0.01402242 5.08851976
0.01423877 5.13563423
0.01445553 5.19328320
0.01467268 5.11967517
0.01489023 5.16721600
0.01510818 5.22146325
0.01532650 5.28407379
0.01554521 5.35642459
0.01576429 5.40046695
0.01598375 5.45465137
0.01620357 5.51613540
0.01642376 5.58024345
0.01664430 5.64635434
0.01686519 5.71992002
0.01708644 5.60399886
0.01730802 5.62757601
0.01752994 5.64203028
0.01775220 5.65538828
0.01797478 5.66343644
0.01819769 5.66642712
0.01842092 5.67144747
0.01864446 5.68566788
0.01886084 5.71858456
