0.99532950 2.02672557
0.99541658 2.02671231
0.99550366 2.02650755
0.99559063 2.02614741
0.99567747 2.02566905
0.99576420 2.02507418
0.99585068 2.02439247
0.99593693 2.02358504
0.99602282 2.02352534
0.99610835 2.02260227
0.99619347 2.02167069
0.99627805 2.01934702
0.99636203 2.01851549
0.99644542 2.01884894
0.99652821 2.01926158
0.99661064 2.02037538
0.99669272 2.02216729
0.99677473 2.02385166
0.99685663 2.02676271
0.99693871 2.03017926
0.99702102 2.03384321
0.99710363 2.03660000
0.99718606 2.03719512
0.99726778 2.03519081
0.99734783 2.03088221
0.99742585 2.02705210
0.99750203 2.02497769
0.99757653 2.02498186
0.99764991 2.03385542
0.99772257 2.03802341
0.99779505 2.04363530
0.99786758 2.04928813
0.99793994 2.05409983
0.99801189 2.05800727
0.99808311 2.06106002
0.99815333 2.06288849
0.99822217 2.06363071
0.99828941 2.06371325
0.99835473 2.06353621
0.99841845 2.06459110
0.99848074 2.06639989
0.99854177 2.06954266
0.99860191 2.07406977
0.99866140 0.00000000
0.99872035 0.00000000
0.99877864 2.60637252
0.99883616 2.30164088
0.99889261 2.38211400
0.99894786 2.56665135
0.99900162 2.52590772
0.99905372 2.46014005
0.99910414 2.16141825
0.99915314 2.10606139
0.99920076 2.18241140
0.99924731 2.29456302
0.99929285 2.36451037
0.99933773 2.49717940
0.99938184 2.60442902
0.99942499 2.55498056
0.99946707 2.56214698
0.99950790 2.52602149
0.99954724 2.46061282
0.99958491 2.38892258
0.99962085 2.32725052
0.99965513 2.37604795
0.99968791 2.33845211
0.99971938 2.30423997
0.99974966 2.27853167
0.99977893 2.26116987
0.99980730 2.34858297
0.99983460 2.32161534
0.99986070 2.28988371
0.99988544 2.37480641
0.99990869 2.34942114
0.99993032 2.46122169
0.99995023 2.44842332
0.99996841 2.44077250
0.99998498 2.43276612
1.00000000 2.42766052
1.00001383 2.41877096
1.00002623 2.41658801
1.00003755 2.41128880
1.00004768 2.40917290
1.00005651 2.56338185
1.00006402 2.56274956
1.00007010 2.55257858
1.00007463 2.54396027
1.00007749 2.53309777
1.00007868 2.52249081
1.00007820 2.51534889
1.00007629 2.50397976
1.00007284 2.49580978
1.00006807 2.48797430
1.00006187 2.48145161
1.00005436 2.47597307
1.00004566 2.74542625
1.00003552 2.32042582
1.00002384 2.43182923
1.00001085 2.07456508
0.99999619 2.27771627
0.99998009 2.49317607
0.99996251 2.73759580
0.99994349 2.84762420
0.99992299 2.86107967
0.99990112 3.05415200
0.99987787 3.04195441
0.99985319 3.13552596
0.99982709 3.17544241
0.99979961 3.24395803
0.99977076 3.22705134
0.99974060 4.99570240
0.99970901 3.20039302
0.99967617 5.22549346
0.99964201 5.30160254
0.99960661 5.41852627
0.99956983 5.51981032
0.99953181 5.59682232
0.99949247 5.73260543
0.99945176 5.81026627
0.99940962 5.90866955
0.99936610 5.99675258
0.99932128 6.02792874
0.99927515 6.10289091
0.99922788 6.14365077
0.99917942 6.16553600
0.99912995 6.19443954
0.99907947 6.26435098
0.99902791 6.23961924
0.99897528 6.31049406
0.99892145 6.34301319
0.99886632 6.31773404
0.99880993 6.37521963
0.99875224 6.38647661
0.99869329 6.36322763
0.99863321 6.39762738
0.99857211 6.35988239
0.99851006 6.33027676
0.99844724 6.35188694
0.99838364 6.25352549
0.99831927 6.18121474
0.99825400 6.08715324
0.99818778 6.07697600
0.99812055 5.95491818
0.99805218 5.85181040
0.99798262 5.70829318
0.99791199 5.68947237
0.99784040 5.58099233
0.99776798 5.41905892
0.99769473 5.28337365
0.99762088 5.18142350
0.99754643 5.15034844
0.99747145 4.99653366
0.99739587 4.87837958
0.99731958 4.75213199
0.99724257 4.62918539
0.99716467 4.61449964
0.99708581 4.46848070
0.99700606 4.36002393
0.99692541 4.22511310
0.99684405 4.11189421
0.99676198 3.98472496
0.99667931 3.86205697
0.99659610 3.73434064
0.99651247 3.60304626
0.99642837 3.50170044
0.99634385 3.37434636
0.99625880 3.25544002
0.99617332 3.14353082
0.99608743 3.03636728
0.99600106 2.93531621
0.99591428 2.86332856
0.99582708 2.76547807
0.99573946 2.67284332
0.99565142 2.58662345
0.99556297 2.50729142
0.99547416 2.43442888
0.99538499 2.36964283
0.99529564 2.31140379
0.99520606 2.25913792
0.99511635 2.21200323
0.99502659 2.16870104
0.99493676 2.14228420
0.99484694 2.10060534
0.99475712 2.05876401
0.99466735 2.01581327
0.99457753 1.97231784
0.99448776 1.92994158
0.99439788 1.91284969
0.99430799 1.87612002
0.99421805 1.84580655
0.99412817 1.82276342
0.99403828 1.80643292
0.99394852 1.79570760
0.99385887 1.78939347
0.99376923 1.78633505
0.99367976 1.78548468
0.99359030 1.78580453
0.99350083 1.78644253
0.99341136 1.78707792
