0.99532950 2.10996576
0.99541616 2.11051537
0.99550277 2.11092320
0.99558932 2.11122074
0.99567574 2.11144041
0.99576199 2.11161789
0.99584806 2.11143089
0.99593389 2.11147153
0.99601936 2.11141813
0.99610454 2.11143089
0.99618924 2.11163077
0.99627340 2.11184885
0.99635702 2.11223194
0.99643999 2.11306716
0.99652243 2.11425814
0.99660444 2.11630318
0.99668616 2.11890406
0.99676770 2.12202031
0.99684924 2.12556578
0.99693084 2.12949563
0.99701273 2.13364795
0.99709487 2.13718364
0.99717700 2.13909019
0.99725837 2.13905094
0.99733829 2.13771432
0.99741620 2.13645155
0.99749213 2.13661693
0.99756652 2.13819043
0.99763966 2.14212602
0.99771202 2.14688804
0.99778414 2.15296935
0.99785632 2.15840282
0.99792832 2.16483535
0.99799997 2.16880263
0.99807101 2.17290277
0.99814105 2.17610363
0.99820983 2.17854743
0.99827701 2.18025136
0.99834239 2.18200953
0.99840611 2.18445698
0.99846834 2.18774873
0.99852931 2.19217269
0.99858934 2.19730483
0.99864858 2.20393930
0.99870735 2.21024268
0.99876553 2.21653914
0.99882293 2.22171490
0.99887937 2.22608347
0.99893463 2.22960409
0.99898851 2.23184107
0.99904078 2.23292333
0.99909139 2.23475309
0.99914050 2.23601452
0.99918818 2.23825404
0.99923480 2.24156020
0.99928033 2.24574031
0.99932516 2.24981865
0.99936926 2.25406947
0.99941254 2.25645852
0.99945474 2.25715810
0.99949574 2.73280910
0.99953538 2.72386512
0.99957335 2.71094160
0.99960965 2.69376350
0.99964428 2.67315564
0.99967736 2.65144095
0.99970907 2.62776048
0.99973959 2.70972511
0.99976903 2.67968104
0.99979752 2.64641697
0.99982512 2.60797904
0.99985152 2.67627563
0.99987668 2.63690778
0.99990034 2.60057376
0.99992251 2.66778705
0.99994296 2.63659193
0.99996161 2.61266601
0.99997872 2.58813936
0.99999434 2.66603807
1.00000846 2.65218042
1.00002134 2.63586060
1.00003314 2.61405113
1.00004363 2.60043670
1.00005305 2.67705885
1.00006104 2.66278835
1.00006771 2.64713627
1.00007284 2.63598566
1.00007641 2.62219591
1.00007832 2.60999322
1.00007868 2.59224941
1.00007737 3.07491528
1.00007463 0.15098579
1.00007045 1.17781806
1.00006485 2.74599523
1.00005805 3.52554212
1.00004995 3.54492087
1.00004053 3.65605822
1.00002968 3.60529612
1.00001740 3.54208284
1.00000370 3.48997994
0.99998838 3.37890961
0.99997163 3.19757385
0.99995345 2.96864714
0.99993378 4.28823265
0.99991274 4.44414675
0.99989033 4.58382049
0.99986649 2.07408470
0.99984127 1.93403175
0.99981469 1.80176027
0.99978673 1.71009428
0.99975747 1.59750789
0.99972677 1.48168677
0.99969482 1.43151556
0.99966156 1.33895492
0.99962705 1.30863758
0.99959123 1.27164050
0.99955416 2.62729587
0.99951577 2.63332561
0.99947602 2.64221268
0.99943495 2.64893764
0.99939251 2.65840576
0.99934870 2.57203343
0.99930358 2.58810092
0.99925727 2.60293999
0.99920976 2.61980954
0.99916112 2.53611842
0.99911153 5.67980565
0.99906093 5.65812113
0.99900925 5.65106542
0.99895644 5.60893569
0.99890244 5.54531728
0.99884725 5.55386345
0.99879068 5.53489362
0.99873281 5.46344110
0.99867374 5.46054310
0.99861366 5.44422785
0.99855256 5.36856893
0.99849057 5.34703126
0.99842781 5.31527146
0.99836433 5.29766650
0.99830002 5.23529841
0.99823481 5.22171245
0.99816865 5.20522649
0.99810141 5.17667509
0.99803305 5.16160180
0.99796355 5.13391958
0.99789304 5.11097929
0.99782157 5.05500307
0.99774927 5.03407570
0.99767625 4.98264484
0.99760258 4.90286044
0.99752837 4.81512492
0.99745363 4.72737485
0.99737829 4.66271881
0.99730223 4.54435050
0.99722540 4.43723550
0.99714768 4.32652252
0.99706906 4.24688496
0.99698955 4.13904338
0.99690914 4.01987347
0.99682802 3.91413932
0.99674624 3.80835133
0.99666387 3.74272949
0.99658102 3.63629201
0.99649769 3.52418482
0.99641395 3.42166058
0.99632978 3.31418208
0.99624509 3.21456063
0.99615997 3.11287134
0.99607444 3.05709401
0.99598843 2.95409345
0.99590200 2.85818757
0.99581522 2.76614786
0.99572796 2.67820782
0.99564034 2.59635648
0.99555230 2.52047270
0.99546391 2.45072590
0.99537516 2.38777716
0.99528617 2.33127497
0.99519700 2.28021463
0.99510777 2.23351656
0.99501848 2.19000297
0.99492913 2.14839739
0.99483973 2.10746803
0.99475038 2.08267808
0.99466103 2.03845175
0.99457169 1.99372270
0.99448234 1.95009051
0.99439293 1.90931279
0.99430346 1.90012088
0.99421400 1.86814735
0.99412453 1.84357611
0.99403512 1.82597197
0.99394584 1.81419214
0.99385661 1.80695231
0.99376744 1.80315159
0.99367839 1.80171699
0.99358934 1.80147919
0.99350035 1.80160557
0.99341136 1.80180655
