0.99532950 0.50141854
0.99541658 0.50126454
0.99550366 0.50106279
0.99559063 0.50081354
0.99567747 0.50051883
0.99576420 0.50017134
0.99585068 0.49976936
0.99593693 0.49927132
0.99602282 0.49876275
0.99610835 0.49818504
0.99619347 0.49751753
0.99627805 0.49676144
0.99636203 0.49594184
0.99644542 0.49514286
0.99652821 0.49444736
0.99661064 0.49387398
0.99669272 0.49343844
0.99677473 0.49393624
0.99685663 0.49380070
0.99693871 0.49380943
0.99702102 0.49391058
0.99710363 0.49381398
0.99718606 0.49314941
0.99726778 0.49169799
0.99734783 0.48952195
0.99742585 0.48784230
0.99750203 0.48573994
0.99757653 0.48455710
0.99764991 0.48332912
0.99772257 0.48293164
0.99779505 0.48262159
0.99786758 0.48232391
0.99793994 0.48177354
0.99801189 0.48114721
0.99808311 0.48003955
0.99815333 0.47878340
0.99822217 0.47724079
0.99828941 0.47549649
0.99835473 0.47380726
0.99841845 0.47235190
0.99848074 0.47110598
0.99854177 0.47009252
0.99860191 0.46922757
0.99866140 0.46866423
0.99872035 0.46810372
0.99877864 0.46736465
0.99883616 0.46658341
0.99889261 0.46566731
0.99894786 0.46451405
0.99900162 0.46335989
0.99905372 0.46217566
0.99910414 0.46112002
0.99915314 0.46019366
0.99920076 0.00000000
0.99924731 0.00000000
0.99929285 0.00569898
0.99933773 0.00598450
0.99938184 0.00614947
0.99942499 0.00625015
0.99946707 0.00636259
0.99950790 0.00738924
0.99954724 0.00793231
0.99958491 0.00856557
0.99962085 0.00927959
0.99965513 0.01006504
0.99968791 0.01094343
0.99971938 0.01193947
0.99974966 0.01903452
0.99977893 0.02259072
0.99980730 0.02509990
0.99983460 0.02772071
0.99986070 0.03034499
0.99988544 0.03286004
0.99990869 0.03523857
0.99993032 0.03544048
0.99995023 0.03766565
0.99996841 0.03977857
0.99998498 0.04176016
1.00000000 0.04352296
1.00001383 0.04306210
1.00002623 0.04452860
1.00003755 0.04585575
1.00004768 0.04713052
1.00005651 0.04630400
1.00006402 0.04755449
1.00007010 0.04638051
1.00007463 0.04746568
1.00007749 0.04565318
1.00007868 0.04650297
1.00007820 0.04711947
1.00007629 0.04750538
1.00007284 0.04431582
1.00006807 0.04455626
1.00006187 0.07554348
1.00005436 0.07210527
1.00004566 0.07130815
1.00003552 0.06821458
1.00002384 0.06824508
1.00001085 0.06507666
0.99999619 0.06552679
0.99998009 0.06570079
0.99996251 0.06229976
0.99994349 0.06256401
0.99992299 0.06251462
0.99990112 0.06216211
0.99987787 0.05804135
0.99985319 0.05785973
0.99982709 0.05746340
0.99979961 0.05687126
0.99977076 0.05246132
0.99974060 0.05230975
0.99970901 0.05208522
0.99967617 0.05179386
0.99964201 0.04785543
0.99960661 0.04809784
0.99956983 0.04826439
0.99953181 0.04834795
0.99949247 0.04448758
0.99945176 0.04502107
0.99940962 0.04547140
0.99936610 0.45775454
0.99932128 0.04608354
0.99927515 0.04622631
0.99922788 0.04225703
0.99917942 0.04260978
0.99912995 0.04281142
0.99907947 0.04282802
0.99902791 0.04262848
0.99897528 0.04219908
0.99892145 0.04152909
0.99886632 0.04062864
0.99880993 0.03454147
0.99875224 0.03396512
0.99869329 0.03330327
0.99863321 0.03256881
0.99857211 0.03175384
0.99851006 0.02614774
0.99844724 0.02619462
0.99838364 0.49247482
0.99831927 0.49403181
0.99825400 0.02109758
0.99818778 0.49532718
0.99812055 0.49706940
0.99805218 0.49850335
0.99798262 0.49964205
0.99791199 0.49911849
0.99784040 0.50042014
0.99776798 0.50143793
0.99769473 0.00932479
0.99762088 0.00916484
0.99754643 0.00886353
0.99747145 0.00618623
0.99739587 0.00936765
0.99731958 0.00112691
0.99724257 0.00965921
0.99716467 0.00951138
0.99708581 0.00912372
0.99700606 0.00852637
0.99692541 0.00779502
0.99684405 0.00696522
0.99676198 0.00000000
0.99667931 0.50681310
0.99659610 0.50709908
0.99651247 0.50733929
0.99642837 0.50754690
0.99634385 0.50772758
0.99625880 0.50788331
0.99617332 0.50801592
0.99608743 0.50812920
0.99600106 0.50822503
0.99591428 0.50763751
0.99582708 0.50781526
0.99573946 0.50843068
0.99565142 0.50810338
0.99556297 0.50821676
0.99547416 0.50830872
0.99538499 0.50837924
0.99529564 0.50715331
0.99520606 0.50728021
0.99511635 0.50737889
0.99502659 0.50745375
0.99493676 0.50750888
0.99484694 0.50754602
0.99475712 0.50756826
0.99466735 0.50758471
0.99457753 0.50526011
0.99448776 0.50533024
0.99439788 0.50537586
0.99430799 0.50538472
0.99421805 0.50534769
0.99412817 0.50526413
0.99403828 0.50514290
0.99394852 0.50499335
0.99385887 0.50073185
0.99376923 0.50054767
0.99367976 0.50035763
0.99359030 0.50015169
0.99350083 0.50406143
0.99341136 0.50385996
