0.99532950 0.03795819 2.10305514 0.04275033
0.99541658 0.03796431 2.10351681 0.04275722
0.99550366 0.03797303 2.10380990 0.04276704
0.99559063 0.03798499 2.10397327 0.04278051
0.99567747 0.03800039 2.10405124 0.04279786
0.99576420 0.03802038 2.10405347 0.04282037
0.99585068 0.03804539 2.10401194 0.04284854
0.99593693 0.03807684 2.10391214 0.04288396
0.99602282 0.03811491 2.10370137 0.04292684
0.99610835 0.03876068 2.10310243 0.04365414
0.99619347 0.03881363 2.10294510 0.04371377
0.99627805 0.03887390 2.10292309 0.04378165
0.99636203 0.03894820 2.10296189 0.04386533
0.99644542 0.03902220 2.10343649 0.04394867
0.99652821 0.03968143 2.10428801 0.04469113
0.99661064 0.03973083 2.10597860 0.04474677
0.99669272 0.03976314 2.10824070 0.04478315
0.99677473 0.03977663 2.11100109 0.04479835
0.99685663 0.03977235 2.11420608 0.04479353
0.99693871 0.04034097 2.11770577 0.04543393
0.99702102 0.04030819 2.12150853 0.04539702
0.99710363 0.04030031 2.12456801 0.04538814
0.99718606 0.04035986 2.12590244 0.04545521
0.99726778 0.04052139 2.12519320 0.04563713
0.99734783 0.04138021 2.12316100 0.04660437
0.99742585 0.04228597 2.12154209 0.04762448
0.99750203 0.04594156 2.12198027 0.05174158
0.99757653 0.04672045 2.12327999 0.05261880
0.99764991 0.04689785 2.12614214 0.05281860
0.99772257 0.04698640 2.13060490 0.05291834
0.99779505 0.04801500 2.13658487 0.05407680
0.99786758 0.04802800 2.14230569 0.05409143
0.99793994 0.04808786 2.14726644 0.05415885
0.99801189 0.04392553 2.14981623 0.04947103
0.99808311 0.04411016 2.15304697 0.04967897
0.99815333 0.04549348 2.15593664 0.05123694
0.99822217 0.04638973 2.15759805 0.05224634
0.99828941 0.04627620 2.15784656 0.05211847
0.99835473 0.04781833 2.15909419 0.05385529
0.99841845 0.04876629 2.16092134 0.05492294
0.99848074 0.04966634 2.16343126 0.05593661
0.99854177 0.05048886 2.16709886 0.05686297
0.99860191 0.05024566 2.17103472 0.05658907
0.99866140 0.05142137 2.17697786 0.05791321
0.99872035 0.05113922 2.18183961 0.05759544
0.99877864 0.05187459 2.18660450 0.05842364
0.99883616 0.05220025 2.19015172 0.05879042
0.99889261 0.05308082 2.19279376 0.05978216
0.99894786 0.05447743 2.19467126 0.06135509
0.99900162 0.00043748 2.64445246 0.00049271
0.99905372 0.00054052 2.58476790 0.00060876
0.99910414 0.00054845 2.65026772 0.00061770
0.99915314 0.00055408 2.71672414 0.00062404
0.99920076 0.00055809 2.78217085 0.00062855
0.99924731 0.00067306 2.74235249 0.00075803
0.99929285 0.00067769 2.79674897 0.00076324
0.99933773 0.00068048 2.83654727 0.00076639
0.99938184 0.00068216 2.86137570 0.00076828
0.99942499 0.00068311 2.87192495 0.00076935
0.99946707 0.00080325 2.76208622 0.00090466
0.99950790 0.00080479 2.75145512 0.00090639
0.99954724 0.00080550 2.73426644 0.00090719
0.99958491 0.00080560 2.71270095 0.00090731
0.99962085 0.00080507 2.68844161 0.00090670
0.99965513 0.00080388 2.66250595 0.00090537
0.99968791 0.00080212 2.63533044 0.00090338
0.99971938 0.00079983 2.60687437 0.00090081
0.99974966 0.00079709 2.57717690 0.00089772
0.99977893 0.00079392 2.54604940 0.00089415
0.99980730 0.00079030 2.51361163 0.00089007
0.99983460 0.00078650 2.48140174 0.00088580
0.99986070 0.00078263 2.44992826 0.00088144
0.99988544 0.00077868 2.42060782 0.00087699
0.99990869 0.00065797 2.48408925 0.00074104
0.99993032 0.00065515 2.45875664 0.00073786
0.99995023 0.00065236 2.43630554 0.00073472
0.99996841 0.00064959 2.41714513 0.00073160
0.99998498 0.00064679 2.40079199 0.00072844
1.00000000 0.00064396 2.38701736 0.00072526
1.00001383 0.00053539 2.47323595 0.00060298
1.00002623 0.00053390 2.46081669 0.00060130
1.00003755 0.00053226 2.44636264 0.00059945
1.00004768 0.00053054 2.43205301 0.00059752
1.00005651 0.00052879 2.41826026 0.00059555
1.00006402 0.00043105 2.52441517 0.00048547
1.00007010 0.00043001 2.51083699 0.00048429
1.00007463 0.00042894 2.49779139 0.00048310
1.00007749 0.00042784 2.48751176 0.00048185
1.00007868 0.00042678 2.47744271 0.00048066
1.00007820 0.00033831 2.61725080 0.00038102
1.00007629 0.00033776 2.60969121 0.00038040
1.00007284 0.00033732 2.60313297 0.00037991
1.00006807 0.00033673 2.59540221 0.00037925
1.00006187 0.00033621 2.58895693 0.00037865
1.00005436 0.01422924 2.76750087 0.01602565
1.00004566 0.01221678 2.82550449 0.01375912
1.00003552 0.01111339 2.82659548 0.01251644
1.00002384 0.01108803 2.88280966 0.01248787
1.00001085 0.01043315 2.65089493 0.01175031
0.99999619 0.01030836 2.77263907 0.01160977
0.99998009 0.01021897 2.87863109 0.01150909
0.99996251 0.00960483 2.66530875 0.01081742
0.99994349 0.00940890 2.84982599 0.01059675
0.99992299 0.00889990 2.55909021 0.01002349
0.99990112 0.00864368 2.75567472 0.00973493
0.99987787 0.00855156 2.81754610 0.00963118
0.99985319 0.00788496 2.66572203 0.00888042
0.99982709 0.03871020 5.10525434 0.04359728
0.99979961 0.00714651 2.60216461 0.00804874
0.99977076 0.03193245 5.50896849 0.03596386
0.99974060 0.02938620 5.71330066 0.03309615
0.99970901 0.02706404 5.90576961 0.03048082
0.99967617 0.02541616 6.04274997 0.02862490
0.99964201 0.02350284 6.19218588 0.02647002
0.99960661 0.02213962 6.33406091 0.02493470
0.99956983 0.02090609 6.41797735 0.02354544
0.99953181 0.01979300 6.54094712 0.02229183
0.99949247 0.01873122 6.58053560 0.02109600
0.99945176 0.01793380 6.64287943 0.02019791
0.99940962 0.01677777 6.70640681 0.01889593
0.99936610 0.01600058 6.69367065 0.01802062
0.99932128 0.01523372 6.72934048 0.01715694
0.99927515 0.01491932 6.64300581 0.01680285
0.99922788 0.01420238 6.64933826 0.01599540
0.99917942 0.01349958 6.59386077 0.01520387
0.99912995 0.01325729 6.53042970 0.01493099
0.99907947 0.01257762 6.48613091 0.01416552
0.99902791 0.01235076 6.38764087 0.01391002
0.99897528 0.01167603 6.36011632 0.01315011
0.99892145 0.01145477 6.23633926 0.01290091
0.99886632 0.01078842 6.20792315 0.01215044
0.99880993 0.01058517 6.07388878 0.01192153
0.99875224 0.00994415 6.04764347 0.01119957
0.99869329 0.00977067 5.90624707 0.01100420
0.99863321 0.00916838 5.89219198 0.01032586
0.99857211 0.00902780 5.73658356 0.01016754
0.99851006 0.00889524 5.62568739 0.01001824
0.99844724 0.00877198 5.50585456 0.00987942
0.99838364 0.00822864 5.44065467 0.00926749
0.99831927 0.00811143 5.33062102 0.00913548
0.99825400 0.00799335 5.19410173 0.00900250
0.99818778 0.00746122 5.14801185 0.00840318
0.99812055 0.00734767 5.00492423 0.00827530
0.99805218 0.00723189 4.88875390 0.00814490
0.99798262 0.00712162 4.76634295 0.00802070
0.99791199 0.00663076 4.69562389 0.00746787
0.99784040 0.00654217 4.57566836 0.00736811
0.99776798 0.00646007 4.45750926 0.00727564
0.99769473 0.00638356 4.35129405 0.00718947
0.99762088 0.00631398 4.23582438 0.00711111
0.99754643 0.00587956 4.16152868 0.00662184
0.99747145 0.00581763 4.04424415 0.00655209
0.99739587 0.00575330 3.93560046 0.00647965
0.99731958 0.00568763 3.83043910 0.00640568
0.99724257 0.00527123 3.75712500 0.00593672
0.99716467 0.00520750 3.65563336 0.00586494
0.99708581 0.00514556 3.55377038 0.00579518
0.99700606 0.00508573 3.46404824 0.00572779
0.99692541 0.00470140 3.39930021 0.00529494
0.99684405 0.00465508 3.30878192 0.00524277
0.99676198 0.00461243 3.22186008 0.00519474
0.99667931 0.00457340 3.13693120 0.00515078
0.99659610 0.00453676 3.05870559 0.00510952
0.99651247 0.00450323 2.97785094 0.00507176
0.99642837 0.00416120 2.92389076 0.00468654
0.99634385 0.00413204 2.84620477 0.00465370
0.99625880 0.00410436 2.77049714 0.00462253
0.99617332 0.00407784 2.69950344 0.00459266
0.99608743 0.00405348 2.62891609 0.00456522
0.99600106 0.00403037 2.56306374 0.00453919
0.99591428 0.00400953 2.49820557 0.00451572
0.99582708 0.00398998 2.43693937 0.00449370
0.99573946 0.00397200 2.37870289 0.00447345
0.99565142 0.00395536 2.32496722 0.00445471
0.99556297 0.00365704 2.28538512 0.00411873
0.99547416 0.00364576 2.23967775 0.00410602
0.99538499 0.00363740 2.19945692 0.00409661
0.99529564 0.00363229 2.16410791 0.00409085
0.99520606 0.00335345 2.14842535 0.00377681
0.99511635 0.00335395 2.11898309 0.00377738
0.99502659 0.00335550 2.09206414 0.00377913
0.99493676 0.00335771 2.06675383 0.00378161
0.99484694 0.00336018 2.04221378 0.00378440
0.99475712 0.00336312 2.01768113 0.00378771
0.99466735 0.00336615 1.99255461 0.00379112
0.99457753 0.00336846 1.96719641 0.00379373
0.99448776 0.00309659 1.96119603 0.00348753
0.99439788 0.00309756 1.93732219 0.00348862
0.99430799 0.00309760 1.91624972 0.00348866
0.99421805 0.00309725 1.89876255 0.00348827
0.99412817 0.00309759 1.88542957 0.00348866
0.99403828 0.00309886 1.87597170 0.00349008
0.99394852 0.00310075 1.86978183 0.00349221
0.99385887 0.00310302 1.86620022 0.00349477
0.99376923 0.00310542 1.86457071 0.00349747
0.99367976 0.00310756 1.86436093 0.00349988
0.99359030 0.00310920 1.86495291 0.00350173
0.99350083 0.00311061 1.86591312 0.00350332
0.99341136 0.00311186 1.86671041 0.00350473
