0.02291594 0.00670639
0.02261892 0.00665467
0.02231763 0.00672276
0.02201674 0.00704390
0.02171597 0.00753918
0.02141499 0.00827569
0.02111351 0.00877436
0.02081131 0.00906080
0.02050845 0.00908658
0.02020530 0.00898698
0.01990218 0.00899190
0.01959932 0.00925484
0.01929650 0.00970597
0.01899338 0.01012437
0.01868973 0.01029644
0.01838565 0.01016607
0.01808134 0.00981422
0.01777695 0.00934410
0.01747260 0.00887831
0.01716843 0.00859023
0.01686463 0.00876493
0.01656162 0.00948645
0.01625817 0.01023738
0.01595435 0.01113173
0.01565020 0.01165329
0.01534579 0.01210749
0.01504116 0.01250759
0.01473638 0.01286044
0.01443148 0.01317255
0.01412651 0.01345134
0.01382152 0.01369666
0.01351655 0.01391957
0.01321162 0.01464880
0.01290677 0.01480975
0.01260203 0.01495851
0.01229742 0.01509170
0.01199297 0.01521713
0.01168868 0.01533131
0.01138457 0.01544181
0.01108065 0.01554800
0.01077693 0.01564943
0.01047341 0.01575248
0.01017008 0.01585393
0.00986696 0.01595971
0.00956402 0.01607050
0.00926126 0.01619536
0.00895868 0.01635030
0.00865627 0.01654644
0.00835406 0.01677776
0.00805207 0.01703661
0.00775034 0.01732766
0.00744891 0.01764018
0.00714784 0.01798239
0.00684716 0.01835992
0.00654694 0.01878936
0.00624724 0.02033720
0.00595310 0.02085264
0.00565985 0.02139274
0.00536651 0.02194143
0.00507465 0.02244776
0.00478460 0.02287463
0.00449657 0.02321146
0.00421049 0.02353784
0.00392625 0.02387506
0.00364368 0.02421946
0.00336262 0.02442566
0.00308287 0.00122452
0.00280805 -0.00122054
0.00254093 0.02745383
0.00228066 0.02695302
0.00202641 0.02696579
0.00177713 0.02739035
0.00153225 -0.02504214
0.00129326 -0.03995753
0.00106121 -0.07610920
0.00084475 -0.25892480
0.00064997 0.02963903
0.00047331 0.02958345
0.00031177 0.02980890
0.00018008 0.02932514
0.00007682 0.02908126
-0.00000677 0.02882367
-0.00004433 0.02846463
-0.00006737 0.02823783
-0.00005200 0.02777667
-0.00000980 0.02684665
0.00004906 0.02646241
0.00013594 0.02562717
0.00024690 0.02382083
0.00036164 0.02340828
0.00050395 0.02106648
0.00066121 0.01836066
0.00081698 0.01754414
0.00097573 0.01799596
0.00114458 0.01823343
0.00133022 0.01702635
0.00152880 0.01413743
0.00173042 0.01225819
0.00193653 0.01093895
0.00214693 0.00971307
0.00236140 0.00877047
0.00257975 0.00791156
0.00280177 0.00710261
0.00302725 0.00632390
0.00325601 0.00557211
0.00348686 0.00477976
0.00372057 0.00406910
0.00396310 0.00338641
0.00420827 0.00274947
0.00445591 0.00215977
0.00470585 0.00163535
0.00495791 0.00117631
0.00521195 0.00078254
0.00546781 0.00045298
0.00572535 0.00018242
0.00598442 -0.00003631
0.00624489 -0.00021046
0.00650663 -0.00034648
0.00676952 -0.00044863
0.00703344 -0.00052255
0.00729833 -0.00057554
0.00756417 -0.00061637
0.00783095 -0.00065091
0.00809867 -0.00068008
0.00836732 -0.00070175
0.00863688 -0.00070996
0.00890735 -0.00070287
0.00917871 -0.00068297
0.00945097 -0.00065668
0.00972410 -0.00063050
0.00999811 -0.00060601
0.01027297 -0.00057815
0.01054868 -0.00054267
0.01082523 -0.00049702
0.01110262 -0.00044566
0.01138082 -0.00039598
0.01165983 -0.00035356
0.01193965 -0.00031788
0.01222025 -0.00027969
0.01250164 -0.00023013
0.01278379 -0.00017213
0.01306671 -0.00011094
0.01335037 -0.00005338
0.01363478 0.00000107
0.01391991 0.00005882
0.01420576 0.00012189
0.01449232 0.00018132
0.01477958 0.00022351
0.01506752 0.00023822
0.01535614 0.00023096
0.01564542 0.00022270
0.01593536 0.00022500
0.01622594 0.00023090
0.01651715 0.00023043
0.01680898 0.00022083
0.01710143 0.00020605
0.01739447 0.00020322
0.01768810 0.00022957
0.01798230 0.00028287
0.01827707 0.00036166
0.01857240 0.00046064
0.01886084 0.00056982
