0.01886084 0.00022040
0.01908307 0.00022620
0.01931639 0.00025022
0.01956136 0.00032164
0.01981856 0.00041473
0.02008860 0.02482277
0.02037212 0.00043456
0.02066979 0.00032720
0.02098232 0.00021286
0.02131046 0.00013083
0.02165497 0.00008114
0.02201668 0.00005657
0.02239644 0.00005355
0.02279516 0.00005935
0.02321378 0.00004780
0.02365329 -0.00000807
0.02411475 -0.00012832
0.02459924 -0.00033326
0.02510792 -0.00065513
0.02564200 -0.00112329
0.02620274 -0.00173328
0.02679149 -0.00241404
0.02739442 -0.00302189
0.02799733 -0.00346050
0.02860022 -0.00370361
0.02920310 -0.00374787
0.02980598 -0.00360223
0.03040885 -0.00328110
0.03101173 -0.00281739
0.03161462 -0.00223275
0.03221754 -0.00154294
0.03282048 -0.00078033
0.03342345 0.00003370
0.03402646 0.00087070
0.03462952 0.00171325
0.03523262 0.00253980
0.03583579 0.00332988
0.03643901 0.00406845
0.03704231 0.00474714
0.03764568 0.00536124
0.03824914 0.00590682
0.03885268 0.00638285
0.03945632 0.00679233
0.04006006 0.00714040
0.04066391 0.00743261
0.04126788 0.00767438
0.04187198 0.00787183
0.04247622 0.00803064
0.04308061 0.00815628
0.04368515 0.00818091
0.04428985 0.00824597
0.04489471 0.00828944
0.04549973 0.00831683
0.04610489 0.00833006
0.04671020 0.00833229
0.04731564 0.00832630
0.04792121 0.00831329
0.04852691 0.00829454
0.04913273 0.00827214
0.04973866 0.00824592
0.05034470 0.00815077
0.05095084 0.00811427
0.05155707 0.00807643
0.05216340 0.00803822
0.05276981 0.00800039
0.05337631 0.00796251
0.05398288 0.00792546
0.05458951 0.00788927
0.05519621 0.00785405
0.05580297 0.00781990
0.05640978 0.00778680
0.05701663 0.00770138
0.05762352 0.00766783
0.05823044 0.00763498
0.05883740 0.00760401
0.05944436 0.00757412
0.06005135 0.00754630
0.06065836 0.00751878
0.06126538 0.00749240
0.06187243 0.00746687
0.06247949 0.00744176
0.06308658 0.00741727
0.06369369 0.00739265
0.06430081 0.00732667
0.06490796 0.00730132
0.06551512 0.00727690
0.06612232 0.00725214
0.06672952 0.00722848
0.06733676 0.00720451
0.06794401 0.00718102
0.06855129 0.00715752
0.06915859 0.00713397
0.06976591 0.00711129
0.07037326 0.00708841
0.07098062 0.00706660
0.07158802 0.00704456
0.07219543 0.00702282
0.07280287 0.00700137
0.07341033 0.00698048
0.07401782 0.00692403
0.07462534 0.00690243
0.07523287 0.00688120
0.07584044 0.00685972
0.07644802 0.00683822
0.07705563 0.00681720
0.07766327 0.00679673
0.07827093 0.00677694
0.07887863 0.00675751
0.07948635 0.00673842
0.08009409 0.00671964
0.08070186 0.00670086
0.08130966 0.00668192
0.08191748 0.00666359
0.08252533 0.00664578
0.08313321 0.00662816
0.08374111 0.00661116
0.08434904 0.00659436
0.08495699 0.00657775
0.08556497 0.00653212
0.08617298 0.00651557
0.08678101 0.00649917
0.08738907 0.00648320
0.08799715 0.00646765
0.08860526 0.00645270
0.08921339 0.00643848
0.08982155 0.00642446
0.09042974 0.00641207
0.09103795 0.00639917
0.09164619 0.00638722
0.09225445 0.00637540
0.09286274 0.00636413
0.09347106 0.00635201
0.09407940 0.00634059
0.09468776 0.00632863
0.09529615 0.00631696
0.09590457 0.00630507
0.09651300 0.00629381
0.09712147 0.00628150
0.09772996 0.00627063
0.09833847 0.00625936
0.09894701 0.00624794
0.09955557 0.00623687
0.10016417 0.00620076
0.10077278 0.00618996
0.10138142 0.00617913
0.10199009 0.00616848
0.10259878 0.00615802
0.10320750 0.00614745
0.10381624 0.00613721
0.10442502 0.00612691
0.10503382 0.00611651
0.10564265 0.00610673
0.10625151 0.00609685
0.10686039 0.00608688
0.10746931 0.00607783
0.10807826 0.00606821
0.10868723 0.00605878
0.10929624 0.00605027
0.10990527 0.00604122
0.11051434 0.00603210
0.11112344 0.00602313
0.11173257 0.00601549
0.11234173 0.00600655
0.11295093 0.00599848
0.11356016 0.00599004
0.11416941 0.00598259
0.11477870 0.00597430
0.11538804 0.00596655
0.11599740 0.00595859
0.11660679 0.00595094
0.11721622 0.00594354
0.11782569 0.00593551
0.11843519 0.00592822
0.11904472 0.00592051
0.11965430 0.00591267
0.12026390 0.00588467
0.12087355 0.00587686
0.12148323 0.00586982
0.12209295 0.00586282
0.12270271 0.00585543
0.12331250 0.00584848
0.12392233 0.00584152
0.12453220 0.00583453
0.12514211 0.00582747
0.12575206 0.00581991
0.12636204 0.00581315
0.12697206 0.00580554
0.12758213 0.00579886
0.12819225 0.00579184
0.12880239 0.00578487
0.12941258 0.00577844
0.13002279 0.00577204
0.13063306 0.00576611
0.13124336 0.00575980
0.13185371 0.00575307
0.13246411 0.00574672
0.13307454 0.00574034
0.13368502 0.00573399
0.13429554 0.00572803
0.13490610 0.00572161
0.13551670 0.00571521
0.13612734 0.00570886
0.13673803 0.00570302
0.13734877 0.00569642
0.13795954 0.00569114
0.13857037 0.00568517
0.13918123 0.00567961
0.13979214 0.00567382
0.14040309 0.00566803
0.14101410 0.00566272
0.14162514 0.00565743
0.14223623 0.00565172
0.14284736 0.00564605
0.14345855 0.00564085
0.14406978 0.00563520
0.14468105 0.00561137
0.14529237 0.00560547
0.14590375 0.00559958
0.14651516 0.00559351
0.14712663 0.00558736
0.14773814 0.00558158
0.14834970 0.00557525
0.14896132 0.00556847
0.14957297 0.00556242
0.15018468 0.00555643
0.15079644 0.00554963
0.15140824 0.00554324
0.15202010 0.00553691
0.15263200 0.00553061
0.15324396 0.00552352
0.15385596 0.00551725
0.15446801 0.00551094
0.15508012 0.00550459
0.15569228 0.00549816
0.15630449 0.00549131
0.15691675 0.00548427
0.15752906 0.00547792
0.15814142 0.00547064
0.15875384 0.00546369
0.15936631 0.00545599
0.15997882 0.00544803
0.16059139 0.00544067
0.16120403 0.00543200
0.16181669 0.00542468
0.16242941 0.00541660
0.16304217 0.00540985
0.16365498 0.00540332
0.16426782 0.00539799
0.16488071 0.00539353
0.16549362 0.00538957
0.16610658 0.00538729
0.16671957 0.00538471
0.16733260 0.00538255
0.16794567 0.00538090
0.16855878 0.00537931
0.16917191 0.00537815
0.16978510 0.00537645
0.17039832 0.00537425
0.17101158 0.00537221
0.17162488 0.00535386
0.17223825 0.00535087
0.17285164 0.00534831
0.17346507 0.00534494
0.17407855 0.00534158
0.17469208 0.00533688
0.17530566 0.00533177
0.17591929 0.00532693
0.17653295 0.00532132
0.17714667 0.00531587
0.17776044 0.00531041
0.17837425 0.00530514
0.17898808 0.00530012
0.17960198 0.00529509
0.18021591 0.00529076
0.18082988 0.00528680
0.18144388 0.00528318
0.18205793 0.00527980
0.18267202 0.00527661
0.18328615 0.00527357
0.18390031 0.00527023
0.18451452 0.00526711
0.18512876 0.00526448
0.18574305 0.00526155
0.18635736 0.00525873
0.18697172 0.00525611
0.18758611 0.00525390
0.18820055 0.00525133
0.18881501 0.00524923
0.18942952 0.00524678
0.19004406 0.00524485
0.19065864 0.00524259
0.19127326 0.00524042
0.19188792 0.00523842
0.19250260 0.00523594
0.19311734 0.00523433
0.19373210 0.00523233
0.19434689 0.00523033
0.19496173 0.00522834
0.19557659 0.00522637
0.19619150 0.00522443
0.19680645 0.00522255
0.19742143 0.00522043
0.19803645 0.00521869
0.19865151 0.00521671
0.19926658 0.00521540
0.19988172 0.00521358
0.20049687 0.00521215
0.20111206 0.00521077
0.20172729 0.00520904
0.20234255 0.00520748
0.20295785 0.00520627
0.20357318 0.00519038
0.20418856 0.00518880
0.20480396 0.00518754
0.20541941 0.00518600
0.20603487 0.00518463
0.20665038 0.00518378
0.20726593 0.00518220
0.20788150 0.00518090
0.20849711 0.00517957
0.20911275 0.00517817
0.20972843 0.00517641
0.21034415 0.00517488
0.21095990 0.00517326
0.21157567 0.00517152
0.21219149 0.00516945
0.21280734 0.00516769
0.21342322 0.00516637
0.21403913 0.00516471
0.21465507 0.00516313
0.21527104 0.00516166
0.21588705 0.00516047
0.21650308 0.00515919
0.21711916 0.00515833
0.21773525 0.00515748
0.21835138 0.00515719
0.21896753 0.00515664
0.21958371 0.00515582
0.22019993 0.00515570
0.22081617 0.00515605
0.22143243 0.00515620
0.22204871 0.00515650
0.22266504 0.00515692
0.22328140 0.00515753
0.22389777 0.00515801
0.22451417 0.00515914
0.22513060 0.00515954
0.22574706 0.00515960
0.22636355 0.00516029
0.22698008 0.00516052
0.22759663 0.00516069
0.22821321 0.00516096
0.22882980 0.00516133
0.22944644 0.00516113
0.23006310 0.00516158
0.23067980 0.00516196
0.23129651 0.00516192
0.23191327 0.00516114
0.23253004 0.00516165
0.23314686 0.00516114
0.23376369 0.00516123
0.23438057 0.00516087
0.23499747 0.00516050
0.23561440 0.00515988
0.23623136 0.00516021
0.23684835 0.00515959
0.23746538 0.00515927
0.23808242 0.00515936
0.23869951 0.00515859
0.23931663 0.00515858
0.23993377 0.00515781
0.24055095 0.00515765
0.24116816 0.00515700
0.24178539 0.00515671
0.24240266 0.00515594
0.24301997 0.00515486
0.24363729 0.00515468
0.24425466 0.00515353
0.24487206 0.00515263
0.24548949 0.00515212
0.24610695 0.00515157
0.24672444 0.00513630
0.24734196 0.00513517
0.24795952 0.00513373
0.24857710 0.00513357
0.24919473 0.00513284
0.24981238 0.00513148
0.25043008 0.00512980
0.25104779 0.00512937
0.25166553 0.00512806
0.25228333 0.00512569
0.25290114 0.00512430
0.25351900 0.00512401
0.25413686 0.00512256
0.25475478 0.00512107
0.25537273 0.00511992
0.25599071 0.00511881
0.25660872 0.00511739
0.25722677 0.00511596
0.25784487 0.00511439
0.25846297 0.00511303
0.25908113 0.00511201
0.25969931 0.00511149
0.26031750 0.00510936
0.26093575 0.00510835
0.26155403 0.00510783
0.26217237 0.00510551
0.26279071 0.00510483
0.26340911 0.00510346
0.26402751 0.00510152
0.26464596 0.00509930
0.26526445 0.00509712
0.26588300 0.00509379
0.26650155 0.00509057
0.26712015 0.00508654
0.26773879 0.00508348
0.26835746 0.00507947
0.26897618 0.00507576
0.26959494 0.00507042
0.27021372 0.00506678
0.27083254 0.00506292
0.27145141 0.00505874
0.27207029 0.00505515
0.27268922 0.00505207
0.27330819 0.00504754
0.27392718 0.00504443
0.27454621 0.00504107
0.27516526 0.00503833
0.27578437 0.00503611
0.27640349 0.00503293
0.27702266 0.00503029
0.27764183 0.00502826
0.27826107 0.00502595
0.27888033 0.00502378
0.27949962 0.00502211
0.28011894 0.00502004
0.28073829 0.00501841
0.28135768 0.00501551
0.28197709 0.00501381
0.28259656 0.00501199
0.28321603 0.00501018
0.28383553 0.00500836
0.28445509 0.00500614
0.28507465 0.00500515
0.28569427 0.00500219
0.28631389 0.00500051
0.28693357 0.00499923
0.28755328 0.00499716
0.28817299 0.00499550
0.28879276 0.00499422
0.28941256 0.00499215
0.29003236 0.00499048
0.29065222 0.00498919
0.29127210 0.00498755
0.29189199 0.00498672
0.29251194 0.00498473
0.29313189 0.00498395
0.29375190 0.00498277
0.29437193 0.00498081
0.29499197 0.00498007
0.29561204 0.00497894
0.29623216 0.00497781
0.29685229 0.00496386
0.29747245 0.00496156
0.29809266 0.00496015
0.29871288 0.00496045
0.29933313 0.00495885
0.29995340 0.00495848
0.30057371 0.00495784
0.30119401 0.00495769
0.30181438 0.00495687
0.30243477 0.00495654
0.30305517 0.00495550
0.30367559 0.00495570
0.30429608 0.00495561
0.30491656 0.00495519
0.30553707 0.00495524
0.30615762 0.00495455
0.30677819 0.00495505
0.30739877 0.00495475
0.30801940 0.00495490
0.30864003 0.00495466
0.30926073 0.00495406
0.30988142 0.00495348
0.31050214 0.00495327
0.31112289 0.00495270
0.31174368 0.00495251
0.31236449 0.00495278
0.31298530 0.00495266
0.31360617 0.00495221
0.31422704 0.00495131
0.31484798 0.00495040
0.31546891 0.00495091
0.31608987 0.00494941
0.31671086 0.00494977
0.31733185 0.00494926
0.31795290 0.00494830
0.31857398 0.00494724
0.31919506 0.00494643
0.31981617 0.00494555
0.32043734 0.00494389
0.32105851 0.00494362
0.32167971 0.00494133
0.32230094 0.00494090
0.32292220 0.00493927
0.32354346 0.00493871
0.32416478 0.00493698
0.32478610 0.00493556
0.32540748 0.00493375
0.32602885 0.00493351
0.32665026 0.00493201
0.32727170 0.00493087
0.32789317 0.00492997
0.32851467 0.00492869
0.32913619 0.00492734
0.32975772 0.00492625
0.33037931 0.00492473
0.33100089 0.00492345
0.33162251 0.00492210
0.33224419 0.00492114
0.33286586 0.00491854
0.33348757 0.00491778
0.33410931 0.00491668
0.33473104 0.00491432
0.33535284 0.00491320
0.33597466 0.00491130
0.33659649 0.00490971
0.33721834 0.00490889
0.33784023 0.00490726
0.33846217 0.00490497
0.33908412 0.00490324
0.33970606 0.00490142
0.34032807 0.00489997
0.34095010 0.00489772
0.34157214 0.00489508
0.34219420 0.00489413
0.34281632 0.00489149
0.34343845 0.00488983
0.34406060 0.00488757
0.34468278 0.00488656
0.34530497 0.00488570
0.34592721 0.00488389
0.34654945 0.00488245
0.34717172 0.00488080
0.34779403 0.00488026
0.34841636 0.00487866
0.34903872 0.00487657
0.34966111 0.00487493
0.35028350 0.00486099
0.35090595 0.00485896
0.35152841 0.00485745
0.35215089 0.00485588
0.35277340 0.00485240
0.35339594 0.00485037
0.35401851 0.00484822
0.35464108 0.00484547
0.35526368 0.00484339
0.35588634 0.00484017
0.35650900 0.00483763
0.35713166 0.00483529
0.35775438 0.00483262
0.35837713 0.00482914
0.35899988 0.00482662
0.35962266 0.00482324
0.36024547 0.00482107
0.36086830 0.00481805
0.36149114 0.00481445
0.36211404 0.00481206
0.36273694 0.00480805
0.36335987 0.00480572
0.36398280 0.00480332
0.36460578 0.00479985
0.36522877 0.00479659
0.36585179 0.00479456
0.36647484 0.00479099
0.36709788 0.00478841
0.36772099 0.00478635
0.36834410 0.00478277
0.36896721 0.00478117
0.36959037 0.00477832
0.37021354 0.00477547
0.37083673 0.00477286
0.37145996 0.00477001
0.37208319 0.00476813
0.37270647 0.00476505
0.37332973 0.00476265
0.37395304 0.00475982
0.37457636 0.00475724
0.37519971 0.00475520
0.37582308 0.00475244
0.37644646 0.00474994
0.37706986 0.00474728
0.37769330 0.00474489
0.37831673 0.00474256
0.37894019 0.00473934
0.37956369 0.00473622
0.38018721 0.00473397
0.38081074 0.00473185
0.38143426 0.00472953
0.38205785 0.00472751
0.38268140 0.00472479
0.38330501 0.00472256
0.38392863 0.00471962
0.38455227 0.00471734
0.38517591 0.00471508
0.38579959 0.00471200
0.38642329 0.00470895
0.38704699 0.00470624
0.38767073 0.00470403
0.38829446 0.00470192
0.38891822 0.00470023
0.38954201 0.00469857
0.39016581 0.00469705
0.39078960 0.00469582
0.39141345 0.00469450
0.39203727 0.00469268
0.39266115 0.00469142
0.39328504 0.00468938
0.39390892 0.00468897
0.39453283 0.00468756
0.39515674 0.00468544
0.39578068 0.00468449
0.39640465 0.00468264
0.39702863 0.00468155
0.39765260 0.00467955
0.39827660 0.00467725
0.39890063 0.00467630
0.39952466 0.00467390
0.40014872 0.00467197
0.40077278 0.00466995
0.40139684 0.00466870
0.40202093 0.00466730
0.40264505 0.00465344
0.40326917 0.00465160
0.40389329 0.00464984
0.40451744 0.00464802
0.40514162 0.00464584
0.40576577 0.00464407
0.40638998 0.00464193
0.40701419 0.00464050
0.40763840 0.00463838
0.40826261 0.00463718
0.40888685 0.00463525
0.40951112 0.00463396
0.41013539 0.00463198
0.41075966 0.00463017
0.41138396 0.00462829
0.41200826 0.00462736
0.41263258 0.00462565
0.41325691 0.00462474
0.41388124 0.00462329
0.41450560 0.00462172
0.41512996 0.00462102
0.41575432 0.00461891
0.41637871 0.00461747
0.41700312 0.00461611
0.41762751 0.00461424
0.41825193 0.00461244
0.41887638 0.00461129
0.41950083 0.00460954
0.42012528 0.00460808
0.42074972 0.00460589
0.42137420 0.00460393
0.42199868 0.00460264
0.42262319 0.00459996
0.42324769 0.00459888
0.42387220 0.00459705
0.42449674 0.00459528
0.42512125 0.00459380
0.42574582 0.00459131
0.42637035 0.00458977
0.42699492 0.00458749
0.42761949 0.00458584
0.42824408 0.00458423
0.42886868 0.00458192
0.42949328 0.00458044
0.43011788 0.00457892
0.43074250 0.00457725
0.43136713 0.00457482
0.43199176 0.00457387
0.43261641 0.00457202
0.43324104 0.00457018
0.43386570 0.00456824
0.43449038 0.00456681
0.43511504 0.00456469
0.43573973 0.00456382
0.43636444 0.00456210
0.43698913 0.00456030
0.43761384 0.00455895
0.43823856 0.00455743
0.43886328 0.00455516
0.43948799 0.00455350
0.44011274 0.00455166
0.44073749 0.00455043
0.44136223 0.00454917
0.44198698 0.00454641
0.44261175 0.00454568
0.44323653 0.00454353
0.44386131 0.00454287
0.44448608 0.00454139
0.44511089 0.00453913
0.44573566 0.00453770
0.44636047 0.00453613
0.44698530 0.00453452
0.44761011 0.00453310
0.44823492 0.00452107
0.44885975 0.00451956
0.44948459 0.00451747
0.45010942 0.00451613
0.45073426 0.00451425
0.45135912 0.00451313
0.45198396 0.00451145
0.45260882 0.00450980
0.45323369 0.00450832
0.45385855 0.00450695
0.45448345 0.00450575
0.45510831 0.00450405
0.45573321 0.00450243
0.45635810 0.00450097
0.45698300 0.00449960
0.45760790 0.00449837
0.45823279 0.00449731
0.45885769 0.00449565
0.45948261 0.00449398
0.46010754 0.00449376
0.46073243 0.00449219
0.46135736 0.00449066
0.46198228 0.00448908
0.46260720 0.00448751
0.46323216 0.00448654
0.46385708 0.00448477
0.46448204 0.00448220
0.46510696 0.00448099
0.46573192 0.00447968
0.46635687 0.00447685
0.46698183 0.00447531
0.46760678 0.00447301
0.46823174 0.00447135
0.46885669 0.00446897
0.46948165 0.00446723
0.47010663 0.00446470
0.47073159 0.00446277
0.47135657 0.00446143
0.47198153 0.00445865
0.47260651 0.00445711
0.47323149 0.00445543
0.47385648 0.00445294
0.47448146 0.00445103
0.47510642 0.00444907
0.47573140 0.00444699
0.47635639 0.00444559
0.47698140 0.00444344
0.47760639 0.00444196
0.47823137 0.00444046
0.47885635 0.00443895
0.47948134 0.00443676
0.48010635 0.00443529
0.48073134 0.00443385
0.48135632 0.00443244
0.48198134 0.00443172
0.48260632 0.00442960
0.48323131 0.00442813
0.48385632 0.00442734
0.48448130 0.00442518
0.48510632 0.00442375
0.48573130 0.00442236
0.48635629 0.00442103
0.48698130 0.00441973
0.48760629 0.00441778
0.48823130 0.00441660
0.48885629 0.00441478
0.48948127 0.00441372
0.49010628 0.00441204
0.49073127 0.00441043
0.49135625 0.00440891
0.49198127 0.00440748
0.49260625 0.00440540
0.49323124 0.00439423
0.49385622 0.00439293
0.49448121 0.00439098
0.49510619 0.00438913
0.49573117 0.00438731
0.49635616 0.00438555
0.49698114 0.00438387
0.49760613 0.00438227
0.49823111 0.00438071
0.49885610 0.00437846
0.49948105 0.00437688
0.50010604 0.00437531
0.50073099 0.00437296
0.50135595 0.00437197
0.50198090 0.00437024
0.50260592 0.00436778
0.50323087 0.00436593
0.50385582 0.00436401
0.50448078 0.00436191
0.50510567 0.00435969
0.50573063 0.00435738
0.50635558 0.00435494
0.50698054 0.00435238
0.50760549 0.00435040
0.50823039 0.00434763
0.50885534 0.00434477
0.50948024 0.00434241
0.51010519 0.00434004
0.51073009 0.00433758
0.51135498 0.00433495
0.51197988 0.00433236
0.51260477 0.00432974
0.51322967 0.00432765
0.51385456 0.00432496
0.51447946 0.00432293
0.51510435 0.00432018
0.51572925 0.00431806
0.51635408 0.00431585
0.51697898 0.00431359
0.51760381 0.00431051
0.51822865 0.00430885
0.51885349 0.00430569
0.51947832 0.00430331
0.52010316 0.00430092
0.52072799 0.00429784
0.52135283 0.00429538
0.52197766 0.00429348
0.52260244 0.00428992
0.52322727 0.00428705
0.52385205 0.00428302
0.52447683 0.00427905
0.52510160 0.00427572
0.52572638 0.00427273
0.52635115 0.00426930
0.52697587 0.00426593
0.52760065 0.00426241
0.52822536 0.00425944
0.52885008 0.00425676
0.52947479 0.00425403
0.53009951 0.00425086
0.53072423 0.00424774
0.53134894 0.00424466
0.53197360 0.00424159
0.53259832 0.00423851
0.53322297 0.00423480
0.53384763 0.00423179
0.53447229 0.00422866
0.53509688 0.00422511
0.53572154 0.00422162
0.53634614 0.00421866
0.53697073 0.00421523
0.53759533 0.00421180
0.53821993 0.00420078
0.53884453 0.00419664
0.53946906 0.00419359
0.54009360 0.00419005
0.54071814 0.00418692
0.54134268 0.00418329
0.54196721 0.00418025
0.54259169 0.00417646
0.54321623 0.00417387
0.54384071 0.00416986
0.54446512 0.00416682
0.54508960 0.00416258
0.54571408 0.00415953
0.54633850 0.00415573
0.54696292 0.00415222
0.54758734 0.00414879
0.54821169 0.00414519
0.54883611 0.00414083
0.54946047 0.00413768
0.55008483 0.00413356
0.55070913 0.00412956
0.55133349 0.00412550
0.55195779 0.00412179
0.55258209 0.00411765
0.55320638 0.00411411
0.55383062 0.00411057
0.55445486 0.00410618
0.55507910 0.00410272
0.55570334 0.00409931
0.55632758 0.00409531
0.55695176 0.00409197
0.55757594 0.00408778
0.55820012 0.00408478
0.55882424 0.00408071
0.55944836 0.00407676
0.56007248 0.00407320
0.56069660 0.00407041
0.56132072 0.00406647
0.56194478 0.00406328
0.56256884 0.00406016
0.56319284 0.00405622
0.56381691 0.00405332
0.56444091 0.00404993
0.56506491 0.00404666
0.56568891 0.00404352
0.56631285 0.00404019
0.56693679 0.00403722
0.56756073 0.00403365
0.56818461 0.00402982
0.56880850 0.00402697
0.56943238 0.00402416
0.57005626 0.00402074
0.57068008 0.00401704
0.57130390 0.00401361
0.57192773 0.00401074
0.57255155 0.00400717
0.57317531 0.00400353
0.57379907 0.00400012
0.57442278 0.00398847
0.57504654 0.00398447
0.57567024 0.00398099
0.57629395 0.00397740
0.57691759 0.00397280
0.57754123 0.00396970
0.57816488 0.00396537
0.57878846 0.00396129
0.57941204 0.00395811
0.58003563 0.00395426
0.58065921 0.00395095
0.58128273 0.00394722
0.58190626 0.00394315
0.58252978 0.00394028
0.58315325 0.00393680
0.58377671 0.00393335
0.58440018 0.00393053
0.58502358 0.00392675
0.58564699 0.00392327
0.58627039 0.00391972
0.58689374 0.00391640
0.58751708 0.00391338
0.58814043 0.00391031
0.58876371 0.00390721
0.58938700 0.00390347
0.59001029 0.00390035
0.59063351 0.00389693
0.59125674 0.00389399
0.59187996 0.00389055
0.59250313 0.00388747
0.59312630 0.00388484
0.59374946 0.00388168
0.59437257 0.00387920
0.59499568 0.00387619
0.59561872 0.00387288
0.59624183 0.00387003
0.59686488 0.00386785
0.59748787 0.00386474
0.59811085 0.00386149
0.59873384 0.00385831
0.59935683 0.00385584
0.59997976 0.00385284
0.60060269 0.00385048
0.60122555 0.00384720
0.60184842 0.00384376
0.60247129 0.00384095
0.60309410 0.00383084
0.60371691 0.00382804
0.60433972 0.00382469
0.60496247 0.00382214
0.60558522 0.00381883
0.60620797 0.00381558
0.60683066 0.00381237
0.60745335 0.00380975
0.60807598 0.00380670
0.60869861 0.00380343
0.60932124 0.00380011
0.60994381 0.00379728
0.61056638 0.00379341
0.61118895 0.00379092
0.61181146 0.00378698
0.61243391 0.00378357
0.61305642 0.00378035
0.61367887 0.00377678
0.61430132 0.00377356
0.61492372 0.00377024
0.61554611 0.00376683
0.61616844 0.00376345
0.61679077 0.00375985
0.61741310 0.00375618
0.61803538 0.00375261
0.61865765 0.00374938
0.61927992 0.00374552
0.61990213 0.00374220
0.62052429 0.00373896
0.62114650 0.00373599
0.62176865 0.00373212
0.62239075 0.00372867
0.62301284 0.00372531
0.62363493 0.00372182
0.62425703 0.00371932
0.62487900 0.00371490
0.62550104 0.00371239
0.62612301 0.00370838
0.62674499 0.00370534
0.62736690 0.00370166
0.62798882 0.00369793
0.62861073 0.00369474
0.62923259 0.00369149
0.62985438 0.00368718
0.63047624 0.00367780
0.63109803 0.00367389
0.63171977 0.00366954
0.63234150 0.00366628
0.63296324 0.00366254
0.63358492 0.00365888
0.63420659 0.00365529
0.63482821 0.00365075
0.63544983 0.00364787
0.63607144 0.00364393
0.63669300 0.00364068
0.63731450 0.00363652
0.63793606 0.00363294
0.63855755 0.00362947
0.63917899 0.00362609
0.63980043 0.00362234
0.64042187 0.00361961
0.64104325 0.00361540
0.64166456 0.00361178
0.64228594 0.00360861
0.64290726 0.00360454
0.64352852 0.00360153
0.64414978 0.00359798
0.64477104 0.00359443
0.64539224 0.00359040
0.64601338 0.00358694
0.64663458 0.00358393
0.64725572 0.00358046
0.64787680 0.00357653
0.64849788 0.00357308
0.64911890 0.00356906
0.64973998 0.00356649
0.65036094 0.00356181
0.65098190 0.00355818
0.65160286 0.00355444
0.65222377 0.00355063
0.65284467 0.00354680
0.65346557 0.00354349
0.65408641 0.00353964
0.65470719 0.00353576
0.65532798 0.00353232
0.65594876 0.00352885
0.65656948 0.00352482
0.65719020 0.00352121
0.65781087 0.00351752
0.65843153 0.00351425
0.65905219 0.00350553
0.65967280 0.00350203
0.66029334 0.00349746
0.66091388 0.00349385
0.66153443 0.00349019
0.66215491 0.00348650
0.66277534 0.00348279
0.66339582 0.00347899
0.66401619 0.00347456
0.66463661 0.00347166
0.66525698 0.00346768
0.66587728 0.00346369
0.66649759 0.00345968
0.66711783 0.00345558
0.66773808 0.00345186
0.66835833 0.00344748
0.66897851 0.00344357
0.66959870 0.00343860
0.67021883 0.00343463
0.67083895 0.00342999
0.67145902 0.00342518
0.67207909 0.00342017
0.67269909 0.00341489
0.67331910 0.00340940
0.67393905 0.00340022
0.67455900 0.00339856
0.67517906 0.00341264
0.67579913 0.00342824
0.67641920 0.00343623
0.67703915 0.00343954
0.67765915 0.00344110
0.67827910 0.00344175
0.67889899 0.00343985
0.67951882 0.00343774
0.68013871 0.00343559
0.68075848 0.00343188
0.68137825 0.00342352
0.68199801 0.00341951
0.68261772 0.00341522
0.68323737 0.00341018
0.68385702 0.00340552
0.68447667 0.00340064
0.68509620 0.00339491
0.68571579 0.00339002
0.68633527 0.00338391
0.68695480 0.00337838
0.68757421 0.00337237
0.68819362 0.00336696
0.68881303 0.00336157
0.68943238 0.00335576
0.69005173 0.00335103
0.69067097 0.00334515
0.69129026 0.00334016
0.69190949 0.00333457
0.69252867 0.00332906
0.69314784 0.00332417
0.69376695 0.00331833
0.69438607 0.00331360
0.69500512 0.00330926
0.69562411 0.00330365
0.69624311 0.00329837
0.69686210 0.00329294
0.69748104 0.00328791
0.69809991 0.00328281
0.69871879 0.00327768
0.69933760 0.00327149
0.69995642 0.00326639
0.70057517 0.00326137
0.70119387 0.00325180
0.70181257 0.00324688
0.70243126 0.00324205
0.70304990 0.00323728
0.70366848 0.00323196
0.70428705 0.00322671
0.70490557 0.00322189
0.70552409 0.00321752
0.70614254 0.00321266
0.70676100 0.00320779
0.70737940 0.00320291
0.70799774 0.00319746
0.70861608 0.00319263
0.70923436 0.00318730
0.70985264 0.00318218
0.71047091 0.00317828
0.71108907 0.00317284
0.71170723 0.00316803
0.71232539 0.00316454
0.71294349 0.00315954
0.71356153 0.00315469
0.71417958 0.00314973
0.71479762 0.00314638
0.71541560 0.00314195
0.71603352 0.00313598
0.71665144 0.00313199
0.71726930 0.00312697
0.71788710 0.00311774
0.71850491 0.00311298
0.71912271 0.00310725
0.71974045 0.00310202
0.72035813 0.00309630
0.72097582 0.00309128
0.72159344 0.00308640
0.72221106 0.00308166
0.72282863 0.00307683
0.72344613 0.00307177
0.72406363 0.00306661
0.72468114 0.00306272
0.72529858 0.00305858
0.72591597 0.00305350
0.72653335 0.00304953
0.72715068 0.00304536
0.72776800 0.00304120
0.72838527 0.00303669
0.72900248 0.00303274
0.72961968 0.00302800
0.73023689 0.00302444
0.73085397 0.00301996
0.73147112 0.00301609
0.73208815 0.00301162
0.73270518 0.00300762
0.73332220 0.00300372
0.73393917 0.00299942
0.73455608 0.00299461
0.73517299 0.00299024
0.73578990 0.00298230
0.73640668 0.00297739
0.73702353 0.00297342
0.73764026 0.00296849
0.73825699 0.00296415
0.73887372 0.00295982
0.73949039 0.00295566
0.74010700 0.00295043
0.74072361 0.00294620
0.74134016 0.00294138
0.74195671 0.00293694
0.74257326 0.00293336
0.74318969 0.00292864
0.74380612 0.00292456
0.74442255 0.00292053
0.74503893 0.00291597
0.74565530 0.00291263
0.74627161 0.00290813
0.74688786 0.00290419
0.74750412 0.00289963
0.74812037 0.00289642
0.74873656 0.00289211
0.74935269 0.00288736
0.74996883 0.00288313
0.75058490 0.00287880
0.75120097 0.00287438
0.75181699 0.00286584
0.75243294 0.00286098
0.75304890 0.00285603
0.75366479 0.00285060
0.75428069 0.00284546
0.75489652 0.00284002
0.75551236 0.00283473
0.75612813 0.00282937
0.75674385 0.00282322
0.75735956 0.00281750
0.75797522 0.00281207
0.75859082 0.00280592
0.75920641 0.00280066
0.75982201 0.00279531
0.76043755 0.00279012
0.76105303 0.00278448
0.76166850 0.00277960
0.76228392 0.00277431
0.76289934 0.00276980
0.76351476 0.00276548
0.76413012 0.00276095
0.76474547 0.00275724
0.76536077 0.00275333
0.76597607 0.00274960
0.76659131 0.00274541
0.76720655 0.00274226
0.76782173 0.00273805
0.76843691 0.00273434
0.76905209 0.00272749
0.76966715 0.00272303
0.77028227 0.00271931
0.77089727 0.00271417
0.77151233 0.00270956
0.77212727 0.00270464
0.77274221 0.00269857
0.77335709 0.00269290
0.77397197 0.00268682
0.77458674 0.00267971
0.77520150 0.00267271
0.77581626 0.00266524
0.77643090 0.00265702
0.77704555 0.00264881
0.77766013 0.00264100
0.77827471 0.00263312
0.77888924 0.00262563
0.77950370 0.00261783
0.78011817 0.00261087
0.78073257 0.00260442
0.78134698 0.00259818
0.78196132 0.00259176
0.78257567 0.00258653
0.78319001 0.00258174
0.78380430 0.00257736
0.78441858 0.00257337
0.78503287 0.00256689
0.78564709 0.00256305
0.78626132 0.00256022
0.78687555 0.00255786
0.78748971 0.00255503
0.78810394 0.00255284
0.78871810 0.00255042
0.78933221 0.00254755
0.78994632 0.00254532
0.79056042 0.00254247
0.79117453 0.00253972
0.79178852 0.00253568
0.79240257 0.00253277
0.79301655 0.00252869
0.79363048 0.00252371
0.79424441 0.00251906
0.79485828 0.00251421
0.79547209 0.00250857
0.79608589 0.00250308
0.79669964 0.00249763
0.79731333 0.00249158
0.79792702 0.00248571
0.79854065 0.00248012
0.79915428 0.00247136
0.79976785 0.00246506
0.80038136 0.00245832
0.80099487 0.00245149
0.80160832 0.00244446
0.80222178 0.00243665
0.80283511 0.00242813
0.80344850 0.00242037
0.80406183 0.00241257
0.80467510 0.00240530
0.80528837 0.00239818
0.80590159 0.00239008
0.80651474 0.00238282
0.80712795 0.00237543
0.80774105 0.00236764
0.80835414 0.00236046
0.80896723 0.00235356
0.80958027 0.00234718
0.81019330 0.00234112
0.81080627 0.00233462
0.81141925 0.00232910
0.81203216 0.00232361
0.81264508 0.00231778
0.81325793 0.00231281
0.81387079 0.00230713
0.81448364 0.00229995
0.81509644 0.00229528
0.81570923 0.00229071
0.81632203 0.00228624
0.81693476 0.00228181
0.81754744 0.00227701
0.81816018 0.00227264
0.81877285 0.00226837
0.81938553 0.00226434
0.81999815 0.00225966
0.82061076 0.00225571
0.82122338 0.00225162
0.82183594 0.00224736
0.82244849 0.00224334
0.82306105 0.00223901
0.82367361 0.00223593
0.82428610 0.00223177
0.82489860 0.00222746
0.82551110 0.00222367
0.82612360 0.00222023
0.82673609 0.00221717
0.82734853 0.00221307
0.82796097 0.00220968
0.82857341 0.00220617
0.82918578 0.00219993
0.82979822 0.00219648
0.83041060 0.00219250
0.83102304 0.00218979
0.83163542 0.00218654
0.83224779 0.00218306
0.83286011 0.00217946
0.83347249 0.00217667
0.83408487 0.00217353
0.83469719 0.00217065
0.83530957 0.00216760
0.83592188 0.00216423
0.83653426 0.00216176
0.83714658 0.00215848
0.83775890 0.00215543
0.83837122 0.00215211
0.83898354 0.00214834
0.83959585 0.00214507
0.84020817 0.00214178
0.84082049 0.00213842
0.84143275 0.00213505
0.84204501 0.00212863
0.84265733 0.00212549
0.84326959 0.00212119
0.84388185 0.00211742
0.84449410 0.00211384
0.84510630 0.00210959
0.84571856 0.00210597
0.84633076 0.00210199
0.84694296 0.00209830
0.84755516 0.00209396
0.84816736 0.00209015
0.84877950 0.00208628
0.84939170 0.00208238
0.85000384 0.00207863
0.85061598 0.00207472
0.85122806 0.00207029
0.85184020 0.00206676
0.85245228 0.00206193
0.85306436 0.00205769
0.85367638 0.00205276
0.85428840 0.00204835
0.85490042 0.00204412
0.85551244 0.00203958
0.85612446 0.00203534
0.85673642 0.00203075
0.85734838 0.00202347
0.85796028 0.00201877
0.85857219 0.00201339
0.85918409 0.00200867
0.85979599 0.00200421
0.86040783 0.00199899
0.86101967 0.00199430
0.86163145 0.00198907
0.86224324 0.00198405
0.86285502 0.00197901
0.86346674 0.00197370
0.86407846 0.00196783
0.86469012 0.00196249
0.86530185 0.00195696
0.86591345 0.00195092
0.86652505 0.00194557
0.86713666 0.00194005
0.86774826 0.00193483
0.86835980 0.00192936
0.86897129 0.00192329
0.86958277 0.00191762
0.87019426 0.00191183
0.87080568 0.00190637
0.87141705 0.00190014
0.87202841 0.00189281
0.87263978 0.00188705
0.87325108 0.00188146
0.87386239 0.00187560
0.87447363 0.00186917
0.87508482 0.00186307
0.87569600 0.00185655
0.87630719 0.00185083
0.87691826 0.00184430
0.87752938 0.00183797
0.87814045 0.00183199
0.87875146 0.00182566
0.87936240 0.00181880
0.87997341 0.00181252
0.88058430 0.00180627
0.88119519 0.00179950
0.88180608 0.00179395
0.88241684 0.00178694
0.88302767 0.00178135
0.88363844 0.00177523
0.88424915 0.00176894
0.88485986 0.00176285
0.88547051 0.00175682
0.88608110 0.00174877
0.88669169 0.00174291
0.88730228 0.00173698
0.88791281 0.00173096
0.88852328 0.00172433
0.88913375 0.00171811
0.88974416 0.00171166
0.89035457 0.00170544
0.89096493 0.00169867
0.89157528 0.00169276
0.89218557 0.00168599
0.89279580 0.00167960
0.89340603 0.00167263
0.89401627 0.00166655
0.89462638 0.00165955
0.89523655 0.00165307
0.89584661 0.00164604
0.89645666 0.00163795
0.89706671 0.00163130
0.89767671 0.00162470
0.89828670 0.00161808
0.89889663 0.00161112
0.89950657 0.00160469
0.90011644 0.00159844
0.90072632 0.00159224
0.90133613 0.00158574
0.90194595 0.00157976
0.90255576 0.00157397
0.90316558 0.00156832
0.90377533 0.00156290
0.90438509 0.00155711
0.90499479 0.00155175
0.90560454 0.00154644
0.90621424 0.00154097
0.90682393 0.00153520
0.90743363 0.00152859
0.90804327 0.00152301
0.90865296 0.00151841
0.90926260 0.00151318
0.90987229 0.00150838
0.91048193 0.00150365
0.91109157 0.00149889
0.91170120 0.00149381
0.91231084 0.00148913
0.91292053 0.00148460
0.91353017 0.00148021
0.91413981 0.00147562
0.91474944 0.00147152
0.91535914 0.00146746
0.91596878 0.00146308
0.91657847 0.00145902
0.91718817 0.00145497
0.91779786 0.00145094
0.91840756 0.00144538
0.91901731 0.00144176
0.91962701 0.00143756
0.92023677 0.00143407
0.92084652 0.00143068
0.92145628 0.00142689
0.92206603 0.00142341
0.92267585 0.00141986
0.92328566 0.00141643
0.92389548 0.00141309
0.92450529 0.00140942
0.92511517 0.00140631
0.92572504 0.00140319
0.92633492 0.00140011
0.92694479 0.00139680
0.92755473 0.00139388
0.92816466 0.00138998
0.92877460 0.00138719
0.92938459 0.00138442
0.92999458 0.00138128
0.93060458 0.00137855
0.93121463 0.00137582
0.93182468 0.00137310
0.93243474 0.00136997
0.93304485 0.00136723
0.93365496 0.00136440
0.93426508 0.00136122
0.93487525 0.00135833
0.93548548 0.00135548
0.93609565 0.00135241
0.93670595 0.00135012
0.93731618 0.00134730
0.93792647 0.00134500
0.93853682 0.00134266
0.93914717 0.00134036
0.93975753 0.00133659
0.94036794 0.00133418
0.94097835 0.00133185
0.94158882 0.00132923
0.94219929 0.00132703
0.94280982 0.00132502
0.94342041 0.00132297
0.94403100 0.00132097
0.94464159 0.00131870
0.94525224 0.00131675
0.94586295 0.00131476
0.94647366 0.00131273
0.94708437 0.00131032
0.94769520 0.00130824
0.94830596 0.00130581
0.94891685 0.00130412
0.94952774 0.00130224
0.95013863 0.00130025
0.95074958 0.00129848
0.95136058 0.00129722
0.95197165 0.00129615
0.95258272 0.00129527
0.95319384 0.00129460
0.95380497 0.00129309
0.95441616 0.00129207
0.95502740 0.00129133
0.95563865 0.00129071
0.95624995 0.00129016
0.95686132 0.00128965
0.95747268 0.00128879
0.95808405 0.00128822
0.95869547 0.00128723
0.95930696 0.00128674
0.95991838 0.00128555
0.96052986 0.00128462
0.96114135 0.00128355
0.96175283 0.00128193
0.96236438 0.00128074
0.96297586 0.00127914
0.96358734 0.00127758
0.96419883 0.00127606
0.96481025 0.00127401
0.96542168 0.00127149
0.96603310 0.00126866
0.96664453 0.00126537
0.96725589 0.00126197
0.96786726 0.00125764
0.96847856 0.00125418
0.96908981 0.00125087
0.96970105 0.00124745
0.97031218 0.00124329
0.97092330 0.00123885
0.97153437 0.00123381
0.97214538 0.00122795
0.97275633 0.00122210
0.97336721 0.00121620
0.97397804 0.00121040
0.97458875 0.00120447
0.97519940 0.00119833
0.97580999 0.00119257
0.97642046 0.00118649
0.97703087 0.00117996
0.97764117 0.00117242
0.97825140 0.00116445
0.97886151 0.00115479
0.97947150 0.00114389
0.98008138 0.00113150
0.98069113 0.00112040
0.98130077 0.00110960
0.98191029 0.00109984
0.98251969 0.00109079
0.98312891 0.00108210
0.98373806 0.00107427
0.98434705 0.00106598
0.98495585 0.00105801
0.98556453 0.00104969
0.98617303 0.00104152
0.98678142 0.00103312
0.98738956 0.00102433
0.98799759 0.00101581
0.98860544 0.00100725
0.98921311 0.00099853
0.98982060 0.00098961
0.99042785 0.00098097
0.99103492 0.00097257
0.99164182 0.00096395
0.99224854 0.00095576
0.99284983 0.00094868
0.99334258 0.00094377
0.99374640 0.00094067
0.99407727 0.00093888
0.99434841 0.00093824
0.99457067 0.00093909
0.99475282 0.00094085
0.99490207 0.00094329
0.99502444 0.00094636
0.99512470 0.00094957
0.99520689 0.00095299
0.99527425 0.00095621
0.99532950 0.00095979
