0.000000000000000000e+00 4.493835478675442530e-02
2.117515195055367894e+00 3.787954116049426639e-02
4.235030390110735787e+00 2.759790655674980095e-02
6.352545585166104125e+00 2.539088509287159776e-02
8.470060780221471575e+00 2.197767355172795811e-02
1.058757597527683991e+01 1.307325284769430759e-02
1.270509117033220825e+01 1.040263597143081115e-02
1.482260636538757481e+01 9.194044913875650676e-03
1.694012156044294315e+01 2.854005737575441431e-03
1.905763675549831504e+01 7.923846091991409296e-03
2.117515195055367982e+01 9.122311979817577035e-03
2.329266714560904816e+01 2.162796157905668391e-03
2.541018234066441650e+01 1.234683405554119241e-03
2.752769753571978839e+01 3.062556660154732661e-03
2.964521273077514962e+01 1.705839767614523387e-03
3.176272792583051796e+01 2.030440222537000655e-03
3.388024312088588630e+01 8.074394849179338321e-03
3.599775831594125464e+01 4.131492283881037231e-03
3.811527351099663008e+01 1.846093044256284874e-03
4.023278870605199131e+01 2.076558592487803227e-03
4.235030390110735965e+01 8.992675365071646845e-03
4.446781909616272799e+01 7.107383423715400543e-03
4.658533429121809633e+01 1.754245844905493856e-03
4.870284948627345756e+01 8.062848650910697367e-04
5.082036468132883300e+01 1.660056875393129544e-03
5.293787987638420134e+01 5.377808421791875713e-04
5.505539507143957678e+01 3.769105564350302626e-03
5.717291026649493801e+01 1.374920872467249016e-03
5.929042546155029925e+01 3.583650614509547704e-03
6.140794065660567469e+01 2.429811748273117984e-03
6.352545585166103592e+01 1.467810872633350293e-03
6.564297104671641137e+01 1.697103670335981754e-06
6.776048624177177260e+01 6.396887156145599461e-03
6.987800143682713383e+01 7.639754965922367601e-03
7.199551663188250927e+01 8.727206508075777136e-03
7.411303182693788472e+01 4.321280014709182049e-03
7.623054702199326016e+01 5.342213752269430946e-03
7.834806221704862139e+01 1.034987896848418333e-02
8.046557741210398262e+01 3.935664777424071909e-04
8.258309260715935807e+01 5.215720897752440174e-03
8.470060780221471930e+01 6.108504998650337182e-04
8.681812299727009474e+01 3.636876250579383673e-04
8.893563819232545598e+01 2.276372597470867516e-03
9.105315338738081721e+01 1.930013125408954660e-03
9.317066858243619265e+01 3.361729564540724864e-03
9.528818377749155388e+01 5.677918919537647963e-03
9.740569897254691512e+01 5.429719865565441755e-03
9.952321416760230477e+01 5.418331609967257448e-04
1.016407293626576660e+02 6.235430475367708877e-03
1.037582445577130414e+02 2.038308464018147434e-04
1.058757597527684027e+02 2.278623479265789835e-03
1.079932749478237639e+02 6.614129735653532724e-03
1.101107901428791536e+02 1.228192668322306176e-02
1.122283053379345148e+02 4.204006658249082561e-04
1.143458205329898760e+02 3.771715289383887216e-03
1.164633357280452373e+02 8.280504536448808281e-03
1.185808509231005985e+02 4.766284862532426531e-03
1.206983661181559881e+02 3.936625921617657210e-03
1.228158813132113494e+02 5.380829700585794406e-03
1.249333965082667106e+02 3.680721713520095952e-03
1.270509117033220718e+02 4.309846455931870372e-03
1.291684268983774473e+02 6.785903495423826343e-05
1.312859420934328227e+02 1.061179656577001043e-02
1.334034572884881982e+02 9.147243066844239559e-03
1.355209724835435452e+02 2.411309053674467583e-03
1.376384876785989206e+02 2.946127049302506729e-03
1.397560028736542677e+02 5.231571635949671143e-04
1.418735180687096715e+02 3.564016565432449705e-03
1.439910332637650185e+02 4.606119704862722541e-03
1.461085484588203940e+02 3.523981787813049420e-04
1.482260636538757694e+02 1.082186017504392812e-02
1.503435788489311165e+02 4.755317757201007849e-03
1.524610940439865203e+02 1.262973114079711740e-04
1.545786092390418673e+02 4.070464598434463642e-03
1.566961244340972428e+02 6.109068798705811175e-03
1.588136396291525898e+02 1.160097526765753104e-03
1.609311548242079652e+02 1.009375386835483640e-03
1.630486700192633407e+02 1.319099894158140118e-03
1.651661852143187161e+02 5.652294853229712993e-03
1.672837004093740632e+02 2.861432910752375117e-03
1.694012156044294386e+02 1.896069803637993835e-03
1.715187307994848140e+02 7.727312528615084500e-04
1.736362459945401895e+02 1.968982829969712078e-03
1.757537611895955365e+02 1.820011501813899530e-03
1.778712763846509120e+02 4.774081108568775829e-03
1.799887915797062874e+02 2.379813459574824097e-03
1.821063067747616344e+02 1.726481520672029342e-03
1.842238219698170383e+02 6.456990431824083561e-03
1.863413371648723853e+02 4.708747047166022062e-03
1.884588523599277607e+02 3.123969311861775431e-03
1.905763675549831078e+02 1.494296272164866808e-03
1.926938827500384832e+02 2.776231196458764719e-03
1.948113979450938302e+02 1.036001617615739953e-04
1.969289131401492057e+02 7.154167451542148629e-03
1.990464283352046095e+02 1.195279414635665258e-03
2.011639435302599850e+02 6.989793186529001667e-03
2.032814587253153320e+02 1.312843480179807024e-02
2.053989739203707074e+02 5.742210739902118936e-03
2.075164891154260829e+02 5.461134552436917693e-03
2.096340043104814299e+02 2.954095302442288559e-03
2.117515195055368054e+02 1.720676411595832697e-03
2.138690347005921524e+02 3.963718370182361082e-03
2.159865498956475278e+02 3.614551451569556189e-03
2.181040650907028748e+02 1.391681639459739798e-03
2.202215802857583071e+02 6.153371146284057278e-03
2.223390954808136541e+02 3.559643003995359520e-03
2.244566106758690296e+02 9.359082278661845240e-04
2.265741258709243766e+02 2.269687256812676860e-03
2.286916410659797521e+02 5.274764791115792162e-03
2.308091562610350991e+02 3.543173705356270943e-03
2.329266714560904745e+02 4.425161672229203230e-03
2.350441866511458500e+02 8.986808165453784129e-04
2.371617018462011970e+02 5.571294686857542269e-04
2.392792170412565724e+02 2.619306557277521937e-03
2.413967322363119763e+02 6.633087218038875334e-03
2.435142474313673233e+02 8.826356796342447325e-03
2.456317626264226988e+02 7.947510587820298157e-04
2.477492778214780742e+02 1.276940468144965000e-02
2.498667930165334212e+02 2.033688199511541912e-03
2.519843082115887967e+02 4.144781431978748071e-04
2.541018234066441437e+02 6.402775652232337890e-03
2.562193386016995191e+02 3.993830971549650055e-03
2.583368537967548946e+02 4.323665756042570536e-03
2.604543689918102700e+02 1.052232394256718368e-03
2.625718841868656455e+02 2.042657960285175402e-03
